[
  {
    "question": "The minimum age defined by local law:",
    "question_zhcn": "当地法律要求的最低工作年龄",
    "grid": "hrp_assessment",
    "respondant": "supplier",
    "component": "input",
    "prep_for": "1.1"
  },

  {
    "question": "The minimum age defined by local law:",
    "question_zhcn": "当地法律要求的最低工作年龄",
    "grid": "hrp_assessment",
    "respondant": "supplier",
    "component": "input",
    "prep_for": "1.1"
  },
  {
    "question": "Age and date of birth of the youngest worker:",
    "question_zhcn": "最小工人的年纪和出生日期",
    "grid": "hrp_assessment",
    "respondant": "supplier",
    "component": "input",
    "prep_for": "1.1"
  },
  {
    "question": "The number of children living in supplier site owned and/or provided by the supplier",
    "question_zhcn": "住在工厂或宿舍的儿童的数量（如果工厂提供宿舍）",
    "grid": "hrp_assessment",
    "respondant": "supplier",
    "component": "input",
    "prep_for": "1.1"
  },
  {
    "question": "Are there young workers (under the age of 18)? If yes, how many?",
    "question_zhcn": "是否有青年工（小于18岁）？如果有，有多少名？",
    "grid": "hrp_assessment",
    "respondant": "supplier",
    "component": "input",
    "prep_for": "1.1"
  },
  {
    "question": "Legal requirements on working conditions for young workers:",
    "question_zhcn": "青年工工作环境的法律要求",
    "grid": "hrp_assessment",
    "respondant": "supplier",
    "component": "input",
    "prep_for": "1.1"
  },
  {
    "question": "Number of migrant workers:\n1. From what country? \n2. Male/Female ratio",
    "question_zhcn": "外籍员工数量\n1. 外籍员工国籍\n2. 员工男女比例",
    "grid": "hrp_assessment",
    "respondant": "supplier",
    "component": "input",
    "prep_for": "1.2"
  },
  {
    "question": "Migrants : Any person who is recruited by a 3rd party in one country/province for employment in a company in another country/province. The scope of this definition is applicable to both foreign and inter-state/province (local) migrants.",
    "question_zhcn": "外籍员工定义指的是任何由第三方招聘的来自其他国家或者省份的员工。适用于其他国籍或者其他籍贯。",
    "grid": "hrp_assessment",
    "respondant": "supplier",
    "component": "input",
    "prep_for": "1.2"
  },
  {
    "question": "% of migrant workers:\n1. Under supplier  contract\n2. Under external contract",
    "question_zhcn": "外籍员工比例\n1. 占供应商比例\n2. 占外部第三方比例",
    "grid": "hrp_assessment",
    "respondant": "supplier",
    "component": "input",
    "prep_for": "1.2"
  },
  {
    "question": "If there are migrant workers under external contract, what are the names of the contracted brokers or recruitment agencies used?",
    "question_zhcn": "外部第三方（劳动中介/招聘机构）名称",
    "grid": "hrp_assessment",
    "respondant": "supplier",
    "component": "input",
    "prep_for": "1.2"
  },
  {
    "question": "Languages spoken by migrant workers",
    "question_zhcn": "外籍员工使用语言",
    "grid": "hrp_assessment",
    "respondant": "supplier",
    "component": "input",
    "prep_for": "1.2"
  },
  {
    "question": "Who pays the recruitment fees?",
    "question_zhcn": "谁支付招聘费用",
    "grid": "hrp_assessment",
    "respondant": "supplier",
    "component": "input",
    "prep_for": "1.2"
  },


  {
    "question": "Are there any organizations of worker representatives (trade union or free association)?",
    "question_zhcn": "是否有工人代表组织（工会或自由组织）？",
    "grid": "hrp_assessment",
    "respondant": "supplier",
    "component": "input",
    "prep_for": "1.3"
  },
  {
    "question": "Which organization(s)?",
    "question_zhcn": "哪一个组织？",
    "grid": "hrp_assessment",
    "respondant": "supplier",
    "component": "input",
    "prep_for": "1.3"
  },
  {
    "question": "What is the job content of the representatives?",
    "question_zhcn": "工人代表的工作内容是什么？",
    "grid": "hrp_assessment",
    "respondant": "supplier",
    "component": "input",
    "prep_for": "1.3"
  },
  {
    "question": "Date of last representatives election:",
    "question_zhcn": "最近一次的代表选举时间",
    "grid": "hrp_assessment",
    "respondant": "supplier",
    "component": "input",
    "prep_for": "1.3"
  },
  {
    "question": "Are employees subject to a collective bargaining agreement?",
    "question_zhcn": "员工是否遵守集体谈判协议？",
    "grid": "hrp_assessment",
    "respondant": "supplier",
    "component": "input",
    "prep_for": "1.3"
  },
  {
    "question": "Does the facility had any public labour dispute in the last 2 years (e.g.: strike, demonstration...)?",
    "question_zhcn": "过去两年，供应商是否有劳工纠纷（例如：罢工，示威...）？",
    "grid": "hrp_assessment",
    "respondant": "supplier",
    "component": "input",
    "prep_for": "1.3"
  },
  {
    "question": "What is the role of worker/union representative provided by the local regulation?",
    "question_zhcn": "当地法规定义的工人代表的角色是什么？",
    "grid": "hrp_assessment",
    "respondant": "supplier",
    "component": "input",
    "prep_for": "1.3"
  },
  {
    "question": "What are the requirements regarding worker/union representative elections stipulated by local regulation?",
    "question_zhcn": "关于工人代表选举，当地法规约定的要求是什么？ ",
    "grid": "hrp_assessment",
    "respondant": "supplier",
    "component": "input",
    "prep_for": "1.3"
  },
  {
    "question": "What are the local legal authorizations needed?",
    "question_zhcn": "当地法律要求的许可证书有哪些？",
    "grid": "hrp_assessment",
    "respondant": "supplier",
    "component": "input",
    "prep_for": "2.1"
  },
  {
    "question": "How many buildings are there in the supplier site?",
    "question_zhcn": "厂区有多少幢建筑？",
    "grid": "hrp_assessment",
    "respondant": "supplier",
    "component": "input",
    "prep_for": "2.1"
  },
  {
    "question": "Do all the buildings belong to our supplier?",
    "question_zhcn": "所有的建筑都是属于供应商的吗？",
    "grid": "hrp_assessment",
    "respondant": "supplier",
    "component": "input",
    "prep_for": "2.1"
  },
  {
    "question": "Does the supplier site  has specific safety/ security/ environmental certifications?",
    "question_zhcn": "工厂有安全/安防/环境认证么?",
    "grid": "hrp_assessment",
    "respondant": "supplier",
    "component": "input",
    "prep_for": "2.1"
  },
  {
    "question": "List all the equipments on-site concerned by local regulation and requiring certification (ex: forklift, boiler, pressurize tanks...)?",
    "question_zhcn": "列出受当地法规约束并需要认证的所有特种设备（例如：叉车，锅炉，压力容器...）？",
    "grid": "hrp_assessment",
    "respondant": "supplier",
    "component": "input",
    "prep_for": "2.1"
  },
  {
    "question": "Number of pregnant / in maternity leave / breastfeeding workers:",
    "question_zhcn": "怀孕员工/产假员工/哺乳期员工数量",
    "grid": "hrp_assessment",
    "respondant": "supplier",
    "component": "input",
    "prep_for": "2.2"
  },
  {
    "question": "Risk assessment/management report for the supplier site",
    "question_zhcn": "工厂的风险评估/管理报告",
    "grid": "hrp_assessment",
    "respondant": "supplier",
    "component": "input",
    "prep_for": "2.2"
  },
  {
    "question": "Is the inventory of all the chemicals used in the supplier site available (Excluding SDS for office materials e.g. white glue, unless required by law.) ?",
    "question_zhcn": "工厂使用的化学品是否有更新且有效的化学品清单？ (办公室用品 (如:白胶)除外, 有法律要求的除外)",
    "grid": "hrp_assessment",
    "respondant": "supplier",
    "component": "input",
    "prep_for": "2.3"
  },
  {
    "question": "Are all the Safety Data Sheets (SDS) available? (Excluding SDS for office materials e.g. white glue, unless required by law.)",
    "question_zhcn": "所有的化学品是否都有安全资料表SDS (办公室用品 (如:白胶)除外, 有法律要求的除外)",
    "grid": "hrp_assessment",
    "respondant": "supplier",
    "component": "input",
    "prep_for": "2.3"
  },
  {
    "question": "Based on SDS, are there Toxic and/or CMR chemical products used in the supplier site according to the chemical screening tool?\n If so, write down the different CAS# numbers:",
    "question_zhcn": "根据SDS, 工厂是否有使用剧毒和/或致癌/致畸/致生殖毒性的化学品?\n如果有: 请写下对应的CAS号.",
    "grid": "hrp_assessment",
    "respondant": "supplier",
    "component": "input",
    "prep_for": "2.3"
  },
  {
    "question": "Is an internal air quality report for areas where chemicals are used available?",
    "question_zhcn": "是否有化学品使用区域的内部空气质量检测报告?",
    "grid": "hrp_assessment",
    "respondant": "supplier",
    "component": "input",
    "prep_for": "2.3"
  },
  {
    "question": "Is the supplier site  located in a shared building?\n If so, what are the other activities of each floor?",
    "question_zhcn": "供应商地点是否位于共用建筑物中？\n如果是这样，每层的其他活动是什么？",
    "grid": "hrp_assessment",
    "respondant": "supplier",
    "component": "input",
    "prep_for": "2.4"
  },
  {
    "question": "Precise for each floor the number of people + number of exits needed (according to law) and what is currently existing:",
    "question_zhcn": "每层楼的员工数量和每层楼需要的安全出口数量（根据法律）和每层楼现有安全出口数量",
    "grid": "hrp_assessment",
    "respondant": "supplier",
    "component": "input",
    "prep_for": "2.4"
  },
  {
    "question": "Describe the alarm system and how it is working:",
    "question_zhcn": "描述警铃系统如何工作",
    "grid": "hrp_assessment",
    "respondant": "supplier",
    "component": "input",
    "prep_for": "2.4"
  },
  {
    "question": "Are there dormitories?",
    "question_zhcn": "是否有宿舍？",
    "grid": "hrp_assessment",
    "respondant": "supplier",
    "component": "input",
    "prep_for": "2.5"
  },
  {
    "question": "If so, are they owned or managed by the facility management?",
    "question_zhcn": "如果有，宿舍是工厂自有或者是只由工厂管理？",
    "grid": "hrp_assessment",
    "respondant": "supplier",
    "component": "input",
    "prep_for": "2.5"
  },
  {
    "question": "Are they attached to, or inside the facility premises?",
    "question_zhcn": "宿舍是否是靠近或在工厂建筑范围之内？",
    "grid": "hrp_assessment",
    "respondant": "supplier",
    "component": "input",
    "prep_for": "2.5"
  },
  {
    "question": "If the dormitory/off-site housing is not owned by the supplier, do the majority of occupants work for the supplier site ?",
    "question_zhcn": "如果宿舍/厂外住房非供应商所有，大多数住宿人员是否都在该供应商工厂工作？",
    "grid": "hrp_assessment",
    "respondant": "supplier",
    "component": "input",
    "prep_for": "2.5"
  },
  {
    "question": "How many employees are reported to occupy the dormitory?",
    "question_zhcn": "多少名员工住在宿舍里？",
    "grid": "hrp_assessment",
    "respondant": "supplier",
    "component": "input",
    "prep_for": "2.5"
  },
  {
    "question": "How many employees occupy each room / sleeping area of the dormitory?",
    "question_zhcn": "每间宿舍房间或睡觉的地方有多少名员工？",
    "grid": "hrp_assessment",
    "respondant": "supplier",
    "component": "input",
    "prep_for": "2.5"
  },
  {
    "question": "Does the facility provide transportation to the workers? Describe how employees come to work.",
    "question_zhcn": "工厂是否为员工提供交通班车？描述员工如何来上班",
    "grid": "hrp_assessment",
    "respondant": "supplier",
    "component": "input",
    "prep_for": "2.5"
  },
  {
    "question": "Is there a food preparation area or a canteen?",
    "question_zhcn": "是否有食物准备区或食堂？",
    "grid": "hrp_assessment",
    "respondant": "supplier",
    "component": "input",
    "prep_for": "2.5"
  },
  {
    "question": "In the last 12 months within this assessment period, did the facility experience exceptional circumstances (e.g. customer charge) that resulted in significant changes to its production schedule?",
    "question_zhcn": "在本次审核之前的12个月内，工厂是否经历了导致其生产计划发生重大变化的特殊情况（如客户收费）？",
    "grid": "hrp_assessment",
    "respondant": "supplier",
    "component": "input",
    "prep_for": "3.1"
  },
  {
    "question": "Does supplier use third party to control some of HR work?",
    "question_zhcn": "供应商是否有委托第三方机构来负责一部分人力资源的工作？",
    "grid": "hrp_assessment",
    "respondant": "supplier",
    "component": "input",
    "prep_for": "3.1"
  },
  {
    "question": "In case working hours and wages are managed by an external accountant, the supplier should make available the necessary records (past 12 months) during the day of the assessment ",
    "question_zhcn": "如果供应商的工时和工资委托给了第三方机构进行管理，供应商应在评估之日提供必要的记录（过去12个月） 。",
    "grid": "hrp_assessment",
    "respondant": "supplier",
    "component": "input",
    "prep_for": "3.1"
  },
  {
    "question": "The maximum weekly working hours in the last 12 months:",
    "question_zhcn": "过去12个月每周最长工作时间：",
    "grid": "hrp_assessment",
    "respondant": "supplier",
    "component": "input",
    "prep_for": "3.1"
  },
  {
    "question": "The maximum daily overtime working hours in last 12 months:",
    "question_zhcn": "过去12个月每天最长加班时间：",
    "grid": "hrp_assessment",
    "respondant": "supplier",
    "component": "input",
    "prep_for": "3.1"
  },
  {
    "question": "The average weekly working hours in peak season:",
    "question_zhcn": "旺季时每周平均工作时间：",
    "grid": "hrp_assessment",
    "respondant": "supplier",
    "component": "input",
    "prep_for": "3.1"
  },
  {
    "question": "Working hours organisation: 1, 2 or 3 shifts? (Precise the regular hours)",
    "question_zhcn": "工时制度：一班制，两班制或三班制 （描述每班的精准时间）",
    "grid": "hrp_assessment",
    "respondant": "supplier",
    "component": "input",
    "prep_for": "3.1"
  },
  {
    "question": "Number of breaks and duration:",
    "question_zhcn": "休息的次数和时长：",
    "grid": "hrp_assessment",
    "respondant": "supplier",
    "component": "input",
    "prep_for": "3.1"
  },
  {
    "question": "Regular working hours permitted by law (by day, week, month, other):",
    "question_zhcn": "法律规定的工作时长（每天，每周，每月，其它）",
    "grid": "hrp_assessment",
    "respondant": "supplier",
    "component": "input",
    "prep_for": "3.1"
  },
  {
    "question": "Amount of over time permitted by law (by day, week, month, other):",
    "question_zhcn": "法律允许的加班时长（每天，每周，每月，其它）",
    "grid": "hrp_assessment",
    "respondant": "supplier",
    "component": "input",
    "prep_for": "3.1"
  },
  {
    "question": "Minimum legal wage for regular working hours:",
    "question_zhcn": "法规规定最低时薪",
    "grid": "hrp_assessment",
    "respondant": "supplier",
    "component": "input",
    "prep_for": "3.2"
  },
  {
    "question": "Minimum wage paid for workers in the supplier site:",
    "question_zhcn": "工厂支付给员工的最低工资",
    "grid": "hrp_assessment",
    "respondant": "supplier",
    "component": "input",
    "prep_for": "3.2"
  },
  {
    "question": "Legal rate for overtime:",
    "question_zhcn": "法规规定加班的比例",
    "grid": "hrp_assessment",
    "respondant": "supplier",
    "component": "input",
    "prep_for": "3.2"
  },
  {
    "question": "What types of benefits and insurance do employees receive ?",
    "question_zhcn": "员工拥有什么福利和保险？",
    "grid": "hrp_assessment",
    "respondant": "supplier",
    "component": "input",
    "prep_for": "3.2"
  },
  {
    "question": "Are the wages time based and/or piece based? Explain each system.",
    "question_zhcn": "工资是计时还是计件计算？解释计算方法",
    "grid": "hrp_assessment",
    "respondant": "supplier",
    "component": "input",
    "prep_for": "3.2"
  },
  {
    "question": "Number of men / women employed by the supplier :",
    "question_zhcn": "男/女员工的数量",
    "grid": "hrp_assessment",
    "respondant": "supplier",
    "component": "input",
    "prep_for": "3.3"
  },
  {
    "question": "Number of short term / temporary contract :",
    "question_zhcn": "短期/临时工的数量",
    "grid": "hrp_assessment",
    "respondant": "supplier",
    "component": "input",
    "prep_for": "3.3"
  },
  {
    "question": "How many people working at the supplier's site are employed by an external company (precise the number and their role)?",
    "question_zhcn": "在供应商场所工作的员工有多少是由外部公司招聘的？（请指出数量和工作角色）",
    "grid": "hrp_assessment",
    "respondant": "supplier",
    "component": "input",
    "prep_for": "3.3"
  },
  {
    "question": "Does the site have a certified social management system in place? If yes, how was certification achieved?",
    "question_zhcn": "社会管理系统是否有认证?\n如果是，认证是如何获得的?",
    "grid": "hrp_assessment",
    "respondant": "supplier",
    "component": "input",
    "prep_for": "3.4"
  },
  {
    "question": "Main members of HRP management and roles ( name, title, job description, email)",
    "question_zhcn": "HRP主要管理成员信息，姓名，职位，工作内容描述，邮箱",
    "grid": "hrp_assessment",
    "respondant": "supplier",
    "component": "input",
    "prep_for": "3.4"
  },
  {
    "question": "Name of HRP responsible in the supplier site",
    "question_zhcn": "HRP负责人姓名",
    "grid": "hrp_assessment",
    "respondant": "supplier",
    "component": "input",
    "prep_for": "3.4"
  },
  {
    "question": "QPL and/or assessor meet(s) with SPL to analyze peak season and identify orders out of forecast and elasticity.",
    "question_zhcn": "QPL和审核员跟SPL一起去分析旺季超出预期的和弹性的订单。",
    "grid": "hrp_assessment",
    "respondant": "supplier",
    "component": "input",
    "prep_for": "3.4"
  },
  {
    "question": "Are all previous CAP's closed? ",
    "grid": "hrp_assessment",
    "component": "radio",
    "required": "true"
  },
  {
    "question": "Is it possible to observe a fire drill, with the alarm on backup battery and full evacuation during the day of the assessment?",
    "grid": "hrp_assessment",
    "component": "radio",
    "required": "true"
  },
  {
    "question": "Can the assessor access to working hours report, payroll and staff file during the day of the assessment?",
    "grid": "hrp_assessment",
    "component": "radio",
    "required": "true"
  },
  {
    "question": "Can the assessor conduct individual and confidential interviews with workers during the day of the assessment?",
    "grid": "hrp_assessment",
    "component": "radio",
    "required": "true"
  },
  {
    "question": "Factory map is uploaded or sent to the assessor",
    "grid": "hrp_assessment",
    "component": "radio",
    "require_attachment": true
  },
  {
    "question": "The process flow chart is uploaded or sent to the assessor ",
    "grid": "hrp_assessment",
    "component": "radio",
    "require_attachment": true
  },
  {
    "question": "The risk analysis of the factory is uploaded or sent to the assessor",
    "grid": "hrp_assessment",
    "component": "radio",
    "require_attachment": true
  },
  {
    "question": "The organizational chart is uploaded or sent to the assessor",
    "grid": "hrp_assessment",
    "component": "radio",
    "require_attachment": true
  },
  {
    "question": "Previous assessment report and CAP are uploaded or sent to the assessor",
    "grid": "hrp_assessment",
    "component": "radio",
    "require_attachment": true
  },
  {
    "question": "List of chemicals is uploaded or sent to the assessor",
    "grid": "hrp_assessment",
    "component": "radio",
    "require_attachment": true
  },
  {
    "question": "Planning of the assessment was sent from the assessor and communicated to the supplier.",
    "grid": "hrp_assessment",
    "component": "radio"
  }
]
























