parent_tag,ref_model,guideline_tag,section_type,section_no,section_name,title_it,content_it,active,note_header_it,note_bullets
,hrp_assessment,HRPCH1,Chapter,1,1,Basic Responsibilities,,TRUE,,
HRPCH1,hrp_assessment,HRPCH1S1,Section,1,1.1,LAVORO MINORILE,,TRUE,,
HRPCH1S1,hrp_assessment,HRPCH1S1L1,Level,1,E,Level E,,TRUE,,
HRPCH1S1L1,hrp_assessment,HRPCH1S1L1-1,Point,1,E-1,E-1,L'età delle persone che lavorno per il fornitore è per tutte sopra il minimo di legge o sopra 15 anni?,TRUE,,
HRPCH1S1L1,hrp_assessment,HRPCH1S1L1-2,Point,2,E-2,E-2,L'azienda dispone di aree adeguate e di elenchi chiari per i bambini che soggiornano presso le strutture del fornitore?,TRUE,,
HRPCH1S1,hrp_assessment,HRPCH1S1L2,Level,2,D,Level D,,TRUE,,
HRPCH1S1L2,hrp_assessment,HRPCH1S1L2-1,Point,1,D-1,D-1,Il fornitore ha la prova dell'età dei sui dipendenti? ( es. Mostrando i documenti ufficiali),TRUE,,
HRPCH1S1L2,hrp_assessment,HRPCH1S1L2-2,Point,2,D-2,D-2,Nel passato c'è stato lavoro minorile? ( es. Lavoratori più giovani dell'età minima assunti negli ultimi  6 mesi),TRUE,,
HRPCH1S1L2,hrp_assessment,HRPCH1S1L2-3,Point,3,D-3,D-3,I lavoratori giovani ( età compresa fra il minimo di legge e i 18 anni) hanno uno status di protezione nel rispetto al minimo della regolamentazione locale?,TRUE,,
HRPCH1S1,hrp_assessment,HRPCH1S1L3,Level,3,C,Level C,,TRUE,,
HRPCH1S1L3,hrp_assessment,HRPCH1S1L3-1,Point,1,C-1,C-1,"Il fornitore ha una procedura formalizzata per garantire l'individuazione, la prevenzione e il rimedio del lavoro minorile e il benessere dei giovani lavoratori?
La procedura è comunicata e compresa dalle persone in loco (HR, agenti di sicurezza, manager di linea, ecc.)?",TRUE,,
HRPCH1S1,hrp_assessment,HRPCH1S1L4,Level,4,B,Level B,,TRUE,,
HRPCH1S1L4,hrp_assessment,HRPCH1S1L4-1,Point,1,B-1,B-1,Il fornitore ha implementato un programma per promuovere l'istruzione formale di alcuni dei figli dei suoi dipendenti?,TRUE,,
HRPCH1S1L4,hrp_assessment,HRPCH1S1L4-2,Point,2,B-2,B-2,Il fornitore promuove pratiche di sviluppo per i giovani lavoratori come le lezioni serali gratuite?,TRUE,,
HRPCH1S1L4,hrp_assessment,HRPCH1S1L4-3,Point,3,B-3,B-3,Altre best practice messe in pratica:,TRUE,,
HRPCH1,hrp_assessment,HRPCH1S2,Section,2,1.2,LAVORO Forzato,,TRUE,,
HRPCH1S2,hrp_assessment,HRPCH1S2L1,Level,1,E,Level E,,TRUE,,
HRPCH1S2L1,hrp_assessment,HRPCH1S2L1-1,Point,1,E-1,E-1,C'è qualche prova che il fornitore subappalti della produzione Decathlon ad una prigione?,TRUE,,
HRPCH1S2L1,hrp_assessment,HRPCH1S2L1-2,Point,2,E-2,E-2,"C'è un qualsiasi documento ufficiale originale di identificazione (ad es .: passaporto, permesso di lavoro ...) trattenuto dal sito del fornitore o dall'intermediario del lavoro esterno / agenzia di collocamento al di là di una durata ragionevolmente prevedibile?
",TRUE,,
HRPCH1S2,hrp_assessment,HRPCH1S2L2,Level,2,D,Level D,,TRUE,,
HRPCH1S2L2,hrp_assessment,HRPCH1S2L2-1,Point,1,D-1,D-1,"Se il fornitore utilizza qualsiasi tipo di agenzia di reclutamento, tale agenzia / mediatore è in possesso delle autorizzazioni legali per operare? ",TRUE,,
HRPCH1S2L2,hrp_assessment,HRPCH1S2L2-2,Point,2,D-2,D-2,I dipendenti sono tenuti a lasciare un deposito di garanzia al loro datore di lavoro o a qualsiasi altra terza parte?,TRUE,,
HRPCH1S2L2,hrp_assessment,HRPCH1S2L2-3,Point,3,D-3,D-3,"Se c'è qualche lavoratore migrante,tutte le commissioni e le spese sono chiaramente comunicate in una lingua che il lavoratore comprende? La comunicazione è fatta all'inizio del processo di reclutamento prima della partenza dal loro paese?",TRUE,,
HRPCH1S2L2,hrp_assessment,HRPCH1S2L2-4,Point,4,D-4,D-4,"Le tasse, le commissioni e gli accantonamenti richiesti ai lavoratori nazionali e internazionali migranti rispettano le normative vigenti (paese ospitante e paese di origine)?",TRUE,,
HRPCH1S2L2,hrp_assessment,HRPCH1S2L2-5,Point,5,D-5,D-5,Lo straordinario è volontario?,TRUE,,
HRPCH1S2L2,hrp_assessment,HRPCH1S2L2-6,Point,6,D-6,D-6,"Ai dipendenti è garantita la libertà di movimento durante l'orario di lavoro (ad es .: accesso gratuito a servizi igienici, acqua potabile)?",TRUE,,
HRPCH1S2L2,hrp_assessment,HRPCH1S2L2-7,Point,7,D-7,D-7,"Ai dipendenti è garantita la libertà di movimento e di interazione sociale durante le ore non lavorative (incluse le pause), anche nel dormitorio se messo a disposizione dal fornitore?",TRUE,,
HRPCH1S2L2,hrp_assessment,HRPCH1S2L2-8,Point,8,D-8,D-8,Esiste un sistema implementato che potrebbe portare i dipendenti a lavorare contro la loro spontanea volontà?,TRUE,,
HRPCH1S2,hrp_assessment,HRPCH1S2L3,Level,3,C,Level C,,TRUE,,
HRPCH1S2L3,hrp_assessment,HRPCH1S2L3-1,Point,1,C-1,C-1,Il sito fornitore dispone di una politica di assunzione / procedura etica con chiara lista di controllo riguardo ruoli e responsabilità per mitigare il rischio di lavoro forzato quando si usano intermediari per assumere manodopera? ,TRUE,,
HRPCH1S2L3,hrp_assessment,HRPCH1S2L3-2,Point,2,C-2,C-2,Il fornitore ha un contratto legale con i suoi agenti di lavoro / broker?,TRUE,,
HRPCH1S2L3,hrp_assessment,HRPCH1S2L3-3,Point,3,C-3,C-3,Il fornitore ha fatto un Mappatura del rischio della sua catena di offerta del lavoro?,TRUE,,
HRPCH1S2L3,hrp_assessment,HRPCH1S2L3-4,Point,4,C-4,C-4,"Il fornitore conduce una analisi approfondita (due diligence) della sua catena di fornitura di lavoro, tra cui mediatori di manodopera e / o agenzie in paesi stranieri?",TRUE,,
HRPCH1S2L3,hrp_assessment,HRPCH1S2L3-5,Point,5,C-5,C-5,"Prima della partenza dal Paese/provincia di origine,  i lavoratori migranti ricevono e firmano il loro contratto che preveda con chiarezza le condizioni di lavoro nella loro lingua locale?",TRUE,,
HRPCH1S2L3,hrp_assessment,HRPCH1S2L3-6,Point,6,C-6,C-6,"Se viene fatta l'assunzione di lavoratori migranti,  il fornitore paga tutte le tasse legalmente connesse al contratto (per esempio, i visti, il trasporto al paese / provincia, il rimpatrio, spese mediche e di trasferimento)?",TRUE,,
HRPCH1S2L3,hrp_assessment,HRPCH1S2L3-7,Point,7,C-7,C-7,I lavoratori migranti ricevono orientamento prima della partenza?,TRUE,,
HRPCH1S2L3,hrp_assessment,HRPCH1S2L3-8,Point,8,C-8,C-8,Fare i lavoratori migranti ricevono post-arrivo orientamento / di induzione e di sostegno?,TRUE,,
HRPCH1S2L3,hrp_assessment,HRPCH1S2L3-9,Point,9,C-9,C-9,"In caso di cessazione del rapporto con un lavoratore migrante, il fornitore garantisce il ritorno sicuro del lavoratore al suo paese d'origine / provincia?",TRUE,,
HRPCH1S2L3,hrp_assessment,HRPCH1S2L3-10,Point,10,C-10,C-10,"In caso di cessazione del rapporto con un lavoratore migrante,  il fornitore paga tutti i soldi che sono dovuti al lavoratore?",TRUE,,
HRPCH1S2L3,hrp_assessment,HRPCH1S2L3-11,Point,11,C-11,C-11,Il fornitore informa i suoi fornitori di rango 2  dei rischi del lavoro forzato?,TRUE,,
HRPCH1S2,hrp_assessment,HRPCH1S2L4,Level,4,B,Level B,,TRUE,,
HRPCH1S2L4,hrp_assessment,HRPCH1S2L4-1,Point,1,B-1,B-1,Il fornitore ha stabilito un processo di reclutamento diretto dei lavoratori migranti (non utilizzando nessuna agenzia)?,TRUE,,
HRPCH1S2L4,hrp_assessment,HRPCH1S2L4-2,Point,2,B-2,B-2,Il fornitore comunica e riferisce pubbicamente la sua politica di reclutamento etico?,TRUE,,
HRPCH1S2L4,hrp_assessment,HRPCH1S2L4-3,Point,3,B-3,B-3,Altro Best Practice effettuata:,TRUE,,
HRPCH1,hrp_assessment,HRPCH1S3,Section,3,1.3,LIBERTA 'DI ASSOCIAZIONE,,TRUE,,
HRPCH1S3,hrp_assessment,HRPCH1S3L1,Level,1,E,Level E,,TRUE,,
HRPCH1S3,hrp_assessment,HRPCH1S3L2,Level,2,D,Level D,,TRUE,,
HRPCH1S3L2,hrp_assessment,HRPCH1S3L2-1,Point,1,D-1,D-1,"Tutti i lavoratori, indipendentemente dal loro status contrattuale, sono liberi di unirsi a un gruppo rappresentante sindacale  a loro scelta?",TRUE,,
HRPCH1S3L2,hrp_assessment,HRPCH1S3L2-2,Point,2,D-2,D-2,"Se non c'è unione, c'è un sistema di rappresentanza dei lavoratori alternativa a disposizione dei lavoratori, che permette l' associazione e la contrattazione indipendente e libera indipendentemente dallo stato contrattuale?",TRUE,,
HRPCH1S3L2,hrp_assessment,HRPCH1S3L2-3,Point,3,D-3,D-3,Ci sono rappresentanti dei lavoratori e questi sono consapevoli e in grado di eseguire i loro ruoli e responsabilità (es:tempo sufficiente assegnato dalle HR)?,TRUE,,
HRPCH1S3L2,hrp_assessment,HRPCH1S3L2-4,Point,4,D-4,D-4,"Per le organizzazioni interne (unione interna o libera associazione),  i rappresentanti sono stati eletti senza interferenze da parte della società e secondo la legislazione locale?",TRUE,,
HRPCH1S3L2,hrp_assessment,HRPCH1S3L2-5,Point,5,D-5,D-5,Ci sono incontri regolari tra i rappresentanti dei lavoratori e i managers (la frequenza rispetta il minimo previsto dalla legislazione locale)?,TRUE,,
HRPCH1S3,hrp_assessment,HRPCH1S3L3,Level,3,C,Level C,,TRUE,,
HRPCH1S3L3,hrp_assessment,HRPCH1S3L3-1,Point,1,C-1,C-1,I verbali delle riunioni vengono comunicati a tutti i dipendenti e alle autorità governative?,TRUE,,
HRPCH1S3L3,hrp_assessment,HRPCH1S3L3-2,Point,2,C-2,C-2,"Il fornitore dispone di un efficace processo / procedura con cui i dipendenti possono sollevare lamentele?
Il processo è comunicato e compreso dalle persone in loco (HR, agenti di sicurezza, responsabili di linea, ecc ..)?
",TRUE,,
HRPCH1S3L3,hrp_assessment,HRPCH1S3L3-3,Point,3,C-3,C-3,Le lamentele vengono trattate ed è il risultato viene comunicato a tutti i lavoratori (se non sensibili o riservate)?,TRUE,,
HRPCH1S3L3,hrp_assessment,HRPCH1S3L3-4,Point,4,C-4,C-4,"Il fornitore conduce regolari indagini sulla soddisfazione della squadra, analizza i risultati (ad esempio risposte, tasso di risposta, la ripetizione delle lamentel) e definisce azioni di miglioramento?

",TRUE,,
HRPCH1S3,hrp_assessment,HRPCH1S3L4,Level,4,B,Level B,,TRUE,,
HRPCH1S3L4,hrp_assessment,HRPCH1S3L4-1,Point,1,B-1,B-1,Altro Best Practice effettuata:,TRUE,,
,hrp_assessment,HRPCH2,Chapter,2,2,Health & Safety,,TRUE,,
HRPCH2,hrp_assessment,HRPCH2S1,Section,1,2.1,H & S - AUTORIZZAZIONI LEGALI E CONTROLLI PERIODICI,,TRUE,,
HRPCH2S1,hrp_assessment,HRPCH2S1L1,Level,1,E,Level E,,TRUE,,
HRPCH2S1,hrp_assessment,HRPCH2S1L2,Level,2,D,Level D,,TRUE,,
HRPCH2S1L2,hrp_assessment,HRPCH2S1L2-1,Point,1,D-1,D-1,"L'azienda dispone delle autorizzazioni operative locali richieste, incluse la licenza commerciale,la sicurezza antincendio e i documenti aggiornati sulla conformità della struttura dell'edificio?",TRUE,,
HRPCH2S1L2,hrp_assessment,HRPCH2S1L2-2,Point,2,D-2,D-2,"Le installazioni elettriche sono in buone condizioni? (ad esempio: nessun segno di bruciatura o surriscaldamento, nessun loop multiplo, nessun giunto di connessione scorretto, nessun filo danneggiato, fili allentati o fili scoperti ...)",TRUE,,
HRPCH2S1L2,hrp_assessment,HRPCH2S1L2-3,Point,3,D-3,D-3,"Le attrezzature interessate dalla regolamentazione (carrelli elevatori, ascensori, porte automatiche, caldaie, compressori, serbatoi pressurizzati, gru, ecc) sono in buone condizioni e certificate da un ente autorizzato? Se richiesto dalla legge hanno le autorizzazioni legali necessarie? ",TRUE,,
HRPCH2S1L2,hrp_assessment,HRPCH2S1L2-4,Point,4,D-4,D-4,Le caldaie e i serbatoi pressurizzati (sopra i 0.5 bar) sono posizionati in sicurezza (separati dalle aree di produzione) con protezione in loco (contro l'esplosione)?,TRUE,,
HRPCH2S1L2,hrp_assessment,HRPCH2S1L2-5,Point,5,D-5,D-5,"I lavoratori che utilizzano attrezzature rischiose hanno la licenza richiesta aggiornata (elettricista, conducente di carrelli elevatori, conducente di autobus e auto ...)?",TRUE,,
HRPCH2S1,hrp_assessment,HRPCH2S1L3,Level,3,C,Level C,,TRUE,,
HRPCH2S1L3,hrp_assessment,HRPCH2S1L3-1,Point,1,C-1,C-1,"La conformità delle seguenti apparecchiature è verificata con una frequenza che rispetta le normative locali da un ente certificato, competente ed autorizzato?  Sono disponibili i registri di tali manutenzioni?",TRUE,,
HRPCH2S1L3,hrp_assessment,HRPCH2S1L3-2,Point,2,C-2,C-2,> Installazioni elettriche,TRUE,,
HRPCH2S1L3,hrp_assessment,HRPCH2S1L3-3,Point,3,C-3,C-3,"> Apparecchiature interessate  da regolamentazione (carrelli elevatori, ascensori, porte automatiche, gru...)",TRUE,,
HRPCH2S1L3,hrp_assessment,HRPCH2S1L3-4,Point,4,C-4,C-4,"> Caldaie, compressori e serbatoi pressurizzati",TRUE,,
HRPCH2S1L3,hrp_assessment,HRPCH2S1L3-5,Point,5,C-5,C-5,"Esiste un piano di manutenzione preventiva formale implementato per tutte le apparecchiature a rischio, in particolare impianti elettrici, caldaie e serbatoi pressurizzati?",TRUE,,
HRPCH2S1L3,hrp_assessment,HRPCH2S1L3-6,Point,6,C-6,C-6,Esiste un processo per avvisare il responsabile della data di scadenza delle autorizzazioni legali/certificazioni?,TRUE,,
HRPCH2S1,hrp_assessment,HRPCH2S1L4,Level,4,B,Level B,,TRUE,,
HRPCH2S1L4,hrp_assessment,HRPCH2S1L4-1,Point,1,B-1,B-1,Altro Best Practice effettuata:,TRUE,,
HRPCH2,hrp_assessment,HRPCH2S2,Section,2,2.2,H & S - GESTIONE DEL richio & SICUREZZA,,TRUE,,
HRPCH2S2,hrp_assessment,HRPCH2S2L1,Level,1,E,Level E,,TRUE,,
HRPCH2S2L1,hrp_assessment,HRPCH2S2L1-1,Point,1,E-1,E-1,C'è qualche rischio di morte per qualcuno ( dipendenti o persone esterne) in qualsiasi parte dei locali del fornitore?,TRUE,,
HRPCH2S2L1,hrp_assessment,HRPCH2S2L1-2,Point,2,E-2,E-2,Vengono adottate misure straordinarie per garantire il benessere e la salute delle lavoratrici incinte e/o in allattamento? ,TRUE,,
HRPCH2S2,hrp_assessment,HRPCH2S2L2,Level,2,D,Level D,,TRUE,,
HRPCH2S2L2,hrp_assessment,HRPCH2S2L2-1,Point,1,D-1,D-1,Le aree del luogo di lavoro sono tutte sicure e non causano nessun danno per i lavoratori o espongono i lavoratori ad un rischio immediato?,TRUE,,
HRPCH2S2L2,hrp_assessment,HRPCH2S2L2-2,Point,2,D-2,D-2,"Le macchine sono equipaggiate con sufficienti ed efficienti protezioni/ dispositivi di sicurezza (interrutori per operazioni a due mani, sensori, etc) sulle parti o componenti che sono pericolosi per gli operatori?",TRUE,,
HRPCH2S2L2,hrp_assessment,HRPCH2S2L2-3,Point,3,D-3,D-3,I dipendenti ricevono la formazione di base salute e sicurezza sull'uso appropriato dei DPI e sulla gestione sicura delle apparecchiature rischiose?,TRUE,,
HRPCH2S2L2,hrp_assessment,HRPCH2S2L2-4,Point,4,D-4,D-4,Le macchine rischiose hanno pulsanti di arresto di emergenza e sono in buone condizioni di lavoro? I lavoratori ne sono consapevoli?,TRUE,,
HRPCH2S2L2,hrp_assessment,HRPCH2S2L2-5,Point,5,D-5,D-5,I DPI ( dispositivi di protezione individuale) sono distribuiti e sostituiti gratuitamente al personale ed ai visitatori che ne hanno bisogno in sufficiente quantità? ,TRUE,,
HRPCH2S2L2,hrp_assessment,HRPCH2S2L2-6,Point,6,D-6,D-6,I DPI sono in buone condizioni?,TRUE,,
HRPCH2S2L2,hrp_assessment,HRPCH2S2L2-7,Point,7,D-7,D-7,"I lavoratori indossano dispositivi adeguati dove richiesto ( es. Protezioni per le orecchie se il livello del rumore >85dB, guanti adatti alle alte temperature)?",TRUE,,
HRPCH2S2L2,hrp_assessment,HRPCH2S2L2-8,Point,8,D-8,D-8,Ci sono kit di primo socorso che contengono prodotti adeguati ai rischi? (minimo uno ogni 100 dipendenti),TRUE,,
HRPCH2S2L2,hrp_assessment,HRPCH2S2L2-9,Point,9,D-9,D-9,Ci sono segnali di allerta esposti in postazioni appropriate?,TRUE,,
HRPCH2S2L2,hrp_assessment,HRPCH2S2L2-10,Point,10,D-10,D-10,I cartelli con i DPI che devono essere utilizzati sono esposti in posti appropriati?,TRUE,,
HRPCH2S2L2,hrp_assessment,HRPCH2S2L2-11,Point,11,D-11,D-11,"Il fornitore conduce la valutazione dei rischi sul posto di lavoro per identificare i pericoli, valutare i rischi e intraprendere azioni correttive? (Compresa la sicurezza antincendio, sicurezza chimica ...) La valutazione del rischio viene aggiornata annualmente e per esempio in caso di nuove macchine / nuove formulazioni chimiche e / o nuovi layout di fabbrica?
",TRUE,,
HRPCH2S2,hrp_assessment,HRPCH2S2L3,Level,3,C,Level C,,TRUE,,
HRPCH2S2L3,hrp_assessment,HRPCH2S2L3-1,Point,1,C-1,C-1,In base alla valutazione del rischio il fornitore definisce le misure preventive per eliminare o ridurre il rischio?,TRUE,,
HRPCH2S2L3,hrp_assessment,HRPCH2S2L3-2,Point,2,C-2,C-2,Le stazioni di lavoro sono adatte / ergonomiche per il tipo di lavoro richiesto (non creano possibili infortuni a medio o lungo termine)?,TRUE,,
HRPCH2S2L3,hrp_assessment,HRPCH2S2L3-3,Point,3,C-3,C-3,"Per le macchine in cui devono essere eseguite le procedure di blocco, le procedure e i registri sono disponibili e conosciuti da tutti i lavoratori interessati?",TRUE,,
HRPCH2S2L3,hrp_assessment,HRPCH2S2L3-4,Point,4,C-4,C-4,"Le procedure operative standard (SOP) sono correttamente posizionate sulle postazioni di lavoro rischiose e aggiornate regolarmente basandosi sull'analisi dei rischi? (Reparto taglio, deposito generale, etc.)",TRUE,,
HRPCH2S2L3,hrp_assessment,HRPCH2S2L3-5,Point,5,C-5,C-5,È disponibile un registro degli incidenti sul lavoro e delle malattie? E' reso disonibile a tutti i dipendenti il riassunto annuale degli infortuni/malattie?,TRUE,,
HRPCH2S2L3,hrp_assessment,HRPCH2S2L3-6,Point,6,C-6,C-6,"In caso di morte o di ricovero in ospedale, esiste una procedura per garantire che Decathlon venga informato immediatamente?",TRUE,,
HRPCH2S2L3,hrp_assessment,HRPCH2S2L3-7,Point,7,C-7,C-7,"Il fornitore ha una procedura formalizzata per l'analisi delle cause e l'implementazione di azioni correttive e preventive in caso di infortunio e malattia?
La procedura è comunicata e compresa da tutte le persone presenti nel sito (lavoratori, risorse umane, agenti di sicurezza, manager di linea, ecc ..)?
",TRUE,,
HRPCH2S2L3,hrp_assessment,HRPCH2S2L3-8,Point,8,C-8,C-8,È disponibile il registro della misurazione del rumore effettuato da un ente terzo o con un sistema interno di misurazione?,TRUE,,
HRPCH2S2L3,hrp_assessment,HRPCH2S2L3-9,Point,9,C-9,C-9,"Il fornitore adotta misure per ridurre l'esposizione al rumore diverse dall' utilizzo dei DPI (esempio: controllo ingegneristico, riduzione del tempo di esposizione, muro di isolamento)?",TRUE,,
HRPCH2S2L3,hrp_assessment,HRPCH2S2L3-10,Point,10,C-10,C-10,Il fornitore ha un programma per promuovere la cultura della salute e della sicurezza tra i dipendenti?,TRUE,,
HRPCH2S2L3,hrp_assessment,HRPCH2S2L3-11,Point,11,C-11,C-11,"Il fornitore ha nominato una commissione sulla salute e sicurezza sul lavoro (SSL) che regolarmente revisiona e valuta l'attuazione delle procedure di salute e sicurezza (compresa la sicurezza chimica e antiincendio)? Tale comitato è composto da dirigenti e rappresentanti dei lavoratori?
",TRUE,,
HRPCH2S2L3,hrp_assessment,HRPCH2S2L3-12,Point,12,C-12,C-12,"I manager,i supervisori e i dirigenti di linea ricevono una formazione supplementare per quanto riguarda le procedure di salute e sicurezza e riguardo tutti i requisiti di salute e sicurezza relativi alla loro ruolo aziendale?
",TRUE,,
HRPCH2S2L3,hrp_assessment,HRPCH2S2L3-13,Point,13,C-13,C-13,Ci sono operatori formati al primo soccorso per ciascun turno lavorativo?,TRUE,,
HRPCH2S2L3,hrp_assessment,HRPCH2S2L3-14,Point,14,C-14,C-14,"La struttura dispone di un piano di emergenza formale sulle azioni da intraprendere in caso di incidenti gravi, incendi o altre emergenze?
Esiste una squadra di pronto intervento responsabile per l'attuazione del piano di emergenza? ",TRUE,,
HRPCH2S2L3,hrp_assessment,HRPCH2S2L3-15,Point,15,C-15,C-15,"Se richiesto dalla normativa, nell'azienda c'è un'infermeria o una postazione di primo soccorso?",TRUE,,
HRPCH2S2L3,hrp_assessment,HRPCH2S2L3-16,Point,16,C-16,C-16,"C'è una o più persone responsabili per la gestione della salute e sicurezza e formati ufficialmente sul tema (per esempio con un certificato esterno, diploma universitario)?",TRUE,,
HRPCH2S2,hrp_assessment,HRPCH2S2L4,Level,4,B,Level B,,TRUE,,
HRPCH2S2L4,hrp_assessment,HRPCH2S2L4-1,Point,1,B-1,B-1,Il fornitore ha assunto un consulente esterno per valutare tutti gli aspetti del proprio sistema di salute e sicurezza una volta ogni 3 anni (o seguendo la frequenza di ricertificazione imposta dall'ente esterno)?,TRUE,,
HRPCH2S2L4,hrp_assessment,HRPCH2S2L4-2,Point,2,B-2,B-2,"Il fornitore fornisce, gratuitamente, regolari visite mediche ai lavoratori per identificare gli impatti sulla salute derivanti dal lavoro?
",TRUE,,
HRPCH2S2L4,hrp_assessment,HRPCH2S2L4-3,Point,3,B-3,B-3,Altre Best Practice effettuate:,TRUE,,
HRPCH2,hrp_assessment,HRPCH2S3,Section,3,2.3,H & S - GESTIONE DEI CHIMICI,,TRUE,,
HRPCH2S3,hrp_assessment,HRPCH2S3L1,Level,1,E,Level E,,TRUE,,
HRPCH2S3L1,hrp_assessment,HRPCH2S3L1-1,Point,1,E-1,E-1,Ci sono lavoratrici incinte o in allattamento che sono assegnate a stazioni di lavoro dove si utilizzano sostanze chimiche pericolose?,TRUE,,
HRPCH2S3L1,hrp_assessment,HRPCH2S3L1-2,Point,2,E-2,E-2,"L'operatore utilizza DPI che sono appropriati al rischio, efficienti, in buone condizioni e conservati in modo ordinato? Se no, il fornitore deve fornire periodicamente una diagnosi di esposizione per le stazioni di lavoro interessate. ",TRUE,,
HRPCH2S3L1,hrp_assessment,HRPCH2S3L1-3,Point,3,E-3,E-3,"In caso di utilizzo di sostanze tossiche o CMR, è stato implementato un sistema di protezione colettiva? (ventilatori e aria condizionata non sono considerati sistemi di protezione collettiva). Se no, il fornitore deve fornire periodicamente una diagnosi di esposizione per le stazioni di lavoro interessate. ",TRUE,,
HRPCH2S3L1,hrp_assessment,HRPCH2S3L1-4,Point,4,E-4,E-4,"Tutti i contenitori e sotto-contenitori / contenitori di trasferimento chimici sono identificati tramite etichettatura (nome + pittogrammi di pericolo)?
",TRUE,,
HRPCH2S3,hrp_assessment,HRPCH2S3L2,Level,2,D,Level D,,TRUE,,
HRPCH2S3L2,hrp_assessment,HRPCH2S3L2-1,Point,1,D-1,D-1,"C'è una persona/più persone assegnate come responsabili della gestione della sicurezza chimica?  (Acquisti, stoccaggio,salute&sicurezza)?",TRUE,,
HRPCH2S3L2,hrp_assessment,HRPCH2S3L2-2,Point,2,D-2,D-2,Le SDS per tutte le sostanze chimiche sono disponibili? La lingua delle SDS è comprensibile per la persona / persone incaricate della gestione di tali sostanze chimiche?,TRUE,,
HRPCH2S3L2,hrp_assessment,HRPCH2S3L2-3,Point,3,D-3,D-3,"I lavoratori che sono impegnati nella gestione, l'uso, lo stoccaggio e l'acquisto di prodotti chimici sono a conoscenza dei rischi chimici e sanno come proteggersi da tali rischi?",TRUE,,
HRPCH2S3L2,hrp_assessment,HRPCH2S3L2-4,Point,4,D-4,D-4,"Sono presenti alimenti aperti, bevande aperte o sigarette nelle postazioni che utilizzano sostanze chimiche pericolose?",TRUE,,
HRPCH2S3L2,hrp_assessment,HRPCH2S3L2-5,Point,5,D-5,D-5,"Tutti i contenitori e sotto-contenitori / contenitori di trasferimento chimici sono identificati tramite etichettatura (nome + pittogrammi di pericolo)?
",TRUE,,
HRPCH2S3L2,hrp_assessment,HRPCH2S3L2-6,Point,6,D-6,D-6,"I DPI sono adeguati al rischio, efficienti, in buone condizioni di lavoro e conservati in modo ordinato?
Se no, il fornitore deve fornire periodicamente una diagnosi di esposizione per le stazioni di lavoro interessate. ",TRUE,,
HRPCH2S3L2,hrp_assessment,HRPCH2S3L2-7,Point,7,D-7,D-7,"Le postazioni di lavoro hanno un sistema di protezione colettiva? (ventilatori e aria condizionata non sono considerati sistemi di protezione collettiva). Se no, il fornitore deve fornire periodicamente una diagnosi di esposizione per le stazioni di lavoro interessate. ",TRUE,,
HRPCH2S3L2,hrp_assessment,HRPCH2S3L2-8,Point,8,D-8,D-8,"Le stazioni di lavoro e le zone di stoccaggio sono a distanza ravvicinata dalle postazioni dove ci sono i DPI/equipaggiamento di emergenza (es: stazioni di lavaggio occhi, doccia di emergenza, kit antisversamento, estintori adatti al pericolo)?",TRUE,,
HRPCH2S3L2,hrp_assessment,HRPCH2S3L2-9,Point,9,D-9,D-9,"E' garantito che non vi siano perdite di sostanze chimiche liquide pericolose nelle zone di deposito e di produzione (esempio: contenitore secondario, vasca di contenimento) ?",TRUE,,
HRPCH2S3L2,hrp_assessment,HRPCH2S3L2-10,Point,10,D-10,D-10,"Le aree di stoccaggio di chimici pericolosi (nuovi ed in uso) hanno accesso limitato, temperatura controllata, sono collocate in un'area separata ed è assicurata una buona ventilazione (es: ventilazione meccanica) in accordo con le SDS? Le informazioni più rilevanti su tali chimici sono disponibili nella zona di stoccaggio?",TRUE,,
HRPCH2S3L2,hrp_assessment,HRPCH2S3L2-11,Point,11,D-11,D-11,"I chimici infiammabili, esplosivi, corrosivi e ossidanti sono conservati separatamente e in modo sicuro? Le sostanze chimiche incompatibili sono fisicamente separate in accordo con le SDS? ",TRUE,,
HRPCH2S3L2,hrp_assessment,HRPCH2S3L2-12,Point,12,D-12,D-12,"I contenitori sono chiusi e appropriati, dallo stoccaggio alla linea di produzione fino allo stoccaggio dei rifiuti? Vengono utilizzati strumenti di trasporto adeguati per trasportare i prodotti chimici alle stazioni di lavoro? ",TRUE,,
HRPCH2S3,hrp_assessment,HRPCH2S3L3,Level,3,C,Level C,,TRUE,,
HRPCH2S3L3,hrp_assessment,HRPCH2S3L3-1,Point,1,C-1,C-1,"L'inventario dei prodotti chimici è disponibile, completo e aggiornato?(Almeno nome del prodotto chimico, il nome e il contatto del fornitore, data di revisione della scheda di sicurezza (SDS), la funzione, classe di rischio, luogo di utilizzo, le condizioni di stoccaggio e luogo di stoccaggio, le quantità, il numero CAS)",TRUE,,
HRPCH2S3L3,hrp_assessment,HRPCH2S3L3-2,Point,2,C-2,C-2,"Le SDS delle sostanze chimiche utilizzate in fabbrica sono disponibili, complete e aggiornate (<3 anni)?
(nome prodotto chimico, contatti, pittogrammi, indicazioni di pericolo, composizione ...)",TRUE,,
HRPCH2S3L3,hrp_assessment,HRPCH2S3L3-3,Point,3,C-3,C-3,Esiste una procedura per la gestione dei DPI? Viene applicata?,TRUE,,
HRPCH2S3L3,hrp_assessment,HRPCH2S3L3-4,Point,4,C-4,C-4,"Esiste una procedura per la gestione delle attrezzature collettive di protezione (sistema di ventilazione, doccia, flusso d'aria, ...)? Viene applicata? ",TRUE,,
HRPCH2S3L3,hrp_assessment,HRPCH2S3L3-5,Point,5,C-5,C-5,Viene misurata l'esposizione dei lavoratori alle sostanze chimiche? Esiste un controllo della qualità dell'aria interna che è conforme alla normativa locale e / o i limiti di esposizione chimica definiti dalle SDS?,TRUE,,
HRPCH2S3L3,hrp_assessment,HRPCH2S3L3-6,Point,6,C-6,C-6,"Per tutti i lavoratori che utilizzano sostanze chimiche pericolose, viene condotto un esame medico che valuta i possibili danni alla salute causati dall' esposizione a sostanze chimiche? Vengono implementate azioni per i dipendenti la cui salute viene impattata?",TRUE,,
HRPCH2S3L3,hrp_assessment,HRPCH2S3L3-7,Point,7,C-7,C-7,"Sono presenti SOP (Standard Operating Procedures) che riguardano la gestione dei prodotti chimici (esempio: rischio chimico approvato, classificazione chimica, fasi di lavoro, manipolazione sicura dei chimici, smaltimento chimico ...) esposte in prossimità del luogo di utilizzo delle sostanze chimiche?",TRUE,,
HRPCH2S3L3,hrp_assessment,HRPCH2S3L3-8,Point,8,C-8,C-8,Il fornitore ha una procedura di emergenza in caso di incidenti chimici? Il fornitore tiene un registro di tutti gli incidenti dei dipendenti relativi all'utilizzo di sostanze chimiche?,TRUE,,
HRPCH2S3L3,hrp_assessment,HRPCH2S3L3-9,Point,9,C-9,C-9,"Vengono eseguite esercitazioni di emergenza periodiche eseguite per garantire che i lavoratori sappiano come gestire un incidente chimico (simulazione di svenimento di una persone, procedura in caso di sversamento, ecc)?",TRUE,,
HRPCH2S3L3,hrp_assessment,HRPCH2S3L3-10,Point,10,C-10,C-10,Il fornitore ha una procedura per validare le sostanze chimiche da acquistare e classifica i prodotti chimici utilizzati nel sito basandosi sul loro impatto sulla salute?,TRUE,,
HRPCH2S3L3,hrp_assessment,HRPCH2S3L3-11,Point,11,C-11,C-11,"Il responsabile/i responsabili assegnati per la gestione della sicurezza chimica hanno una certificazione ufficiale delle loro abilità (per esempio un certificato esterno, diploma universitario)?",TRUE,,
HRPCH2S3L3,hrp_assessment,HRPCH2S3L3-12,Point,12,C-12,C-12,Viene tenuto un registro per dimostrare che il personale degli impianti che si occupa di movimentazione dei prodotti chimici ha una formazione e le competenze per svolgere le attività assegnate?,TRUE,,
HRPCH2S3,hrp_assessment,HRPCH2S3L4,Level,4,B,Level B,,TRUE,,
HRPCH2S3L4,hrp_assessment,HRPCH2S3L4-1,Point,1,B-1,B-1,Il fornitore ha un piano per ridurre l'utilizzo di sostanze chimiche pericolose con obiettivi chiaramente definiti? Il fornitore ha un progetto annuale per diminuire l'uso / rilascio di sostanze chimiche pericolose?,TRUE,,
HRPCH2S3L4,hrp_assessment,HRPCH2S3L4-2,Point,2,B-2,B-2,Le SDS (scheda di sicurezza) sono aggiornate e comunicate automaticamente dai fornitori di prodotti chimici?,TRUE,,
HRPCH2S3L4,hrp_assessment,HRPCH2S3L4-3,Point,3,B-3,B-3,Il deposito delle sostanze chimiche contiene:,TRUE,,
HRPCH2S3L4,hrp_assessment,HRPCH2S3L4-4,Point,4,B-4,B-4,> Piano di stoccaggio,TRUE,,
HRPCH2S3L4,hrp_assessment,HRPCH2S3L4-5,Point,5,B-5,B-5,> Un esplosimetro,TRUE,,
HRPCH2S3L4,hrp_assessment,HRPCH2S3L4-6,Point,6,B-6,B-6,> Controllo della temperatura,TRUE,,
HRPCH2S3L4,hrp_assessment,HRPCH2S3L4-7,Point,7,B-7,B-7,"> Quando possibile, dispositivi di campionamento automatizzato",TRUE,,
HRPCH2S3L4,hrp_assessment,HRPCH2S3L4-8,Point,8,B-8,B-8,Le SOP sono revisionate ogni anno o anche prima se c'è un cambiamento nel processo?,TRUE,,
HRPCH2S3L4,hrp_assessment,HRPCH2S3L4-9,Point,9,B-9,B-9,I lavoratori hanno a disposizione abiti da lavoro e uno spogliatoio per cambiarsi? La pulizia degli abiti da lavoro è gestita direttamente dal fornitore?,TRUE,,
HRPCH2S3L4,hrp_assessment,HRPCH2S3L4-10,Point,10,B-10,B-10,Altre Best Practice ,TRUE,,
HRPCH2,hrp_assessment,HRPCH2S4,Section,4,2.4,H & S - SICUREZZA ANTINCENDIO / EVACUAZIONE,,TRUE,,
HRPCH2S4,hrp_assessment,HRPCH2S4L1,Level,1,E,Level E,,TRUE,,
HRPCH2S4L1,hrp_assessment,HRPCH2S4L1-1,Point,1,E-1,E-1,Tutti i edifici che riguardano l'audit hanno un sistema di allarme antincendio?,TRUE,,
HRPCH2S4L1,hrp_assessment,HRPCH2S4L1-2,Point,2,E-2,E-2,L'allarme antincendio funziona quando testata? (Testato durante l'audit),TRUE,,
HRPCH2S4L1,hrp_assessment,HRPCH2S4L1-3,Point,3,E-3,E-3,L'allarme antincendio è udibile/è visibile/è collegata in tutte le aree che riguardano l'audit ?,TRUE,,
HRPCH2S4L1,hrp_assessment,HRPCH2S4L1-4,Point,4,E-4,E-4,"In caso di un edificio in comune, il sistema di allarme è udibile per entrambe le parti (altri fornitori e fornitori Decathlon)?",TRUE,,
HRPCH2S4L1,hrp_assessment,HRPCH2S4L1-5,Point,5,E-5,E-5,Il suono dell'allarme antincendio è diverso rispetto agli altri segnali esistenti nello stabilimento (ad es: segnale fine turno o segnalazione della pausa)?,TRUE,,
HRPCH2S4L1,hrp_assessment,HRPCH2S4L1-6,Point,6,E-6,E-6,L'allarme antincendio ha un sistema di back-up automatico quando l'alimentazione principale è spenta? (Testato durante l'audit),TRUE,,
HRPCH2S4L1,hrp_assessment,HRPCH2S4L1-7,Point,7,E-7,E-7,L'allarme suona per tutto il tempo dell'evacuazione qualunque sia la fonte di energia? (Alimentazione principale o di backup),TRUE,,
HRPCH2S4L1,hrp_assessment,HRPCH2S4L1-8,Point,8,E-8,E-8,Ci sono vari pulsanti di allarme manuali in tutto lo stabilimento come richiesto dalla legge?,TRUE,,
HRPCH2S4L1,hrp_assessment,HRPCH2S4L1-9,Point,9,E-9,E-9,I lavoratori sanno dove sono i  pulsanti manuali e come usarli?,TRUE,,
HRPCH2S4L1,hrp_assessment,HRPCH2S4L1-10,Point,10,E-10,E-10,Solo le persone convalidate sono in grado di disattivare l'allarme?,TRUE,,
HRPCH2S4L1,hrp_assessment,HRPCH2S4L1-11,Point,11,E-11,E-11,"Qualunque sia il regolamento, ci sono almeno 2 uscite di evacuazione accessibili (minimo 5 metri tra 2 uscite) per:
- tutte le aree di produzione (compresi magazzini)
- eventuali aree non produttive in cui accade che 20 persone siano presenti contemporaneamente?",TRUE,,
HRPCH2S4L1,hrp_assessment,HRPCH2S4L1-12,Point,12,E-12,E-12,"Le uscite di evacuazione sono funzionanti e mai bloccate durante l'orario di lavoro (questo include la notte, ora di pranzo ...)?",TRUE,,
HRPCH2S4L1,hrp_assessment,HRPCH2S4L1-13,Point,13,E-13,E-13,"C'è almeno un punto di raccolta che è conosciuto dai dipendenti? E 'sicuro, ad un minimo di 10 metri da qualsiasi edificio e può accogliere tutti i lavoratori?",TRUE,,
HRPCH2S4L1,hrp_assessment,HRPCH2S4L1-14,Point,14,E-14,E-14,Il tempo di evacuazione è di meno di 5 minuti (a partire dal momento in cui viene premuto il pulsante di allarme e fino a quando il leader di evacuazione ha confermato che non c'è piu nessuno nell'edificio)?,TRUE,,
HRPCH2S4L1,hrp_assessment,HRPCH2S4L1-15,Point,15,E-15,E-15,"Durante la prova di evacuazione, il fornitore conta tutte le persone presente al punto di racolta compresi i visitatori esterni?",TRUE,,
HRPCH2S4,hrp_assessment,HRPCH2S4L2,Level,2,D,Level D,,TRUE,,
HRPCH2S4L2,hrp_assessment,HRPCH2S4L2-1,Point,1,D-1,D-1,"Se l'edificio ha 3 o più piani (incluso piano terra):
Le scale interne sono protette dal fumo (ovvero sono presenti porte tagliafuoco ad ogni piano che si auto-chiudono durante l'evacuazione)? O ci sono le scale esterne per evacuazione di emergenza?",TRUE,,
HRPCH2S4L2,hrp_assessment,HRPCH2S4L2-2,Point,2,D-2,D-2,"I visitatori esterni sono messi a conoscenza della procedura/protocolo di emergenza e li includono nel conteggio in caso di evacuazione (percorsi di emergenza, zona di evacuazione)?",TRUE,,
HRPCH2S4L2,hrp_assessment,HRPCH2S4L2-3,Point,3,D-3,D-3,Tutti i percorsi di evacuazione e le scale di evacuazione sono chiaramente identificati e privi di ostacoli?,TRUE,,
HRPCH2S4L2,hrp_assessment,HRPCH2S4L2-4,Point,4,D-4,D-4,Le scale di evacuazione conducono verso una zona con materiali infiammabili (o ci sono materiali infiammabili stoccati nelle scale)?,TRUE,,
HRPCH2S4L2,hrp_assessment,HRPCH2S4L2-5,Point,5,D-5,D-5,"Le uscite di emergenza sono chiaramente identificate, libere da ostacoli, facile da usare, si aprono nella direzione di evacuazione, senza alcuno sforzo particolare e sono di almeno 80 cm di larghezza?",TRUE,,
HRPCH2S4L2,hrp_assessment,HRPCH2S4L2-6,Point,6,D-6,D-6,Lo stabilimento e dotato di illuminazione di sicurezza efficiente in tutti i reparti e le scale?,TRUE,,
HRPCH2S4L2,hrp_assessment,HRPCH2S4L2-7,Point,7,D-7,D-7,"I dispositivi di sicurezza (idranti, estintori, ecc) sono presenti, adatti, molto visibili, accessibili, funzionanti, e in numero sufficiente (come indicato dalla legge locale o seguendo la raccomandazione di 1 per ogni 200 m²)?",TRUE,,
HRPCH2S4L2,hrp_assessment,HRPCH2S4L2-8,Point,8,D-8,D-8,"Una prova di evacuazione è condotta almeno una volta all'anno (tutti i turni, tutto il personale)? Le registrazioni sono disponibili?",TRUE,,
HRPCH2S4L2,hrp_assessment,HRPCH2S4L2-9,Point,9,D-9,D-9,Possibile cause di incendio sono evitate nello stabilimento? (Es .: vietate le sigarette nella zona di stoccaggio chimico / no scintille vicine ai quadri ellettrici...),TRUE,,
HRPCH2S4,hrp_assessment,HRPCH2S4L3,Level,3,C,Level C,,TRUE,,
HRPCH2S4L3,hrp_assessment,HRPCH2S4L3-1,Point,1,C-1,C-1,Lo stabilimento è dotato di un sistema di rilevamento incendio corrispondente al'analisi di rischio e alle normative locale?,TRUE,,
HRPCH2S4L3,hrp_assessment,HRPCH2S4L3-2,Point,2,C-2,C-2,C'è una mappa aggiornata di evacuazione (mappe diverse se ci sono diversi livelli o edifici) visibilmente esposte in tutti gli edifici e che indicano il '' dove sei ''?,TRUE,,
HRPCH2S4L3,hrp_assessment,HRPCH2S4L3-3,Point,3,C-3,C-3,C'è una formazione di base sulla sicurezza antincendio al momento dell'assunzione (programma di integrazione) e poi almeno una volta all'anno?,TRUE,,
HRPCH2S4L3,hrp_assessment,HRPCH2S4L3-4,Point,4,C-4,C-4,"Esiste una procedura di sicurezza antincendio che copra almeno le misure di prevenzione e protezione degli incendi ? La procedura è implementata in loco?
",TRUE,,
HRPCH2S4L3,hrp_assessment,HRPCH2S4L3-5,Point,5,C-5,C-5,"Per turno, ci sono almeno 2 operai su 50 (o secondo legislazione locale se il requisito è più alto) addestrati  sull' attuazione della procedura di sicurezza antincendio / sistema e il loro ruolo in caso di emergenza? (Ad esempio organizzare evacuazione, controllare che lo stabilimento sia vuoto etc.)",TRUE,,
HRPCH2S4L3,hrp_assessment,HRPCH2S4L3-6,Point,6,C-6,C-6,"Le attrezzature di sicurezza antincendio (allarme, batteria di backup, illuminazione di emergenza,  estintori, ecc), sono regolarmente mantenuti e controllati almeno una volta l'anno o secondo la regolamentazione locale (precisare la frequenza)?",TRUE,,
HRPCH2S4L3,hrp_assessment,HRPCH2S4L3-7,Point,7,C-7,C-7,Il sito del fornitore è dotato di un sistema sprinkler in base alla valutazione dei rischi e le leggi locali?,TRUE,,
HRPCH2S4L3,hrp_assessment,HRPCH2S4L3-8,Point,8,C-8,C-8,I responsabili assegnati per la gestione della sicurezza antincendio hanno le giuste competenze e conoscenze per il lavoro?,TRUE,,
HRPCH2S4,hrp_assessment,HRPCH2S4L4,Level,4,B,Level B,,TRUE,,
HRPCH2S4L4,hrp_assessment,HRPCH2S4L4-1,Point,1,B-1,B-1,Il fornitore dispone di un sistema di controllo centralizzato dell' impianto antincendio?,TRUE,,
HRPCH2S4L4,hrp_assessment,HRPCH2S4L4-2,Point,2,B-2,B-2,Altre Best Practice effettuata:,TRUE,,
HRPCH2,hrp_assessment,HRPCH2S5,Section,5,2.5,H & S - L'AMBIENTE IN CUI SI VIVE,,TRUE,,
HRPCH2S5,hrp_assessment,HRPCH2S5L1,Level,1,E,Level E,,TRUE,,
HRPCH2S5,hrp_assessment,HRPCH2S5L2,Level,2,D,Level D,,TRUE,,
HRPCH2S5L2,hrp_assessment,HRPCH2S5L2-1,Point,1,D-1,D-1,"Tutti i lavoratori hanno accesso libero e sicuro ai servizi igienici che sono in quantità adeguata, in buone condizioni e hanno l'acqua corrente con sapone?
",TRUE,,
HRPCH2S5L2,hrp_assessment,HRPCH2S5L2-2,Point,2,D-2,D-2,"Tutti i lavoratori hanno libero accesso all'acqua potabile, testata secondo i requisiti della legge locale?",TRUE,,
HRPCH2S5L2,hrp_assessment,HRPCH2S5L2-3,Point,3,D-3,D-3,"Se richiesto dalla legge, ci sono dormitori? I dormitori soddisfano gli standard definiti nelle linee guida dormitorio Decathlon o ciò che è richiesto dalla legge (se superiore)?",TRUE,,
HRPCH2S5L2,hrp_assessment,HRPCH2S5L2-4,Point,4,D-4,D-4,"Se richiesto dalla legge, c'è una mensa / cucina? Gli ambienti sono puliti, adeguatamente attrezzati e soddisfano i requisiti delle normative locali?",TRUE,,
HRPCH2S5L2,hrp_assessment,HRPCH2S5L2-5,Point,5,D-5,D-5,I veicoli forniti per il trasporto dei lavoratori sono in buone condizioni?,TRUE,,
HRPCH2S5L2,hrp_assessment,HRPCH2S5L2-6,Point,6,D-6,D-6,I conducenti che utilizzano i veicoli per il trasporto dei lavoratori sono in possesso di una patente valida? ,TRUE,,
HRPCH2S5L2,hrp_assessment,HRPCH2S5L2-7,Point,7,D-7,D-7,La posizione delle strutture sociali e dei dormitori espone i dipendenti agli impatti operativi del sito di lavoro? (Edifici industriali e uffici non devono essere utilizzati per scopi abitativi),TRUE,,
HRPCH2S5L2,hrp_assessment,HRPCH2S5L2-8,Point,8,D-8,D-8,"I lavoratori mostrano segni di stress termico? (Colpi di calore, crampi, ecc)",TRUE,,
HRPCH2S5L2,hrp_assessment,HRPCH2S5L2-9,Point,9,D-9,D-9,I locali hanno una corretta illuminazione in accordo alla normativa locale?,TRUE,,
HRPCH2S5L2,hrp_assessment,HRPCH2S5L2-10,Point,10,D-10,D-10,"I locali sono sufficientemente puliti (puliti dalla polvere, nessuna superficie scivolosa, senza scarti di materiale non utilizzato ovunque,le attrezzature hanno un posto univoco e sono conservate solo lì)?",TRUE,,
HRPCH2S5,hrp_assessment,HRPCH2S5L3,Level,3,C,Level C,,TRUE,,
HRPCH2S5L3,hrp_assessment,HRPCH2S5L3-1,Point,1,C-1,C-1,"Nel caso in cui sia richiesto dalla legge, è stata implementata una stanza sicura e pulita per la cura dei bambini con personale certificato?",TRUE,,
HRPCH2S5L3,hrp_assessment,HRPCH2S5L3-2,Point,2,C-2,C-2,Il cibo e l'acqua sono conservati in un luogo appropriato?,TRUE,,
HRPCH2S5L3,hrp_assessment,HRPCH2S5L3-3,Point,3,C-3,C-3,"Se richiesto dalla legge, l'autista ha fornito un certificato medico valido per confermare la sua attitudine a guidare?",TRUE,,
HRPCH2S5L3,hrp_assessment,HRPCH2S5L3-4,Point,4,C-4,C-4,"Il vitto e i canoni mensili a carico del lavoratore,sono il 30% o meno dello stipendio mensile lordo dei lavoratori?",TRUE,,
HRPCH2S5L3,hrp_assessment,HRPCH2S5L3-5,Point,5,C-5,C-5,Esiste un piano di manutenzione preventiva (programma di manutenzione e ultima fattura del servizio) implementato per le auto/pullman gestiti dal fornitore?,TRUE,,
HRPCH2S5,hrp_assessment,HRPCH2S5L4,Level,4,B,Level B,,TRUE,,
HRPCH2S5L4,hrp_assessment,HRPCH2S5L4-1,Point,1,B-1,B-1,"Se non è richiesto dalla legge, il fornitore fornisce trasporto gratuito o offre un'indennità per il trasporto?",TRUE,,
HRPCH2S5L4,hrp_assessment,HRPCH2S5L4-2,Point,2,B-2,B-2,"Se non richiesto dalla legge, il fornitore fornisce pasti gratuiti? In caso contrario, il fornitore fornisce un'indennità per i pasti consumati durante l'orario di lavoro (compreso durante gli straordinari)?",TRUE,,
HRPCH2S5L4,hrp_assessment,HRPCH2S5L4-3,Point,3,B-3,B-3,"Se non richiesto dalla legge, il fornitore fornisce dormitori gratuiti o fornisce un'indennità per l' alloggio?",TRUE,,
HRPCH2S5L4,hrp_assessment,HRPCH2S5L4-4,Point,4,B-4,B-4,"Il fornitore ha progetti in corso per migliorare l'ambiente/le condizioni di lavoro (ad esempio condizionatore d'aria, la ventilazione, la qualità dei pasti forniti)?",TRUE,,
HRPCH2S5L4,hrp_assessment,HRPCH2S5L4-5,Point,5,B-5,B-5,Il fornitore fornisce l'accesso allo sport?,TRUE,,
HRPCH2S5L4,hrp_assessment,HRPCH2S5L4-6,Point,6,B-6,B-6,"Il fornitore fornisce l'accesso alla cultura per i lavoratori (biblioteca, giornale ...)?",TRUE,,
HRPCH2S5L4,hrp_assessment,HRPCH2S5L4-7,Point,7,B-7,B-7,Il sito fornitore include appropriate strutture ricreative o strutture religiose?,TRUE,,
HRPCH2S5L4,hrp_assessment,HRPCH2S5L4-8,Point,8,B-8,B-8,Altre best practice messe in pratica:,TRUE,,
,hrp_assessment,HRPCH3,Chapter,3,3,Operations,,TRUE,,
HRPCH3,hrp_assessment,HRPCH3S1,Section,1,3.1,ORARIO LAVORATIVO,,TRUE,,
HRPCH3S1,hrp_assessment,HRPCH3S1L1,Level,1,E,Level E,,TRUE,,
HRPCH3S1,hrp_assessment,HRPCH3S1L2,Level,2,D,Level D,,TRUE,,
HRPCH3S1L2,hrp_assessment,HRPCH3S1L2-1,Point,1,D-1,D-1,"Il sistema di registrazione del tempo è oggettivo, e chiaro (orario ingresso, orario uscita) ?",TRUE,,
HRPCH3S1L2,hrp_assessment,HRPCH3S1L2-2,Point,2,D-2,D-2,Esiste qualche incoerenza osservata tra le ore di lavoro / i registri di presenza / retribuzione e qualsiasi altra informazione osservata durante l'audit?,TRUE,,
HRPCH3S1L2,hrp_assessment,HRPCH3S1L2-3,Point,3,D-3,D-3,Le ore di lavoro superano le 72 ore settimanali?,TRUE,,
HRPCH3S1L2,hrp_assessment,HRPCH3S1L2-4,Point,4,D-4,D-4,Le ore di lavoro superano le 14 ore al giorno?,TRUE,,
HRPCH3S1L2,hrp_assessment,HRPCH3S1L2-5,Point,5,D-5,D-5,I lavoratori hanno almeno 1 giornata intera (24 ore) di riposo dopo 6 giorni consecutivi di lavoro?,TRUE,,
HRPCH3S1,hrp_assessment,HRPCH3S1L3,Level,3,C,Level C,,TRUE,,
HRPCH3S1L3,hrp_assessment,HRPCH3S1L3-1,Point,1,C-1,C-1,Le ore di lavoro superano le 60 ore settimanali?,TRUE,,
HRPCH3S1L3,hrp_assessment,HRPCH3S1L3-2,Point,2,C-2,C-2,Il personale ha il diritto di fare pause sufficienti durante la giornata lavorativa?,TRUE,,
HRPCH3S1L3,hrp_assessment,HRPCH3S1L3-3,Point,3,C-3,C-3,"La politica delle ore lavorative è visualizzata o conosciuta dagli operatori? (Tempo di pausa, orario lavorativo, giorni di ferie, politica sugli straordinari ecc.)
Esiste un processo o una procedura chiara per la richiesta e l'autorizzazione degli straordinari?",TRUE,,
HRPCH3S1,hrp_assessment,HRPCH3S1L4,Level,4,B,Level B,,TRUE,,
HRPCH3S1L4,hrp_assessment,HRPCH3S1L4-1,Point,1,B-1,B-1,"L'orario di lavoro rispetta i requisit dell'ILO, una settimana lavorativa di 48 ore?",TRUE,,
HRPCH3S1L4,hrp_assessment,HRPCH3S1L4-2,Point,2,B-2,B-2,Il fornitore ha una pianificazione delle ore lavorative stagionale e un piano di emergenza formalizzato per l'orario di lavoro?,TRUE,,
HRPCH3S1L4,hrp_assessment,HRPCH3S1L4-3,Point,3,B-3,B-3,Altre best practice messe in pratica:,TRUE,,
HRPCH3,hrp_assessment,HRPCH3S2,Section,2,3.2,STIPENDIO,,TRUE,,
HRPCH3S2,hrp_assessment,HRPCH3S2L1,Level,1,E,Level E,,TRUE,,
HRPCH3S2L1,hrp_assessment,HRPCH3S2L1-1,Point,1,E-1,E-1,Il salario orario (salario totale pagato diviso per il numero totale di ore lavorate) è pagato a tutti i lavoratori pari o superiore al salario orario più basso autorizzato dalla legge o dal contratto collettivo di lavoro nel settore?,TRUE,,
HRPCH3S2L1,hrp_assessment,HRPCH3S2L1-2,Point,2,E-2,E-2,Le trattenute salariali (non richieste dalla legge e non approvate dal  dipendente) fanno si che il lavoratore riceva meno del salario minimo legale applicabile?,TRUE,,
HRPCH3S2,hrp_assessment,HRPCH3S2L2,Level,2,D,Level D,,TRUE,,
HRPCH3S2L2,hrp_assessment,HRPCH3S2L2-1,Point,1,D-1,D-1,Gli straordinari sono pagati in conformità con la legge locale? (Precisa il tasso di straordinari utilizzato dalla fabbrica),TRUE,,
HRPCH3S2L2,hrp_assessment,HRPCH3S2L2-2,Point,2,D-2,D-2,I registri delle busta paga sono disponibili ? I dipendenti ricevono le buste paga?,TRUE,,
HRPCH3S2L2,hrp_assessment,HRPCH3S2L2-3,Point,3,D-3,D-3,La periodicità del pagamento dello stipendio supera un mese?,TRUE,,
HRPCH3S2L2,hrp_assessment,HRPCH3S2L2-4,Point,4,D-4,D-4,"Esiste una sorta di detrazione non autorizzata da salari, incentivi, bonus? C'è qualche minaccia di detrazioni non autorizzate/illegale messa in pratica (deduzione dallo stipendo per ritardo) ?",TRUE,,
HRPCH3S2L2,hrp_assessment,HRPCH3S2L2-5,Point,5,D-5,D-5,"Tutti i DPI, le divise e gli strumenti di produzione sono forniti gratuitamente ai dipendenti?",TRUE,,
HRPCH3S2L2,hrp_assessment,HRPCH3S2L2-6,Point,6,D-6,D-6,L'assicurazione sociale locale è pagata per tutti i lavoratori?,TRUE,,
HRPCH3S2L2,hrp_assessment,HRPCH3S2L2-7,Point,7,D-7,D-7,"Le ferie annuali, le assenze per malattia, i congedi di maternità sono concessi e pagati secondo la legge locale o il contratto collettivo, ove applicabile?",TRUE,,
HRPCH3S2L2,hrp_assessment,HRPCH3S2L2-8,Point,8,D-8,D-8,"In caso di cessazione del rapporto di lavoro, il fornitore paga al lavoratore i costi legati alla cessazione del rapporto di lavoro cui il dipendente ha diritto in base alla legge locale o al contratto collettivo?",TRUE,,
HRPCH3S2,hrp_assessment,HRPCH3S2L3,Level,3,C,Level C,,TRUE,,
HRPCH3S2L3,hrp_assessment,HRPCH3S2L3-1,Point,1,C-1,C-1,"I dipendenti sono consapevoli del metodo di calcolo del loro stipendio mensile (Bonus, tasso straordinario, salario minimo, ecc... ) e del loro diritti (Maternità, ferie annuali, ecc)",TRUE,,
HRPCH3S2L3,hrp_assessment,HRPCH3S2L3-2,Point,2,C-2,C-2,C'è una tabella retributiva per tutti i lavoratori che è legata alla competenza e ai risultati considerando la variazione del tasso di inflazione locale?,TRUE,,
HRPCH3S2,hrp_assessment,HRPCH3S2L4,Level,4,B,Level B,,TRUE,,
HRPCH3S2L4,hrp_assessment,HRPCH3S2L4-1,Point,1,B-1,B-1,Altre best practice messe in pratica:,TRUE,,
HRPCH3,hrp_assessment,HRPCH3S3,Section,3,3.3,GESTIONE DEL PERSONALE,,TRUE,,
HRPCH3S3,hrp_assessment,HRPCH3S3L1,Level,1,E,Level E,,TRUE,,
HRPCH3S3L1,hrp_assessment,HRPCH3S3L1-1,Point,1,E-1,E-1,Ci sono delle prove che ai dipendenti venga dato un ulteriore extra-lavoro da fare a casa (o nei dormitori)?,TRUE,,
HRPCH3S3L1,hrp_assessment,HRPCH3S3L1-2,Point,2,E-2,E-2,"Ci sono delle prove evidenti di comportamento inappropriato o molestie (fisiche, sessuali, minnace, di sfruttamento, psicologico o verbale) ?",TRUE,,
HRPCH3S3,hrp_assessment,HRPCH3S3L2,Level,2,D,Level D,,TRUE,,
HRPCH3S3L2,hrp_assessment,HRPCH3S3L2-1,Point,1,D-1,D-1,"C'è un contratto di lavoro (e permesso di lavoro per i lavoratori stranieri) per ogni lavoratore scritto nella loro lingua, firmato, datato, indicando il nome, la durata (se del caso), lo stipendio, il lavoro, l'orario di lavoro e i vantaggi ?",TRUE,,
HRPCH3S3L2,hrp_assessment,HRPCH3S3L2-2,Point,2,D-2,D-2,"I dettagli contenuti nei contratti di lavoro dei lavoratori sono coerenti con il loro ruolo attuale?
Se c'è una modifica, i dipendenti sono stati informati?",TRUE,,
HRPCH3S3L2,hrp_assessment,HRPCH3S3L2-3,Point,3,D-3,D-3,Ogni dipendente ha una copia personale del suo contratto e delle eventuali modifiche?,TRUE,,
HRPCH3S3L2,hrp_assessment,HRPCH3S3L2-4,Point,4,D-4,D-4,"Nel caso in cui un dipendente sia assunto da una terza parte, i contratti tra fornitore e agenzia, e tra l'agenzia e il dipendente sono disponibili ?",TRUE,,
HRPCH3S3L2,hrp_assessment,HRPCH3S3L2-5,Point,5,D-5,D-5,Esiste un monitoraggio dei contratti a breve termine / determinati ? Il rapporto tra contratti a breve termine/ determinati sul totale dei dipendi rispetta le normative locali?,TRUE,,
HRPCH3S3L2,hrp_assessment,HRPCH3S3L2-6,Point,6,D-6,D-6,"I lavoratori subiscono discriminazioni legate al lavoro, assunzioni, compensazioni, promozioni, licenziamenti o disciplina ?",TRUE,,
HRPCH3S3L2,hrp_assessment,HRPCH3S3L2-7,Point,7,D-7,D-7,"Esiste un regolamento interno che indica cosa è vietato e le sanzioni coinvolte?
Queste sanzioni rispettano i diritti dei lavoratori (nessuna trattenuta sui salari, nessuna violenza fisica, ecc.)?
I dipendenti sono in consapevolezza di questo regolamento e queste sanzioni ?",TRUE,,
HRPCH3S3,hrp_assessment,HRPCH3S3L3,Level,3,C,Level C,,TRUE,,
HRPCH3S3L3,hrp_assessment,HRPCH3S3L3-1,Point,1,C-1,C-1,Il fornitore fa un uso eccessivo di contratti a breve termine/ determinati (ad es. più del 15% dei lavoratori della linea di produzione sono contratti determinati / a breve termine)?,TRUE,,
HRPCH3S3L3,hrp_assessment,HRPCH3S3L3-2,Point,2,C-2,C-2,Esiste un processo per i dipendenti per rispondere e/o presentare ricorso contro qualsiasi decisione disciplinare senza conseguenze negative?,TRUE,,
HRPCH3S3L3,hrp_assessment,HRPCH3S3L3-3,Point,3,C-3,C-3,Le donne che ritornano dal congedo di maternità godono di una posizione equivalente con pari retribuzione?,TRUE,,
HRPCH3S3L3,hrp_assessment,HRPCH3S3L3-4,Point,4,C-4,C-4,"Se ci sono altri obblighi normativi locali rispetto a quanto sopra (es: visita medica, assicurazione medica privata...), sono rispettati?",TRUE,,
HRPCH3S3L3,hrp_assessment,HRPCH3S3L3-5,Point,5,C-5,C-5,Il turnover umano è monitorato e le root causes analizzate ? (Precisare il modo in cui viene calcolato + target e il risultato),TRUE,,
HRPCH3S3L3,hrp_assessment,HRPCH3S3L3-6,Point,6,C-6,C-6,L'assenteismo è monitorato e le root causes analizzate (Precisare il modo in cui viene calcolato + target e il risultato)?,TRUE,,
HRPCH3S3L3,hrp_assessment,HRPCH3S3L3-7,Point,7,C-7,C-7,"È definita una procedura di licenziamento chiara nel regolamento interno?
Se qualcuno è stato licenziato, la procedura è stata registrata?",TRUE,,
HRPCH3S3L3,hrp_assessment,HRPCH3S3L3-8,Point,8,C-8,C-8,"I managers responsabili della gestione dei dipendenti, sono in consapovelza dei recquisiti di base  di Decathlon (E & D) per i capitoli 9,10,11?",TRUE,,
HRPCH3S3L3,hrp_assessment,HRPCH3S3L3-9,Point,9,C-9,C-9,Il fornitore ha una politica e agisce per combattere la discriminazione?,TRUE,,
HRPCH3S3L3,hrp_assessment,HRPCH3S3L3-10,Point,10,C-10,C-10,"Il fornitore dispone di una politica e agisce per combattere le molestie e gli abusi sul posto di lavoro?
",TRUE,,
HRPCH3S3L3,hrp_assessment,HRPCH3S3L3-11,Point,11,C-11,C-11,"Nei paesi in cui il congedo annuale non è obbligatorio per legge, il fornitore autorizza ferie annuali retribuite ?",TRUE,,
HRPCH3S3,hrp_assessment,HRPCH3S3L4,Level,4,B,Level B,,TRUE,,
HRPCH3S3L4,hrp_assessment,HRPCH3S3L4-1,Point,1,B-1,B-1,"Il fornitore ha un programma per promuovere le pari opportunità e l'inclusione per tutti (ad es. parità di genere, inclusione delle persone con disabilità, inclusione delle minoranze)?",TRUE,,
HRPCH3S3L4,hrp_assessment,HRPCH3S3L4-2,Point,2,B-2,B-2,"Oltre a quanto sopra, il fornitore è impegnato in programmi di sviluppo per i dipendenti e/o la comunità locale?",TRUE,,
HRPCH3S3L4,hrp_assessment,HRPCH3S3L4-3,Point,3,B-3,B-3,Il fornitore ha un programma per gli investimenti della comunità con obiettivi specifici per il miglioramento delle questioni sociali nelle comunità locali?,TRUE,,
HRPCH3S3L4,hrp_assessment,HRPCH3S3L4-4,Point,4,B-4,B-4,Altre best practice messe in pratica:,TRUE,,
HRPCH3,hrp_assessment,HRPCH3S4,Section,4,3.4,GESTIONE DELLA RESPONSABILITÀ SOCIALE,,TRUE,,
HRPCH3S4,hrp_assessment,HRPCH3S4L1,Level,1,E,Level E,,TRUE,,
HRPCH3S4L1,hrp_assessment,HRPCH3S4L1-1,Point,1,E-1,E-1,Ci sono delle prove che il fornitore stia subappaltando la produzione di Decathlon ad altri siti di produzione non approvati (non dichiarati a Decathlon)?,TRUE,,
HRPCH3S4,hrp_assessment,HRPCH3S4L2,Level,2,D,Level D,,TRUE,,
HRPCH3S4L2,hrp_assessment,HRPCH3S4L2-1,Point,1,D-1,D-1,Ci sono delle prove che il fornitore abbia subappaltato la produzione di Decathlon ad altri siti di produzione non approvati (non dichiarati a Decathlon) negli ultimi 6 mesi ?,TRUE,,
HRPCH3S4L2,hrp_assessment,HRPCH3S4L2-2,Point,2,D-2,D-2,Il fornitore è in possesso del codice di condotta di Decathlon in fabbrica ?,TRUE,,
HRPCH3S4L2,hrp_assessment,HRPCH3S4L2-3,Point,3,D-3,D-3,"Esiste una persona (o un team) incaricato della gestione del progetto HRP del fornitore (del suo sito industriale)?
La persona (o il team responsabile) che è a conoscenza del contenuto del codice di condotta e della griglia HRP è in grado di identificare i rischi HRP e di attuare le azioni necessarie?",TRUE,,
HRPCH3S4L2,hrp_assessment,HRPCH3S4L2-4,Point,4,D-4,D-4,"Quando viene identificato un punto di non conformità (attraverso l'autovalutazione o altro), il fornitore è in grado di individuarne la causa ed attuare un piano di azione correttivo?",TRUE,,
HRPCH3S4,hrp_assessment,HRPCH3S4L3,Level,3,C,Level C,,TRUE,,
HRPCH3S4L3,hrp_assessment,HRPCH3S4L3-1,Point,1,C-1,C-1,"Il fornitore ha gli strumenti necessari per tenersi aggiornato sui regolamenti e sulle leggi più recenti legate all' HRP?
C'è qualcuno che si occupa di questo processo di aggiornamento ?",TRUE,,
HRPCH3S4L3,hrp_assessment,HRPCH3S4L3-2,Point,2,C-2,C-2,Il fornitore effettua regolarmente un'autovalutazione/Gemba da solo su tutti i capitoli di questa griglia?,TRUE,,
HRPCH3S4L3,hrp_assessment,HRPCH3S4L3-3,Point,3,C-3,C-3,"C'è, almeno, un punto E o D di questa griglia che non è stato valutato corretamente durante l'ultimo Gemba/autovalutazione?",TRUE,,
HRPCH3S4L3,hrp_assessment,HRPCH3S4L3-4,Point,4,C-4,C-4,Se è stato identificato uno o piu punti E/D durante l'ultimo gemba walk/autovalutazione: è stato attuato un adeguato piano d'azione correttivo?,TRUE,,
HRPCH3S4L3,hrp_assessment,HRPCH3S4L3-5,Point,5,C-5,C-5,"Le persone impiegate dalle aziende esterne e che lavorano sul sito del fornitore (es. guardia di sicurezza, addetti alla pulizia, dipendenti di cucina, giardiniere...) lavorano in condizioni di lavoro che raggiungono almeno il livello C dei capitoli HR e Working Hours di questa griglia?",TRUE,,
HRPCH3S4L3,hrp_assessment,HRPCH3S4L3-6,Point,6,C-6,C-6,Il fornitore analizza i rischi umani da tutti i suoi fornitori coinvolti nella produzione di Decathlon?,TRUE,,
HRPCH3S4L3,hrp_assessment,HRPCH3S4L3-7,Point,7,C-7,C-7,"A seguito della sua analisi dei rischi (DVR), il fornitore attua un sistema di monitoraggio e di azione preventiva per i rischi umani?",TRUE,,
HRPCH3S4,hrp_assessment,HRPCH3S4L4,Level,4,B,Level B,,TRUE,,
HRPCH3S4L4,hrp_assessment,HRPCH3S4L4-1,Point,1,B-1,B-1,"Il fornitore dispone di una strategia pluriennale di sostenibilità sociale scritta con obiettivi, elaborati in condivisione con gli stakeholders più rilevanti?",TRUE,,
HRPCH3S4L4,hrp_assessment,HRPCH3S4L4-2,Point,2,B-2,B-2,"Il sito del fornitore dispone di un sistema per rivedere/aggiornare/migliorare regolarmente le sue strategie, la sua politica aziendale e le sue procedure (scritte o informali)?
C'è una persona responsabile di questo processo di aggiornamento ?",TRUE,,
HRPCH3S4L4,hrp_assessment,HRPCH3S4L4-3,Point,3,B-3,B-3,"Il fornitore comunica pubblicamente la sua strategia di sostenibilità, i suoi impegni e i suoi risultati ?",TRUE,,
HRPCH3S4L4,hrp_assessment,HRPCH3S4L4-4,Point,4,B-4,B-4,"Il fornitore si impegna con o partecipa a delle iniziative con le parti interessate (altre marche, governi, NGO, altri fornitori, iniziative ecc) per migliorare le condizioni sociali e di lavoro?",TRUE,,
HRPCH3S4L4,hrp_assessment,HRPCH3S4L4-5,Point,5,B-5,B-5,Altre best practice messe in pratica:,TRUE,,
