no,country,process,supplier_name,supplier_code,product,family,pl_name
1,China,Plastic & Composite,Beto,73661,pump,MTB,Richard Yang
2,China,Plastic & Composite,Beto,73661,pump,RIDE,Richard Yang
3,China,BIKE,SR,62260,Saddle & saddle cover,Saddle & saddle cover,Jason Xu
4,China,Plastic & Composite,AST,70358,TT Table,TT Table,Perry Jiang
5,China,Plastic & Composite,AST,70358,Racket,Racket,Perry Jiang
6,China,Plastic & Composite,Better,73859,hiking pool,hiking pool,Jimmy Li
7,China,Metal,Chuba,71198,Pantenque bowls,Pantenque bowls,Paul Luo
8,China,Optics,HWAMAO,72320,Glasses,Glasses,Danny SHI
9,China,Plastic & Composite,Jiuyang,11745,Fishing rod,Fishing rod,Candice Tang
10,China,Metal,Karasawa,71534,classic goal,classic goal-L size,Paul Luo
11,China,Metal,Karasawa,71534,classic goal,classic goal-M size,Paul Luo
12,China,Metal,Karasawa,71534,classic goal,classic goal-S size,Paul Luo
13,China,Metal,Kingbonn,73502,scooter,freestyle,Bob ZHou
14,China,Metal,Mega,6961,cooking set,cooking set,Jimmy Li
15,China,Metal,Mega,6961,Vacuum bottle,Vacuum bottle,Jimmy Li
16,China,BIKE,Modus,72778,alloy hub,alloy hub,Jianwei Cai
17,China,Metal,NTFL,87144,BAR,0.35mm,Lily ZHou
18,China,Metal,NTFL,87144,iron disk,iron disk,Lily ZHou
19,China,Metal,NTFL,87144,Kettle Bell,0.35mm,Lily ZHou
20,China,Metal,NTFL,87144,1.2m curl bar,1.2m curl bar,Lily ZHou
21,China,Metal,NTFL,87144,rubber,rubber,Lily ZHou
22,China,Plastic & Composite,Senhai,77226,Juniro Roller,Juniro Roller,Daniel Niu
23,China,helmet,STG,11913,Inmold PC,Inmold PC,Welson Wei
24,China,Plastic & Composite,Wentai,61428,Golf trolley,Golf trolley,Kelvin Lu
25,China,Metal,HF,69807,Fishing carp level chair,Fishing carp level chair,Fiona Zhao
26,China,Metal,HF,69807,Fishing carp trolley,Fishing carp level chair,Fiona Zhao
27,China,Metal,HF,69807,Fishing pole roller,Fishing carp level chair,Fiona Zhao
28,China,Metal,HF,69807,Camping bed,60,Jasmine Wu
29,China,Metal,HF,69807,Camping bed,L100,Jasmine Wu
30,China,Metal,HF,69807,Camping chair,armchair,Jasmine Wu
31,China,Metal,HF,69807,Camping tables,Camping tables,Jasmine Wu
32,China,Plastic & Composite,Holee,72292,pump,kite,Fred Zhang
33,China,Plastic & Composite,Holee,72292,Massage,500,Fred Zhang
34,China,Metal,Arcana,61995,Bench,PB500,Wang Zhengwei
35,China,Metal,Arcana,61995,Bench,RC 100/500,Wang Zhengwei
36,China,Metal,Arcana,61995,Bench,RC 900,Wang Zhengwei
37,China,Metal,Arcana,61995,Bench,TS 100,Wang Zhengwei
38,China,Metal,Arcana,61995,RO,R120,Wang Zhengwei
39,China,Metal,Arcana,61995,TC,T500,David Xu
40,China,Metal,Arcana,61995,TC,T520,David Xu
41,China,Metal,Arcana,61995,TC,T900,David Xu
42,China,Metal,Arcana,61995,TC,WALK 500,David Xu
43,China,Metal,Arcana,61995,RO,R500,Wang Zhengwei
44,China,Metal,Arcana,61995,VE,EL100,Black Ye
45,China,Metal,Arcana,61995,VE,EL120,Black Ye
46,China,Metal,Arcana,61995,VE,EL500,Black Ye
47,China,Metal,Arcana,61995,VE,EL520,Black Ye
48,China,Metal,Arcana,61995,VM,BIKE 500,Hongwei Geng
49,China,Metal,Arcana,61995,VM,MB01,Hongwei Geng
50,China,Metal,Arcana,61995,VM,VA530,Hongwei Geng
51,China,Metal,Arcana,61995,VM,VM130,Hongwei Geng
52,China,Metal,Arcana,61995,VM,VM230,Hongwei Geng
53,China,Metal,Arcana,61995,VM,VM430,Hongwei Geng
54,China,BIKE,Leonis,45956,Frame,MPA 17,Ni Zhang
55,China,BIKE,Leonis,45956,Frame,RDA 17,Ni Zhang
56,China,Metal,Massload,,scooter,T7 XL,
57,China,BIKE,JD,93479,RUN RIDE,900,Alex Tan
58,China,Metal,Yuanliang,45350,scooter,Play 120 V5,Jiayue Xu
59,China,Plastic & Composite,Xpro,72995,Metal tennis rackets,Metal tennis rackets,Sean Yuan
60,China,Plastic & Composite,Otis,62930,Racket,Racket,Ivy Guo
61,China,BIKE,CST,71512,TUBE,TUBE,ALEX  
62,China,BIKE,CST,95804,TIRE,TIRE,ALEX  
63,China,Metal,SMT,73763,Ministepper,Ministepper,Thomas Yang
64,China,Metal,SMT,73763,Treadmil,climb,Thomas Yang
65,China,Metal,SMT,73763,Treadmil,EIR,Thomas Yang
66,China,Metal,SMT,73763,Treadmil,T540,Thomas Yang
67,China,Metal,SMT,73763,BIKE,VS700,Thomas Yang
68,China,Metal,SMT,73763,BIKE,VS900,Thomas Yang
69,China,ELECTRONIC,DeZhijie,45562,Leisure Watch,Leisure Watch,Lina DING
70,China,ELECTRONIC,Ezon ,77373,Heart rate monitor watch,Heart rate monitor watch,Ted SHI
71,China,ELECTRONIC,HL,77374,Leisure Watch,Leisure Watch,Lina DING
72,China,BIKE,FSD,61839,BIKE,BIKE,Richard han
73,China,Metal,OceanMaster,,Fitness,Fitness,Gracia
74,China,Plastic & Composite,Emax,68377,Fishing rod,Fishing rod,Bo Wang
75,China,BIKE,FSD,61839,Frame,Aluminium,Roger Li
76,China,BIKE,FSD,61839,Frame,steel,Roger Li
77,China,Plastic & Composite,GW,70722,Fishing rod,Fishing rod,Catniss
78,China,Metal,OceanMaster,,Trampoline,Trampoline,Jianguo Wang
79,China,Plastic & Composite,OGK,,SKI MASK,SKI MASK,JANE
80,China,Metal,Tangshan Chenyang,,SG 500,SG 501,Frank
81,China,Optics,Huilu,,Swimming Goggle,Swimming Goggle,Jitao
82,China,Optics,Huilu,,Selfin,Selfin,Jitao
83,China,BIKE,Xinglong,71535,Suspension fork,Suspension fork,Jason Xu
84,China,BIKE,Xinglong,71535,seatpost,SP207 247,Jason Xu
85,China,BIKE,VP,72019,Grip,Grip,Jason Xu
86,China,BIKE,VP,72019,pedal,pedal,Jason Xu