parent_tag,ref_model,guideline_tag,section_type,section_no,section_name,title,content,active,note_header,note_bullets
,quality_assessment,QACH1,Chapter,1,Chapter 1,QUALITY LEADERSHIP IN THE COMPANY - INTERNAL QUALITY MANAGEMENT,,TRUE,,
QACH1,quality_assessment,QACH1S1,Section,1,1.1,Leadership of Quality,The management create the conditions to delight customers,TRUE,,
QACH1S1,quality_assessment,QACH1S1L1,Level,1,D,Level D,,TRUE,,
QACH1S1L1,quality_assessment,QACH1S1L1-1,Point,1,D-1,D-1," The general management define a quality policy (quality commitment with clear axis, in a format adapted to the company) with related measurable targets. ",TRUE,,
QACH1S1L1,quality_assessment,QACH1S1L1-2,Point,2,D-2,D-2,The General management is responsible of quality: The general management (or a representive) is committed toward quality and is able to explain the organisation and main axis and give adapted means to achieve the targets (ex: Human ressources).,TRUE,,
QACH1S1L1,quality_assessment,QACH1S1L1-3,Point,3,D-3,D-3,Minimum one skilled* person is responsible for the quality system and reports to the general management (Ex: general manager of the company; plant manager: The top management level of the company is concerned by quality).,TRUE,* Skilled:  ,
BULLET,quality_assessment,QACH1S1L1-3,,,,,,TRUE,,"- Academic or professionnal training, "
BULLET,quality_assessment,QACH1S1L1-3,,,,,,TRUE,,- Experience in quality domain. 
BULLET,quality_assessment,QACH1S1L1-3,,,,,,TRUE,,- Understand and explain  the quality organisation
BULLET,quality_assessment,QACH1S1L1-3,,,,,,TRUE,,- Explain the quality risks and  stakes  of the company 
QACH1S1,quality_assessment,QACH1S1L2,Level,2,C,Level C,,TRUE,,
QACH1S1L2,quality_assessment,QACH1S1L2-1,Point,1,C-1,C-1,"Axis of Quality Policy are translated into concrete targets, adapted to the stakes.",TRUE,,
QACH1S1L2,quality_assessment,QACH1S1L2-2,Point,2,C-2,C-2,Quality axis and targets are communicated throughout the company and understood by all employees in their scope of responsibilities. ,TRUE,,
QACH1S1L2,quality_assessment,QACH1S1L2-3,Point,3,C-3,C-3,"Quality axis and targets are translated into concrete actions at all the levels in the organisation, measured by relevant KPIs.",TRUE,Ex: ,
BULLET,quality_assessment,QACH1S1L2-3,,,,,,TRUE,,- Quality Axis: We want to Improve customer satisfaction
BULLET,quality_assessment,QACH1S1L2-3,,,,,,TRUE,,- Quality target: We will reduce the customers returns.  
BULLET,quality_assessment,QACH1S1L2-3,,,,,,TRUE,,- Quality Indicator (KPI) is return rate (rpm)
QACH1S1,quality_assessment,QACH1S1L3,Level,3,B,Level B,,TRUE,,
QACH1S1L3,quality_assessment,QACH1S1L3-1,Point,1,B-1,B-1,"The Quality axis and targets are reviewed and validated on a regular basis, at least once per year.",TRUE,,
QACH1S1L3,quality_assessment,QACH1S1L3-2,Point,2,B-2,B-2,The Quality management system is under a continuous improvement and demonstrates sustainable performance.,TRUE,,
QACH1,quality_assessment,QACH1S2,Section,2,1.2,Internal Quality Management,The supplier describes his way to manage internal Quality,TRUE,,
QACH1S2,quality_assessment,QACH1S2L1,Level,1,D,Level D,,TRUE,,
QACH1S2L1,quality_assessment,QACH1S2L1-1,Point,1,D-1,D-1,"A Quality Management System is formalized and can be explained ( for instance : Standards, SOP,  controls records, ...) ",TRUE,,
QACH1S2L1,quality_assessment,QACH1S2L1-2,Point,2,D-2,D-2,Roles and responsabilities are well defined and communicated. (Ex: role sheet or jobsheet availables and known by relevants peoples).,TRUE,,
QACH1S2,quality_assessment,QACH1S2L2,Level,2,C,Level C,,TRUE,,
QACH1S2L2,quality_assessment,QACH1S2L2-1,Point,1,C-1,C-1,"A management review of the system, performed at least once a year to : ",TRUE,,
BULLET,quality_assessment,QACH1S2L2-1,,,,,,TRUE,,1) Determine and evaluate Quality Management System (QMS) performance
BULLET,quality_assessment,QACH1S2L2-1,,,,,,TRUE,,2) Determine the need for change and improvement
BULLET,quality_assessment,QACH1S2L2-1,,,,,,TRUE,,3) Determine the suitability of the policies and the targets
QACH1S2L2,quality_assessment,QACH1S2L2-2,Point,2,C-2,C-2,Internal Quality assessment of the QMS is done to evaluate compliance with the requirements described in this quality grid. Actions plans are set up accordingly to solve the gaps identified.,TRUE,,
QACH1S2L2,quality_assessment,QACH1S2L2-3,Point,3,C-3,C-3,Frequency of internal assessment is adapted to the stakes of company.,TRUE,,
QACH1S2L2,quality_assessment,QACH1S2L2-4,Point,4,C-4,C-4,"Internal quality indicators (KPIs) defined at 1.1 are communicated and monitored. (Ex: rate of internal non conformed products, quality costs). The frequency for monitoring is adapted to stakes and complexity of the company.",TRUE,,
QACH1S2L2,quality_assessment,QACH1S2L2-5,Point,5,C-5,C-5,"Supplier implements action plan accordingly including : actions, leader, periods.",TRUE,,
QACH1S2,quality_assessment,QACH1S2L3,Level,3,B,Level B,,TRUE,,
QACH1S2L3,quality_assessment,QACH1S2L3-1,Point,1,B-1,B-1,Technologic watch is implemented to follow evolution of market and to ensure that system is adapted to risks and stakes.,TRUE,,
QACH1S2L3,quality_assessment,QACH1S2L3-2,Point,2,B-2,B-2,Quality indicators are reviewed on a regular basis and are under continuous improvement.,TRUE,,
QACH1S2L3,quality_assessment,QACH1S2L3-3,Point,3,B-3,B-3,Action plans progress and their efficiency are reviewed on a regular basis by the quality team.,TRUE,,
QACH1,quality_assessment,QACH1S3,Section,3,1.3,Document Management,The supplier ensure the documentation available on site is relevant and up to date,TRUE,,
QACH1S3,quality_assessment,QACH1S3L1,Level,1,C,Level C,,TRUE,,
QACH1S3L1,quality_assessment,QACH1S3L1-1,Point,1,C-1,C-1,"A process to create, validate and communicate the documents of the Quality Management System is implemented. ",TRUE,,
QACH1S3L1,quality_assessment,QACH1S3L1-2,Point,2,C-2,C-2,The documents available on site (Procedures / Standards / Control Records...) have a review index and date.,TRUE,,
QACH1S3L1,quality_assessment,QACH1S3L1-3,Point,3,C-3,C-3,The documents are consistent with Decathlon specifications such as: ,TRUE,,
BULLET,quality_assessment,QACH1S3L1-3,,,,,,TRUE,,- Technical requirement (Tech Pack)
BULLET,quality_assessment,QACH1S3L1-3,,,,,,TRUE,,"- chemical requirement (RSL), "
BULLET,quality_assessment,QACH1S3L1-3,,,,,,TRUE,,- General Terms of Delivery (GTD)
BULLET,quality_assessment,QACH1S3L1-3,,,,,,TRUE,,- Production contract....
QACH1S3,quality_assessment,QACH1S3L2,Level,2,B,Level B,,TRUE,,
QACH1S3L2,quality_assessment,QACH1S3L2-1,Point,1,B-1,B-1,"Documentation on site is reviewed and updated on a regular basis, at least once a year, to ensure inclusion of:",TRUE,,
BULLET,quality_assessment,QACH1S3L2-1,,,,,,TRUE,,1. improvements on the  Quality Management System
BULLET,quality_assessment,QACH1S3L2-1,,,,,,TRUE,,2. Capitalisation of Corrective Action Plan related to a problem.
QACH1,quality_assessment,QACH1S4,Section,4,1.4,Contract Management,The comitments between Decathlon and the supplier are clear,TRUE,,
QACH1S4,quality_assessment,QACH1S4L1,Level,1,D,Level D,,TRUE,,
QACH1S4L1,quality_assessment,QACH1S4L1-1,Point,1,D-1,D-1,"All contractual elements between Decathlon and supplier must be up to date, signed and dated. Ex: initials on each page, or electronic validation, or page with list of all amendments in the contract depending on the legal requirements. ",TRUE,Examples:,
BULLET,quality_assessment,QACH1S4L1-1,,,,,,TRUE,,"- Contract and appendixes (including RSL, GTD... ).  (Signed by Decathlon production office and supplier). "
BULLET,quality_assessment,QACH1S4L1-1,,,,,,TRUE,,- Tech Pack (Signed by Production leader and supplier). 
BULLET,quality_assessment,QACH1S4L1-1,,,,,,TRUE,,"- Master sample, if required (signed by product engineer, production leader and supplier). They are kept for a duration defined with Decathlon."
BULLET,quality_assessment,QACH1S4L1-1,,,,,,TRUE,,- Exemptions (derogated situations) are signed and limited in time with appropriate Corrective Actions Plan.
QACH1S4,quality_assessment,QACH1S4L2,Level,2,C,Level C,,TRUE,,
QACH1S4L2,quality_assessment,QACH1S4L2-1,Point,1,C-1,C-1,"The supplier analyzes DECATHLON's specifications (accessories, components, chemical products and semi-finished goods), translates them in its documentary system, completing them if necessary and communicates them to its own suppliers.",TRUE,Ex: technical sheets for:,
BULLET,quality_assessment,QACH1S4L2-1,,,,,,TRUE,,"- accessories, "
BULLET,quality_assessment,QACH1S4L2-1,,,,,,TRUE,,"- components, "
BULLET,quality_assessment,QACH1S4L2-1,,,,,,TRUE,,- chemicals
BULLET,quality_assessment,QACH1S4L2-1,,,,,,TRUE,,- semi-finished products.
QACH1S4L2,quality_assessment,QACH1S4L2-2,Point,2,C-2,C-2,The respect of Rank 2 suppliers comitment can be assessed through:,TRUE,,
BULLET,quality_assessment,QACH1S4L2-2,,,,,,TRUE,,- A commitment certificate from its supplier. 
BULLET,quality_assessment,QACH1S4L2-2,,,,,,TRUE,,- regular tests reports of its supplier. 
BULLET,quality_assessment,QACH1S4L2-2,,,,,,TRUE,,-  incoming controls.
QACH1S4,quality_assessment,QACH1S4L3,Level,3,B,Level B,,TRUE,,
QACH1S4L3,quality_assessment,QACH1S4L3-1,Point,1,B-1,B-1,Supplier performs yearly assessment on its contractual documents to ensure they are up to date. ,TRUE,,
,quality_assessment,QACH2,Chapter,2,Chapter 2,RESOURCE MANAGEMENT,,TRUE,,
QACH2,quality_assessment,QACH2S1,Section,1,2.1,Skills management,"People do jobs, Skilled and motivated peoples make fantastics products",TRUE,,
QACH2S1,quality_assessment,QACH2S1L1,Level,1,D,Level D,,TRUE,,
QACH2S1L1,quality_assessment,QACH2S1L1-1,Point,1,D-1,D-1,"There is an up to date list of trained and validated people for control activities (incoming, online, final and laboratory controls) and for quality management team, which includes:",TRUE,,
BULLET,quality_assessment,QACH2S1L1-1,,,,,,TRUE,, - Training date and validation
BULLET,quality_assessment,QACH2S1L1-1,,,,,,TRUE,, - Trainer's name
BULLET,quality_assessment,QACH2S1L1-1,,,,,,TRUE,, - Training content adapted to the topic
QACH2S1,quality_assessment,QACH2S1L2,Level,2,C,Level C,,TRUE,,
QACH2S1L2,quality_assessment,QACH2S1L2-1,Point,1,C-1,C-1,Job sheet with necessary skills are defined for each position.,TRUE,,
QACH2S1L2,quality_assessment,QACH2S1L2-2,Point,2,C-2,C-2, Production skills ability ,TRUE,"There is an up to date list of trained and validated people to perform the manufacturing, maintenance and process parameters monitoring operations including:",
BULLET,quality_assessment,QACH2S1L2-2,,,,,,TRUE,, - Training date and validation
BULLET,quality_assessment,QACH2S1L2-2,,,,,,TRUE,, - Trainer's name
BULLET,quality_assessment,QACH2S1L2-2,,,,,,TRUE,, - Training content adapted to the topic
QACH2S1L2,quality_assessment,QACH2S1L2-3,Point,3,C-3,C-3,Formalisation,TRUE,There is a staff training procedure that specifies how to:,
BULLET,quality_assessment,QACH2S1L2-3,,,,,,TRUE,, - Train
BULLET,quality_assessment,QACH2S1L2-3,,,,,,TRUE,, - Evaluate
BULLET,quality_assessment,QACH2S1L2-3,,,,,,TRUE,, - Validate
BULLET,quality_assessment,QACH2S1L2-3,,,,,,TRUE,, - Maintain competency over time
QACH2S1L2,quality_assessment,QACH2S1L2-4,Point,4,C-4,C-4,Formalisation,TRUE,Training documents are available and up to date.,
QACH2S1L2,quality_assessment,QACH2S1L2-5,Point,5,C-5,C-5,The quality manager is able to build and monitor his team competencies.,TRUE,,
QACH2S1,quality_assessment,QACH2S1L3,Level,3,B,Level B,,TRUE,,
QACH2S1L3,quality_assessment,QACH2S1L3-1,Point,1,B-1,B-1, Skills matrix,TRUE,Employees in charge and their replacements in case of absence are identified. ,
QACH2S1L3,quality_assessment,QACH2S1L3-2,Point,2,B-2, B-2,Continuous improvement,TRUE,The needs of new skills or training is identified and adressed.,
,quality_assessment,QACH3,Chapter,3,Chapter 3,OPERATIONAL ACTIVITIES,,TRUE,,
QACH3,quality_assessment,QACH3S1,Section,1,3.1,"Stocks management and packaging (accessories, components, raw materials, semi-finished goods and finished products) ",The stocks are accurate and well organised,TRUE,,
QACH3S1,quality_assessment,QACH3S1L1,Level,1,D,Level D,,TRUE,,
QACH3S1,quality_assessment,QACH3S1L2,Level,2,C,Level C,,TRUE,,
QACH3S1,quality_assessment,QACH3S1L3,Level,3,B,Level B,,TRUE,,
QACH3,quality_assessment,QACH3S2,Section,2,3.2,Workstation ,Workstations are designed to create the best conditions to produce. The right informations are availables.,TRUE,,
QACH3S2,quality_assessment,QACH3S2L1,Level,1,D,Level D,,TRUE,,
QACH3S2,quality_assessment,QACH3S2L2,Level,2,C,Level C,,TRUE,,
QACH3S2,quality_assessment,QACH3S2L3,Level,3,B,Level B,,TRUE,,
QACH3,quality_assessment,QACH3S3,Section,3,3.3,Identification and traceability ,Be able everytime and everywhere to find our products in case of problem to protect users,TRUE,,
QACH3S3,quality_assessment,QACH3S3L1,Level,1,D,Level D,,TRUE,,
QACH3S3,quality_assessment,QACH3S3L2,Level,2,C,Level C,,TRUE,,
QACH3S3,quality_assessment,QACH3S3L3,Level,3,B,Level B,,TRUE,,
QACH3,quality_assessment,QACH3S4,Section,4,3.4,Control plan : Product and process parameters ,I master all the steps of the process through check/control and react in propoer way to produce every minutes the same compliant products,TRUE,,
QACH3S4,quality_assessment,QACH3S4L1,Level,1,E,Level E,,TRUE,,
QACH3S4,quality_assessment,QACH3S4L2,Level,2,D,Level D,,TRUE,,
QACH3S4,quality_assessment,QACH3S4L3,Level,3,C,Level C,,TRUE,,
QACH3S4,quality_assessment,QACH3S4L4,Level,4,B,Level B,,TRUE,,
QACH3,quality_assessment,QACH3S5,Section,5,3.5,Calibration (All tools used for conformity inspection) ,Calibrated tools gives you a relevant measure of your process / product.,TRUE,,
QACH3S5,quality_assessment,QACH3S5L1,Level,1,D,Level D,,TRUE,,
QACH3S5,quality_assessment,QACH3S5L2,Level,2,C,Level C,,TRUE,,
QACH3S5,quality_assessment,QACH3S5L3,Level,3,B,Level B,,TRUE,,
QACH3,quality_assessment,QACH3S6,Section,6,3.6,Maintenance ,I maintain my equipments to ensure the ability to produce.,TRUE,,
QACH3S6,quality_assessment,QACH3S6L1,Level,1,D,Level D,,TRUE,,
QACH3S6,quality_assessment,QACH3S6L2,Level,2,C,Level C,,TRUE,,
QACH3S6,quality_assessment,QACH3S6L3,Level,3,B,Level B,,TRUE,,
QACH3,quality_assessment,QACH3S7,Section,7,3.7,Suppliers management ,I manage my suppliers to ensure the quality of my components and raw materials.,TRUE,,
QACH3S7,quality_assessment,QACH3S7L1,Level,1,D,Level D,,TRUE,,
QACH3S7,quality_assessment,QACH3S7L2,Level,2,C,Level C,,TRUE,,
QACH3S7,quality_assessment,QACH3S7L3,Level,3,B,Level B,,TRUE,,
QACH3S1L1,quality_assessment,QACH3S1L1-1,Point,1,D-1,D-1,All Stock including chemicals products areas are:,TRUE,,
BULLET,quality_assessment,QACH3S1L1-1,,,,,,TRUE,,- Defined / organised
BULLET,quality_assessment,QACH3S1L1-1,,,,,,TRUE,,- Clean
BULLET,quality_assessment,QACH3S1L1-1,,,,,,TRUE,,- In order
BULLET,quality_assessment,QACH3S1L1-1,,,,,,TRUE,,"Ex. The supplier has defined storage areas by product, by reference and by status (OK/to control/NOK). They are clearly identified and respected all over the storage areas."
QACH3S1L1,quality_assessment,QACH3S1L1-2,Point,2,D-2,D-2,A policy of stocks rotation exist and is applied (ex : FIFO).,TRUE,,
QACH3S1L2,quality_assessment,QACH3S1L2-1,Point,1,C-1,C-1,Organisation,TRUE,Storage conditions are defined and applied.,
QACH3S1L2,quality_assessment,QACH3S1L2-2,Point,2,C-2,C-2,Organisation,TRUE,"Packaging are adapted to the risks linked to storage, handling and transportation. ",
QACH3S1L2,quality_assessment,QACH3S1L2-3,Point,3,C-3,C-3,Organisation,TRUE,Supplier is able to give a storage state of raw materials and products ready to ship: The informations matches between the theoretical stock and the physical stock.,
QACH3S1L3,quality_assessment,QACH3S1L3-1,Point,1,B-1,B-1,Optimization & Production planning,TRUE,"The supplier is able to plan the production, i.e. :",
BULLET,quality_assessment,QACH3S1L3-1,,,,,,TRUE,,"- For each order, the supplier knows exactly the quantities of raw materials, components and accessories requested to manufacture a product"
BULLET,quality_assessment,QACH3S1L3-1,,,,,,TRUE,,"- The supplier knows its actual stock for its accessories, raw materials, components and semi-finished goods and what he needs to order (or re-order)"
BULLET,quality_assessment,QACH3S1L3-1,,,,,,TRUE,,- The supplier has defined its production capacities per machine and labour
BULLET,quality_assessment,QACH3S1L3-1,,,,,,TRUE,,"- The supplier knows which machines are available, which machines can't be used because of maintenance operations and has defined a clear planning of what is planned."
QACH3S2L1,quality_assessment,QACH3S2L1-1,Point,1,D-1,D-1,Method to make the products is known and applied by operator,TRUE,,
QACH3S2L1,quality_assessment,QACH3S2L1-2,Point,2,D-2,D-2,"SOP are formalized, available at each workstation and applied for each products, including what and how to do (ex: tools, chronology...) ",TRUE,,
QACH3S2L1,quality_assessment,QACH3S2L1-3,Point,3,D-3,D-3,"The workstation is organized and adapted to the operation (Ex: Clean, light, etc)",TRUE,,
QACH3S2L1,quality_assessment,QACH3S2L1-4,Point,4,D-4,D-4,"Every specific equipment to a model / product (Ex: Die Cutting tools, injections molds.....) is identified and can be linked to this model / product.",TRUE,,
QACH3S2L2,quality_assessment,QACH3S2L2-1,Point,1,C-1,C-1,The supplier has defined key workstations based on critical and majors control points identified in the control plan.,TRUE,,
QACH3S2L2,quality_assessment,QACH3S2L2-2,Point,2,C-2,C-2,"If a Decathlon production  requirements (DPR) is availaible, this is integrated into SOP. ",TRUE,,
QACH3S2L3,quality_assessment,QACH3S2L3-1,Point,1,B-1,B-1,SOP are updated to capitalize a corrective action plan.,TRUE,,
QACH3S3L1,quality_assessment,QACH3S3L1-1,Point,1,D-1,D-1,Identification,TRUE,"Material is identified at each production stage (At least the identification is the name of the material) : All the raw materials, component, accessories, semifinished and finished products",
QACH3S3L1,quality_assessment,QACH3S3L1-2,Point,2,D-2,D-2,Traceability on finish goods ,TRUE,,
QACH3S3L1,quality_assessment,QACH3S3L1-3,Point,3,D-3,D-3,"For each product batch/serial number, the supplier is able to link in both direction the dates of production and quantity produced with delivery location and dates.",TRUE,,
QACH3S3L2,quality_assessment,QACH3S3L2-1,Point,1,C-1,C-1,Traceability on critical and majors elements (Linked to users safety and product functionnality),TRUE,,
BULLET,quality_assessment,QACH3S3L2-1,,,,,,TRUE,,"- Supplier formalizes list of critical raw materials, components, accessories and semi-finished items to trace."
BULLET,quality_assessment,QACH3S3L2-1,,,,,,TRUE,,"- For these critical raw materials, components, accessories and semi-finished items, the supplier is able to link in both directions their batch number with Decathlon order number."
QACH3S3L3,quality_assessment,QACH3S3L3-1,Point,1,B-1,B-1,Full traceability,TRUE,"For all raw materials, components, accessories and semi-finished items : The supplier is able to link in both directions their batch number with Decathlon order number.",
QACH3S3L3,quality_assessment,QACH3S3L3-2,Point,2,B-2,B-2,Full traceability,TRUE,The supplier does at a defined frequency a traceability exercise to ensure the system is working properly.,
QACH3S4L1,quality_assessment,QACH3S4L1-1,Point,1,E-1,E-1,For supplier's control plan: Incoming / Online / Final  control (Including Laboratory & Toxicology),TRUE,"The Critical & Majors control points/methods are defined, formalized, known and applied at each step of the process.",
BULLET,quality_assessment,QACH3S4L1-1,,,,,,TRUE,,"*Critical & Major controls are defined  by PE in TechPack according to the risk analysis on products and aligned with the supplier in control plan (Risk example : Legal, image, safety, functional)."
BULLET,quality_assessment,QACH3S4L1-1,,,,,,TRUE,,Critical: non-conformity that impacts user’s safety in reasonable use of the product or that represents a legal risk.
BULLET,quality_assessment,QACH3S4L1-1,,,,,,TRUE,,"Major: non-conformity that impacts or forbid the sale, the use or the assembly of the product."
QACH3S4L1,quality_assessment,QACH3S4L1-2,Point,2,E-2,E-2,For supplier's control plan: Incoming / Online / Final  control (Including Laboratory & Toxicology),TRUE,"Critical & Majors controls are recorded and available. Archiving duration is defined according to product risk, product lifetime or contractual commitment.",
BULLET,quality_assessment,QACH3S4L1-2,,,,,,TRUE,,"*Critical & Major controls are defined  by PE in TechPack according to the risk analysis on products and aligned with the supplier in control plan (Risk example : Legal, image, safety, functional)."
BULLET,quality_assessment,QACH3S4L1-2,,,,,,TRUE,,Critical: non-conformity that impacts user’s safety in reasonable use of the product or that represents a legal risk.
BULLET,quality_assessment,QACH3S4L1-2,,,,,,TRUE,,"Major: non-conformity that impacts or forbid the sale, the use or the assembly of the product."
QACH3S4L1,quality_assessment,QACH3S4L1-3,Point,3,E-3,E-3,For supplier's control plan: Incoming / Online / Final  control (Including Laboratory & Toxicology),TRUE,"Controller is able to take a decision of conformity (adapted and calibrated tools, targets and tolerances) and reaction mode is clearly defined.",
BULLET,quality_assessment,QACH3S4L1-3,,,,,,TRUE,,"*Critical & Major controls are defined  by PE in TechPack according to the risk analysis on products and aligned with the supplier in control plan (Risk example : Legal, image, safety, functional)."
BULLET,quality_assessment,QACH3S4L1-3,,,,,,TRUE,,Critical: non-conformity that impacts user’s safety in reasonable use of the product or that represents a legal risk.
BULLET,quality_assessment,QACH3S4L1-3,,,,,,TRUE,,"Major: non-conformity that impacts or forbid the sale, the use or the assembly of the product."
QACH3S4L1,quality_assessment,QACH3S4L1-4,Point,4,E-4,E-4,"If a Major or Critical control deficiency is identified, there is a later stage in the process to detect and control it before the product is shipped to Decathlon.",TRUE,,
QACH3S4L2,quality_assessment,QACH3S4L2-1,Point,1,D-1,D-1,For supplier's control plan: Incoming / Online / Final  control (Including Laboratory & Toxicology),TRUE,"Control points/methods are defined, formalised, known and applied at each step of the process.",
QACH3S4L2,quality_assessment,QACH3S4L2-2,Point,2,D-2,D-2,For supplier's control plan: Incoming / Online / Final  control (Including Laboratory & Toxicology),TRUE,Controls are recorded and available.,
QACH3S4L2,quality_assessment,QACH3S4L2-3,Point,3,D-3,D-3,For supplier's control plan: Incoming / Online / Final  control (Including Laboratory & Toxicology),TRUE,Control methods and frequencies are consistent with requirements defined in the tech pack (see chapter 1.4 - Contract Management).,
QACH3S4L2,quality_assessment,QACH3S4L2-4,Point,4,D-4,D-4,For supplier's control plan: Incoming / Online / Final  control (Including Laboratory & Toxicology),TRUE,"Controller is able to take a decision of conformity (tools, targets and tolerances) and reaction mode is clearly defined.",
QACH3S4L3,quality_assessment,QACH3S4L3-1,Point,1,C-1,C-1,"Based on experience, industrialisation, historical datas or  risks analysis, the control plan is optimized in a continuous improvement mindset.",TRUE,Example: control frequency is reviewed according to the performance analysis (main defects) or feedback from the customer.,
QACH3S4L4,quality_assessment,QACH3S4L4-1,Point,1,B-1,B-1,"There is a routine in place to detect trends, gaps, and problems in the control activities.",TRUE,,
QACH3S4L4,quality_assessment,QACH3S4L4-2,Point,2,B-2,B-2,Capitalization,TRUE,"The controls plan is updated according to the identified risks on similar products (good practices generalisation), and based on history of controls.",
QACH3S5L1,quality_assessment,QACH3S5L1-1,Point,1,D-1,D-1,Calibration and identification (I know my tool and its limits for Incoming / Online / Final  control and Laboratory equipment),TRUE,"Tools in use have unique identification, including at least tool no. and expiration date. ",
QACH3S5L1,quality_assessment,QACH3S5L1-2,Point,2,D-2,D-2,Calibration and identification (I know my tool and its limits for Incoming / Online / Final  control and Laboratory equipment),TRUE,Calibration of tool in use is up to date (calibration report and/or record available for each tool). When calibration is outdated or tool is damaged: tools are clearly identified and isolated. ,
QACH3S5L1,quality_assessment,QACH3S5L1-3,Point,3,D-3,D-3,Calibration and identification (I know my tool and its limits for Incoming / Online / Final  control and Laboratory equipment),TRUE,Tools tolerance is aligned to the measurement range specified.,
QACH3S5L1,quality_assessment,QACH3S5L1-4,Point,4,D-4,D-4,Calibration and identification (I know my tool and its limits for Incoming / Online / Final  control and Laboratory equipment),TRUE,Internal calibration can be done if: ,
BULLET,quality_assessment,QACH3S5L1-4,,,,,,TRUE,,* person in charge knows the calibration methodology.
BULLET,quality_assessment,QACH3S5L1-4,,,,,,TRUE,,* Tools used as reference are externally calibrated by accredited company.
QACH3S5L2,quality_assessment,QACH3S5L2-1,Point,1,C-1,C-1,Formalization,TRUE,There is a list of tools to be calibrated which mentions:,
BULLET,quality_assessment,QACH3S5L2-1,,,,,,TRUE,,- Tool identification number
BULLET,quality_assessment,QACH3S5L2-1,,,,,,TRUE,,- Responsible for calibration (internal or external)
BULLET,quality_assessment,QACH3S5L2-1,,,,,,TRUE,,- Tool tolerance
BULLET,quality_assessment,QACH3S5L2-1,,,,,,TRUE,,- Date of calibration and date of validity.
QACH3S5L2,quality_assessment,QACH3S5L2-2,Point,2,C-2,C-2,Formalization,TRUE,"Calibration methods for internal calibration are formalized, up to date, respected and applied. They define:",
BULLET,quality_assessment,QACH3S5L2-2,,,,,,TRUE,,- Person in charge of calibration
BULLET,quality_assessment,QACH3S5L2-2,,,,,,TRUE,,- What tools to calibrate
BULLET,quality_assessment,QACH3S5L2-2,,,,,,TRUE,,- When to calibrate
BULLET,quality_assessment,QACH3S5L2-2,,,,,,TRUE,,- How to calibrate
QACH3S5L3,quality_assessment,QACH3S5L3-1,Point,1,B-1,B-1,Prevention and Risks mastery,TRUE,Intermediary verifications (between each calibration) are done to avoid any deviation of measure equipment (ex : inspection cards). ,
QACH3S5L3,quality_assessment,QACH3S5L3-2,Point,2,B-2,B-2,Prevention and Risks mastery,TRUE,Actions linked to these verifications are defined and followed.,
QACH3S5L3,quality_assessment,QACH3S5L3-3,Point,3,B-3,B-3,Prevention and Risks mastery,TRUE,Incidents which can impact  tool's calibration are monitored and managed by an actions plan (ex : knocks and shocks to a tool).,
QACH3S6L1,quality_assessment,QACH3S6L1-1,Point,1,D-1,D-1,Know how,TRUE,"In case of breakdown, production operator and maintenance operator know what to do and apply it.",
BULLET,quality_assessment,QACH3S6L1-1,,,,,,TRUE,,"Ex: person to inform, person responsible for maintenance operations, specific identification, isolation / machine stop..."
QACH3S6L1,quality_assessment,QACH3S6L1-2,Point,2,D-2,D-2,Ability and recording,TRUE,Préoperationnal controls are made to ensure the production start in good conditions.,
QACH3S6L1,quality_assessment,QACH3S6L1-3,Point,3,D-3,D-3,Ability and recording,TRUE,"In case of maintenance intervention or machine replacement, only authorized person validates restart (stabilized process which guarantees product conformity). ",
QACH3S6L1,quality_assessment,QACH3S6L1-4,Point,4,D-4,D-4,Ability and recording,TRUE,"Currative maintenance interventions are recorded and available (date, type of maintenance, person in charge of the operation, person who has validated restart).",
QACH3S6L2,quality_assessment,QACH3S6L2-1,Point,1,C-1,C-1,Formalization and prevention,TRUE,"Supplier formalizes and communicates in proximity of workstation actions to take in case of breakdown (specific identification, isolation/stop of the machine, recording, restart conditions). ",
QACH3S6L2,quality_assessment,QACH3S6L2-2,Point,2,C-2,C-2,Formalization and prevention,TRUE,A list of critical machines is set up according to the quality-costs-delays risks. There is a plan to manage breakdowns on critical machines (subcontracted intervention / spare parts stock availability),
QACH3S6L2,quality_assessment,QACH3S6L2-3,Point,3,C-3,C-3,Formalization and prevention,TRUE,There is a maintenance planning available (with frequency and operations to do) and an up to date state of the machines .,
QACH3S6L2,quality_assessment,QACH3S6L2-4,Point,4,C-4,C-4,Formalization and prevention,TRUE,"Preventive maintenance operations are recorded and available per machine (date, type of maintenance, person in charge of operation).",
QACH3S6L3,quality_assessment,QACH3S6L3-1,Point,1,B-1,B-1,Optimization,TRUE,Critical machines list is updated at a defined frequency according to recorded operations. ,
QACH3S6L3,quality_assessment,QACH3S6L3-2,Point,2,B-2,B-2,Optimization,TRUE,Preventive maintenance planning is up to date according to recorded operations.,
QACH3S6L3,quality_assessment,QACH3S6L3-3,Point,3,B-3,B-3,Optimization,TRUE,Investments plan of the company is aligned with maintenance data analysis.,
QACH3S7L1,quality_assessment,QACH3S7L1-1,Point,1,D-1,D-1,Referencing,TRUE,"An up to date list of components, accessories and raw materials  suppliers is available.",
QACH3S7L1,quality_assessment,QACH3S7L1-2,Point,2,D-2,D-2,The approved suppliers are in coherence with the contractual documents signed.,TRUE,"In case of change, Decathlon is informed before implementation.",
QACH3S7L1,quality_assessment,QACH3S7L1-3,Point,3,D-3,D-3,"For each change of component/raw material supplier, there is no impact on the specifications of the finish products.""",TRUE,,
QACH3S7L2,quality_assessment,QACH3S7L2-1,Point,1,C-1,C-1,Performance management,TRUE,"Internal quality indicators are defined and followed to monitor rank n suppliers (i.e: non conform products rate),  and manage them accordingly (Action plan, person in charge, deadline, actions efficiency follow-up).",
QACH3S7L2,quality_assessment,QACH3S7L2-2,Point,2,C-2,C-2,Performance management,TRUE,A new supplier's validation procedure  is available and applied. ( ex new component validationtion / supplier evaluation...),
QACH3S7L3,quality_assessment,QACH3S7L3-1,Point,1,B-1,B-1,Rank n suppliers assessment:,TRUE,"A list of critical rank n suppliers is available (i.e: new supplier, new process, innovative product, new site, high rate of non conformity). ",
QACH3S7L3,quality_assessment,QACH3S7L3-2,Point,2,B-2,B-2,Rank n suppliers assessment:,TRUE,Quality audits are planned at these suppliers.,
,quality_assessment,QACH4,Chapter,4,Chapter 4,NON CONFORMITIES MANAGEMENT AND CORRECTIVE ACTIONS,,true,,
QACH4,quality_assessment,QACH4S1,Section,1,4.1,Management of non conforming products,"At anytime, I master any non conformity to protect our customers",TRUE,,
QACH4S1,quality_assessment,QACH4S1L1,Level,1,E,Level E,,TRUE,,
QACH4S1,quality_assessment,QACH4S1L2,Level,2,D,Level D,,TRUE,,
QACH4S1,quality_assessment,QACH4S1L3,Level,3,C,Level C,,TRUE,,
QACH4S1,quality_assessment,QACH4S1L4,Level,4,B,Level B,,TRUE,,
QACH4S1L1,quality_assessment,QACH4S1L1-1,Point,1,E-1,E-1,"At each critical & major control point, reaction mode in case of non conform products is known and applied with at least:",TRUE,,
BULLET,quality_assessment,QACH4S1L1-1,,,,,,TRUE,"- A clear identification, different from the one for a conform product.",
BULLET,quality_assessment,QACH4S1L1-1,,,,,,TRUE,- A physical isolation or digital blocking in a identified and dedicated area.,
BULLET,quality_assessment,QACH4S1L1-1,,,,,,TRUE,- In case of rework: reworked products are all fully rechecked.,
QACH4S1L2,quality_assessment,QACH4S1L2-1,Point,1,D-1,D-1,There is a procedure defined to manage non conform  product in the factory and to protect the users including:,TRUE,,
BULLET,quality_assessment,QACH4S1L2-1,,,,,,TRUE,- Detection and  isolation,
BULLET,quality_assessment,QACH4S1L2-1,,,,,,TRUE,"- Actions to adress the defects (Rework, destruction.......)",
BULLET,quality_assessment,QACH4S1L2-1,,,,,,TRUE,- Information of Decathlon when product is different from teck pack and/or master sample.,
BULLET,quality_assessment,QACH4S1L2-1,,,,,,TRUE,- Derogation procedure ,
QACH4S1L2,quality_assessment,QACH4S1L2-2,Point,2,D-2,D-2,There is at least one person responsible and trained for the management of non-conformity.,TRUE,,
QACH4S1L3,quality_assessment,QACH4S1L3-1,Point,1,C-1,C-1,"Supplier monitors its performance through relevants KPI's. (ex:defect rate, right first time rate...)",TRUE,,
QACH4S1L3,quality_assessment,QACH4S1L3-2,Point,2,C-2,C-2,"At each control step, he is able to provide non conforms rates .",TRUE,,
QACH4S1L3,quality_assessment,QACH4S1L3-3,Point,3,C-3,C-3,"Conformity rate is monitored at a relevant frequency. (ex: pareto, top 3.....). When needed, actions, dead line and responsible peoples are defined.",TRUE,,
QACH4S1L3,quality_assessment,QACH4S1L3-4,Point,4,C-4,C-4,Problem solving: There is a solving methodology in place (from qualification to capitalisation),TRUE,,
QACH4S1L4,quality_assessment,QACH4S1L4-1,Point,1,B-1,B-1,People involved in the problems solving are trained to the methodology.,TRUE,,
QACH4S1L4,quality_assessment,QACH4S1L4-2,Point,2,B-2,B-2,"There are KPI that measure efficiency of actions implemented to solve the problems. (ex: recurrence, improvements on defects/blocking rates...).",TRUE,,
QACH4S1L4,quality_assessment,QACH4S1L4-3,Point,3,B-3,B-3,"There is a capitalization system in place to avoid recurrence of non conformances. (Creation/update of procedures, standards, control plans......)",TRUE,,
