chapter,level,point,how_to_check
"1.1: Skill management
",D,"1. Job description, working instruction and required skills are defined & updated for each role/job of supply chain;",">Check JD, working instruction and required skills of each role of supply chain.
>Check history update record. If no record, check what is the frequecny to update."
"1.1: Skill management
",D,2. There is standard job transfer file and procedure for each role of supply chain.,>Check with each supply chain role if standard job transfer file and procedure are avaiable and reasonable.
"1.1: Skill management
",D,3. There is identified employee as mentor to train new comer of supply chain and backup in case of absence.,">Check if mentor is available to train new comer.
>If backup for each role is available?"
2.1 - ORDER MANAGEMENT,E,"1. Order feasibility (ex, Qty, LT) is analyzed before validation;",>Check with order managemer relay how the EHD is confirmed?(What info are needed? From who?)
2.1 - ORDER MANAGEMENT,E,"2. New orders are feedback in time, maximum in 1 week;",">Check the limitation period to feedback new order defined with SPL.
>Random check a confirmed order, to see if within the limitation period."
2.1 - ORDER MANAGEMENT,E,"3. If order's EHD is out of defined tolerance, there is prompt formal communication with Decathlon.",">Check how long is the defined tolerance of EHD vs CHD.
>Check if any order EHD is out of tolerance, if yes, how to communicate with SPL?"
2.1 - ORDER MANAGEMENT,D,"0. There is formalized SOP (including who do what, when, how) to manage orders which are known and applied;",">Check if formalized SOP is available, concrete and clear.
>Observe if the relay is following SOP during his/her operation."
2.1 - ORDER MANAGEMENT,D,1. Basic order information is available and reliable;,">Check if order follow up file is available, basic order info is available and reliable or not. (eg, random check CHD/EHD match with Link or not.)"
2.1 - ORDER MANAGEMENT,D,"2. Understand different functions to manage orders in LINK (such as extract new orders, validate orders, update EHD etc.) or ORDMAX for Yarn/CPT suppliers;",">Observe relay to operation system. Eg, extract new orders, validate orders, update BDP/EPD/EHD, extract forecast, etc.
>FG factory operates in LINK, CPT/Yarn factory in ORDMAX."
2.1 - ORDER MANAGEMENT,D,3. Lead Time break down is available and commitment is respected;,">Check if LT breakdown for all models are available or not.
>Random select order to evaluate if factory followed commitment LT to confirm order."
2.1 - ORDER MANAGEMENT,D,4. Order's EHD are weekly updated in LINK and reliable (same for BPD/EPD if migrated to Highway),">Random check EHD in LINK with order follow up file, and check the frequency for EHD update.
>If HW integrated, random check if order BPD/EPD in system matches with factory production planning department.(MTS model)"
2.1 - ORDER MANAGEMENT,D,"5. For MTS with delegation models (blue supply), FG stock quantity is weekly updated to SPL by system or excel",">For MTS models (blue supply), check how/when factory update FG stock qty to SPL."
2.2 - PRODUCTION PLANNING,"E
","1.There is people responsible for production planning management, who understands the products and key manufacturing process. (newly add)",>Let production planning relay to introduce products & key process.
2.2 - PRODUCTION PLANNING,"E
",2. Basic capacity information is offered and available capacity or stock (if MTS) is checked to confirm new orders (basic feasibility analysis);,">Check if basic capacity info is available.
>Check how the relay confirm new order. (eg, if based on available capacity or FG stock for MTS)"
2.2 - PRODUCTION PLANNING,"E
","3. There is internal communication if big discrepancy between plan and real output,which will cause HOT delay.",">Check if big discrepancy btw plan and real output, if cause HOT delay, check if internal formal communication record."
2.2 - PRODUCTION PLANNING,D,"0. There is formalized SOP (include who do what, when, how) to manage production planning & execution, which are known and applied;",">Check if formalized SOP is available, concrete and clear.
>Observe if the relay is following SOP during his/her operation."
2.2 - PRODUCTION PLANNING,D,"1. Production parameters and global capacity status (like MOQ,LT, cycle time per items) are mastered to define a reliable production planning;",">Check if production planning considers capacity, MOQ, LT, etc, to ensure planning reliability."
2.2 - PRODUCTION PLANNING,D,2. Work order information is offered and coherent with the real situation,>Check if work order info is coherent with real production.
2.2 - PRODUCTION PLANNING,D,3. Production planning is updated weekly to align with the real capacity;,>Check if production planning is updated regularly to align with real capacity.
2.2 - PRODUCTION PLANNING,D,4. Capacity booking is reviewed based on a season horizon with Decathlon. (newly add),">Check how factory plan long term capacity(year/half year), on Decathlon seasonal horizon? With monthly update?"
2.3: COMPONENT PURCHASE,"E
",1.There is people responsible to manage component purchase and check availability of components. (basic feasibility analysis);,>Check if purchase relay is following order delivery to ensure availability.
2.3: COMPONENT PURCHASE,"E
","2.There is basic MRP sense (include BOM, Inventory, Lead time) and know how to calculate component requirement;",">Observe how CPT needs are calculated, whether following MRP logic(including BOM, stock, LT, etc)"
2.3: COMPONENT PURCHASE,"E
","3.There is internal communication if big shortage or delay of component, which will cause HOT delay.",">Select delayed purchase order which will cause HOT delay, check internal communication record."
2.3: COMPONENT PURCHASE,D,"0. There is formalized SOP (include who do what, when, how) to manage purchase planning, which are known and applied;",">Check if formalized SOP is available, concrete and clear.
>Observe if the relay is following SOP during his/her operation."
2.3: COMPONENT PURCHASE,D,"1.DKL purchase requirement(subcontracting or purchase from nominated supplier or wholesale, etc) is respected and known;",">Check if purchase relay is clear and respect DKL purchase requirment (subcontracting or purchase from nominated supplier or wholesale, etc)"
2.3: COMPONENT PURCHASE,D,"2.Component database is regularly reviewed and updated for right MRP calculation (like component reference, price, LT, MOQ, supplier,DKL's quality approval, BOM information¡­)",">Check current version component database is accurate or not(component reference, price, LT, MOQ, DKL's quality approval, BOM info, etc), and check history version if matching factory's updating frequency."
2.3: COMPONENT PURCHASE,D,"3.The mutual commitments linked to DKL Supply method (CBA,CPT Max, FIRM order­) are known and component purchase are planned accordingly. (MRP analysis for orders and forecasts)",">Factory introduces mutual commitments of current SMT with DKL(CBA, CPT max, full LT)
>Obeserve factory how to operate for relevant SMT."
2.3: COMPONENT PURCHASE,D,"4. Purchase order status is managed, component shortage rate of work order is regularly piloted, related departments are alerted in case of shortage or delay.",">Check how factory monitors CPT shortage rate of work order.
>Random select delayed purchase order, and check internal communication record."
"2.4: STOCK MANAGEMENT (component, finished products)","E
","1. There is people responsible to manage the stock, and stock input/output system/docs is maintained.
",>Warehouse relay introduces how he/she maintains CPT/FG stock input/output.
"2.4: STOCK MANAGEMENT (component, finished products)",D,"0. There is formalized SOP (include who do what, when, how) to manage stock input/output, which are known and applied by all;",">Check if formalized SOP is available, concrete and clear.
>Observe if the relay is following SOP during his/her operation."
"2.4: STOCK MANAGEMENT (component, finished products)",D,"1. The storage area/label is clearly identified, and layout chart of component/FG is defined to facilitate the picking.",">On site check if clear layout of CPT/FG warehouse, and storage area/label is clear or not."
"2.4: STOCK MANAGEMENT (component, finished products)",D,"2. The stock take is regularly conducted to ensure system datas are consistent with real physical stock (include CPT, FG);",">Check history stock take record if match factory's defined frequency。
>Random check if system data is coherent with physical stock."
"2.4: STOCK MANAGEMENT (component, finished products)",D,3. The logic of DECATHLON's stock take is clearly understood and reliable data can be provided by supplier; (for sub contracting flow),">For Sub contracting flow, let factory to operate to explain the logic of DKL's stock take, and ensure reliable data."
"2.4: STOCK MANAGEMENT (component, finished products)",D,"4. For Blue Supply/CAC factory/F2C project, the storage area is separately identified and regular stock take is done to ensure FG stock accuracy; (physical/information)",">For Blue Supply/CAC factory/F2C project, on site check if storage area is separated and clearly identified.
>Check relevant FG stock take frequency, and random check if system data is coherent with physical stock or not."
2.5: SHIPMENT,"E
",1. There is people responsible and trained for shipment management and CAPE system.,>Check when shipment relay is trained and if training record is available or not.
2.5: SHIPMENT,"E
",2. It's communicated in time formally with Decathlon whenever there are changes of delivery plan or delivery exceptions;,">Check history of delivery plan changes, and communication record to Decathlon."
2.5: SHIPMENT,"E
","3. For Flow 4/8/CAC factory, there is people responsible for specific flow management. Assigned people have been trained how to manage Flow 4/8/CAC factory/F2C. (newly add)",">For Flow 4/8/CAC factory, check who is responsible and if get trained."
2.5: SHIPMENT,D,0. Shipment SOP and training material are available and updated with last Decathlon informations.,">Check if formalized SOP and training material are available, and if updated according to DKL's latest requirement."
2.5: SHIPMENT,D,"1. Shipment planning is weekly reviewed base on EPD (end production date), EHD in CAPE is updated timely and valid customs documents are provided on time;",">Check if factory weekly review EPD to ensure reliability of delivery plan.
>Let factory introduce when to update EHD and how to provide valid customs documents."
2.5: SHIPMENT,D,"2. CAPE system is used skillfully by suppliers (such as AS management, EHD update in time, item referencing update in AS & manage with Decathlon, Split the AS ...);",">Observe relay to operate CAPE(AS management, EHD update in time, item referencing update in AS & manage with Decathlon, Split the AS ...)"
2.5: SHIPMENT,D,"3. The incoterm with DKL and local handover procedure are known (documents to send, booking process, weekly schedule, export HS code to be declared, weight control request…) for all relative types of transportation (sea, rail,air…);",">What is incoterm with DKL? And let factory introduce operation process and documents needed of sea, rail, air shipment."
2.5: SHIPMENT,D,"4. If FCL or component shipment, supplier know how to make the loading planning according to the shipment schedule;",>Check with relay when and how to arrange FCL or component shipment.
2.6: GTD MANAGEMENT,E,1. The responsibility of GTD control is well understood by supplier and latest version of GTD contract is signed with Decathlon.,>GTD relay introduceS his/her responsibility and check if latest version GTD contract is signed or not.
2.6: GTD MANAGEMENT,E,"2. SHU label is reprinted and relabeled on parcels, if AS is re-created or modified (like change of quantities / PCB / items / Warehouse).newly add",">Check if factory reprinted SHU, and when needed to be repinted."
2.6: GTD MANAGEMENT,D,1. The last updated GTD requirements of Decathlon is implemented correctly;,">Obeserve on site GTD checking by GTD relay, to verify if coherent with GTD requirment."
2.6: GTD MANAGEMENT,D,2. GTD check is done based on GTD requirement and there is up to date GTD record;,">Check history GTD report, to see if following GTD requirement.(checking frequency & ratio)"
2.6: GTD MANAGEMENT,D,3. GTD problem products are identified and isolated before they get treated,">Check if any GTD dective identified and isolated in specific area.(eg in GTD defective area)
>Check with GTD relay the procedure to treat GTD defectives."
"2.7- SUPPLIER CUSTOMER RELATIONSHIP
",D,1. Main responsibility of PL/RS/CPM (PZP if have) role is known by supplier (link with production activity);,">Check with factory if clear about the role&responsibility of PL/RS/CPM, PZP(if have)"
"2.7- SUPPLIER CUSTOMER RELATIONSHIP
",D,2. Supply priority & KPI is regularly reviewed and action plan is defined;,">Factory introduces DKL supply priority& KPI, review at what frequency, any action plan defined accrodingly."
"2.7- SUPPLIER CUSTOMER RELATIONSHIP
",D,3. Decathlon supply chain flow (implantation & replenishment) and season timeline is known and supplier's responsibility is understood & implemented (before/during/after season);,">Factory introduces DKL Implantation&replenishment flow, season timeline, and what to be done before/during/after season."
,,,
