guideline_tag,title_zhcn,content_zhcn,note_header_zhcn,note_bullets_zhcn
QACH1,公司的品质主导-内部质量管理,,,
QACH2,资源管理,,,
QACH3, 运营活动,,,
QACH4,不合格品管控和改善措施,,,
QACH1S1,质量的领导力（以质量为主导）,管理体系创造让顾客满意的条件,,
QACH1S2, 内部质量管理,,,
QACH1S3,文件管理,文件描述制程和供应商的承诺,,
QACH1S4,合约的管理 ,迪卡侬与供应商之间的承诺要清晰,,
QACH2S1,技能管理 ,人们创造工作，熟练和有动力的人能做出了不起的产品,,
QACH3S1, 库存管理及包装（配件，零部件，原物料，半成品及成品）,,,
QACH3S2,生产车间,工人生产我们的产品，给他们创造良好工作环境的条件，以生产最佳产品 我在我的工作岗位得心应手，我知道怎么做，我很容易知道我做的是好是坏，我有自主权来正确反应,,
QACH3S3,标识与追踪 ,能够随时、随时随地找到我们产品，以防问题，保护用户,,
QACH3S4,控制计划：产品与制程的参数,我通过检查/控制掌握制程的所有步骤，以各种方式做出反应，确保每分钟都生产出同样好的产品，以满足用户的需求。,,
QACH3S5, 校验（针对检验时使用的所有工具）,,,
QACH3S6, 维护保养,,,
QACH3S7, 供应商管理,,,
QACH4S1,不合格品的管理,无论何时，不合格品尽在掌握中,,
QACH1S1L1-1,,"管理层定义相关的质量方针 （ 有清晰的轴线, 采用与公司相适应的格式,以及相关的可衡量目标去实现质量的承诺.",,
QACH1S1L1-2,,管理层要对质量负责：总经理（或代表）致力于质量，能够解释组织和主轴，并给出实现目标的适当方法（例如：人力资源）。,,
QACH1S1L1-3,,至少一名熟练人员负责质量体系和直接报告给管理层。例如（公司的总经理；厂长：关注质量的公司最高管理层）,* 熟练：,"- 证书 或者 专业培训，
-  在质量领域拥有经验
-  理解和解释质量组织
-  解释质量风险和公司利益"
QACH1S1L2-1,,质量方针轴转化为具体的目标，适应风险。,,
QACH1S1L2-2,,质量轴和目标在公司内部进行沟通，所有员工都理解其职责范围,,
QACH1S1L2-3,,质量轴和目标转化为组织中所有级别的具体行动，由相关的关键绩效指标衡量。,例如：,"- 质量轴线： 我们致力提升客户满意度
- 质量目标： 我们将会减少客户退货
- 质量关键绩效指标： 退货率 （ RPM））"
QACH1S1L3-1,,质量轴和目标定期进行审查和验证，每年至少一次。,,
QACH1S1L3-2,,质量管理体系持续改进，绩效可持续。,,
QACH1S2L1-1,,质量管理体系已经正式化，可以解释（例如：标准、SOP、控制记录等）。,,
QACH1S2L1-2,,职责和职能被很好地定义和传达。（例如：职责和职位描述要可提供，并为相关人员所知）。,,
QACH1S2L2-1,,质量体系的审查至少一年一次：,,"1) 确定和评估质量管理体系（QMS）的绩效
2) 确定变化和改善的需要
3) 确定政策和目标的适用性"
QACH1S2L2-2,,质量管理体系的内部质量评估旨在评估是否符合本质量所述的要求。,,
QACH1S2L2-3,,相应地制定行动计划，以解决发现的差距。内部评估的频率与公司的风险相适应。,,
QACH1S2L2-4,,1.1中定义的内部质量指标（KPI）进行沟通和监控。（例如：内部不合格品率、质量成本）。监控的频率与公司的风险和复杂性相适应。,,
QACH1S2L2-5,,供应商执行相应的行动计划，包括：行动、负责人、有效期。,,
QACH1S2L3-1,,实时参与政策规范的变化是为了跟踪市场的发展，确保系统能够适应风险。,,
QACH1S2L3-2,,定期对质量指标进行评审，并持续改进。,,
QACH1S2L3-3,,质量团队定期审查行动计划的进度和效率。,,
QACH1S3L1-1,,工厂要有一个清晰的从质量管理体系文件的创建、验证和沟通过程，并按此实施。,,
QACH1S3L1-2,,现场可用的文件（程序/标准/控制记录…）有审查索引和日期。,,
QACH1S3L1-3,,文件要与迪卡侬要求一致：,,"-  技术文件 （ Tech Pack）
- 化学品要求 （ RSL）
- 一般交货条件 （ GTD）
- 采购合同"
QACH1S3L2-1,,定期审查和更新现场文件，至少每年一次，以确保包括：,,"1.质量管理体系的改进。
2.与问题相关的改善行动的规范总结。"
QACH1S4L1-1,,迪卡侬和供应商之间的所有合同必须是最新的、签署的和要有日期。例如：每页签字，或电子签字，或根据法律要求列出合同中所有修订的页面。,例如：,"- 合同和附件（包括RSL、GTD…）（迪卡侬生产办公室和供应商签字）。
- 技术文件（由生产负责人和供应商签字）。
- 三方签样板，如果需要（由产品工程师、生产主管和供应商签字）。
- 它们的保存期限由迪卡侬规定。
- 让步接收协议要双方签名，并在限定期限采取相关整改措施。"
QACH1S4L2-1,,"要求落实到2级供应商

供应商分析迪卡侬的规格（配件、组件、化工产品和半成品），把其要求转化成内部文件系统中，并将其传达给自己的供应商。",例如：,"- 配件，
- 组成部分，
- 化学品
- 半成品。"
QACH1S4L2-2,,2级供应商对是否遵守要求的承诺可通过以下方式进行评估：,,"-供应商的承诺证书。
-供应商的定期试验报告。
-来料控制。"
QACH1S4L3-1,, 供应商每年审查合同文件以确保其为最更新的资料。,,
QACH2S1L1-1,,"质量方面的技能

工厂建立一份管控控制和质量管理团队的培训和考核的清单，（管控人员包括：来料，在线，尾查和实验室）：",,"-受训或批准日期
-培训人
-培训内容"
QACH2S1L2-1,,每个职位要在工作表上定义具有必要的技能。,,
QACH2S1L2-2,,生产技能能力,有一份最新的经过培训和验证的人员名单，用于执行制造、维护和工艺参数监控操作，包括：,"-培训日期和考核日期
-培训人
-适应主题的培训内容"
QACH2S1L2-3,,正规化,确定员工培训的程序，规定了如何：,"-培训
-评估
-考核
-随着时间的推移保持的能力"
QACH2S1L2-4,,培训文件可用且最为更新。,,
QACH2S1L2-5,,质量经理能够建立和监控他的团队能力。,,
QACH2S1L3-1,,技能图,确定负责人及其在缺勤时的替代人员,
QACH2S1L3-2,,持续改进,确定并满足新技能或培训的需求。,
QACH3S1L1-1,,所有的库存，包括化学品储存区域：,,"-有规划的
-清洁的
-整齐的
例如：供应商根据不同的产品，不同的编号，不同的情况（合格/待检/不合格）规划存储区域。区域有清晰明确的标识，存储遵守标识"
QACH3S1L1-2,, 执行库存管理周转的政策 （如：先进先出）,,
QACH3S1L2-1,,组织性,供应商制定并条件存储条件。,
QACH3S1L2-2,,组织性,根据存储，搬运及运输的风险确定了合适的包装方法。,
QACH3S1L2-3,,组织性,供应商能够提供原料的库存状况和准备出货的产品的库存状况：实际的库存与理论库存的信息要吻合.,
QACH3S1L3-1,,最优化&生产计划,供应商能够计划生产，即：,"-对于每个订单，供应商准确知道生产产品所需的原材料、组件和附件的数量。
-供应商知道其配件、原材料、组件和半成品的实际库存以及需要订购（或重新订购）的物品。
-供应商已确定其每台机器和每名劳动力的生产能力。
-供应商知道哪些机器可用，哪些机器因维护操作而无法使用，并已明确规划了计划内容。"
QACH3S2L1-1,,制造产品的方法由操作者知道和应用。,,
QACH3S2L1-2,,标准操作程序已正式化，可在每个工作站上使用，并适用于每个产品，包括做什么和如何做（例如：工具、年表…）,,
QACH3S2L1-3,,工作站的组织和适应操作（例如：清洁、照明等）,,
QACH3S2L1-4,,模型/产品的每个特定设备（例如：模切工具、注射模具……）都会被识别出来，并且可以链接到该模型/产品。,,
QACH3S2L2-1,,供应商已根据控制计划中确定的关键和主要控制点定义了关键工作站。,,
QACH3S2L2-2,,如果迪卡侬生产要求（DPR）可用，则将其整合到SOP中。,,
QACH3S2L3-1,,通过改善计划的实施去更新标准操作规程,,
QACH3S3L1-1,,标识,在每个生产阶段对材料进行标识（至少标识为材料名称）：所有原材料、组件、附件、半成品和成品,
QACH3S3L1-2,,成品可追溯性。对于每个产品批次/序列号，供应商可以在双向追踪体系中提供生产日期和生产数量以及交货地点和日期。,,
QACH3S3L2-1,,关键和主要要素的可追溯性（与用户安全和产品功能相关）,,"- 供应商将建立关键原材料、组件、附件和半成品的清单，以便跟踪。
- 对于这些关键原材料、组件、附件和半成品，供应商能够将其批次号与迪卡侬订单号双向链接。"
QACH3S3L3-1,,完全可追溯性,对于所有原材料、组件、附件和半成品：供应商能够将其批次号与迪卡侬订单号双向链接。,
QACH3S3L3-2,,完全可追溯性,供应商按照规定的频率进行可追溯性验证，以确保系统正常工作。,
QACH3S4L1-1,,供应商的控制计划（来料/在线/最终控制-包括实验室和毒性要求）,关键和主要控制点/方法在过程的每一步都进行了定义、形式化、被告知和应用。记录并提供关键和主要控制的结果。存档期限根据产品风险、产品寿命或合同承诺来定义。管控人员能够做出正确决定（调整和校准工具、目标和公差），并明确定义如发现不良时的反应模式。 如果发现了主要或关键的控制的不符合项，则在产品出货到迪卡侬之前，必须一个后期阶段来检测和控制缺陷。,"*关键和主要控制由PE根据对产品的风险分析进行定义在技术资料中，并与供应商的控制计划保持一致（风险示例：法律、形象、安全、功能）。
关键：在合理使用产品时影响用户安全或代表法律风险的不符合项。
重大：影响或禁止产品销售、使用或装配的不符合项。"
QACH3S4L2-1,,供应商控制计划：进料/在线/最终控制（包括实验室和毒性要求）,控制点/方法在过程的每一步都有定义、形式化、被告知和应用。,
QACH3S4L2-2,,供应商控制计划：进料/在线/最终控制（包括实验室和毒性要求）,记录并提供控制的结果。,
QACH3S4L2-3,,供应商控制计划：进料/在线/最终控制（包括实验室和毒性要求）,控制方法和频率与技术包中规定的要求一致（见第1.4章-合同管理）。,
QACH3S4L2-4,,供应商控制计划：进料/在线/最终控制（包括实验室和毒性要求）,控制人员能够做出符合性决定（工具、目标和公差），反应模式明确规定在操作指引中。,
QACH3S4L3-1,,根据经验、工业化、历史数据或风险分析，控制计划以持续改进的心态进行优化。,（例如：控制频率根据性能分析（主要缺陷）或客户反馈进行审查。）,
QACH3S4L4-1,,在控制活动中有一个常规程序来检测趋势、差距和问题。,,
QACH3S4L4-2,,总结经验,根据已识别的类似产品风险（良好做法）和管控历史更新控制计划。,
QACH3S5L1-1,,校准和标识（我知道我的工具及其量程用于来料/在线/最终控制和实验室设备的限制）,-使用中的工具具有唯一标识，至少包括工具编号和到期日期。,
QACH3S5L1-2,,校准和标识（我知道我的工具及其量程用于来料/在线/最终控制和实验室设备的限制）,-正在使用的工具的校准是最新的（每个工具都有校准报告和/或记录）。当校准过期或工具损坏时：工具被清楚识别和隔离。,
QACH3S5L1-3,,校准和标识（我知道我的工具及其量程用于来料/在线/最终控制和实验室设备的限制）,-工具的公差与规定的测量范围一致。,
QACH3S5L1-4,,校准和标识（我知道我的工具及其量程用于来料/在线/最终控制和实验室设备的限制）,-内部校准可在以下情况下进行：,"*负责人了解校准方法。
*用作参考的工具由认证公司进行外部校准。"
QACH3S5L2-1,,形式化,有一份需要校准的工具清单，其中提到：,"-工具识别号
-负责校准（内部或外部）
-工具公差
-校准日期和有效日期。"
QACH3S5L2-2,,形式化,内部校准的校准方法已正式化、更新、被遵守和应用。它们定义：,"-校准负人
-要校准的工具
-何时校准
-如何校准"
QACH3S5L3-1,,预防与风险掌握,进行中间验证（每次校准之间），以避免测量设备（例如：检验卡）出现任何偏差。,
QACH3S5L3-2,,预防与风险掌握,定义并遵循与这些验证相关的操作。,
QACH3S5L3-3,,预防与风险掌握,可影响工具校准的事件由行动计划监控和管理（例如：工具敲击和冲击）。,
QACH3S6L1-1,,知识 ,机器故障时，操作员和机器维修员知道该做什么并遵照执行。,例如：通知谁，谁负责维修，特别的标识，隔离/停机等
QACH3S6L1-2,,能力和记录 ,进行操作控制，确保生产在良好条件下开始。,
QACH3S6L1-3,,能力和记录 ,在维修或更换机器的情况下，只有授权人员才能确认重启（稳定的生产过程，确保产品符合性）。,
QACH3S6L1-4,,能力和记录 ,记录并提供当前维护干预措施（日期、维护类型、操作负责人、验证重启的人员）。,
QACH3S6L2-1,,书面化与预防, 供应商在现场的工作站附近进行操作正式书面化和沟通：如在发生故障时（具体标识、机器的隔离/停止、记录、重启条件）。,
QACH3S6L2-2,,书面化与预防,根据质量成本、延误风险，建立关键设备清单。有计划管理关键机器的故障（分包干预/备件库存可用性）,
QACH3S6L2-3,,书面化与预防,有可用的维护计划（包括频率和操作）和机器的最新状态。,
QACH3S6L2-4,,书面化与预防,每台机器记录并提供预防性维护操作（日期、维护类型、操作负责人）。,
QACH3S6L3-1,,优化,根据记录的操作，以规定的频率更新关键机器列表。,
QACH3S6L3-2,,优化,根据记录的操作，预防性维护计划是最新的。,
QACH3S6L3-3,,优化,公司的投资计划与维护数据分析保持一致。,
QACH3S7L1-1,,引用,提供最新的零部件、附件和原材料供应商清单。,
QACH3S7L1-2,,经批准的供应商与签署的合同文件保持一致。如有变更，在大货生产前通知迪卡侬。,,
QACH3S7L1-3,,对于零部件/原材料供应商的每次变更，均不影响成品的规格。,,
QACH3S7L2-1,,绩效管理,定义并跟踪内部质量指标，以监控N级供应商（即：不合格品率），并对其进行相应管理（行动计划、负责人、期限、行动效率跟进）。,
QACH3S7L2-2,,绩效管理,新供应商的验证程序可提供并适用。（例如新组件验证/供应商评估…）),
QACH3S7L3-1,,N级供应商评估：,提供N级关键供应商名单（即：新供应商、新工艺、创新产品、新地点、高不合格率）。,
QACH3S7L3-2,,N级供应商评估：,对这些供应商进行质量审核。,
QACH4S1L1-1,,在每个关键和主要控制点，不合格产品的反应模式被了解并应用：,,"-与合格产品不同的清晰标识。
-在已确定和专用区域进行隔离或电脑系统进行阻止。
-返工时：返工后的产品全部重新检验。"
QACH4S1L2-1,,为管理工厂中的不合格产品和保护用户，规定了一个程序，包括：,,"-检测和隔离
-纠正缺陷的措施（返工、销毁……）
-当产品与技术资料不一致和/或三方签名样品不一致时，要通知迪卡侬。
-让步接收程序"
QACH4S1L2-2,,至少有一个人负责并接受过不合格品管理培训。,,
QACH4S1L3-1,,供应商通过相关的关键绩效指标监控其绩效（例如：缺陷率、首次正确率…）,,
QACH4S1L3-2,,在每个控制步骤中，他都能够提供不良率。,,
QACH4S1L3-3,,合格率以相关频率进行监测。（例如：图例表，前三名……）。必要时，确定行动、日期和负责人。,,
QACH4S1L3-4,,解决问题：建立解决方法，从了解问题到总结问题经验。,,
QACH4S1L4-1,,参与问题解决的人员接受方法培训。,,
QACH4S1L4-2,,有关键绩效指标衡量为解决问题而采取的行动的效率。（例如：重复发生，缺陷/订单阻止率的改进…,,
QACH4S1L4-3,,有一个总结问题经验的系统，以避免不符合项再次发生。（创建/更新程序、标准、控制计划……）,,
SSECH1,供应链技能管理,,,
SSECH2,供应链运营活动,,,
SSECH1S1,技能管理,,,
SSECH2S1,订单管理,,,
SSECH2S2,生产计划管理,,,
SSECH2S3,物料采购管理,,,
SSECH2S4,库存管理 (原材料，成品）,,,
SSECH2S5,出货管理,,,
SSECH2S6,包装运输管理,,,
SSECH2S7,客户关系管理,,,
SSECH1S1L2-1,,1.每个供应链的角色都有定义岗位职责书、工作指导书和需要的技能，并定期更新；,,
SSECH1S1L2-2,,2. 具有标准的工作交接表格和流程；,,
SSECH1S1L2-3,,3.有定义负责培训新员工的导师（师傅），如有缺席定义代替的员工。,,
SSECH1S1L3-1,,1. 具有员工培训的流程，规定如何进行：,,"- 学习、培训
- 评估
- 批准通过
- 定期更新技能以确保能力的胜任 "
SSECH1S1L3-2,,2. 可提供培训和学习的文件，并是更新的（如需要）,,
SSECH1S1L4-1,,1.技能管理系统会根据客户和组织的需求变化定期回顾、更新（比如增加新的技能、工具、流程等）,,
SSECH2S1L1-1,,1.在确认订单之前，有进行相关的可行性分析（如数量，交期等）,,
SSECH2S1L1-2,,2.新收到的订单能及时回复（最迟不超过一周）,,
SSECH2S1L1-3,,3.如果订单交货日期超出约定允许的范围（推迟或提早），工厂及时和正式的与迪卡侬沟通,,
SSECH2S1L2-1,,0. 有书面的订单管理SOP(操作作业流程)并且被执行,,
SSECH2S1L2-2,,1. 有基本的订单信息并且是是可靠的,,
SSECH2S1L2-3,,2.熟练掌握LINK系统的不同操作功能（如导出新订单，确认订单，更新EHD等）*原物料及材料供应商能熟练使用ORDMAX系统,,
SSECH2S1L2-4,,3. 有订单交期分解分析并且能够达成承诺交期；,,
SSECH2S1L2-5,,4.每周在LINK里更新可靠的EHD(订单预计交货日期)，如果Highway的话，更新BPD(订单生产开始时间)和EPD(订单生产完成时间),,
SSECH2S1L2-6,,5.对于MTS（按库存水位生产）的model，能够在LINK系统上每周更新正确的成品库存。,,
SSECH2S1L3-1,,1.通过实物流和信息流的分析优化以降低交货周期,,
SSECH2S1L3-2,,2.有衡量订单管理的KPI(如准时交货率，交期等)，预判未来风险并制定具体有效的改善措施,,
SSECH2S1L3-3,,3. 订单操作流程有根据迪卡侬的最新要求定期更新优化,,
SSECH2S1L3-4,,4.订单管理中出现的重大或反复出现的问题有依据问题解决步骤：定义问题，真因分析，紧急措施，改善措施和防范措施等,,
SSECH2S1L4-1,,1.有柔性灵活的订单管理解决方案（包含相应的流程、工具、技能等）以满足承诺的弹性需求；,,
SSECH2S1L4-2,,"2.通过例行管理来持续改善订单管理的KPI,如每周准交率分析，未来准交率分析，生产交期分析等；",,
SSECH2S1L4-3,,3.有持续优化订单管理体系的战略计划来提升效率和绩效,,
SSECH2S2L1-1,,1.有人负责生产计划管理，了解产品和关键制造过程,,
SSECH2S2L1-2,,2.提供基本产能信息，以可用产能或库存（例如MTS库存水位生产）为依据来确认新订单交期的可行性;,,
SSECH2S2L1-3,,3.如果计划数量与实际产出之间不符，导致订单HOT（交货准时率）延迟，有做内部沟通。,,
SSECH2S2L2-1,,0.有书面的SOP（操作作业流程）来管理生产计划，并且被执行;,,
SSECH2S2L2-2,,1.掌握生产参数及宏观产能状况（最小起订量，生产交货周期，生产周期时间）从而准确的定义可靠的生产计画;,,
SSECH2S2L2-3,,3.每周更新生产计划以符合实际产能;,,
SSECH2S2L2-4,,4.根据迪卡侬的产品季节周期来调整产能计划。,,
SSECH2S2L2-5,,2.提供生产工单信息并与实际情况保持一致,,
SSECH2S2L3-1,,"1.以满足客户需求为导向，根据产品季节週期，分析未來产能和产能瓶颈，来提前準備资源（如產線,工人......）。",,
SSECH2S2L3-2,,2.可视化生产状态，问题分析和及时采取的行动;,,
SSECH2S2L3-3,,3.评估生产事件对生产计划的影响（如5M分析）。有完整的问题分析过程（如DPS方法，Paretto分析）,,
SSECH2S2L3-4,,4.每周评估生产计划执行结果，并采取措施加以改进。 （新添加）,,
SSECH2S2L3-5,,5.生产计划SOP (操作作业流程) 定期被更新和优化。,,
SSECH2S2L4-1,,1.以生产季度为频率，通过价值流分析（比如VSD / VSM）等不同方式持续缩短生产周期;,,
SSECH2S2L4-2,,2.生产的过程/系统是拉动式，能够根据客户需求不断提供灵活性和弹性;,,
SSECH2S2L4-3,,3.有持续优化生产管理体系的战略性计划来提升效率和绩效。（像LT减少，更多的灵活性和弹性）;,,
SSECH2S3L1-1,,1.有专人负责管理物料采购并跟踪物料到货,,
SSECH2S3L1-2,,3.如果发生物料短缺或延期影响HOT(交货准时率)，有做内部沟通。,,
SSECH2S3L1-3,,"2.懂得如何按照MRP逻辑计算原料需求量(包括BOM,库存,采购周期等)",,
SSECH2S3L2-1,,"0.有书面的SOP(操作作业流程)来管理采购计划,并且被执行",,
SSECH2S3L2-2,,1.掌握并遵照迪卡侬采购的基本要求（比如具体款式对应迪卡侬供料、指定供应商采购还是跟迪卡侬采买等)；,,
SSECH2S3L2-3,,2.定期维护和更新自购物料的信息库（如参数、价格、交期、最小起定量、指定供应商名字、迪卡侬质量要求、物料表）来确保正确MRP计算；,,
SSECH2S3L2-4,,3.了解与DKL目前的订单操作模式（实单，按预估量提前备料，定期按预计量备料等等），和采购协议中双方的义务和责任，并根据协议中每个款的备料模式去订料。（按照MRP逻辑分析订单和预计数量）,,
SSECH2S3L2-5,,4.跟进并更新物料到厂情况，定期检查生产工单物料缺料率，如有缺货或延迟等异常及时通知其他相关部门。,,
SSECH2S3L3-1,,1.采购预估量会定期发给到二级供应商进行有效管理并及时反馈其他相关部门 如： 业务，生产，仓库等,,
SSECH2S3L3-2,,2.建立对二级物料供应商的绩效评估。（如：准时交货率，交期，价格等），并有明确的改善计划改善绩效指标,,
SSECH2S3L3-3,,3.对指定物料，供应商的绩效指标（如：准时交货率，交期，最小起订量等）有被定期评估并反馈给迪卡侬进行改善,,
SSECH2S3L3-4,,4.定期检查库存水平并采取措施提高库存绩效指标（如：呆滞库存、库存周转天数等）,,
SSECH2S3L3-5,,5.采购计划SOP(操作作业流程)定期被更新优化,,
SSECH2S3L4-1,,"1.有持续优化采购管理体系的战略,通过优化采购策略,持续改善采购参数，以及采购绩效指标

-采购策略（如：供应商审核,渠道整合,战略合作伙伴，总体拥有成本评估等）
采购参数（如：最小起订量,交期,价格等）
绩效指标（如：准时交货率,采购价格,质量等）",,
SSECH2S3L4-2,,2.能够根据客户需求和产品的季节性变化，及时调整采购计划和库存水平以持续提高库存周转率,,
SSECH2S4L1-1,,"1.有专人负责库存管理,并负责维护库存管理出库/入库的系统或者文件",,
SSECH2S4L2-1,,"0.有书面的SOP(操作作业流程)来管理库存的出库/入库,并且被执行",,
SSECH2S4L2-2,,1.有清晰的标识和区域划分，物料/成品存放总览图，以方便查找,,
SSECH2S4L2-3,,2.有定期进行盘库，确保帐物相符(包括物料和成品),,
SSECH2S4L2-4,,3.做来料加工的供货商：必须了解decathlon的盘库逻辑，并且保证盘库数据的准确性,,
SSECH2S4L2-5,,"4. 对于做Blue supply/CAC factory/F2C项目的工厂,库存有单独的区域存放. 进行定期盘库以确保成品库存的准确性(账物相符)",,
SSECH2S4L3-1,,"1.有预判物料或者成品的库存水平,跟踪收货/取货/发货计划,并且一旦有空间或者装/卸货能力的风险,有做内部预警和相关解决措施",,
SSECH2S4L3-2,,"2.建立预警系统(明确的负责人,清晰的工作内容,时间节点)以避免库存风险(过量库存/库存短缺/呆滞),同时会通知SPL(针对来料加工或者按照库存水位生产)",,
SSECH2S4L3-3,,"4.库存管理SOP(操作作业流程)有基于迪卡侬的最新要求进行定期回顾,更新和优化",,
SSECH2S4L3-4,,"3.有对库存调整进行分析,并且制定改善措施以便减少盘点差异",,
SSECH2S4L4-1,,"1.有定期对未来库存水平进行预判,并且能够采取行动不断的优化仓储空间利用率；",,
SSECH2S4L4-2,,2.有战略性计划，能通过优化库存管理体系持续不断地提高取货/装货/发货的效率和灵活性,,
SSECH2S5L1-1,,"1.有专人负责订单出运,并且该负责人接受过出运管理和CAPE系统的培训",,
SSECH2S5L1-2,,"3. 针对做Flow 4/8/CAC factory的工厂,有人负责这些特殊流程的管理并且该人已经接受过培训.",,
SSECH2S5L1-3,,2.任何出运计划变更或是意外出现，有及时、正式的跟迪卡侬沟通,,
SSECH2S5L2-1,,"0. 有出运SOP(操作作业流程)和培训资料,并且能根据迪卡侬的最新要求做出更新;",,
SSECH2S5L2-2,,"1. 能够每周基于生产完成日期回顾出货计划,CAPE系统中的EHD能够及时更新并且能够准时提供有效的报关文件",,
SSECH2S5L2-3,,2. 能够熟练操作CAPE系统（AS管理，EHD及时更新，跟SPL一起维护和管理item信息的后续更新，AS拆分）,,
SSECH2S5L2-4,,"3. 知道跟迪卡侬合作的贸易术语, 并且清楚了解所有相关运输方式（海运，空运，铁路)的出货操作流程（文件寄送,预约程序,周船期排程,出口海关编码申报,重量控制要求..)",,
SSECH2S5L2-5,,4.如果是整柜或者面料出货，工厂知道如何根据出货计划去做排柜计划,,
SSECH2S5L3-1,,"1. 有分析出货指标,并且不断的进行改善（比如, AS创建的准确性,EHD准确性，GTD ，文件质量....)",,
SSECH2S5L3-2,,"2.针对特殊时期,像春节或者特殊运输方式(比如铁路运输),工厂做出货体积预测并且分享给相应的部门",,
SSECH2S5L3-3,,3.采取相关措施优化出运流程来降低运输成本和周期(比如FCA/FOB/DDP store incoterm),,
SSECH2S5L4-1,,"1.有高效的出货系统能够适应特殊客户对于任何特殊出货单的需求,并且能够提供灵活的提货/装货服务以适应不用客户的需求(比如增加出货频次..)",,
SSECH2S5L4-2,,"2.有战略性的规划,以持续不断的提高出运管理系统来保证准确性和高效性",,
SSECH2S6L1-1,,"1.清楚的了解GTD管控的责任,并且有签署最新版的GTD合同",,
SSECH2S6L1-2,,"2.一旦AS重新创建或者修改,SHU标签需要重新打印并重新粘贴在外箱(比如数量更改,PCB更改,产品信息更改,仓库更改...).",,
SSECH2S6L2-1,,1. 能够准确地执行迪卡侬最新版本的GTD要求,,
SSECH2S6L2-2,,"2. 基于GTD要求有做GTD检查,并且有最新的检查记录",,
SSECH2S6L2-3,,3. 发现GTD问题的产品有明确标识并隔离存放,,
SSECH2S6L3-1,,1.在GTD检查区域以及容易产生GTD问题的线上，有可视化的规范提醒（包装、打包、标贴等）来防止问题的重复发生，并起到对操作员工提醒和警告的作用,,
SSECH2S6L3-2,,2.对于Decathlon反馈的GTD异常，工厂有根据以下步骤进行分析:  定义问题，真因分析，制定改善措施,,
SSECH2S6L3-3,,立即整改和预防性改善措施,,
SSECH2S6L4-1,,1.建立自我评估体系发现GTD风险并且能够持续不断地改善GTD绩效,,
SSECH2S7L2-1,,1.了解迪卡侬生产供应链主管、零售供应链主管、区域采购经理等角色的主要职责（与生产相关的）；,,
SSECH2S7L2-2,,2.定期回顾供应链项目的重点和供应链的绩效目标，并制定相应的行动计划；,,
SSECH2S7L2-3,,3.知道迪卡侬供应链的首单和翻单流程、每季度的关键时间点、供应商的相关责任和需要采取的行动（包括开季前、季度中、季度结束时期）。,,
SSECH2S7L3-1,,1.供应商针对迪卡侬分析制定相应的商业合作计划，并制定优化供应链系统的解决方案，比如：,,"- RFID仓库
- ERP/MES系统
- 自动排产工具"
SSECH2S7L3-2,,2.针对迪卡侬的主要运动品牌的供应链战略、发展重点和需求做分析，并制定相应的项目来满足客户的需求。,,
SSECH2S7L4-1,,1.供应商制定中长期供应战略计划（缩减生产周期，产能规划等），来与迪卡侬战略保持一致,,
HRPCH1,基本职责,,,
HRPCH2,健康与安全 ,,,
HRPCH3,运营,,,
HRPCH1S1,童工,,,
HRPCH1S2,强迫劳动,,,
HRPCH1S3,自由结社,,,
HRPCH2S1,健康与安全 – 法律授权与定期检测,,,
HRPCH2S2,健康与安全 – 风险和安全管理,,,
HRPCH2S3,健康与安全 – 化学品管理,,,
HRPCH2S4,健康与安全 – 消防安全和疏散,,,
HRPCH2S5,健康与安全 – 生活环境,,,
HRPCH3S1,工时,,,
HRPCH3S2,薪酬,,,
HRPCH3S3,人力资源管理,,,
HRPCH3S4,企业社会责任管理,,,
HRPCH1S1L1-1,,是否在供应商工作的所有人员，年龄都高于法定最低工作年龄或15岁？,,
HRPCH1S1L1-2,,如儿童进入厂区，工厂是否设有隔离区域，且有具体的儿童名单？,,
HRPCH1S1L2-1,,供应商是否有全体员工的年龄证明文件？（如：出示官方文件）,,
HRPCH1S1L2-2,,过去是否聘用过童工？（过去六个月内曾经雇用低于法定工作年龄的工人）,,
HRPCH1S1L2-3,,是否有落实当地法律要求的青年工管理及保护措施？ ,,
HRPCH1S1L3-1,,"供应商是否有管理程序：
- 确保没有童工？
-厂内儿童仅能在安全区域逗留，不可以进入生产等其他风险区域？",,
HRPCH1S1L3-2,,是否有正式程序与清单来管理青年工？,,
HRPCH1S1L3-3,,这些管理程序（儿童和青年工）是否有被沟通，且为人所了解（人事部门，保安与生产线主管等）？,,
HRPCH1S1L4-1,,供应商是否实施计划来提升工人子女的正式教育？,,
HRPCH1S1L4-2,,供应商是否促进青年工的发展，如提供免费的夜间课程？,,
HRPCH1S1L4-3,,其它的好范例,,
HRPCH1S2L1-1,,是否有证据表明工厂将迪卡侬产品的生产外发给监狱？,,
HRPCH1S2L1-2,,是否有任何身分相关的官方文件被供应商或是劳动中介扣押？（如护照、工作签证等）,,
HRPCH1S2L2-1,,员工是否被要求向雇主或其他第三方作出担保或提供保证金？,,
HRPCH1S2L2-2,,若招聘外籍工人，他们是否在离开他们国家之前，用他们所能理解的语言，被告知相关的费用与预期支出？,,
HRPCH1S2L2-3,,上述的费用是否符合地方法规？,,
HRPCH1S2L2-4,,加班是否为自愿的？,,
HRPCH1S2L2-5,,员工在工作时间内是否可自由行动？（如：上厕所无需任何许可）,,
HRPCH1S2L2-6,,员工在非工作时间是否可自由行动？即便是在供应商提供的宿舍内。,,
HRPCH1S2L2-7,,是否存在任何制度导致员工可能在非自愿的情况下工作？,,
HRPCH1S2L3-1,,供应商是否有全面性的直接搜身行为？,,
HRPCH1S2L4-1,,供应商是否有书面的，经过沟通的关于道德与公平聘雇关系的承诺？以避免“现代奴役”的问题在自己或其供应商发生,,
HRPCH1S2L4-2,,供应商是否有措施促进外来工人的发展？如提供免费的当地语言课程或特定的职业培训,,
HRPCH1S2L4-3,,其它的好范例,,
HRPCH1S3L2-1,,工人是否可自由加入工会？,,
HRPCH1S3L2-2,,如果没有工会，是否有其他替代性的工人代表制度？,,
HRPCH1S3L2-3,,对于内部组织（内部工会或自由组织），代表选举是否不受公司干预？,,
HRPCH1S3L3-1,,劳资双方是否有定期召开会议及记录跟进？,,
HRPCH1S3L3-2,,会议记录是否有传达给所有员工和当地政府管理部门？,,
HRPCH1S3L3-3,,工厂是否有便利申诉系统可供员工自由且保密地向管理,,
HRPCH1S3L3-4,,该申诉是否被处理？且其结果是否传达给所有员工？,,
HRPCH1S3L4-1,,其它的好范例,,
HRPCH2S1L2-1,,供应商是否具备其所需的各类经营许可，包含消防验收证明与最新的建筑安全许可证？,,
HRPCH2S1L2-2,,所有电气设施是否维护良好？（比如：没有燃烧或过热迹象，没有多回路，没有不正确的连接接头，没有损坏的电线，松动的电线或裸露的电线...）,,
HRPCH2S1L2-3,,所有法规定义的特种设备（特种叉车、电梯、电动门...）是否维护良好？,,
HRPCH2S1L2-4,,锅炉、压缩机和压力容器是否维护良好？如果有法规要求，是否有相应的合法文件？,,
HRPCH2S1L2-5,,锅炉和压力容器是否被安全地设置在有防护（防止爆炸）的地方（与生产区域区隔）？,,
HRPCH2S1L3-1,,下列设备是否根据地方法规被定期检验？（详述频率和最新检测日期与检测单位）,,
HRPCH2S1L3-2,,电气设备,,
HRPCH2S1L3-3,,法规定义的特种设备（特种叉车、电梯、电动门...）,,
HRPCH2S1L3-4,,锅炉、压缩机和压力容器,,
HRPCH2S1L3-5,,电气设备、锅炉和压力容器是否有预防性的维护计划？,,
HRPCH2S1L3-6,,操作高风险设备的工人是否有更新的合格证书（电气技术、特种叉车驾驶、交通班车和汽车驾照....）,,
HRPCH2S1L4-1,,其它的好范例,,
HRPCH2S2L1-1,,在工厂的任何场所是否有任何威胁人身安全（厂内所有员工或外来人员）的风险？,,
HRPCH2S2L1-2,,怀孕劳工是否有受到特殊关注？如：转换至无危险或较少体力负担的工作、提供坐椅、延长休息时间、怀孕七个月后不超时工作、不上夜班、 不会暴露在化学品的环境中...等),,
HRPCH2S2L2-1,,是否所有的工作场所都是安全的，且不会对工人造成任何损伤或不会让工人有立即性的危险？,,
HRPCH2S2L2-2,,对操作有危险的机台设备或零件的工人是否配置足够且有效的保护措施？（如：加装传感器）,,
HRPCH2S2L2-3,,有操作风险的机台是否设有紧急停止按钮，且维护良好？工人是否知晓？,,
HRPCH2S2L2-4,,给需要的人使用和替换的个人劳保用品是否免费？,,
HRPCH2S2L2-5,,个人劳保用品是否维护良好？,,
HRPCH2S2L2-6,,必要时，工人是否穿戴相应的个人劳保用品？（如：用于高于85 dB的高噪音环境的耳塞、适合高温作业的手套....）,,
HRPCH2S2L2-7,,急救箱中的药品配备是否对应于风险？（每100位员工至少设置一个）,,
HRPCH2S2L3-1,,是否对工作岗位进行风险分析，以鉴别生产线及所有设施的风险？,,
HRPCH2S2L3-2,,作业场所是否合宜于该工作？（不会造成中长期的健康伤害）,,
HRPCH2S2L3-3,,对于必须遵守安全上锁程序的机器，其程序和记录是否为相关工人所知？,,
HRPCH2S2L3-4,,警告标示是否张贴在适当的位置？,,
HRPCH2S2L3-5,,个人防护用品的使用标示是否张贴在适当的位置,,
HRPCH2S2L3-6,,事故与治疗措施是否有被记录？即使是轻微的小事故。,,
HRPCH2S2L3-7,,是否有噪音监测记录？,,
HRPCH2S2L3-8,,是否有提供健康与安全的教育培训给每个新进和变更职务的员工？,,
HRPCH2S2L3-9,,是否每个班次都有员工被培训为紧急急救人员？,,
HRPCH2S2L3-10,,对于易受伤害的员工、怀孕和哺乳中的员工，是否有正式的保护程序与列表？,,
HRPCH2S2L3-11,,是否有紧急处理流程？且为工人所知？,,
HRPCH2S2L3-12,,若有法规有要求，是否有设置厂内诊所或急救站？,,
HRPCH2S2L4-1,,"工厂是否有任何计划来促进工人的安全意识？如：
＋健康与安全研习会议
＋健康与安全看板/刊物
＋其他等",,
HRPCH2S2L4-2,,操作流程是否适当地张贴在有风险的作业场所？（裁切部门、储放区等）,,
HRPCH2S2L4-3,,公司是否有组织研习会议来改善作业环境，且该会议劳资双方皆有代表参与？,,
HRPCH2S2L4-4,,其它的好范例,,
HRPCH2S3L1-1,,若有使用剧毒或CMR（致癌性、致生殖细胞突变、生殖毒性）的化学品，该操作员是否有依据风险分析或SDS（安全资料表）配戴合适的个人防护措施？,,
HRPCH2S3L1-2,,若有使用剧毒或CMR（致癌性、致生殖细胞突变、生殖毒性）的化学品，是否有依据SDS设置相应的集体防护系统?,,
HRPCH2S3L2-1,,化学品/危险物质是否用多数员工可理解的语言标示（品名+危险图示），且其与最新版的SDS一致？,,
HRPCH2S3L2-2,,个人劳保用品是否适用于相应的风险、有效、处于良好的使用状态，且其与最新版的SDS一致？,,
HRPCH2S3L2-3,,在从事生产或其它操作时，个人劳保用品是否被妥善穿戴？,,
HRPCH2S3L2-4,,在有化学品/危险物质的作业场所是否有设置有效的工程管制设备，如通风/隔离/抽风等，且其与最新版的SDS一致？,,
HRPCH2S3L2-5,,在有化学品/危险物质的作业场所是否有设置有效的紧急应变设备，如洗眼器、冲淋设备等，且其与最新版的SDS一致？,,
HRPCH2S3L2-6,,化学品/危险物质（使用前、使用中与使用后）是否依据SDS储放在特定且合适的场所?,,
HRPCH2S3L2-7,,该储放场所是否设置合适的通风系统？,,
HRPCH2S3L2-8,,不相容的化学品/危险物质是否有被标示且区隔？,,
HRPCH2S3L2-9,,从储放、生产线，到废弃物处置，容器是否都是紧闭且合适的？,,
HRPCH2S3L3-1,,是否有最新且完整的化学品清单？,,
HRPCH2S3L3-2,,工厂所用的化学品是否有最新且完整的SDS（三年内）?,,
HRPCH2S3L3-3,,若有法规规定，是否有执行内部空气品质检测？且其测值符合当地法规或SDS规定的暴露限值？,,
HRPCH2S3L3-4,,若有法规规定，是否有实施与工作风险相关的职业健康体检？,,
HRPCH2S3L3-5,,是否有个人防护措施的管理流程？,,
HRPCH2S3L3-6,,是否有指派专人负责化学品管理？,,
HRPCH2S3L3-7,,是否对处理、使用、储存和采购化学品的工人进行相应的化学品管理培训,,
HRPCH2S3L3-8,,化学品的储存和使用场所是否张贴化学品安全技术说明书（CSDS）？,,
HRPCH2S3L3-9,,作业场所的化学品供应量是否适当？（最大储放量应是一天的使用量）,,
HRPCH2S3L3-10,,液态的危险物质是否储放在二次容器或是有其他防渗漏的装置？,,
HRPCH2S3L4-1,,其它的好范例,,
HRPCH2S4L1-1,,审核范围內的所有场所，是否有警铃系统？,,
HRPCH2S4L1-2,,当测试时，该警铃是否可以正常运作？（审核时进行测试）,,
HRPCH2S4L1-3,,审核范围内的所有场所，各区域是否可以听见/看见警铃？,,
HRPCH2S4L1-4,,若与其他工厂共用建筑物，其他工厂的警铃是否可被听见？,,
HRPCH2S4L1-5,,警铃声是否与工厂内其他所有的讯号声不同？（如换班或休息铃声）,,
HRPCH2S4L1-6,,当主电源被切断时，警铃系统是否有备用电源？（审核时进行测试，响铃无中断）,,
HRPCH2S4L1-7,,无论电力来源为何（主电源或备用电源），警铃是否可以持续运作直至疏散完成？,,
HRPCH2S4L1-8,,工厂内是否有依法规设置多个手动警报按钮？,,
HRPCH2S4L1-9,,工人是否知道手动警报按钮的位置，且知道如何启动它？,,
HRPCH2S4L1-10,,是否只有被认可的人员可以解除警铃？,,
HRPCH2S4L1-11,,所有建物是否都依当地法规设置相应数量与宽度的紧急出口？,,
HRPCH2S4L1-12,,"无论法规如何规定，是否设置至少两个易于逃生的紧急出口（两个出口至少相距5米）：
- 所有生产楼层
- 所有非生产楼层，但有机会容纳20人以上",,
HRPCH2S4L1-13,,紧急逃生门是否正常运作，且在工作期间从不上锁？（此包含夜班、午餐时间等）,,
HRPCH2S4L1-14,,是否有至少一个为工人所知的紧急集合点？且其安全、至少距离建筑物10米以上，且可容纳所有人？,,
HRPCH2S4L1-15,,疏散时间是否小于5分钟？（从按下警铃按钮后开始，直到最后一个人离开建筑物）,,
HRPCH2S4L2-1,,若是三层或三层楼以上的建筑物（包含一楼），其紧急逃生通道是否有独立间隔并隔烟？（如每层楼设有防火门，当疏散时会自动关闭；或设有户外通道）,,
HRPCH2S4L2-2,,紧急逃生通道是否无堆放库存？,,
HRPCH2S4L2-3,,紧急逃生路线是否被清楚标示且无障碍物阻挡？,,
HRPCH2S4L2-4,,若是多楼层的建物，紧急逃生通道是否会经过易燃物的储放区？,,
HRPCH2S4L2-5,,紧急逃生门是否被清楚标示、不受障碍物阻挡、容易操作、朝疏散的方向开启，无需特别费力且至少80厘米宽？,,
HRPCH2S4L2-6,,所有建物与通道是否设置充足的消防安全照明？,,
HRPCH2S4L2-7,,消防安全设备（消防栓、灭火器等）是否设置？且其合适、位置醒目、容易取得、处于良好运作状并数量充足（依当地法规或遵守建议：每200平方米面积配备一个灭火器）,,
HRPCH2S4L2-8,,消防演练是否至少每年举办一次（包含所有班次含夜班、所有人员）？且有相关记录。,,
HRPCH2S4L2-9,,是否有预防工厂内可能的起火源？（如严禁烟火、化学品储放区严禁明火、电气设备周边严禁火花...）,,
HRPCH2S4L3-1,,各类场所是否根据风险分析设置火警侦测系统？,,
HRPCH2S4L3-2,,疏散路线图是否张贴在所有建筑物的醒目位置？（若有多楼层或多座建筑物，则应配有不同的疏散路线图）,,
HRPCH2S4L3-3,,各班次或团队中，是否有至少2位员工接受使用消防系统的培训？,,
HRPCH2S4L3-4,,基本的疏散演练是否有并入新进员工培训？,,
HRPCH2S4L3-5,,"是否有消防安全流程且为员工所知？此流程须包括：
- 谁负责紧急逃生出门的管理？
- 若发生火灾时每个人的权责（手动警报按钮/切断电力系统/打开主门...）
- 疏散时每个人的权责（清查所有区域/第一消防编组/人员清点...）",,
HRPCH2S4L3-6,,消防安全设备（警铃、备用电源、紧急安全照明、消防栓、灭火器等）是否至少一年一次或依据地方法规进行维护与查点？（请详述频率）,,
HRPCH2S4L4-1,,危险区域是否根据风险分析设置自动洒水系统？,,
HRPCH2S4L4-2,,是否至少10%的员工接受灭火培训？（如：使用灭火器、进行疏散）,,
HRPCH2S4L4-3,,是否有部分员工被任命且培训以组织疏散并清查建筑物净空？,,
HRPCH2S4L4-4,,其它的好范例,,
HRPCH2S5L2-1,,是否所有工人都能自由且安全地使用厕所？厕所处于良好状态，有可流动的水和肥皂？,,
HRPCH2S5L2-2,,是否所有工人都可以自由取得饮用水？,,
HRPCH2S5L2-3,,若设有员工宿舍，其是否干净且设备完善？,,
HRPCH2S5L2-4,,若法规要求，是否设有餐厅？,,
HRPCH2S5L2-5,,若设有厨房/餐厅，其是否干净、设置完善且符合地方法规？,,
HRPCH2S5L2-6,,提供给工人的交通班车是否运作良好？,,
HRPCH2S5L2-7,,社交场所和宿舍是否会使员工受到生产的影响？ （工业建筑不应作为住宅用途）,,
HRPCH2S5L2-8,,所有场所是否温度合宜且有适当的通风？,,
HRPCH2S5L2-9,,所有场所是否配置合适的照明？,,
HRPCH2S5L2-10,,所有场所是否足够整洁？（干燥、无灰尘、没有湿滑的地面、没有到处是废弃物或丢弃无用的材料、设备有固定的放置位置）,,
HRPCH2S5L3-1,,若有法规要求，是否设有儿童看护所，且配有合格的人员？,,
HRPCH2S5L3-2,,食物与饮水是否储放在合适的位置？,,
HRPCH2S5L3-3,,若有法规要求，司机是否提供医疗证明来确保他/她有驾驶的资格？,,
HRPCH2S5L3-4,,供应商所管理的汽车/巴士是否有实施预防性的维护计划？,,
HRPCH2S5L4-1,,若没有法规要求，供应商是否仍提供免费交通接驳？,,
HRPCH2S5L4-2,,若没有法规要求，供应商是否仍提供免费宿舍？,,
HRPCH2S5L4-3,,若没有法规要求，供应商是否仍提供免费膳食？,,
HRPCH2S5L4-4,,工厂是否设有休息室？,,
HRPCH2S5L4-5,,工厂是否提供运动环境？ ,,
HRPCH2S5L4-6,,工厂是否提供人文环境？（图书馆、报纸等）,,
HRPCH2S5L4-7,,工厂是否具备合适的娱乐休闲设备或宗教设施？ ,,
HRPCH2S5L4-8,,其它的好范例,,
HRPCH3S1L2-1,,工作时数登记系统是否客观、公正且清楚有明细？,,
HRPCH3S1L2-2,,审核时是否发现工作时数/考勤/工资记录与任何其他信息不一致的状况？,,
HRPCH3S1L2-3,,每周工作时数是否超过72小时？,,
HRPCH3S1L2-4,,每天工作时数是否超过14小时？,,
HRPCH3S1L2-5,,工人是否在连续工作六天后，至少有一天的休息（24小时）？,,
HRPCH3S1L3-1,,每周工作时数是否超过60小时？,,
HRPCH3S1L3-2,,员工在工作期间是否有充分的休息？,,
HRPCH3S1L3-3,,工作时数的政策是否被公告，且为工人所知？（休息时间、 工厂运作时间、休息日、加班政策等）。,,
HRPCH3S1L4-1,,工作时数是否遵守现行有效的法规规范？（每周/每月/每年）,,
HRPCH3S1L4-2,,其它的好范例,,
HRPCH3S2L1-1,,支付给工人的时薪（总薪资除以总工作时数）是否等于或高于法规，或该行业集体谈判协议的最低时薪？,,
HRPCH3S2L2-1,,薪资是否以现金或银行转账支付，并且有记录？,,
HRPCH3S2L2-2,,薪资支付周期是否超过一个月？,,
HRPCH3S2L2-3,,加班薪资是否符合当地法规要求？（精确记录工厂所采用的加班薪资比例）,,
HRPCH3S2L2-4,,是否有任何未经授权而从薪资、奖金、红利中扣款？实际作业中，是否胁迫扣款？,,
HRPCH3S2L2-5,,所有的个人防护措施、制服、生产工具是否是免费提供给员工？,,
HRPCH3S2L2-6,,所有工人是否享有当地的社会保险？,,
HRPCH3S2L2-7,,是否依据地方法规或集体谈判协议给予带薪年假、病假、产假？,,
HRPCH3S2L3-1,,支付给员工的薪资金额是否可被员工理解且可验证？,,
HRPCH3S2L3-2,,员工是否知道且了解公司的福利政策？（产假、年假等）,,
HRPCH3S2L3-3,,薪酬政策是否被公告，且为工人所知？（奖金、加班薪资计算、最低薪资等）。,,
HRPCH3S2L3-4,,薪资结构对所有工人而言，是否清楚且明确？其是否与工作能力/参与度/工厂专案有所联结？,,
HRPCH3S2L4-1,,工厂是否根据净利，与员工共享利润？,,
HRPCH3S2L4-2,,其它的好范例,,
HRPCH3S3L1-1,,是否有任何证据显示员工被安排在家（或宿舍）进行额外的生产工作？,,
HRPCH3S3L1-2,,是否有任何显著证据证明体罚、威胁、剥削或任何不当行为？,,
HRPCH3S3L2-1,,每位工人是否有一份工作合同？有载明双方签名、签署日期、姓名、工作效期（若适用）、薪资待遇、工作范畴、工作时数与福利。,,
HRPCH3S3L2-2,,工人的劳动合同中的描述，是否与他们目前的职务相符？若合约有修订，员工是否有被告知？,,
HRPCH3S3L2-3,,员工是否留有一份原始和修订的合同副本（如果有）？,,
HRPCH3S3L2-4,,若有员工是由第三方所聘雇的，是否有与第三方签订的合同？,,
HRPCH3S3L2-5,,是否有监控短期/临时合同？且该短期/临时聘雇与总员工的比例是符合地方法规的。,,
HRPCH3S3L2-6,,歧视：工人不会因年纪、种族、宗教、国籍、性别、残疾、性向、政治立场、参与工会等遭受招聘、薪资与升迁、保护措施的歧视？,,
HRPCH3S3L2-7,,"是否有内部规章规定禁止与奖惩办法？
该奖惩办法是否尊重员工权益？（不扣押薪资、无肢体暴力等）
这些规章与奖惩办法是否为员工所知？",,
HRPCH3S3L3-1,,产后返回的女性员工，是否有相当的工作岗位和相等的薪酬？,,
HRPCH3S3L3-2,,公司是否有能力得知最新的地方法规及任何的变更？,,
HRPCH3S3L3-3,,若有上述其他地方的法规义务（如：医疗体检、私人医疗保险...），是否依法遵守？,,
HRPCH3S3L3-4,,人员流动率是否被监控？（精确记录其计算方式与结果）,,
HRPCH3S3L3-5,,旷工率是否被监控？（精确记录其计算方式与结果）,,
HRPCH3S3L3-6,,"清楚的解雇流程是否被定义在内部规章？
若有人被解雇，其实际原因是否被记录？",,
HRPCH3S3L3-7,,是否有培训计划来增进工人的能力与态度？,,
HRPCH3S3L3-8,,是否所有培训与流程都有员工所用语言的版本？,,
HRPCH3S3L4-1,,"供应商是否有促进发展的各项计划：
- 对文盲劳工：阅读/书写课程
- 对怀孕劳工：免费产前教育课程
- 对女性员工：免费健康或财务管理课程",,
HRPCH3S3L4-2,,其它的好范例,,
HRPCH3S4L2-1,,供应商是否存有迪卡侬的社会责任章程？,,
HRPCH3S4L2-2,,是否有人或团队被指派管理工厂内的HRP？他们是否知道”社会责任章程“中的基本内容？,,
HRPCH3S4L2-3,,该负责人或团队是否能够侦测HRP风险、定期检查并在需要时作出立即性的改善？,,
HRPCH3S4L3-1,,中层管理人员与工人是否知道迪卡侬的HRP的基本要求（至少能知道与他们工作区域相关的要求）？,,
HRPCH3S4L3-2,,供应商是否有能力得知与HRP相关的最新的法规？,,
HRPCH3S4L3-3,,供应商是否有能力根据审核表上各章节来进行自主审核？记录不合格点与对应的改善措施？,,
HRPCH3S4L3-4,,由外部公司聘雇并在供应商场所工作的人员（如保全人员、清洁公司、厨房员工、园丁...），其工作条件是否至少达到人资与工作时数章节的C级要求？,,
HRPCH3S4L3-5,,供应商是否对其供应商定期进行评核，以确保他们也遵守迪卡侬集团的政策？且存有该评核记录？,,
HRPCH3S4L4-1,,当检讨不合格点时，供应商是否有能力发现根本原因？接着是否有行动来解决这些根本原因？,,
HRPCH3S4L4-2,,其它的好范例,,
OPEXCH1,前序：持续改善组织绩效 ( I ),,,
OPEXCH1S1,客户满意度,"客户满意度对一个组织的可持续发展至关重要。
所以，必须询问客户满意度，从而回应并预测他们的需求。（质量，成本，交期，服务，可靠性，独特性等）

","绩效(KPI)中有客户满意度的指标（包括内部/外部客户,）并公开展示。
了解其趋势。
要求组织准备并介绍过去三年的客户满意度绩效的总结。


",
OPEXCH1S1L1-1,,客户满意度用不同的KPI衡量，并适时更新。,,
OPEXCH1S1L1-2,,在一段时间内，KPI结果持续下降或不稳定......,,
OPEXCH1S1L2-1,,在一段时间内，虽然客户满意度没有达到目标，但是呈改善趋势。,,
OPEXCH1S1L3-1,,在一段时间内，客户满意度绩效达到客户设定的目标。,,
OPEXCH1S1L4-1,,"在一段时间内，客户满意度绩效达到目标后，组织内部又制订了更高的目标。
",,
OPEXCH1S2,财务绩效,财务健康状况（利润，现金流，收益...）关系到组织能否可持续发展。,"查看该组织的财务状况。
要求组织准备和介绍过去3年的财务绩效总结。",
OPEXCH1S2L1-1,,财务绩效用不同的KPI衡量，并适时更新。,,
OPEXCH1S2L1-2,,在一段时间内，KPI结果持续下降或不稳定......,,
OPEXCH1S2L2-1,,在一段时间内，虽然财务绩效没有达到目标，但是呈改善趋势。,,
OPEXCH1S2L3-1,,在一段时间内，财务绩效达到组织设定的目标。,,
OPEXCH1S2L4-1,,在一段时间内，财务绩效达到目标后，组织内部又制订了更高的目标。,,
OPEXCH1S3,流程绩效,"更好的流程带来更好的结果
 因此，跟踪组织的流程绩效与进展是重要的","跟踪流程效率的进展
 要求供应商准备并介绍过去三年流程绩效的总结",
OPEXCH1S3L1-1,,流程绩效用不同的KPI衡量，并适时更新。,,
OPEXCH1S3L1-2,,在一段时间内，KPI结果持续下降或不稳定......,,
OPEXCH1S3L2-1,,在一段时间内，虽然流程绩效没有达到目标，但是呈改善趋势。,,
OPEXCH1S3L3-1,,在一段时间内，流程绩效达到组织设定的目标。,,
OPEXCH1S3L4-1,,在一段时间内，流程绩效达到目标后，组织内部又制订了更高的目标。,,
OPEXCH1S4,人事绩效,员工是资产，每个人的参与可产生巨大的杠杆效应。因此，关注员工满意度非常必要。（赋权+益能，离职率，缺勤率，满意度调查。。。）,"观察工作氛围，获得数据，观察变化趋势。

要求组织准备并介绍过去三`年的员工满意度绩效的总结。",
OPEXCH1S4L1-1,,人事绩效用不同的KPI衡量，并适时更新,,
OPEXCH1S4L1-2,,在一段时间内，KPI结果持续下降或不稳定......,,
OPEXCH1S4L2-1,,在一段时间内，虽然人事绩效没有达到目标，但是呈改善趋势。,,
OPEXCH1S4L3-1,,在一段时间内，人事绩效达到组织设定的目标。,,
OPEXCH1S4L4-1,,在一段时间内，人事绩效达到目标后，组织内部又制订了更高的目标。,,
OPEXCH1S5,卓越运营评估的进,"为了实现卓越运营，有必要衡量组织内持续改善方法的运用情况。它将帮助我们发现差距，制定整改方案。

*OPEX 卓越运营：就是建立一套管理体系，让所有人参与到一个系统的改善流程中，消除浪费，发现并解决问题，从而让我们的消费者/客户更满意。","持续改善路径图和卓越运营评估表的进展
 要求供应商准备并介绍过去三年持续改善绩效的总结。",
OPEXCH1S5L1-1,,持续改善绩效用不同的KPI衡量，并适时更新。,,
OPEXCH1S5L1-2,,在一段时间内，KPI结果持续下降或不稳定......,,
OPEXCH1S5L2-1,, 在一段时间内，虽然持续改善绩效没有达到目标，但是呈改善趋势。,,
OPEXCH1S5L3-1,, 在一段时间内，持续改善绩效达到组织设定的目标。,,
OPEXCH1S5L4-1,, 在一段时间内，持续改善绩效达到目标后，组织内部又制订了更高的目标。,,
OPEXCH1S6,供应商绩效,上游制程（或供应商）的绩效会对我的公司产生直接影响。因此，必须衡量他们的绩效并支持他们的改善。,"合作伙伴的绩效（IQC，DOT，成本）和相关行动。
要求供应商准备并介绍过去三年上游供应商绩效总结。",
OPEXCH1S6L1-1,, 供应商绩效用不同的KPI衡量，并适时更新。,,
OPEXCH1S6L1-2,, 在一段时间内，KPI结果持续下降或不稳定......,,
OPEXCH1S6L2-1,, 在一段时间内，虽然供应商绩效没有达到目标，但是呈改善趋势。,,
OPEXCH1S6L3-1,, 在一段时间内，供应商绩效达到组织设定的目标。,,
OPEXCH1S6L4-1,,在一段时间内，供应商绩效达到目标后，组织内部又制订了更高的目标。,,
OPEXCH2,第 1 章: 持续自我完善的组织变革 (C),,,
OPEXCH2S1,改善的文化,组织中有改善的文化吗？,"从最近做改善的区域开始深入了解，去发现改善原因，参与者，改善的方法......
采访职能部门，了解他们的职责以及他们最近做的改善。
是否有关于绩效改善的中期目标？",
OPEXCH2S1L1-1,,组织的领导者要求团队有流程绩效上的改善，并且有明确的目标。,,
OPEXCH2S1L2-1,,对于流程绩效上的改善仅交给专门的团队负责。,,
OPEXCH2S1L2-2,,改善的步骤是：计划，小范围测试。,,
OPEXCH2S1L2-3,,测试成功后，确定或更新标准并实施,,
OPEXCH2S1L3-1,,运营团队负责各自流程的绩效改善。他们被授权可以实施改善。 ,,
OPEXCH2S1L3-2,,分享尝试的结果（失败或者成功）以启发他人。,,
OPEXCH2S1L3-3,,示范区域尝试成功后，确定实施标准并应用到更大范围。（点，线，面，逐步扩大）,,
OPEXCH2S1L4-1,,工作时间根据各团队实施改善的需求进行调整。,,
OPEXCH2S1L4-2,,定期推动一些改善项目以挑战现有的工作方式。,,
OPEXCH2S2,组织领导者的持续改善理念,"组织中任何的文化变革都源自最高管理层。

组织领导者必须能启发团队进行持续改善以及领导变革","访谈组织领导者
分析组织项目，看其是否有与持续改善相关的项目",
OPEXCH2S2L1-1,,组织的领导者能给出对卓越运营的理解（系统化，消除浪费，日常管理制度，全员参与，客户满意，管理体系）。,,
OPEXCH2S2L1-2,,他认为卓越运营很重要但不是优先事项。,,
OPEXCH2S2L2-1,,组织的领导者认为卓越运营是优先事项。（团队项目中包含持续改善内容，也有相关绩效指标）,,
OPEXCH2S2L2-2,,他已经开展一些持续改善行动。（任命持续改善负责人，咨询公司，组织持续改善相关培训，实施日常管理制度等）,,
OPEXCH2S2L2-3,,组织的领导者在实施持续改善实施过程中能得到他上级领导的支持。,,
OPEXCH2S2L3-1,,组织的领导者引领团队走向卓越运营,,
OPEXCH2S2L3-2,,挑战他的团队从不同的角度看待事情。定期跟团队成员沟通，在现场用教练式的方法启发团队成员工作。,,
OPEXCH2S2L4-1,,卓越运营成为公司核心价值观，并全员参与。,,
OPEXCH2S2L4-2,,组织管理层持续挑战自我，了解/参观外部的最佳范例，成为卓越运营领域的活跃分子。,,
OPEXCH2S3,组织项目部署,组织的长期战略，中期战术和短期行动方案有协同性，保证所有人为共同的愿景努力,"查阅组织项目（非迪卡侬合作伙伴项目）。

询问组织的各个层级：他们的目标，实施计划，以及他们给上级汇报的项目相关内容。",
OPEXCH2S3L1-1,,组织领导者有一到三年正式的战略方针，及其相关绩效指标。（即使没有在内部分享）,,
OPEXCH2S3L1-2,,管理层会定期回顾这些战略的执行以及绩效指标情况。,,
OPEXCH2S3L2-1,,组织的领导者及其团队成员明确战略并分解到战术层面，制定清晰的绩效指标，合理配备资源。,,
OPEXCH2S3L2-2,,组织的领导者及其N-1团队成员设立一个指导委员会来促进项目进展。,,
OPEXCH2S3L3-1,,中期战术被拆分成具体的行动方案，在运营层面去实施。,,
OPEXCH2S3L3-2,,确定各个部门的绩效指标及其目标，并分享给团队每个成员。,,
OPEXCH2S3L3-3,,各个团队定期回顾自己对整体项目的贡献。,,
OPEXCH2S3L4-1,,组织根据环境（客户，科技等）的变化适时调整自己的项目，从而保持敏捷度。,,
OPEXCH2S4,信任&透明 ,在管理层和运营团队保持信任和透明的关系，有助于对组织中的所有人赋权益能（自主性，责任感，投入度，主动性）,"总经理与运营团队分享哪些指标、数据？
组织的战略，战术，绩效指标是什么？哪些层级使用它们？

谁需要管理损益表？",
OPEXCH2S4L1-1,,组织绩效指标（营业额，营业额增长率，利润率，人员流失率等）和战略决策，不定期地在组织内部分享,,
OPEXCH2S4L2-1,,现场的主管负责收集和汇报运营数据,,
OPEXCH2S4L2-2,,"由职能部门负责整个组织的数据整合，绩效评估以及目标设定
",,
OPEXCH2S4L2-3,,所有的绩效指标（经济，人员，客户，制程）和战略决策会 在组织内部分享,,
OPEXCH2S4L3-1,,运营团队负责各自流程的数据收集和汇总，评估绩效，订立目标（经济，人员，客户，流程），保证组织的最终绩效.,,
OPEXCH2S4L3-2,,这些数据向团队分享。,,
OPEXCH2S4L4-1,,为了持续提高组织绩效， 运营团队可以调整 各自流程的职责和目标。,,
OPEXCH2S4L4-2,,*这些调整与其他运营团队保持一致,,
OPEXCH2S5,领导者的现场走动管理,领导者们需要通过不断在现场观察，倾听，询问来保证自己时刻了解组织的实际情况。他们也需要通过在现场用教练式的方式引导团队成员来保证团队成员清楚哪些属于组织的优先事项。,"访谈团队成员，来了解他是否能经常在现场看到领导者？领导者来现场的目的？他具体会做什么？
查看领导者日程表
查看走动管理标准以及报告
参与现场走动管理",
OPEXCH2S5L1-1,,领导者可以描述组织的流程,,
OPEXCH2S5L1-2,,领导者偶尔去现场，了解组织的优势和劣势。,,
OPEXCH2S5L2-1,,领导者定期去现场（至少每周一次）。,,
OPEXCH2S5L2-2,,他能发现改善机会，以及确保优先事项的实施。,,
OPEXCH2S5L2-3,,他有现场走动管理的标准（路线以及主题）并据此实施。,,
OPEXCH2S5L2-4,,他在现场走动管理中决定改进措施（马上实施或者计划实施）,,
OPEXCH2S5L3-1,,在走动管理中，领导者展示正确的言行举止（尊重，观察，倾听，交流，表现出真正的兴趣）。,,
OPEXCH2S5L3-2,,"他指导团队成员，帮助他们实现自主管理。（他们发现了什么问题，行动方案，优先事项，决定等）
",,
OPEXCH2S5L3-3,,其他领导者复制这样的走动管理方式。,,
OPEXCH2S5L4-1,,现场走动管理的路线以及主题根据组织优先事项进行调整。,,
OPEXCH2S6,运营会议,运营会议的目的是沟通优先事项，分享以及提出问题，以便保证运营的顺畅。同时，运营会议也优化沟通，并且促进组织的灵敏性。,"访谈团队成员，了解他日常参与的会议。
检查日程表，会议记录。
参与会议。",
OPEXCH2S6L1-1,,只有在绩效不好或者有信息需要沟通的时候才组织会议,,
OPEXCH2S6L2-1,,每个领导者都会固定参加一些运营会议（例如生产车间一天一次，办公室一周一次）,,
OPEXCH2S6L2-2,,在会议上，回顾绩效，收集问题，强调重大问题，确定目标以及优先事项（5分钟班前会/早会，30分钟管理会议）。,,
OPEXCH2S6L3-1,,有串联式的运营会议机制。,"* cascading system 串联机制：主要是指企业内部不同层级的团队通过定时会议的方式串联起来。自下而上反映有难度的问题，自上而下提供教练式的现场辅导，从而快速解决问题，并提高团队自主解决问题的能力。
建议会议时间安排为，先基层，再高层，以更好更快倾听基层的声音并给予支持",
OPEXCH2S6L3-2,,为了促进各职能，层级部门之间的快速沟通及决策，合理固定会议时间。,,
OPEXCH2S6L4-1,,运营会议体系与时俱进，以便更高效的满足当下的需求。,,
OPEXCH2S7,持续改善路线图,持续改善是建立一个管理体系，使每个人都参与到一个系统的改善流程，从而实现卓越运营，让客户更满意。,"上一次的改善是否属于整体项目的一部分？下一个改善计划是什么？
参加日常管理制度并询问日常管理制度上次更新的时间。",
OPEXCH2S7L1-1,,有改善流程的行动。,,
OPEXCH2S7L2-1,,"有改善的行动方案（路径图）。
",,
OPEXCH2S7L2-2,,行动方案关注于改善的进度和改善方案的实施。,,
OPEXCH2S7L2-3,,根据改善路径图设定日常行动方案。,,
OPEXCH2S7L3-1,,"改善路径图包含日常管理制度的实施。（变革管理， 问题文化，员工赋能，价值链优化）
日常管理制度的目标是让改善具有可持续性，从而实现可持续的绩效。

",,
OPEXCH2S7L4-1,,组织定期进行卓越运营自评，以便了解持续改善项目的现状，并设定下阶段新的目标。,,
OPEXCH2S8,持续改善的知识和资源,为了实现全员参与持续改善的终极目标，需要有被培训过的人员负责将持续改善的理念推广到整个组织,"了解组织做了卓越运营评估表中的哪些条目的改善工作
了解组织中从上到下对持续改善的理解，以及他们在持续改善中的角色

访谈持续改善负责人，了解他们的行动",
OPEXCH2S8L1-1,,有一些人员（可以是被培训过的，也可以是没被培训过的，可以是全职也可以是兼职）负责一些此评估表中含有的项目的改善（建议体系，问题收集箱，绩效等）。,,
OPEXCH2S8L2-1,,有一个被培训过的持续改善负责人来协调持续改善项目以及推进变革,,
OPEXCH2S8L2-2,,他理解的持续改善是建立一个持续改善绩效的管理体系，通过全员参与的问题文化和持续优化价值链，让客户更满意。,,
OPEXCH2S8L3-1,,组织内部有技能达标的持续改善负责人网络。,,
OPEXCH2S8L3-2,,"组织中有提升持续改善技能的实施项目，领导者作为表率，首先达到基础技能要求。
",,
OPEXCH2S8L3-3,,组织中所有人都提出问题和指出浪费，知道这些都是改善的机会。,,
OPEXCH2S8L4-1,,持续改善负责人不仅帮助组织内部实施持续改善，也关注外部的实施。,,
OPEXCH2S8L4-2,,"定期回顾持续改善技能项目内容，并且不断增加新技能。
",,
OPEXCH2S8L4-3,,每个人的个人任务或者工作职责中都有一部分角色是实施持续改善项目。,,
OPEXCH3,第2章：问题文化 (P),,,
OPEXCH3S1,目视化管理,"
目视化管理必须让所有人保持安全状态，了解所处的组织，状态，发现异常并采取纠正措施。
",观察,
OPEXCH3S1L1-1,,目视化管理可以令你快速便捷地理解你在哪里，你所面对的组织及其活动，以及包括安全性在内的工作区域的规则。,,
OPEXCH3S1L2-1,,因为目视化的管理的实施， 使目标，进程，异常和状态（正在进行， 暂停，警告 ...）一目了然。,,
OPEXCH3S1L2-2,,"优先事项和重要事项的沟通对所有人都是可见的。
",,
OPEXCH3S1L2-3,,沟通手段位于合适的区域，能和最众多的员工达成沟通。,,
OPEXCH3S1L3-1,,目视管理可以用来跟踪纠正措施的进展。,,
OPEXCH3S1L3-2,,组织内建立了目视化管理的一致性（使用标准的颜色和标志）并定期审核。,,
OPEXCH3S1L4-1,,定期评估哪些需要保持目视化，哪些不需要，以达成目视化管理的最少使用，最大效用。,,
OPEXCH3S1L4-2,,需要审查上述情形与现场是否相符（目视化管理是否带来预期的结果？）,,
OPEXCH3S2,绩效管理看板,在任何时候， 绩效管理看板可以展示组织运营状况， 来帮助组织发现趋势异常并作出决定和采取行动。,"查看绩效管理看板

确认管理优先顺序，并检查团队成员是否了解它。
查看管理看板是否用于管理组织的优先事项，团队成员是否理解管理看板内容。

参加与绩效管理看板相关的日常管理制度。",
OPEXCH3S2L1-1,,每个运营团队都有绩效管理看板（电子的或手写管理看板），所有团队成员都可以看到管理看板。 ,,
OPEXCH3S2L1-2,,团队成员在现场收集数据，并更新管理看板,,
OPEXCH3S2L2-1,,适时（短间隔）更新管理看板。,,
OPEXCH3S2L2-2,,管理看板是可视化的。运用不同的颜色区分达标/不达标。团队成员能解释管理看板的内容。,,
OPEXCH3S2L3-1,,管理看板有问题收集的区域。,,
OPEXCH3S2L3-2,,在日常管理中，管理看板应定期集体回顾，频率按需调整。,,
OPEXCH3S2L3-3,,"管理看板的布局是按照团队的优先事项设计的（品质/成本/交期，战略层面/操作层面/战术层面, 日/周...) 
",,
OPEXCH3S2L4-1,,该组织运用不同管理管理看板来预测短期，中期和长期问题。,,
OPEXCH3S2L4-2,,审核各管理看板的一致性（颜色体系等）,,
OPEXCH3S2L4-3,,该组织定期回顾管理看板的内容以确保它们的有效性（优先事项，发现的问题，决策，全局视角）,,
OPEXCH3S3,绩效指标,"没有绩效的测量=没有改善
 绩效的测量是改善的起点
 选择合适的KPI与合适的阈值是改善的前提。","观察绩效看板，检查数据与事实的一致性。
 让团队成员解释KPI，当超出范围时他们会作出反应吗？为什么选择这些KPI？",
OPEXCH3S3L1-1,,组织及每个团队都有跟踪一个或几个KPI来指引他们的工作。,,
OPEXCH3S3L2-1,,"每个KPI都有目标，计算方法和更新频率
KPI被定期更新",,
OPEXCH3S3L2-2,,数据能反映现实状况,,
OPEXCH3S3L2-3,,团队成员可以解释数据，并用其指导自己的日常工作，不达标时能及时应对。,,
OPEXCH3S3L3-1,,组织和团队在跟进结果KPI（行动完成，我只能说明），过程KPI（行动正在进行，我可以调整）以及预期性KPI（技能矩阵，投资计划...）的组合。团队成员可以解释这些KPI 之间的关系。,,
OPEXCH3S3L3-2,,目标调整到“每天/小时“统计，他们总是有挑战性的。,,
OPEXCH3S3L4-1,,KPI 的选择定期被挑战， 以保证其能够持续发现问题和服务于部门/公司项目以及客户的需求。,,
OPEXCH3S3L4-2,,精简KPI的数量以达到最少使用最大效用。,,
OPEXCH3S4,标准化操作,"标准对于保证流程的稳定性和可持续性是必要的。它将知识规范化，并且作为参照，能帮助发现问题从而取得进步。
",观察操作流程 &询问标准是如何建立、使用和管理的。,
OPEXCH3S4L1-1,,团队成员按照规定的流程操作。,,
OPEXCH3S4L1-2,,团队成员清楚工作内容。口头传递技能。,,
OPEXCH3S4L2-1,,工作标准书面化，被所有人理解和应用。,,
OPEXCH3S4L2-2,,"工作标准按需调整。（目视化，容易理解，……）
",,
OPEXCH3S4L2-3,,定期审查标准的应用。,,
OPEXCH3S4L2-4,,记录差异（数量和原因）。已经找到根本原因，并落实行动方案。,,
OPEXCH3S4L3-1,,最佳实践是被记录的且被转化为标准以提升绩效。,,
OPEXCH3S4L3-2,,团队成员参与标准的制定。,,
OPEXCH3S4L4-1,,标准化工作的必要性被广泛理解和认可。,,
OPEXCH3S4L4-2,,审查标准的应用及其与实际情形的匹配度。,,
OPEXCH3S4L4-3,,对差距进行跟踪。然后对标准进行更新和推广。,,
OPEXCH3S5,问题发现和相应机制,没有问题=没有改进。每个人都需要知道如何去发现和处理问题。一旦趋势出现异常，应立即被呈现，呈现方式应适时调整从而及时预警。,"在现场检查现有的“问题发现日常管理制度”，以及选择的关键绩效指标。
",
OPEXCH3S5L1-1,,有一些管理看板可以共享各种发现的问题。（不仅从KPI中发现问题）。,,
OPEXCH3S5L1-2,,有一些随机的行动去发现问题。,,
OPEXCH3S5L2-1,,使用一些日常管理制度去发现问题。,,
OPEXCH3S5L2-2,,突出展示实际和预期状况之间的差距。如：绿色/红色管理,,
OPEXCH3S5L2-3,,用事实阐述差异并记录（数量和原因）,,
OPEXCH3S5L2-4,,定义且目视化问题响应机制，将发现的问题转化为纠正措施。,,
OPEXCH3S5L3-1,,选择与KPI链接的警报阈值，可尽早发现趋势异常。,,
OPEXCH3S5L3-2,,问题收集和响应机制，能够将将发现的问题转化为预防措施。,,
OPEXCH3S5L4-1,,当之前选取的阈值，KPI，管理看板不再能识别问题时，它们被修改从而能再次发现问题然后改进。,,
OPEXCH3S6,问题解决,如果不提出解决方案，问题就只是改善的机会，而不是改善。,查阅问题解决的方法论和工具,
OPEXCH3S6L1-1,, 当出现或发现问题时，每个人都能根据问题的类型，知道找谁处理此类问题 ,,
OPEXCH3S6L1-2,, 立即采取措施（但是没有更新标准）,,
OPEXCH3S6L2-1,,必要时，使用问题解决的方法论 ,,
OPEXCH3S6L2-2,,"被培训过的专家能规范地使用问题解决的方案论（8D, DPS, MPS, SREDIM, PDCA, DMAIC, …）",,
OPEXCH3S6L3-1,,这些问题解决的方法论在整个组织中被使用。,,
OPEXCH3S6L3-2,,每周例行问题解决的日常管理制度。（即使没有新的问题）,,
OPEXCH3S6L3-3,,大部分的问题解决都以更新或者建立标准为结点。,,
OPEXCH3S6L4-1,,"组织建立了一个总结归纳解决方案和最佳实践的体系，防止相同问题重复出现，或者问题一出现就立刻解决。
",,
OPEXCH3S7,问题管理文化,组织中的每个人都认为问题是改进的机会。构建一个体系，让内部和外部的人都能参与到问题的发现，提出和解决的流程中，这是成功的关键。,通过访谈团队成员，查看日常管理制度，以大致了解一个问题在组织中的生命周期。,
OPEXCH3S7L1-1,,无论什么主题，员工都可以举手说“我遇到了问题/我发现了问题。（没有负面后果）,,
OPEXCH3S7L2-1,,管理层要求员工提出问题和困难。,,
OPEXCH3S7L2-2,, 为了实现这一目标，已经做出许多实践。（参与站立式会议，现场走动管理，问题会议......）,,
OPEXCH3S7L2-3,, 问题对所有人（组织内部的全体员工和外部访客）都是可见的（例如问题管理看板）,,
OPEXCH3S7L3-1,,组织欢迎客户和外部人员的参观拜访。,,
OPEXCH3S7L3-2,, 问题的提议和分享是有框架的（实践、时间分配、串联机制......）,,
OPEXCH3S7L3-3,, 鼓励发现问题的员工参与到问题的解决当中。,,
OPEXCH3S7L4-1,,问题是改善的基础。最糟糕的情况就是没有任何问题。,,
OPEXCH3S7L4-2,, 组织与外部或者竞争者进行双赢对标来自审现有的组织。,,
OPEXCH3S8,管理控制,组织是否能保证流程是可控的，以及在问题发生前就做出反应？,在一天生产开始前，或者安排一张新订单前，查看检查清单。在一天生产过程中，为了保证生产正常进行，组织会定时查看什么，怎么查？,
OPEXCH3S8L1-1,,现场有一些书面的检查清单以确保流程可控。（例如：生产中一天一次检查）,,
OPEXCH3S8L2-1,,"从组织的操作层面到各个职能部门，有一个检查清单和日常管理制度的串联体系，以确保流程的稳定性和绩效（尊重标准，安全，人，环境等）
",,
OPEXCH3S8L2-2,,使用检查清单，定期检查（现状与标准之间的）差距，一旦发现差距就采取行动。,,
OPEXCH3S8L3-1,,为了保证系统能够根据组织的优先事项和困难，持续地发现问题，检查清单的使用频率和内容都会时常更新。,,
OPEXCH3S8L4-1,,定期自审检查清单体系是否足够精简，以实现最少使用，最大效用。,,
OPEXCH3S8L4-2,, 评估检查清单和改善之间的关联性（检查清单是否带来预期效果？）,,
OPEXCH4,第3章：员工的赋能 ( E ),,,
OPEXCH4S1,企业使命和价值观,"企业使命描述了企业存在的意义，价值观则反映了我们是谁。 使命和价值观塑造了组织特征，是重大决策的准则，并能让团队万众一心，为同一目标而奋进
",了解企业简介，观察与组织名称相关的语句 （在衣服上，海报上，标准上），首先访谈组织最高领导人或人力资源经理，之后逐步访谈员工。,
OPEXCH4S10,团队规模,一个领导者管理的员工越多，他关注每个人的时间就越少。团队越小，员工参与度越高。因此，人员架构的管理是重要的。,查阅组织架构图。统计人员数量。询问领导者的角色。询问上次组织架构变更的时间。,
OPEXCH4S10L1-1,,在组织中，存在一人领导的团队大于或等于50人的情况。,,
OPEXCH4S10L2-1,,为了给领导者必要的时间去关注他们的团队成员，组织被细分成更小的团队/小分队......,,
OPEXCH4S10L2-2,,领导者直接管理的团队成员数量小于50人。,,
OPEXCH4S10L3-1,,所有的团队都被细分为最多10人的小团队。每一个小团队都有指定的领导者。它有助于提高流程的稳定性和团队活力。领导者为团队创造竞争环境，为他们的成功提供必要的支持和资源，并对他们的成功予以祝贺。,,
OPEXCH4S10L4-1,,间接/直接员工的比例是在可控范围内的。,,
OPEXCH4S10L4-2,,组织架构和团队规模根据组织优先事项的变化而调整。,,
OPEXCH4S11,发展自主团队,致力于发展自主团队，可以持续提升组织的灵活性，减少间接员工的数量，并提升员工的主人翁意识。,检查角色是否明确？ 团队活动如何分工？谁能胜任哪个角色？角色是静态的还是动态的？,
OPEXCH4S11L2-1,,"通过一个矩阵，明确组织里的角色，职责（管理、供应、维护、人力资源、行政、税务、海关……）和资源分配（内部或外部）。
",,
OPEXCH4S11L2-2,,"矩阵有助于发现组织内部是否有角色或职责的缺失。
",,
OPEXCH4S11L3-1,,一个通过增加员工的角色来提高其能力的机制正在运行。,,
OPEXCH4S11L3-2,,该机制包括把以前由外部完成的角色转为内部实现。,,
OPEXCH4S11L4-1,,组织由一个个自主团队组成。,,
OPEXCH4S11L4-2,,"所有的职能工作(维护，人力资源, 行政…...)都由运营团队完成。",,
OPEXCH4S11L4-3,,企业致力于扁平化管理，组织中每个人角色清晰，从而被赋予更多职责。,,
OPEXCH4S12,员工发展,"组织会通过赋予更多职责的方式来鼓励员工承担多种角色吗？
员工发展是组织的双赢战略吗？","是否有关于员工发展的人力资源政策
发现是否有内部晋升（职能方向， 管理方向）
是否有晋升障碍？",
OPEXCH4S12L1-1,,有时，一些员工能在他们的角色和工作上得到成长。,,
OPEXCH4S12L2-1,,根据组织需求，一个通过增加角色和技能来提升员工能力的计划正在被实施。,,
OPEXCH4S12L2-2,,部分员工（有潜质的）有个人发展计划,,
OPEXCH4S12L2-3,,总是优先内部晋升,,
OPEXCH4S12L3-1,,"每个人都有个人发展计划，并自主实施。
发展计划融合了员工愿望和组织需求。",,
OPEXCH4S12L3-2,,有定期的个人发展会议。,,
OPEXCH4S12L4-1,,员工的发展是整体战略的一部分。它直接影响团队绩效。,,
OPEXCH4S12L4-2,,有时，组织会陪伴员工发展个人项目，这些项目不在公司范围内。,,
OPEXCH4S1L1-1,,企业的使命和价值观已明确。,,
OPEXCH4S1L2-1,,所有领导者知道企业的使命和价值观。,,
OPEXCH4S1L2-2,,"现场可以看到企业使命和价值观的宣传。
",,
OPEXCH4S1L2-3,,现场可见企业推广其文化的行为， 例如：在现场可见最新的海报，工作制服，企业文化衫等,,
OPEXCH4S1L3-1,,企业内所有人知道企业的使命和价值观。,,
OPEXCH4S1L3-2,,每个团队中， 领导者和团队成员做决定的准则，言行举止，都与企业的使命和价值观相符。,,
OPEXCH4S1L4-1,,"使命和价值观会根据企业发展方向适时作出调整以适应新时代。
",,
OPEXCH4S2,薪酬体系,"薪资结构与个人、团队和企业目标挂钩。薪资结构能够吸引、回报和激励员工为企业项目做出贡献。
","企业的人力资源拿到薪资政策，并在现场访问员工进行交叉验证。不同部门可能有不同的制度。
查看工资单",
OPEXCH4S2L1-1,,薪酬体系符合HRP和当地法规。,,
OPEXCH4S2L1-2,,没有薪酬惩罚。,,
OPEXCH4S2L1-3,,团队成员的薪资不仅仅基于他的个人产出,,
OPEXCH4S2L2-1,,员工工资由固定部分（包括责任，技能…）和浮动奖金（依据团队绩效）组成。,,
OPEXCH4S2L2-2,,薪酬体系是透明的且已告诉员工，员工能够解释薪酬的计算方法。,,
OPEXCH4S2L3-1,,薪酬包括基于组织整体绩效的奖金。,,
OPEXCH4S2L3-2,,"奖金比率公示给所有员工。
",,
OPEXCH4S2L3-3,,组织有薪酬体系评审，旨在激励最佳员工和促进人员的稳定性。,,
OPEXCH4S2L4-1,,奖金计算方式根据企业优先事项的变化而进行调整。,,
OPEXCH4S2L4-2,,所有的员工都能成为企业的股东。,,
OPEXCH4S3,招聘,入职和试用期使员工与公司可以达成共识，确保员工顺利开展工作（培养技能和适应能力）,拿到新员工欢迎手册。获取人力资源相关记录。访谈新员工和老员工进一步了解员工入职和试用期流程。了解不同部门及不同层级之间在招聘上的差异,
OPEXCH4S3L1-1,,新员工入职第一天就签合同，并被告知一些基本信息，例如：工作场所安全须知、人事服务、岗位操作、个人防护等；,,
OPEXCH4S3L1-2,,新员工上岗前都有在现场被培训过。,,
OPEXCH4S3L2,,有衡量入职和试用期流程绩效的KPI（入职成功率）,,
OPEXCH4S3L2-2,,有脱产的正式培训，包括一些生产现场的实操。,,
OPEXCH4S3L2-3,,向新员工介绍组织的使命和价值观、主要客户和产品。,,
OPEXCH4S3L3-1,,经理与员工有正式会议以回顾试用期目标达成情况。,,
OPEXCH4S3L4-1,,随着组织的发展，入职和试用流程都会随之进行调整。,,
OPEXCH4S4,入职和试用期流程,入职和试用期使员工与公司可以达成共识，确保员工顺利开展工作（培养技能和适应能力）,拿到新员工欢迎手册。获取人力资源相关记录。访谈新员工和老员工进一步了解员工入职和试用期流程。了解不同部门及不同层级之间在招聘上的差异,
OPEXCH4S4L1-1,,"
新员工入职第一天就签合同，并被告知一些基本信息，例如：工作场所安全须知、人事服务、岗位操作、个人防护等；",,
OPEXCH4S4L1-2,,新员工上岗前都有在现场被培训过。,,
OPEXCH4S4L1-3,,有衡量入职和试用期流程绩效的KPI（入职成功率）,,
OPEXCH4S4L2-1,,有脱产的正式培训，包括一些生产现场的实操。,,
OPEXCH4S4L2-2,,向新员工介绍组织的使命和价值观、主要客户和产品。,,
OPEXCH4S4L3-1,,经理与员工有正式会议以回顾试用期目标达成情况。,,
OPEXCH4S4L4-1,,随着组织的发展，入职和试用流程都会随之进行调整。,,
OPEXCH4S5,岗位和角色职责,岗位职责能够告知每个人其责任及所需技能；岗位职责能让团队成员互相协作；作为一个标准，岗位职责也能发现现状与预期的差异。,获取岗位职责书,
OPEXCH4S5L1-1,,部分岗位有岗位职责书。,,
OPEXCH4S5L2-1,,各岗位都有岗位职责书，且被分发到各个员工手中。,,
OPEXCH4S5L2-2,,它包含了岗位的目标，职责（与相关能力），任务（与相关技能），和相关行为要求。,,
OPEXCH4S5L2-3,,团队成员能够解释他们的岗位职责书,,
OPEXCH4S5L3-1,,岗位职责书为面试和评估（技能水平）提供依据。,,
OPEXCH4S5L4-1,,岗位职责书已转变为工作模块（专业领域）角色职责书。它能让组织需求和员工意愿实现双赢。,,
OPEXCH4S6,学习体系,各岗位都必须掌握相应的技能。,"询问员工他们最近一次接受技能评估或者培训的状况；如果有新的制程或者新产品投产时，会有什么具体行动？
",
OPEXCH4S6L1-1,,当从事新的岗位，新职责、生产新产品时，组织确保团队成员参与必要的学习。,,
OPEXCH4S6L1-2,,学习材料被专家标准化并开放给所有员工。,,
OPEXCH4S6L2-1,,当从事新的岗位职责、生产新产品时，组织确保团队成员的技能都能通过认证；,,
OPEXCH4S6L2-2,,技能认证的流程被标准化了。,,
OPEXCH4S6L2-3,,团队成员的技能定期被重新评估（例如每年一次）,,
OPEXCH4S6L3-1,,根据组织需求，定期明确所需的新技能。,,
OPEXCH4S6L3-2,,学习材料会相应更新。,,
OPEXCH4S6L3-3,,团队技能与团队绩效均得到提升,,
OPEXCH4S6L4-1,,学习体系会根据组织的需求持续被挑战.,,
OPEXCH4S7,改善建议体系,未被使用的创造力是八大浪费之一。一个以持续改善为目标的组织必须充分利用每个人的创造力，并让所有人都致力于组织的发展。,"检查有没有改善建议体系。
从最近实施的一些改善建议开始，了解系统。
询问员工是否了解该系统，以及他们是否已经参与。

",
OPEXCH4S7L1-1,,员工可以提出他们的改善意见。,,
OPEXCH4S7L1-2,,一些改善建议已经在现场执行。,,
OPEXCH4S7L2-1,,一些收集改善建议的工具已经到位。（意见箱，管理看板，面谈，会议，……）,,
OPEXCH4S7L2-2,,为了保证每个人的参与，提出改善建议的数量是被衡量的。,,
OPEXCH4S7L2-3,,有一个清晰的流程来分类和决定哪些改善建议将被尝试，并奖励参与者（最佳提案，最佳贡献，最佳投资回报率……）,,
OPEXCH4S7L3-1,,企业给予员工实施他们的改善建议的时间。,,
OPEXCH4S7L3-2,,"每个改善建议都被尝试过。
",,
OPEXCH4S7L3-3,,"该体系促进企业最终绩效的改善。
",,
OPEXCH4S7L3-4,,有一个促进全员参与的激励机制。,,
OPEXCH4S7L4-1,,"改善建议体系全员参与，生机勃勃。

",,
OPEXCH4S7L4-2,,为了确保提出的改善建议保持较高的数量并且服务于组织目标，定期对系统进行修订(选择标准、KPI、奖励)。,,
OPEXCH4S7L4-3,,"改善建议体系与高层的创新战略相结合，高层定期推出一些新课题。
",,
OPEXCH4S8,多技能管理,多技能管理会提高组织稳定性和灵活性。技能管理融合了员工的个人意愿和组织项目需求。,观察现场是否有多技能矩阵。了解企业/组织如何培养员工技能。,
OPEXCH4S8L1-1,,在企业/组织中可以看到技能矩阵 。技能矩阵可衡量员工的现有技能和组织发展所需技能的匹配度。,,
OPEXCH4S8L2-1,,企业/组织在所需熟练技能员工的数量或者所需掌握技能的数量方面设定了目标。,,
OPEXCH4S8L2-2,,可以看到现状与目标之间的差距（如：被培训的人员不足，技能没有达标）,,
OPEXCH4S8L2-3,,管理和展示技能矩阵及培训计划。,,
OPEXCH4S8L3-1,,技能矩阵展示不同维度的目标（例如：每个制程熟练技能员工数量 和每个员工需掌握的技能数量）,,
OPEXCH4S8L3-2,,员工技能目标根据个人技能发展战略而定 （参照年资，个人意愿，个人特质...）,,
OPEXCH4S8L3-3,,员工被鼓励定期实践自己具备的不同技能。,,
OPEXCH4S8L4-1,,有持续精简工作流程或内容的战略，从而自然提高员工技能，并提升组织的敏捷度。,,
OPEXCH4S8L4-2,,当达到设定目标时， 应自审多技能目标以适应新的需求。,,
OPEXCH4S9,快乐员工,"员工工作中的幸福感是达到绩效的关键因素吗？
",查阅缺勤系统：结果，趋势，行动计划，指标。查阅近期出勤率和离职率。,
OPEXCH4S9L1-1,,通过年度调查问卷了解员工幸福感和参与度。,,
OPEXCH4S9L1-2,,跟踪员工缺勤和离职原因。,,
OPEXCH4S9L1-3,,企业确保工作环境安全、干净，按时支付员工工资。,,
OPEXCH4S9L2-1,,跟踪考核结果并与团队分享，相应行动计划清晰。,,
OPEXCH4S9L2-2,,直属经理是“缺勤”的第一负责人（如：进行“旷工/复工”访谈），同时，公司层面将相应采取一些措施来保障人员稳定。,,
OPEXCH4S9L3-1,,公司层面有提升员工参与度的整体规划（如团队会议，集体活动，宣传计划，定期问卷等）。,,
OPEXCH4S9L3-2,,团队会议为员工注入能量并提升其责任感。,,
OPEXCH4S9L4-1,,企业赋予员工个人发展机会。,,
OPEXCH5,第4章：价值链的持续优化 ( O ),,,
OPEXCH5S1,客户导向, 一个组织只有通过不断让客户满意才能达到可持续发展。给每个员工以意识和责任，让他相信“购买者”/“后道工序”是他最好的朋友。," 现场搜集关于客户声音（需求，反馈......）的证据。
 访谈团队成员，了解他们的客户满意度情况，以及根据客户需求调整流程的情况。",
OPEXCH5S1L1-1,,客户的名称在现场是可见的。,,
OPEXCH5S1L1-2,, 团队成员知道客户的名称，经营范围......,,
OPEXCH5S1L1-3,, 客户提供的反馈或数据被展示出来，并在团队中分享。,,
OPEXCH5S1L2-1,,组织定期询问客户满意度，并将结果与一线沟通。,,
OPEXCH5S1L2-2,,组织定期与外部客户协作，调整其流程以更好地满足客户需求。,,
OPEXCH5S1L3-1,,客户满意度体系已在内部实行。,,
OPEXCH5S1L3-2,,各部门都在致力于他们内部和外部客户满意度，并根据结果进行改善。,,
OPEXCH5S1L4-1,,"组织制定了“关注客户声音”的战略，从而持续发现客户变化的需求与期望。
",,
OPEXCH5S2,价值链管理,"价值链=提供客户所需产品或服务的步骤。 
  客户满意度只有通过调整和优化整个价值链来满足其需求。"," 价值链是否已经被识别？ 
  价值链优化有负责人吗？ 
  价值链被图示出来了吗？ 
  价值链在不断地被改进吗？",
OPEXCH5S2L1-1,,部分流程使用“增值/非增值/浪费”进行分析和改进。,,
OPEXCH5S2L2-1,,面对不同客户的需求，组织的主要价值链已经被图示出来了。（现状和目标状况）,,
OPEXCH5S2L2-2,,价值流程图可以帮我们理清应该组织哪些培训，和已经落实了哪些行动。,,
OPEXCH5S2L3-1,,价值链分析定期更新，并推动各部门流程改善。,,
OPEXCH5S2L3-2,,价值流程图（或者物料信息流程图） 是企业/组织里的通用工具，定期使用，促进改善。,,
OPEXCH5S2L4-1,,组织根据大环境及客户要求定期自审和更新“理想的“价值链。,,
OPEXCH5S3,稳定基础之工作环境,改善的机会隐藏在5M的分析中。确保工作环境不是产生障碍、浪费以及无效的根源，这一点非常重要。, 现场走动和观察。查阅标准。查阅经理的现场走动标准。询问。,
OPEXCH5S3L1-1,,环境/建筑保持良好的工作条件。,,
OPEXCH5S3L1-2,,发生故障的工作环境相关设备（电梯、门、电源开关等……）是被标识出来的。,,
OPEXCH5S3L1-3,,传输通道和工作区域被地标体系界定清楚。,,
OPEXCH5S3L1-4,,通道中没有无用的工具、产品和设备。,,
OPEXCH5S3L2-1,,在规定的工作区域内，地标体系应当被用于确定工作台、机器以及其他物品的摆放位置（模板、叉车、复印机……），并被遵守。,,
OPEXCH5S3L2-2,, 对设备进行标准化定位，从而将空间浪费减到最低。,,
OPEXCH5S3L2-3,, 工作区域内没有无用的设备（停用的或者发生故障的），地面清洁。,,
OPEXCH5S3L2-4,,管理者定期进行现场走动式管理。,,
OPEXCH5S3L2-5,,有计划进行建筑以及工作环境的维护,,
OPEXCH5S3L3-1,,在工位上，工具以及产品根据使用频率有标准的定位，并被遵守。,,
OPEXCH5S3L3-2,,工位上没有无用的工具和产品。,,
OPEXCH5S3L3-3,,工位上的工具及设备应当保持清洁。,,
OPEXCH5S3L3-4,,团队成员参与到5S的标准制定以及日常走动式管理中。,,
OPEXCH5S3L4-1,,团队成员完全自主管理5S。,,
OPEXCH5S3L4-2,,他们制定标准，内部评审，并自主管理5S预算，以保持良好的工作环境。,,
OPEXCH5S4,稳定基础之人员,改善的机会隐藏在5M的分析中。确保人力资源的稳定性，这一点非常重要。,"现场走动和观察团队成员及职能部门。
 检查多技能矩阵和说明。
 了解线平衡的方法",
OPEXCH5S4L1-1,,团队成员的健康和安全得到保障（如：提供个体防护设备）,,
OPEXCH5S4L1-2,,展示安全须知,,
OPEXCH5S4L1-3,,"缺勤率和人员流动率是被衡量且跟踪的。
",,
OPEXCH5S4L1-4,,根据现状对工作任务进行分割，每个人都知道他的工作职责。,,
OPEXCH5S4L2-1,,当发生意外伤害和安全事故时，有解决根本原因的行动方案以及防止类似问题再次发生的预案。,,
OPEXCH5S4L2-2,, 团队是满员的（招聘已经完成）,,
OPEXCH5S4L2-3,, 当有人缺勤，有明确的解决方案。,,
OPEXCH5S4L3-1,,机器、工具、设备、材料提供给工作人员，使他们能够正常操作。,,
OPEXCH5S4L3-2,, “水蜘蛛”负责提供原材料及半成品。 有固定和规律的休息时间。,,
OPEXCH5S4L3-3,,不同工位的节拍是平衡的，以确保团队成员工作的重复性和连续性。,,
OPEXCH5S4L4-1,,为确保人力资源的长期稳定，组织对工作量、节奏、工作时间、工位的工效学进行了分析且制定了解决方案。,,
OPEXCH5S5,稳定基础之设备,改善的机会隐藏在5M的分析中。保证使用中的机器和工具处于良好状态，并且不是产生障碍、浪费以及无业绩的根源，这一点非常重要。,现场走动，观察车间和维修区域。检查设备状态，查看维修保养记录,
OPEXCH5S5L1-1,,当设备出现问题时，维修部门立即采取行动。,,
OPEXCH5S5L1-2,,所有设备都被标识。,,
OPEXCH5S5L1-3,,设备故障和维修偶尔被记录。,,
OPEXCH5S5L1-4,,维修部门有机器的备用零件。,,
OPEXCH5S5L1-5,,维修部门追踪客户满意度的KPI（如维修时长，机器的可利用率…）。,,
OPEXCH5S5L2-1,,所有的机器都有预防性的维护计划并跟踪。,,
OPEXCH5S5L2-2,,根据故障分析，定义备用零件安全库存并进行管控（无短缺）,,
OPEXCH5S5L2-3,,一些关键设备有备用机,,
OPEXCH5S5L2-4,,使用了CMMS（计算机维护管理系统）。,,
OPEXCH5S5L3-1,,所有的故障都被分析，且预防性的维护计划会定期重新调整。,,
OPEXCH5S5L3-2,,在培训和认证之后，将一些基础的预防维护操作委托给员工进行。维修部门定期评估以保持维护水准。,,
OPEXCH5S5L3-3,,跟踪设备效率和合格率，以预测故障。,,
OPEXCH5S5L4-1,,内部团队改良设备，提高绩效。,,
OPEXCH5S5L4-2,,对于新设备，设备更新......定期进行行业对标。,,
OPEXCH5S6,稳定基础之物料,改善的机会隐藏在5M的分析中。为了确保价值链的绩效，必须保证正确的物料和信息，以合格的质量，在正确的时间进行传递。,现场观察仓储区和质量控制区。观察是否有短缺或者库存过多的情况发生。确认ERP系统内数据与实物是否相符。了解质检部门如何进行质量管控。质检部门对其供应商的管控程度如何？,
OPEXCH5S6L1-1,,有指标来追踪物料的可用性。（数量、质量）,,
OPEXCH5S6L1-2,,在组织的入口处，有来料管控（IQC来料质量控制）,,
OPEXCH5S6L1-3,,任何库存及半成品库存（原材料仓库、成品仓库、制程或部门间的库存）都在现场有标识和数量。,,
OPEXCH5S6L2-1,,ERP系统被用来管理原材料、半成品及成品数量。ERP系统数据与实物相符。,*pareto柏拉图：又称为排列图，是分析和寻找影响质量主原因素的一种工具，其形式用双直角坐标图，左边纵坐标表示频数（如件数 金额等），右边纵坐标表示频率（如百分比表示）。分折线表示累积频率，横坐标表示影响质量的各项因素，按影响程度的大小（即出现频数多少）从左向右排列。,
OPEXCH5S6L2-2,,"在部门层面，质量控制人员通过来料检验，中检 以及尾检来保证质量。这三种质量管控都根据一个固定或者动态的频率完成。
",,
OPEXCH5S6L2-3,,衡量拒收率和短缺率（提前/推迟），并使用柏拉图分析质量问题。,,
OPEXCH5S6L2-4,,ERP : Enterprise Resource Planning,,
OPEXCH5S6L3-1,,为确保流畅的生产以及较低的库存水平，定期调整最小/最大库存水平。,,
OPEXCH5S6L3-2,,流程中的每个人都能够做来料检验、中检及尾检来管控他的工作站（指的是每个人都能做到不接受，不制造，不传递不良品）。质检部门定期评估以维持水准。,,
OPEXCH5S6L3-3,,质量记录被质检部门分析。评估和管控频率将据情况进行调整（动态频率）。组织内部开发新工具及方法（如夹具，防错机制，新工序…）。管理一些外部供应商以确保物料的稳定供应。,,
OPEXCH5S6L4-1,,制程质量控制在标杆水平或更高水平。,,
OPEXCH5S6L4-2,,针对常见的物料不良及短缺的根本原因，已采取行动修正：使其更安全，更简单，更容易，用最娴熟的工人…...,,
OPEXCH5S6L4-3,,减少缓冲物料的策略已经开始执行。,,
OPEXCH5S7,拉动式生产,站在客户的角度来思考流程管理。,订单的追溯方式已确定。检查生产顺序是否被遵守。观察超市系统及其工作方式。,
OPEXCH5S7L1-1,,存在一个中枢部门（IT系统或一个团队）编辑每个部门的生产订单。,,
OPEXCH5S7L1-2,,每个团队按照这个时间表工作并遵守它。,,
OPEXCH5S7L1-3,,库存水平是不稳定的。,,
OPEXCH5S7L2-1,,只有一个最接近最终客户的调度点。,,
OPEXCH5S7L2-2,,"跟前道工序的关系是通过拉动式的超市系统和看板来管理的。
",,
OPEXCH5S7L2-3,,库存水平是有规定的，应遵守并保持在一定范围内。,,
OPEXCH5S7L3-1,,制定了缩减“物料超市”规模的策略（减少空间，减少批量，使用传送装置…），使不同制程的节拍时间保持平衡，以满足客户的节拍需求。,"*cycle time 周期时间：是指连续完成相同的两个产品之间的间隔时间。即指完成一个产品所需的平均时间。节拍通常只是用于定义一个流程中某一具体工序或环节的单位产出时间。
 *takt time 客户要求的节拍时间：是以客户订单量为基础的计算, 决定机器人员的配置。计算方法是：可用生产时间除以订单量。",
OPEXCH5S7L4-1,,拉动式生产的概念已被推广到各工位之间。,,
OPEXCH5S7L4-2,,"每位员工都致力于满足他们客户的需求。
",,
OPEXCH5S7L4-3,,已经开展了减少现场在制品的策略。,,
OPEXCH5S8,连续流和节拍时间,物料/数据进入流程后从未停止，直到最后完成。,生产需求是否稳定？观察是否有在制品，以及为什么此处会有在制品？有哪些措施来减少在制品？,
OPEXCH5S8L2-1,,稳定基础之4M均达到C级别。（见O3、O4、O5、O6行）,,
OPEXCH5S8L2-2,,"已经建立了缓冲或平衡系统，以保护生产，减少因客户需求变化带来的冲击。
因此，生产需求的稳定性增加。",,
OPEXCH5S8L2-3,,这有助于保持生产流的连续和稳定，但不与客户节拍吻合。,,
OPEXCH5S8L3-1,,检测到“非连续流“的来源（不同的产能，不同的工作时间，距离，转款时间，设备故障…...）。,,
OPEXCH5S8L3-2,,已开展行动计划来减少这些“非连续流”的来源，从而减少WIP（在制品）。,,
OPEXCH5S8L4-1,,组织已经制定了几个“连续流”的生产组织方式来满足不同的客户节拍。,,
OPEXCH5S8L4-2,,在某些制程已实现“单件流”。,,