{
  "filename": "CP2.3_Lida_45041_TextileFlat lock T shirt_Sohel Hossain_Sohan.xlsx",
  "count": 11,
  "product_family": {
    "name": "Flat Lock T shirt",
    "processes": [
      {
        "name": "Metal raw material reception and storage",
        "category": "Incoming control",
        "steps": [
          {
            "step_number": "000",
            "control_item": "Fabric IQC",
            "control_method": null,
            "requirement": "each batch of fabric",
            "criticity": "Major",
            "control_type": "Visual/cosmetic control",
            "supplier_control_freq_note": "Weekly",
            "supplier_controller": "Rajib",
            "decathlon_control_freq_note": null,
            "active": true
          },
          {
            "step_number": "000",
            "control_item": "RFID",
            "control_method": "DCS 020A",
            "requirement": "Each Invoice",
            "criticity": "Major",
            "control_type": "Visual/cosmetic control",
            "supplier_control_freq_note": "Weekly",
            "supplier_controller": "Rajib",
            "decathlon_control_freq_note": null,
            "active": true
          },
          {
            "step_number": "000",
            "control_item": "HTL",
            "control_method": "DCS 03007A, 03008A",
            "requirement": "each invoice",
            "criticity": "Major",
            "control_type": "Visual/cosmetic control",
            "supplier_control_freq_note": "Weekly",
            "supplier_controller": "Rajib",
            "decathlon_control_freq_note": null,
            "active": true
          },
          {
            "step_number": "000",
            "control_item": "Accessories( label,hang tag,zipper thread,drawstring,button,Ilet,rubber,neck tape,reflective tape)",
            "control_method": null,
            "requirement": "each invoice",
            "criticity": "Major",
            "control_type": "Visual/cosmetic control",
            "supplier_control_freq_note": "Weekly",
            "supplier_controller": "Rajib",
            "decathlon_control_freq_note": null,
            "active": true
          }
        ]
      },
      {
        "name": "Warehouse",
        "category": "Online control",
        "steps": [
          {
            "step_number": "000",
            "control_item": "FABRIC STORAGE",
            "control_method": "DPR 03.001A Fabric storage",
            "requirement": "Very important during peak season.",
            "criticity": "Major",
            "control_type": "Visual/cosmetic control",
            "supplier_control_freq_note": "Monthly/ Random check",
            "supplier_controller": "Rajib",
            "decathlon_control_freq_note": null,
            "active": true
          }
        ]
      },
      {
        "name": "Cutting",
        "category": "Online control",
        "steps": [
          {
            "step_number": "000",
            "control_item": "RELAXING PROCEDURE",
            "control_method": "DPR 04.001 relaxing procedure",
            "requirement": "D LEVEL FOR ALL STRETCHED FABRICS\n E LEVEL FOR SWIMWEAR",
            "criticity": "Major",
            "control_type": "Visual/cosmetic control",
            "supplier_control_freq_note": "Weekly",
            "supplier_controller": "Rajib",
            "decathlon_control_freq_note": null,
            "active": true
          },
          {
            "step_number": "000",
            "control_item": "SPREADING PROCESS",
            "control_method": "DPR 05.007 Spreading Process",
            "requirement": "Critical if new component",
            "criticity": "Major",
            "control_type": "Visual/cosmetic control",
            "supplier_control_freq_note": "Weekly",
            "supplier_controller": "Rajib",
            "decathlon_control_freq_note": null,
            "active": true
          },
          {
            "step_number": "000",
            "control_item": "RECOMMANDED LAY HEIGHT & LENGHT",
            "control_method": "DPR 05.010 recommanded lay Height & Lenght",
            "requirement": "D LEVEL FOR ALL STRETCHED FABRICS\n E LEVEL FOR SWIMWEAR",
            "criticity": "Major",
            "control_type": "Visual/cosmetic control",
            "supplier_control_freq_note": "Weekly",
            "supplier_controller": "Rajib",
            "decathlon_control_freq_note": null,
            "active": true
          },
          {
            "step_number": "000",
            "control_item": "PANEL CUTTING DIRECTION",
            "control_method": "DPR 06.003 Panel Cutting Direction",
            "requirement": null,
            "criticity": "Major",
            "control_type": "Visual/cosmetic control",
            "supplier_control_freq_note": "Weekly",
            "supplier_controller": "Rajib",
            "decathlon_control_freq_note": null,
            "active": true
          },
          {
            "step_number": "000",
            "control_item": "ACCURACY OF CUTTING",
            "control_method": "DPR 06.009 Accuracy of cutting",
            "requirement": null,
            "criticity": "Major",
            "control_type": "Visual/cosmetic control",
            "supplier_control_freq_note": "Weekly",
            "supplier_controller": "Rajib",
            "decathlon_control_freq_note": null,
            "active": true
          },
          {
            "step_number": "000",
            "control_item": "ACCURACY OF NOTCHES & NOTCHES DIRECTION",
            "control_method": "DPR 06.011 Accuracy of notches",
            "requirement": "compulsary for notches on flats",
            "criticity": "Major",
            "control_type": "Visual/cosmetic control",
            "supplier_control_freq_note": "Weekly",
            "supplier_controller": "Rajib",
            "decathlon_control_freq_note": null,
            "active": true
          },
          {
            "step_number": "000",
            "control_item": "MARKER TRACING",
            "control_method": "DPR 06.001 Marker tracing",
            "requirement": null,
            "criticity": "Major",
            "control_type": "Visual/cosmetic control",
            "supplier_control_freq_note": "Weekly",
            "supplier_controller": "Rajib",
            "decathlon_control_freq_note": null,
            "active": true
          },
          {
            "step_number": "000",
            "control_item": "CONTROL OF CUT PIECES",
            "control_method": "DPR 06.021 Control of Cut Pieces",
            "requirement": "FOR SWIMWEAR & UNDERWEAR",
            "criticity": "Major",
            "control_type": "Visual/cosmetic control",
            "supplier_control_freq_note": "Weekly",
            "supplier_controller": "Rajib",
            "decathlon_control_freq_note": null,
            "active": true
          },
          {
            "step_number": "000",
            "control_item": "NRDPRENE THICKNESS",
            "control_method": "Use a calibrated slide caliper. Check at least 1 panel of all the different neDPRen reference in BOM.",
            "requirement": "CONFORM TO MASTER SAMPLE(TOLERANCE +/- 0.3 mm)\n CRITICAL",
            "criticity": "Minor",
            "control_type": "Visual/cosmetic control",
            "supplier_control_freq_note": "Weekly",
            "supplier_controller": "Rajib",
            "decathlon_control_freq_note": null,
            "active": true
          },
          {
            "step_number": "000",
            "control_item": "NEDPRENE FOAM REFFERENCE",
            "control_method": "Check the reference written on the sheets in cutting section or wharehouse",
            "requirement": "Conform to BOM inside CdCT",
            "criticity": "Minor",
            "control_type": "Visual/cosmetic control",
            "supplier_control_freq_note": "Weekly",
            "supplier_controller": "Rajib",
            "decathlon_control_freq_note": null,
            "active": true
          }
        ]
      },
      {
        "name": "Assembling process",
        "category": "Online control",
        "steps": [
          {
            "step_number": "000",
            "control_item": "OVERLOCK PROCESS",
            "control_method": "DPR 10.107 Overlock process",
            "requirement": "Defect is critical on leggings family products and major on the others",
            "criticity": "Major",
            "control_type": "Visual/cosmetic control",
            "supplier_control_freq_note": "Weekly",
            "supplier_controller": "Rajib",
            "decathlon_control_freq_note": null,
            "active": true
          },
          {
            "step_number": "000",
            "control_item": "FLAT LOCK WORKMANSHIP ADJUSTEMENT",
            "control_method": "DPR 10.109 Flatlock workmanship",
            "requirement": "for all flatlock lines",
            "criticity": "Major",
            "control_type": "Visual/cosmetic control",
            "supplier_control_freq_note": "daily",
            "supplier_controller": "Rajib",
            "decathlon_control_freq_note": null,
            "active": true
          },
          {
            "step_number": "000",
            "control_item": "FLAT LOCK PARAMETERS ADJUSTMENT",
            "control_method": "DPR 10.219 adjustment of flat lock to avoid loose thread",
            "requirement": "for all flatlock lines",
            "criticity": "Major",
            "control_type": "Visual/cosmetic control",
            "supplier_control_freq_note": "Weekly",
            "supplier_controller": "Rajib",
            "decathlon_control_freq_note": null,
            "active": true
          },
          {
            "step_number": "000",
            "control_item": "CHECK SEAM ELASTICITY",
            "control_method": "DPR 10.106",
            "requirement": null,
            "criticity": "Major",
            "control_type": "Visual/cosmetic control",
            "supplier_control_freq_note": "Weekly",
            "supplier_controller": "Rajib",
            "decathlon_control_freq_note": null,
            "active": true
          },
          {
            "step_number": "000",
            "control_item": "FLAT SEAMER MACHINE",
            "control_method": "DPR 10.209",
            "requirement": "for all product with flatlock",
            "criticity": "Major",
            "control_type": "Visual/cosmetic control",
            "supplier_control_freq_note": "Weekly",
            "supplier_controller": "Rajib",
            "decathlon_control_freq_note": null,
            "active": true
          },
          {
            "step_number": "000",
            "control_item": "ASSEMBLIES CONFORMITY AND SOLIDITY",
            "control_method": "DCS_10 Assemblies solidity and conformity",
            "requirement": "ON CRITICAL PRODUCT OPERATION (EX: SIDE STITCHING, INNERLEG, CROTCH,…)",
            "criticity": "Minor",
            "control_type": "Visual/cosmetic control",
            "supplier_control_freq_note": "Weekly",
            "supplier_controller": "Rajib",
            "decathlon_control_freq_note": null,
            "active": true
          },
          {
            "step_number": "000",
            "control_item": "STITCHING DENSITY",
            "control_method": "DPR_Textile_10.111 Stitch density for assembly",
            "requirement": "CRITICAL ON KEY OPERATIONS (EX: SIDE STITCHING, INNERLEG, CROTCH,…)",
            "criticity": "Minor",
            "control_type": "Visual/cosmetic control",
            "supplier_control_freq_note": "Weekly",
            "supplier_controller": "Rajib",
            "decathlon_control_freq_note": null,
            "active": true
          },
          {
            "step_number": "000",
            "control_item": "Requirements for prefixing",
            "control_method": "DPR10.701",
            "requirement": null,
            "criticity": null,
            "control_type": "Visual/cosmetic control",
            "supplier_control_freq_note": "Weekly",
            "supplier_controller": "Rajib",
            "decathlon_control_freq_note": null,
            "active": true
          },
          {
            "step_number": "000",
            "control_item": "DEVELOPMENT & VALIDATION OF BONDING MC PARAMETERS",
            "control_method": "DPR 10.706",
            "requirement": "specifically in industrialization phase &/or first days of production",
            "criticity": null,
            "control_type": "Visual/cosmetic control",
            "supplier_control_freq_note": null,
            "supplier_controller": "Rajib",
            "decathlon_control_freq_note": null,
            "active": true
          },
          {
            "step_number": "000",
            "control_item": "BONDING QUALITY FOLLOW UP IN PRODUCTION",
            "control_method": "DPR 10.707",
            "requirement": null,
            "criticity": "Major",
            "control_type": "Visual/cosmetic control",
            "supplier_control_freq_note": null,
            "supplier_controller": "Rajib",
            "decathlon_control_freq_note": null,
            "active": true
          },
          {
            "step_number": "000",
            "control_item": "CHECK THE THREAD VS BOM",
            "control_method": null,
            "requirement": "SAME THAN MTSR (BRAND, REF)",
            "criticity": null,
            "control_type": "Visual/cosmetic control",
            "supplier_control_freq_note": "Monthly",
            "supplier_controller": "Rajib",
            "decathlon_control_freq_note": null,
            "active": true
          },
          {
            "step_number": "000",
            "control_item": "FLAT LOCK & OVLERLOCK WITH CORRECT SOP",
            "control_method": "DPR 15.031",
            "requirement": "indicating at minimum the the good & bad stitchings",
            "criticity": "Major",
            "control_type": "Visual/cosmetic control",
            "supplier_control_freq_note": "Weekly",
            "supplier_controller": "Rajib",
            "decathlon_control_freq_note": null,
            "active": true
          },
          {
            "step_number": "000",
            "control_item": "TO CHECK RFID LABEL IS MATCHING WITH PRODUCT SIZE",
            "control_method": "On 3 products, check if RFID is matching with the product (model, size)",
            "requirement": "RFID on product must be conformed with the product",
            "criticity": "Major",
            "control_type": "Visual/cosmetic control",
            "supplier_control_freq_note": "Weekly",
            "supplier_controller": "Rajib",
            "decathlon_control_freq_note": null,
            "active": true
          },
          {
            "step_number": "000",
            "control_item": "GBS SEAM STRETCH",
            "control_method": "Pull strongly at least 2 different GBS seams to their maximum of stretchability.",
            "requirement": "No seam should break or crack (sound). The neDPRen or fabric shouldn't be damaged too.",
            "criticity": "Major",
            "control_type": "Process control,",
            "supplier_control_freq_note": null,
            "supplier_controller": "Rajib",
            "decathlon_control_freq_note": null,
            "active": true
          },
          {
            "step_number": "000",
            "control_item": "TO GUARANTEE THE BROKEN NEEDLE MANAGEMENT",
            "control_method": "DPR 10.122 broken needle register",
            "requirement": "critical on baby products lines",
            "criticity": "Major",
            "control_type": "Visual/cosmetic control",
            "supplier_control_freq_note": "Monthly",
            "supplier_controller": "Rajib",
            "decathlon_control_freq_note": null,
            "active": true
          },
          {
            "step_number": "000",
            "control_item": "CONTROL OF MOULDED FOAM CUPS AND SPACERS",
            "control_method": "DPR 07.225",
            "requirement": "frequency to be defined by supplier",
            "criticity": null,
            "control_type": "Visual/cosmetic control",
            "supplier_control_freq_note": null,
            "supplier_controller": "Rajib",
            "decathlon_control_freq_note": null,
            "active": true
          },
          {
            "step_number": "000",
            "control_item": "MOULDING CUPS CONTROL",
            "control_method": "DPR 07.204",
            "requirement": null,
            "criticity": null,
            "control_type": "Visual/cosmetic control",
            "supplier_control_freq_note": null,
            "supplier_controller": "Rajib",
            "decathlon_control_freq_note": null,
            "active": true
          }
        ]
      },
      {
        "name": "Accessories and marking",
        "category": "Online control",
        "steps": [
          {
            "step_number": "000",
            "control_item": "HEAT TRANSFER LABEL APPLICATION",
            "control_method": "DPR 09.105 Heat Transfert Label Application",
            "requirement": null,
            "criticity": "Major",
            "control_type": "Visual/cosmetic control",
            "supplier_control_freq_note": "WEEKLY",
            "supplier_controller": null,
            "decathlon_control_freq_note": null,
            "active": true
          },
          {
            "step_number": "000",
            "control_item": "HEAT TRANSFER LABEL POSITION UNDER PRESS",
            "control_method": "DPR 09.106 HTL position under press",
            "requirement": null,
            "criticity": "Critical",
            "control_type": "Visual/cosmetic control",
            "supplier_control_freq_note": "daily",
            "supplier_controller": null,
            "decathlon_control_freq_note": null,
            "active": true
          },
          {
            "step_number": "000",
            "control_item": "FASTENER PROCESS REQUIREMENTS",
            "control_method": "DPR 11.101 Fastener Process Requirements",
            "requirement": null,
            "criticity": null,
            "control_type": "Visual/cosmetic control",
            "supplier_control_freq_note": null,
            "supplier_controller": null,
            "decathlon_control_freq_note": null,
            "active": true
          },
          {
            "step_number": "000",
            "control_item": "FASTENER CONTROL",
            "control_method": "DPR 11.103 fastener control",
            "requirement": null,
            "criticity": null,
            "control_type": "Visual/cosmetic control",
            "supplier_control_freq_note": "daily",
            "supplier_controller": null,
            "decathlon_control_freq_note": null,
            "active": true
          },
          {
            "step_number": "000",
            "control_item": "HEAT TRANSFER DURABILITY",
            "control_method": "DS 096 + DS 130",
            "requirement": null,
            "criticity": "Minor",
            "control_type": "LAB control",
            "supplier_control_freq_note": "PER LOT",
            "supplier_controller": null,
            "decathlon_control_freq_note": null,
            "active": true
          },
          {
            "step_number": "000",
            "control_item": "SELF CONTROL ON HEAT TRANSFER",
            "control_method": "DPR 09.109",
            "requirement": null,
            "criticity": "Minor",
            "control_type": "Visual/cosmetic control",
            "supplier_control_freq_note": "WEEKLY",
            "supplier_controller": null,
            "decathlon_control_freq_note": null,
            "active": true
          },
          {
            "step_number": "000",
            "control_item": "SCREEN PRINT DURABILITY",
            "control_method": "DS 132",
            "requirement": "10 washes",
            "criticity": null,
            "control_type": "LAB control",
            "supplier_control_freq_note": null,
            "supplier_controller": null,
            "decathlon_control_freq_note": null,
            "active": true
          },
          {
            "step_number": "000",
            "control_item": "PRINTING : SILK SCREEN PREPARATION",
            "control_method": "DPR 09.302 silk screen preparation",
            "requirement": "if subcontracted, to check in subcontractor",
            "criticity": null,
            "control_type": "Visual/cosmetic control",
            "supplier_control_freq_note": null,
            "supplier_controller": null,
            "decathlon_control_freq_note": null,
            "active": true
          },
          {
            "step_number": "000",
            "control_item": "CURING & DRYING MACHINE BASIC REQUIREMENT",
            "control_method": "DPR 09.309 curring & drying machine basic requirement",
            "requirement": "check in subcontractor if subcontracted",
            "criticity": "Major",
            "control_type": "Visual/cosmetic control",
            "supplier_control_freq_note": "Weekly",
            "supplier_controller": null,
            "decathlon_control_freq_note": null,
            "active": true
          },
          {
            "step_number": "000",
            "control_item": "MACHINE REQUIREMENTS ACCORDING TO PRINT TYPE",
            "control_method": "DPR 09.311 Machine requirement according to print type",
            "requirement": "check in subcontractor if subcontracted",
            "criticity": null,
            "control_type": "Visual/cosmetic control",
            "supplier_control_freq_note": null,
            "supplier_controller": null,
            "decathlon_control_freq_note": null,
            "active": true
          }
        ]
      },
      {
        "name": "Finishing packaging process",
        "category": "Online control",
        "steps": [
          {
            "step_number": "000",
            "control_item": "IRONING AREAS",
            "control_method": "DPR 12.002 Ironing Area",
            "requirement": null,
            "criticity": null,
            "control_type": "Visual/cosmetic control",
            "supplier_control_freq_note": null,
            "supplier_controller": null,
            "decathlon_control_freq_note": null,
            "active": true
          },
          {
            "step_number": "000",
            "control_item": "PACKING MOLD PREVENTION",
            "control_method": "DPR 13.007 Packing Mold Prevention",
            "requirement": null,
            "criticity": "Major",
            "control_type": "Visual/cosmetic control",
            "supplier_control_freq_note": "Weekly",
            "supplier_controller": null,
            "decathlon_control_freq_note": null,
            "active": true
          },
          {
            "step_number": "000",
            "control_item": "SUPPLIER END OF LINE CONTROL",
            "control_method": "DPR 10.117 End of line Control",
            "requirement": null,
            "criticity": "Major",
            "control_type": "Visual/cosmetic control",
            "supplier_control_freq_note": "daily",
            "supplier_controller": null,
            "decathlon_control_freq_note": null,
            "active": true
          },
          {
            "step_number": "000",
            "control_item": "LIGHT MACHINE FOR END LINE CONTROL",
            "control_method": "DPR 10.120 light machine for seam control",
            "requirement": "only for lines dedicated to stretched bottoms",
            "criticity": null,
            "control_type": "Visual/cosmetic control",
            "supplier_control_freq_note": null,
            "supplier_controller": null,
            "decathlon_control_freq_note": null,
            "active": true
          },
          {
            "step_number": "000",
            "control_item": "NECK LINE SHAPE & MEASUREMENT",
            "control_method": null,
            "requirement": "only for lines dedicated to stretched bottoms",
            "criticity": "Critical",
            "control_type": "Visual/cosmetic control",
            "supplier_control_freq_note": "daily",
            "supplier_controller": null,
            "decathlon_control_freq_note": null,
            "active": true
          },
          {
            "step_number": "000",
            "control_item": "METAL DETECTOR",
            "control_method": "DPR 14.004 Metal detector for baby garment",
            "requirement": "COMPULSARY FOR BABY PRODUCTS - 100% products to be scanned",
            "criticity": null,
            "control_type": "Visual/cosmetic control",
            "supplier_control_freq_note": null,
            "supplier_controller": null,
            "decathlon_control_freq_note": null,
            "active": true
          },
          {
            "step_number": "000",
            "control_item": "SUPPLIER ENDLINE & FINAL CONTROL",
            "control_method": "DPR 14.001 Final Control",
            "requirement": null,
            "criticity": null,
            "control_type": "Visual/cosmetic control",
            "supplier_control_freq_note": "daily",
            "supplier_controller": null,
            "decathlon_control_freq_note": null,
            "active": true
          },
          {
            "step_number": "000",
            "control_item": "RFID CONTROL",
            "control_method": "DPR 13.003 RFID CONTROL",
            "requirement": null,
            "criticity": "Minor",
            "control_type": "Visual/cosmetic control",
            "supplier_control_freq_note": "Weekly",
            "supplier_controller": null,
            "decathlon_control_freq_note": null,
            "active": true
          },
          {
            "step_number": "000",
            "control_item": "RFID CONTROL",
            "control_method": "DPR 14.005 RFID Control",
            "requirement": null,
            "criticity": "Critical",
            "control_type": "Visual/cosmetic control",
            "supplier_control_freq_note": "Weekly",
            "supplier_controller": null,
            "decathlon_control_freq_note": null,
            "active": true
          }
        ]
      },
      {
        "name": "Sub part gtd",
        "category": "Final control",
        "steps": [
          {
            "step_number": "000",
            "control_item": "Check GTD",
            "control_method": "General Terms of deliveries",
            "requirement": "Conform to GTD",
            "criticity": null,
            "control_type": null,
            "supplier_control_freq_note": null,
            "supplier_controller": null,
            "decathlon_control_freq_note": null,
            "active": true
          }
        ]
      },
      {
        "name": "Sub part general",
        "category": "Final control",
        "steps": [
          {
            "step_number": "000",
            "control_item": "Check the conformity of the hanging/folding",
            "control_method": "DCS_30 Hanging & Folding conformity",
            "requirement": null,
            "criticity": null,
            "control_type": null,
            "supplier_control_freq_note": null,
            "supplier_controller": null,
            "decathlon_control_freq_note": null,
            "active": true
          },
          {
            "step_number": "000",
            "control_item": "Check packaging & size labelling conformity",
            "control_method": "DCS_19 Size Labelling conformity",
            "requirement": null,
            "criticity": null,
            "control_type": null,
            "supplier_control_freq_note": null,
            "supplier_controller": null,
            "decathlon_control_freq_note": null,
            "active": true
          },
          {
            "step_number": "000",
            "control_item": "Check general appearance",
            "control_method": "DCS_24 General appearance",
            "requirement": null,
            "criticity": null,
            "control_type": null,
            "supplier_control_freq_note": null,
            "supplier_controller": null,
            "decathlon_control_freq_note": null,
            "active": true
          },
          {
            "step_number": "000",
            "control_item": "Check general functionnality",
            "control_method": "Wear the product and test all functions",
            "requirement": "Example of defects: twisted lining, collar and pockets too small, electronic…",
            "criticity": null,
            "control_type": null,
            "supplier_control_freq_note": null,
            "supplier_controller": null,
            "decathlon_control_freq_note": null,
            "active": true
          },
          {
            "step_number": "000",
            "control_item": "Check BOM conformity",
            "control_method": "Compare to master sample and teck pach",
            "requirement": null,
            "criticity": null,
            "control_type": null,
            "supplier_control_freq_note": null,
            "supplier_controller": null,
            "decathlon_control_freq_note": null,
            "active": true
          },
          {
            "step_number": "000",
            "control_item": "Check marking conformity",
            "control_method": "DCS_7 Marking Conformity",
            "requirement": null,
            "criticity": null,
            "control_type": null,
            "supplier_control_freq_note": null,
            "supplier_controller": null,
            "decathlon_control_freq_note": null,
            "active": true
          },
          {
            "step_number": "000",
            "control_item": "Check organic cotton traceability",
            "control_method": "Check supplier certification (GOTS or Organic exchange still valid) + check if transaction certificate has been asked or available for shipment",
            "requirement": "if product is with organic cotton",
            "criticity": null,
            "control_type": null,
            "supplier_control_freq_note": null,
            "supplier_controller": null,
            "decathlon_control_freq_note": null,
            "active": true
          },
          {
            "step_number": "000",
            "control_item": "Check Labels",
            "control_method": "DCS_21 General Labels conformity",
            "requirement": "COMPOSITION INFORMATION ARE CRITICAL\n Traceability must include at minimum : main component batch number (or a number linked to it), production week of assembly, supplier code.",
            "criticity": null,
            "control_type": null,
            "supplier_control_freq_note": null,
            "supplier_controller": null,
            "decathlon_control_freq_note": null,
            "active": true
          },
          {
            "step_number": "000",
            "control_item": "Check Labels for Indian market",
            "control_method": "DCS_23_MRP_conformity",
            "requirement": null,
            "criticity": null,
            "control_type": null,
            "supplier_control_freq_note": null,
            "supplier_controller": null,
            "decathlon_control_freq_note": null,
            "active": true
          },
          {
            "step_number": "000",
            "control_item": "Verify encoding and barcode reading on the RFID Tag",
            "control_method": "DCS_20_RFID_CONFORMITY",
            "requirement": null,
            "criticity": null,
            "control_type": null,
            "supplier_control_freq_note": null,
            "supplier_controller": null,
            "decathlon_control_freq_note": null,
            "active": true
          }
        ]
      },
      {
        "name": "Sub part accessories functional conformity",
        "category": "Final control",
        "steps": [
          {
            "step_number": "000",
            "control_item": "Check zippers functionnality",
            "control_method": "DCS_03_Zip functionning",
            "requirement": null,
            "criticity": null,
            "control_type": null,
            "supplier_control_freq_note": null,
            "supplier_controller": null,
            "decathlon_control_freq_note": null,
            "active": true
          },
          {
            "step_number": "000",
            "control_item": "Check zippers assembly",
            "control_method": "DCS_09 Zip Assembly",
            "requirement": null,
            "criticity": null,
            "control_type": null,
            "supplier_control_freq_note": null,
            "supplier_controller": null,
            "decathlon_control_freq_note": null,
            "active": true
          },
          {
            "step_number": "000",
            "control_item": "Check press studs",
            "control_method": "DCS_14 Conformity of the Press studs",
            "requirement": "CRITICAL FOR BABY",
            "criticity": null,
            "control_type": null,
            "supplier_control_freq_note": null,
            "supplier_controller": null,
            "decathlon_control_freq_note": null,
            "active": true
          },
          {
            "step_number": "000",
            "control_item": "Check hurtful or irritating accessories",
            "control_method": "DCS_05_Hurtful accessories",
            "requirement": "CRITICAL FOR BABY",
            "criticity": null,
            "control_type": null,
            "supplier_control_freq_note": null,
            "supplier_controller": null,
            "decathlon_control_freq_note": null,
            "active": true
          },
          {
            "step_number": "000",
            "control_item": "Check drawstrings conformity (For junior)",
            "control_method": "DCS_01_Drawstring_conformity_for_junior",
            "requirement": "CRITICAL FOR BABY AND JUNIOR",
            "criticity": null,
            "control_type": null,
            "supplier_control_freq_note": null,
            "supplier_controller": null,
            "decathlon_control_freq_note": null,
            "active": true
          },
          {
            "step_number": "000",
            "control_item": "Check assembly of buckle",
            "control_method": "DCS_02_Buckles conformity",
            "requirement": null,
            "criticity": null,
            "control_type": null,
            "supplier_control_freq_note": null,
            "supplier_controller": null,
            "decathlon_control_freq_note": null,
            "active": true
          },
          {
            "step_number": "000",
            "control_item": "Check button and button holes",
            "control_method": "DCS_22 Buttons and Button holes conformity",
            "requirement": null,
            "criticity": null,
            "control_type": null,
            "supplier_control_freq_note": null,
            "supplier_controller": null,
            "decathlon_control_freq_note": null,
            "active": true
          },
          {
            "step_number": "000",
            "control_item": "Check hanging componentS",
            "control_method": "DCS_15 Hanging components solidity",
            "requirement": null,
            "criticity": null,
            "control_type": null,
            "supplier_control_freq_note": null,
            "supplier_controller": null,
            "decathlon_control_freq_note": null,
            "active": true
          },
          {
            "step_number": "000",
            "control_item": "Check hook & loop",
            "control_method": "DCS_04_Hook and Loop conformity",
            "requirement": null,
            "criticity": null,
            "control_type": null,
            "supplier_control_freq_note": null,
            "supplier_controller": null,
            "decathlon_control_freq_note": null,
            "active": true
          },
          {
            "step_number": "000",
            "control_item": "BINDING STRETCH TEST",
            "control_method": null,
            "requirement": "Pull to 250% (Elongation = +150%) the front collar binding. Binding seam thread must not break.",
            "criticity": null,
            "control_type": null,
            "supplier_control_freq_note": null,
            "supplier_controller": null,
            "decathlon_control_freq_note": null,
            "active": true
          },
          {
            "step_number": "000",
            "control_item": "BINDING STRENGTH TEST",
            "control_method": null,
            "requirement": "The minimum binding strength resistance must be 180N",
            "criticity": null,
            "control_type": null,
            "supplier_control_freq_note": null,
            "supplier_controller": null,
            "decathlon_control_freq_note": null,
            "active": true
          },
          {
            "step_number": "000",
            "control_item": "Zig-Zag strengh test",
            "control_method": "Pull strongly on the zig-zag with hands",
            "requirement": "No crack of the seam and the neDPRen is not damaged",
            "criticity": null,
            "control_type": null,
            "supplier_control_freq_note": null,
            "supplier_controller": null,
            "decathlon_control_freq_note": null,
            "active": true
          },
          {
            "step_number": "000",
            "control_item": "UNDERWEAR & SWIMWEAR ACCESSORIES CONFORMITY",
            "control_method": "DCS_29",
            "requirement": null,
            "criticity": null,
            "control_type": null,
            "supplier_control_freq_note": null,
            "supplier_controller": null,
            "decathlon_control_freq_note": null,
            "active": true
          }
        ]
      },
      {
        "name": "Sub part workmanship",
        "category": "Final control",
        "steps": [
          {
            "step_number": "000",
            "control_item": "Check the symmetry of garment",
            "control_method": "DCS_18 symmetry conformity",
            "requirement": null,
            "criticity": null,
            "control_type": null,
            "supplier_control_freq_note": null,
            "supplier_controller": null,
            "decathlon_control_freq_note": null,
            "active": true
          },
          {
            "step_number": "000",
            "control_item": "Check the stitching regularity",
            "control_method": "DCS_13 Stitching regularity",
            "requirement": null,
            "criticity": null,
            "control_type": null,
            "supplier_control_freq_note": null,
            "supplier_controller": null,
            "decathlon_control_freq_note": null,
            "active": true
          },
          {
            "step_number": "000",
            "control_item": "Check the seam elasticity",
            "control_method": "DCS_12 Seam elasticity",
            "requirement": null,
            "criticity": null,
            "control_type": null,
            "supplier_control_freq_note": null,
            "supplier_controller": null,
            "decathlon_control_freq_note": null,
            "active": true
          },
          {
            "step_number": "000",
            "control_item": "Check the type of seam conformity",
            "control_method": "Compare to technical drawing",
            "requirement": "Example: type of seam at crotch arm armpit",
            "criticity": null,
            "control_type": null,
            "supplier_control_freq_note": null,
            "supplier_controller": null,
            "decathlon_control_freq_note": null,
            "active": true
          },
          {
            "step_number": "000",
            "control_item": "Check the assemblies conformity & solidity",
            "control_method": "DCS_10 Assemblies solidity and conformity",
            "requirement": null,
            "criticity": null,
            "control_type": null,
            "supplier_control_freq_note": null,
            "supplier_controller": null,
            "decathlon_control_freq_note": null,
            "active": true
          },
          {
            "step_number": "000",
            "control_item": "NECK LINE SHAPE & MEASUREMENT",
            "control_method": "DCS_157 Neckline minimum",
            "requirement": "The minimum measure is respected without stitching cracking",
            "criticity": null,
            "control_type": null,
            "supplier_control_freq_note": null,
            "supplier_controller": null,
            "decathlon_control_freq_note": null,
            "active": true
          },
          {
            "step_number": "000",
            "control_item": "Check bartacks",
            "control_method": "DCS_08_Bartacks solidity",
            "requirement": null,
            "criticity": null,
            "control_type": null,
            "supplier_control_freq_note": null,
            "supplier_controller": null,
            "decathlon_control_freq_note": null,
            "active": true
          }
        ]
      },
      {
        "name": "Sub part",
        "category": "Lab test",
        "steps": [
          {
            "step_number": "000",
            "control_item": "Toxicology test",
            "control_method": "toxicology packages",
            "requirement": "implantation tested for baby products only",
            "criticity": null,
            "control_type": null,
            "supplier_control_freq_note": null,
            "supplier_controller": null,
            "decathlon_control_freq_note": null,
            "active": true
          },
          {
            "step_number": "000",
            "control_item": "Finished product shrinkage, twist and Aspect after domestic washing and drying",
            "control_method": "DS 024",
            "requirement": "3 washes & drying\n shrinkage & twist compliant with MTSR",
            "criticity": null,
            "control_type": null,
            "supplier_control_freq_note": null,
            "supplier_controller": null,
            "decathlon_control_freq_note": null,
            "active": true
          },
          {
            "step_number": "000",
            "control_item": "Phenolic Yellowing test",
            "control_method": "DS 025",
            "requirement": "for light and light color",
            "criticity": null,
            "control_type": null,
            "supplier_control_freq_note": null,
            "supplier_controller": null,
            "decathlon_control_freq_note": null,
            "active": true
          },
          {
            "step_number": "000",
            "control_item": "Colour fastness after domestic washing",
            "control_method": "DS 150",
            "requirement": "FOR CONTRASTED COLOR",
            "criticity": null,
            "control_type": null,
            "supplier_control_freq_note": null,
            "supplier_controller": null,
            "decathlon_control_freq_note": null,
            "active": true
          },
          {
            "step_number": "000",
            "control_item": "HEAT TRANSFER DURABILITY",
            "control_method": "DS 096 + DS 130",
            "requirement": null,
            "criticity": null,
            "control_type": null,
            "supplier_control_freq_note": null,
            "supplier_controller": null,
            "decathlon_control_freq_note": null,
            "active": true
          },
          {
            "step_number": "000",
            "control_item": "SCREEN PRINT DURABILITY",
            "control_method": "DS132",
            "requirement": "10 washes",
            "criticity": null,
            "control_type": null,
            "supplier_control_freq_note": null,
            "supplier_controller": null,
            "decathlon_control_freq_note": null,
            "active": true
          },
          {
            "step_number": "000",
            "control_item": "SCREEN PRINT DURABILITY",
            "control_method": "DS 132 + DS 130",
            "requirement": "NeDPRene fabric",
            "criticity": null,
            "control_type": null,
            "supplier_control_freq_note": null,
            "supplier_controller": null,
            "decathlon_control_freq_note": null,
            "active": true
          },
          {
            "step_number": "000",
            "control_item": "BONDING DELAMINATION",
            "control_method": "DS044 version B",
            "requirement": "Depending on the assembling",
            "criticity": null,
            "control_type": null,
            "supplier_control_freq_note": null,
            "supplier_controller": null,
            "decathlon_control_freq_note": null,
            "active": true
          },
          {
            "step_number": "000",
            "control_item": "BONDING RESISTANCE",
            "control_method": "DS160",
            "requirement": "Depending on the assembling",
            "criticity": null,
            "control_type": null,
            "supplier_control_freq_note": null,
            "supplier_controller": null,
            "decathlon_control_freq_note": null,
            "active": true
          },
          {
            "step_number": "000",
            "control_item": "SEAMLESS MTSR TESTS",
            "control_method": "SEAMLESS FABRIC VALIDATION",
            "requirement": "Only for piece dyed, all the MTSR tests must be OK according to the inside requirements",
            "criticity": null,
            "control_type": null,
            "supplier_control_freq_note": null,
            "supplier_controller": null,
            "decathlon_control_freq_note": null,
            "active": true
          },
          {
            "step_number": "000",
            "control_item": "ACCESSORIES RESISTANCE CONTROL",
            "control_method": "DS_102",
            "requirement": "175N",
            "criticity": null,
            "control_type": null,
            "supplier_control_freq_note": null,
            "supplier_controller": null,
            "decathlon_control_freq_note": null,
            "active": true
          }
        ]
      }
    ]
  }
}
