{
  "filename": "CP2.3_Sunrising_45689_Woven_Sany Zhang.xlsx",
  "count": 13,
  "product_family": {
    "name": "WOVEN PRODUCT",
    "processes": [
      {
        "name": "Metal raw material reception and storage",
        "category": "Incoming control",
        "steps": [
          {
            "step_number": "000",
            "control_item": "FABRIC STORAGE\n面料的仓储状况",
            "control_method": "DPR_Textile_03.001_Fabric_storage",
            "requirement": "DPR requirements\nDPR 要求",
            "criticity": null,
            "control_type": "Visual/cosmetic control",
            "supplier_control_freq_note": null,
            "supplier_controller": null,
            "decathlon_control_freq_note": null,
            "active": true
          },
          {
            "step_number": "000",
            "control_item": "FABRIC STORAGE MANAGEMENT\n面料的仓储管理",
            "control_method": "DPR_Textile_03.004_B_Fabric_storage_management",
            "requirement": "DPR requirements\nDPR 要求",
            "criticity": null,
            "control_type": null,
            "supplier_control_freq_note": null,
            "supplier_controller": null,
            "decathlon_control_freq_note": null,
            "active": true
          }
        ]
      },
      {
        "name": "Cutting",
        "category": "Online control",
        "steps": [
          {
            "step_number": "000",
            "control_item": "SPREADING PROCESS\n拉布流程",
            "control_method": "DPR_Textile_05.007_Spreading_process",
            "requirement": "DPR requirements\nDPR 要求",
            "criticity": null,
            "control_type": null,
            "supplier_control_freq_note": null,
            "supplier_controller": null,
            "decathlon_control_freq_note": null,
            "active": true
          },
          {
            "step_number": "000",
            "control_item": "PANEL CUTTING DIRECTION\n唛架裁片方向",
            "control_method": "DPR_Textile_06.003_Panel_cutting_direction",
            "requirement": "DPR requirements\nDPR 要求",
            "criticity": null,
            "control_type": null,
            "supplier_control_freq_note": null,
            "supplier_controller": null,
            "decathlon_control_freq_note": null,
            "active": true
          },
          {
            "step_number": "000",
            "control_item": "MARKER TRACING\n唛架裁片外观和边缘",
            "control_method": "DPR_Textile_06.007_Marker_tracing",
            "requirement": "DPR requirements\nDPR 要求",
            "criticity": null,
            "control_type": null,
            "supplier_control_freq_note": null,
            "supplier_controller": null,
            "decathlon_control_freq_note": null,
            "active": true
          },
          {
            "step_number": "000",
            "control_item": "ACCURACY OF CUTTING\n裁片尺寸检验",
            "control_method": "DPR_Textile_06.009_Accuracy_of_cutting",
            "requirement": "DPR requirements\nDPR 要求",
            "criticity": null,
            "control_type": null,
            "supplier_control_freq_note": null,
            "supplier_controller": null,
            "decathlon_control_freq_note": null,
            "active": true
          }
        ]
      },
      {
        "name": "Marking heat transfer print embroidery",
        "category": "Online control",
        "steps": [
          {
            "step_number": "000",
            "control_item": "HEAT TRANSFER LABEL APPLICATION\n热转印生产要求",
            "control_method": "DPR Textile 09.105 HTL APPLICATION",
            "requirement": "DPR requirements\nDPR 要求",
            "criticity": null,
            "control_type": null,
            "supplier_control_freq_note": null,
            "supplier_controller": null,
            "decathlon_control_freq_note": null,
            "active": true
          },
          {
            "step_number": "000",
            "control_item": "HEAT TRANSFER LABEL POSITION UNDER PRESS\n热转印热压时候的位置要求",
            "control_method": "DPR_Textile_09.106_HTL_position_under_press",
            "requirement": "DPR requirements\nDPR 要求",
            "criticity": null,
            "control_type": null,
            "supplier_control_freq_note": null,
            "supplier_controller": null,
            "decathlon_control_freq_note": null,
            "active": true
          },
          {
            "step_number": "000",
            "control_item": "EMBROIDERY PROCESS SETTINGS\n绣花要求",
            "control_method": "DPR_Textile_09.201_Embroidery_process_setting",
            "requirement": "DPR requirements\nDPR 要求",
            "criticity": null,
            "control_type": null,
            "supplier_control_freq_note": null,
            "supplier_controller": null,
            "decathlon_control_freq_note": null,
            "active": true
          },
          {
            "step_number": "000",
            "control_item": "MARKING CONFORMITY\n印绣花等位置要求",
            "control_method": "DCS 007 Marking Conformity",
            "requirement": "DCS requirements\nDCS 要求",
            "criticity": "Major",
            "control_type": null,
            "supplier_control_freq_note": null,
            "supplier_controller": null,
            "decathlon_control_freq_note": null,
            "active": true
          }
        ]
      },
      {
        "name": "General",
        "category": "Online control",
        "steps": [
          {
            "step_number": "000",
            "control_item": "GENERAL APPREANCE CHECK\n总体外观检查",
            "control_method": "DCS 024 General Appearance",
            "requirement": "DCS requirements\nDCS 要求",
            "criticity": "Minor",
            "control_type": null,
            "supplier_control_freq_note": null,
            "supplier_controller": null,
            "decathlon_control_freq_note": null,
            "active": true
          },
          {
            "step_number": "000",
            "control_item": "CHECK GENERAL FUNCTIONNALITY\n总体功能性检查",
            "control_method": "Wear the product and test all functions\n试穿，测试功能",
            "requirement": "Example of defects: twisted lining, collar and pockets too small, electronic…\n疵点举例：  里料起扭，领子和口袋太小….",
            "criticity": "Major",
            "control_type": null,
            "supplier_control_freq_note": null,
            "supplier_controller": null,
            "decathlon_control_freq_note": null,
            "active": true
          },
          {
            "step_number": "000",
            "control_item": "CHECK BOM CONFORMITY\n核对物料",
            "control_method": "Compare to master sample and teck pack\n与签字样，技术资料对比",
            "requirement": null,
            "criticity": "Major",
            "control_type": null,
            "supplier_control_freq_note": null,
            "supplier_controller": null,
            "decathlon_control_freq_note": null,
            "active": true
          },
          {
            "step_number": "000",
            "control_item": "Check organic cotton traceability\n检查有机棉的追溯性",
            "control_method": "Check supplier certification (GOTS or Organic exchange still valid) + check if transaction certificate has been asked or available for shipment\n检查供应商证书",
            "requirement": "if product is with organic cotton\n如果产品涉及使用有机棉",
            "criticity": "Critical",
            "control_type": null,
            "supplier_control_freq_note": null,
            "supplier_controller": null,
            "decathlon_control_freq_note": null,
            "active": true
          }
        ]
      },
      {
        "name": "Assembling process workmanship",
        "category": "Online control",
        "steps": [
          {
            "step_number": "000",
            "control_item": "OVERLOCK PROCESS\n拷边要求",
            "control_method": "DPR_Textile_10.107_Overlock_workmanship_adjustement",
            "requirement": "DPR requirements\nDPR 要求",
            "criticity": null,
            "control_type": null,
            "supplier_control_freq_note": null,
            "supplier_controller": null,
            "decathlon_control_freq_note": null,
            "active": true
          },
          {
            "step_number": "000",
            "control_item": "STITCHING DENSITY\n车缝线迹线密度要求",
            "control_method": "DPR_Textile_10.111_Stitch_density_for_assembly_",
            "requirement": "DPR requirements\nDPR 要求",
            "criticity": null,
            "control_type": null,
            "supplier_control_freq_note": null,
            "supplier_controller": null,
            "decathlon_control_freq_note": null,
            "active": true
          },
          {
            "step_number": "000",
            "control_item": "SUPPLIER END OF LINE CONTROL\n车缝线尾检验",
            "control_method": "DPR_Textile_10.117_End_of_line_control",
            "requirement": "The frequencies, the control method and the records are respected. If supplier records NC, challenge the way he manage it 管控频率，方法和记录都被遵守，如果供应商记录有不良，盘问他的管理方法",
            "criticity": null,
            "control_type": null,
            "supplier_control_freq_note": null,
            "supplier_controller": null,
            "decathlon_control_freq_note": null,
            "active": true
          },
          {
            "step_number": "000",
            "control_item": "CHECK BARTACKS\n检查套结",
            "control_method": "DCS 008 Bartack Conformity",
            "requirement": "DCS requirements\nDCS 要求",
            "criticity": "Major",
            "control_type": null,
            "supplier_control_freq_note": null,
            "supplier_controller": null,
            "decathlon_control_freq_note": null,
            "active": true
          },
          {
            "step_number": "000",
            "control_item": "CHECK ZIPPERS ASSEMBLIY\n检查拉链缝制",
            "control_method": "DCS 009 Zipper Assembly",
            "requirement": "DCS requirements\nDCS 要求",
            "criticity": "Major",
            "control_type": null,
            "supplier_control_freq_note": null,
            "supplier_controller": null,
            "decathlon_control_freq_note": null,
            "active": true
          },
          {
            "step_number": "000",
            "control_item": "ASSEMBLIES CONFORMITY AND SOLIDITY\n车缝线迹外观要求",
            "control_method": "DCS_10_Assemblies_conformity_and_solidity",
            "requirement": "DCS requirements\nDCS 要求",
            "criticity": "Major",
            "control_type": null,
            "supplier_control_freq_note": null,
            "supplier_controller": null,
            "decathlon_control_freq_note": null,
            "active": true
          },
          {
            "step_number": "000",
            "control_item": "CHECK SEAM ELASTICITY\n检查车缝线迹弹性",
            "control_method": "DCS 012 Seam Elasticity",
            "requirement": "DCS requirements\nDCS 要求",
            "criticity": "Major",
            "control_type": null,
            "supplier_control_freq_note": null,
            "supplier_controller": null,
            "decathlon_control_freq_note": null,
            "active": true
          },
          {
            "step_number": "000",
            "control_item": "STITCHING REGULARITY\n车缝线迹外观要求",
            "control_method": "DCS 013 Stitching Regularity",
            "requirement": "DCS requirements\nDCS 要求",
            "criticity": "Minor",
            "control_type": null,
            "supplier_control_freq_note": null,
            "supplier_controller": null,
            "decathlon_control_freq_note": null,
            "active": true
          },
          {
            "step_number": "000",
            "control_item": "CHECK QUALITY OF THERMO FUSING\n检查烫衬质量",
            "control_method": "DCS 016 Quality of Thermo Fusing",
            "requirement": "DCS requirements\nDCS 要求",
            "criticity": "Major",
            "control_type": null,
            "supplier_control_freq_note": null,
            "supplier_controller": null,
            "decathlon_control_freq_note": null,
            "active": true
          },
          {
            "step_number": "000",
            "control_item": "RFID & LABELS CONFORMITY\n标类检查",
            "control_method": "DCS_20_RFID_and_labels_conformityV3",
            "requirement": "DCS requirements\nDCS 要求",
            "criticity": "Critical",
            "control_type": null,
            "supplier_control_freq_note": null,
            "supplier_controller": null,
            "decathlon_control_freq_note": null,
            "active": true
          },
          {
            "step_number": "000",
            "control_item": "CHECK THE SYMMETRY OF GARMENT\n对称性检查",
            "control_method": "DCS 018 Symmetry Conformity",
            "requirement": "DCS requirements\nDCS 要求",
            "criticity": "Major",
            "control_type": null,
            "supplier_control_freq_note": null,
            "supplier_controller": null,
            "decathlon_control_freq_note": null,
            "active": true
          }
        ]
      },
      {
        "name": "Down",
        "category": "Online control",
        "steps": [
          {
            "step_number": "000",
            "control_item": "DOWN FILLING\n充绒要求",
            "control_method": "DPR Textile 10.602 Down Filling Room Organization",
            "requirement": "DPR requirements\nDPR 要求",
            "criticity": null,
            "control_type": null,
            "supplier_control_freq_note": null,
            "supplier_controller": null,
            "decathlon_control_freq_note": null,
            "active": true
          },
          {
            "step_number": "000",
            "control_item": "DOWN WEIGHT CONTROL\n充绒重量要求",
            "control_method": "DPR Textile 10.604 Down Weight Control",
            "requirement": "DPR requirements\nDPR 要求",
            "criticity": null,
            "control_type": null,
            "supplier_control_freq_note": null,
            "supplier_controller": null,
            "decathlon_control_freq_note": null,
            "active": true
          }
        ]
      },
      {
        "name": "Taping",
        "category": "Online control",
        "steps": [
          {
            "step_number": "000",
            "control_item": "ZIP ASSEMBLY\n压胶款拉链的缝制",
            "control_method": "DPR Textile  10.116 Zip Assembly For Taped Fabric",
            "requirement": "DPR requirements\nDPR 要求",
            "criticity": null,
            "control_type": null,
            "supplier_control_freq_note": null,
            "supplier_controller": null,
            "decathlon_control_freq_note": null,
            "active": true
          },
          {
            "step_number": "000",
            "control_item": "TAPING VISUAL INSPECTION\n压胶外观检查",
            "control_method": "DPR Textile 10.810 Taping Visual Inspection & Evaluation\nDCS 028 Taping Visual Inspection & Evaluation",
            "requirement": "DPR & DCS requirements \nDPR & DCS 要求",
            "criticity": null,
            "control_type": null,
            "supplier_control_freq_note": null,
            "supplier_controller": null,
            "decathlon_control_freq_note": null,
            "active": true
          },
          {
            "step_number": "000",
            "control_item": "PEEL OFF TEST EVALUATION\n压胶剥离测试",
            "control_method": "DPR Textile 10.811 Peel Off Test Evaluation",
            "requirement": "DPR requirements\nDPR 要求",
            "criticity": null,
            "control_type": null,
            "supplier_control_freq_note": null,
            "supplier_controller": null,
            "decathlon_control_freq_note": null,
            "active": true
          },
          {
            "step_number": "000",
            "control_item": "LEAKING TEST PROCEDURE & EVALUATION\n压胶水压测试",
            "control_method": "DPR Textile 10.812 Leaking Test Procedure & Evaluation",
            "requirement": "DPR requirements\nDPR 要求",
            "criticity": null,
            "control_type": null,
            "supplier_control_freq_note": null,
            "supplier_controller": null,
            "decathlon_control_freq_note": null,
            "active": true
          }
        ]
      },
      {
        "name": "Welding bonding",
        "category": "Online control",
        "steps": [
          {
            "step_number": "000",
            "control_item": "BONDING PARAMETER\n无缝粘合参数",
            "control_method": "DPR Textile 10.706 Development & Validation Bonding Parameters",
            "requirement": "DPR requirements\nDPR 要求",
            "criticity": null,
            "control_type": null,
            "supplier_control_freq_note": null,
            "supplier_controller": null,
            "decathlon_control_freq_note": null,
            "active": true
          },
          {
            "step_number": "000",
            "control_item": "BONDING CONTROL IN PRODUCTION\n生产中的无缝粘合管理",
            "control_method": "DPR Textile 10.707  Bonding Quality Follow Up In Production",
            "requirement": "DPR requirements\nDPR 要求",
            "criticity": null,
            "control_type": null,
            "supplier_control_freq_note": null,
            "supplier_controller": null,
            "decathlon_control_freq_note": null,
            "active": true
          },
          {
            "step_number": "000",
            "control_item": "BONDED SEAM QUALITY\n粘合质量检查",
            "control_method": "DCS 017 Quality of Bonded Seam",
            "requirement": "DCS requirements\nDCS 要求",
            "criticity": "Major",
            "control_type": null,
            "supplier_control_freq_note": null,
            "supplier_controller": null,
            "decathlon_control_freq_note": null,
            "active": true
          }
        ]
      },
      {
        "name": "Accessories fuctional conformity",
        "category": "Final control",
        "steps": [
          {
            "step_number": "000",
            "control_item": "FASTENERS PROCESS REQUIREMENT\n紧固辅料生产",
            "control_method": "DPR Textile 11.001 Fastness Process Requirement",
            "requirement": "DPR requirements\nDPR 要求",
            "criticity": null,
            "control_type": null,
            "supplier_control_freq_note": null,
            "supplier_controller": null,
            "decathlon_control_freq_note": null,
            "active": true
          },
          {
            "step_number": "000",
            "control_item": "FASTENERS CONTROL\n紧固辅料检查",
            "control_method": "DPR Textile 11.003 Fasteners Control   \nDCS 014 Conformity of Press Studs",
            "requirement": "DPR & DCS requirements\nDPR & DCS 要求",
            "criticity": "Major",
            "control_type": null,
            "supplier_control_freq_note": null,
            "supplier_controller": null,
            "decathlon_control_freq_note": null,
            "active": true
          },
          {
            "step_number": "000",
            "control_item": "CHECK DRAWSTRINGS CONFORMITY ( FOR JUNIOR )\n检查童装抽绳合规性",
            "control_method": "DCS 001 Drawstring Conformity For Junior",
            "requirement": "DCS requirements\nDCS 要求",
            "criticity": "Critical",
            "control_type": null,
            "supplier_control_freq_note": null,
            "supplier_controller": null,
            "decathlon_control_freq_note": null,
            "active": true
          },
          {
            "step_number": "000",
            "control_item": "CHECK ASSEMBLY OF BUCKLE\n检查卡扣",
            "control_method": "DCS 002 Buckle Conformity",
            "requirement": "DCS requirements\nDCS 要求",
            "criticity": "Major",
            "control_type": null,
            "supplier_control_freq_note": null,
            "supplier_controller": null,
            "decathlon_control_freq_note": null,
            "active": true
          },
          {
            "step_number": "000",
            "control_item": "CHECK ZIPPERS FUNCTIONALITY\n检查拉链功能",
            "control_method": "DCS 003 ZIP Functionning",
            "requirement": "DCS requirements\nDCS 要求",
            "criticity": "Major",
            "control_type": null,
            "supplier_control_freq_note": null,
            "supplier_controller": null,
            "decathlon_control_freq_note": null,
            "active": true
          },
          {
            "step_number": "000",
            "control_item": "CHECK HOOK & LOOP\n检查魔术贴",
            "control_method": "DCS 004 Hook & Loop Conformity",
            "requirement": "DCS requirements\nDCS 要求",
            "criticity": "Major",
            "control_type": null,
            "supplier_control_freq_note": null,
            "supplier_controller": null,
            "decathlon_control_freq_note": null,
            "active": true
          },
          {
            "step_number": "000",
            "control_item": "CHECK HURTFUL OR IRRITATING ACCESSORIES\n检查尖锐辅料",
            "control_method": "DCS 005 Hurtful Accessories",
            "requirement": "DCS requirements\nDCS 要求",
            "criticity": "Major",
            "control_type": null,
            "supplier_control_freq_note": null,
            "supplier_controller": null,
            "decathlon_control_freq_note": null,
            "active": true
          },
          {
            "step_number": "000",
            "control_item": "CHECK HANGING COMPONENTS\n检查悬挂部件",
            "control_method": "DCS 015 Hanging Components",
            "requirement": "DCS requirements\nDCS 要求",
            "criticity": "Major",
            "control_type": null,
            "supplier_control_freq_note": null,
            "supplier_controller": null,
            "decathlon_control_freq_note": null,
            "active": true
          },
          {
            "step_number": "000",
            "control_item": "VERIFY ENCODING & BARCODE READING ON RFID\nRFID可读性与信息核对",
            "control_method": "DCS 020 RFID & Lebelling Conformity",
            "requirement": "DCS requirements\nDCS 要求",
            "criticity": null,
            "control_type": null,
            "supplier_control_freq_note": null,
            "supplier_controller": null,
            "decathlon_control_freq_note": null,
            "active": true
          },
          {
            "step_number": "000",
            "control_item": "CHECK LABELS\n核对标类",
            "control_method": "DCS 021 General Labels Conformity",
            "requirement": "DCS requirements\nDCS 要求",
            "criticity": "Major",
            "control_type": null,
            "supplier_control_freq_note": null,
            "supplier_controller": null,
            "decathlon_control_freq_note": null,
            "active": true
          },
          {
            "step_number": "000",
            "control_item": "BUTTON & BUTTON HOLE CONFORMITY\n纽扣与钮眼检查",
            "control_method": "DCS 022 Button & Button Hole Conformity",
            "requirement": "DCS requirements\nDCS 要求",
            "criticity": "Major",
            "control_type": null,
            "supplier_control_freq_note": null,
            "supplier_controller": null,
            "decathlon_control_freq_note": null,
            "active": true
          }
        ]
      },
      {
        "name": "Finsihing packing process",
        "category": "Final control",
        "steps": [
          {
            "step_number": "000",
            "control_item": "IRONING AREAS\n熨烫要求",
            "control_method": "DPR Textile 12.002 Ironing Areas",
            "requirement": "DPR requirements\nDPR 要求",
            "criticity": null,
            "control_type": null,
            "supplier_control_freq_note": null,
            "supplier_controller": null,
            "decathlon_control_freq_note": null,
            "active": true
          },
          {
            "step_number": "000",
            "control_item": "PRODUCT PRINT PACKAGING\n印花款式的包装要求",
            "control_method": "DPR_Textile_13.006_Product_print_packaging",
            "requirement": "DPR requirements\nDPR 要求",
            "criticity": null,
            "control_type": null,
            "supplier_control_freq_note": null,
            "supplier_controller": null,
            "decathlon_control_freq_note": null,
            "active": true
          },
          {
            "step_number": "000",
            "control_item": "PACKING MOLD PREVENTION\n防霉变包装要求",
            "control_method": "DPR_Textile_13.007_Packing_mold_prevention",
            "requirement": "DPR requirements\nDPR 要求",
            "criticity": null,
            "control_type": null,
            "supplier_control_freq_note": null,
            "supplier_controller": null,
            "decathlon_control_freq_note": null,
            "active": true
          },
          {
            "step_number": "000",
            "control_item": "FINAL CONTROL\n最终检验",
            "control_method": "DPR_Textile_14.001_Final_Control",
            "requirement": "The frequencies, the control method and the records are respected. If supplier records NC, challenge the way he manage it 管控频率，方法和记录都被遵守，如果供应商记录有不良，盘问他的管理方法",
            "criticity": null,
            "control_type": null,
            "supplier_control_freq_note": null,
            "supplier_controller": null,
            "decathlon_control_freq_note": null,
            "active": true
          },
          {
            "step_number": "000",
            "control_item": "METAL DETECTION\n婴儿产品的检针管理",
            "control_method": "DPR Textile 14.004 Metal Detector For Baby Garment",
            "requirement": "If Baby Product",
            "criticity": null,
            "control_type": null,
            "supplier_control_freq_note": null,
            "supplier_controller": null,
            "decathlon_control_freq_note": null,
            "active": true
          },
          {
            "step_number": "000",
            "control_item": "CHECK PACKAGING & SIZE LABELLING CONFORMITY\n包装与尺码信息的合规性检查",
            "control_method": "DCS 019 Size Labelling Conformity",
            "requirement": "DCS requirements\nDCS 要求",
            "criticity": "Major",
            "control_type": null,
            "supplier_control_freq_note": null,
            "supplier_controller": null,
            "decathlon_control_freq_note": null,
            "active": true
          },
          {
            "step_number": "000",
            "control_item": "MRP CONFORMITY\nMRP贴纸合规性检查",
            "control_method": "DCS 023 MRP Conformity",
            "requirement": "DCS requirements\nDCS 要求",
            "criticity": "Critical",
            "control_type": null,
            "supplier_control_freq_note": null,
            "supplier_controller": null,
            "decathlon_control_freq_note": null,
            "active": true
          },
          {
            "step_number": "000",
            "control_item": "HANGING & FOLDING CONFORMITY\n衣架挂法与折叠方式检查",
            "control_method": "DCS 030 Hanging & Folding Conformity",
            "requirement": "DCS requirements\nDCS 要求",
            "criticity": "Major",
            "control_type": null,
            "supplier_control_freq_note": null,
            "supplier_controller": null,
            "decathlon_control_freq_note": null,
            "active": true
          }
        ]
      },
      {
        "name": "Testing",
        "category": "Lab test",
        "steps": [
          {
            "step_number": "000",
            "control_item": "HEAT TRANSFER / SCREEN PRINT DURABILITY\n印花测试",
            "control_method": "DS 096",
            "requirement": "The frequencies, the control method and the records are respected. If supplier records NC, challenge the way he manage it 管控频率，方法和记录都被遵守，如果供应商记录有不良，盘问他的管理方法",
            "criticity": null,
            "control_type": "LAB control",
            "supplier_control_freq_note": null,
            "supplier_controller": null,
            "decathlon_control_freq_note": null,
            "active": true
          },
          {
            "step_number": "000",
            "control_item": "FINISHED PRODUCT SHRINKAGE, TWIST AND ASPECT AFTER DOMESTIC WASHING AND DRYING    水洗后外观测试",
            "control_method": "DS 024",
            "requirement": "3 washes & drying\n shrinkage & twist",
            "criticity": null,
            "control_type": "LAB control",
            "supplier_control_freq_note": null,
            "supplier_controller": null,
            "decathlon_control_freq_note": null,
            "active": true
          },
          {
            "step_number": "000",
            "control_item": "PHENOLIC YELLOWING TEST  苯酚黄变测试",
            "control_method": "DS 025",
            "requirement": "for light and light color",
            "criticity": null,
            "control_type": "LAB control",
            "supplier_control_freq_note": null,
            "supplier_controller": null,
            "decathlon_control_freq_note": null,
            "active": true
          },
          {
            "step_number": "000",
            "control_item": "Migration test  压力色迁移测试",
            "control_method": "DS 031",
            "requirement": "FOR CONTRASTED COATED FABRICS AND PU ACCESSORIES",
            "criticity": null,
            "control_type": "LAB control",
            "supplier_control_freq_note": null,
            "supplier_controller": null,
            "decathlon_control_freq_note": null,
            "active": true
          },
          {
            "step_number": "000",
            "control_item": "COLOR FASTNESS AFTER DOMESTIC WASHING   水洗色迁移测试",
            "control_method": "DS 150",
            "requirement": "For contrasted color",
            "criticity": null,
            "control_type": "LAB control",
            "supplier_control_freq_note": null,
            "supplier_controller": null,
            "decathlon_control_freq_note": null,
            "active": true
          },
          {
            "step_number": "000",
            "control_item": "Check waterproofness  实验室水压测试",
            "control_method": "DS 270",
            "requirement": "3 PSI / 30 seconds after 3 washings and Drying (DS024)",
            "criticity": null,
            "control_type": "LAB control",
            "supplier_control_freq_note": null,
            "supplier_controller": null,
            "decathlon_control_freq_note": null,
            "active": true
          },
          {
            "step_number": "000",
            "control_item": "Check waterproofness   生产现场水压测试",
            "control_method": "DS 270",
            "requirement": "3 PSI / 30 seconds",
            "criticity": "Major",
            "control_type": null,
            "supplier_control_freq_note": null,
            "supplier_controller": null,
            "decathlon_control_freq_note": null,
            "active": true
          }
        ]
      },
      {
        "name": "Sub part gtd",
        "category": "Lab test",
        "steps": [
          {
            "step_number": "000",
            "control_item": "Check GTD\n检查GTD",
            "control_method": "DPR GTD",
            "requirement": "DPR requirements\nDPR 要求",
            "criticity": "Major",
            "control_type": null,
            "supplier_control_freq_note": null,
            "supplier_controller": null,
            "decathlon_control_freq_note": null,
            "active": true
          }
        ]
      },
      {
        "name": "Sub part specific",
        "category": "Lab test",
        "steps": [
          {
            "step_number": "000",
            "control_item": "Toxicology test\n毒性测试",
            "control_method": "Toxicology packages",
            "requirement": "implantation tested for baby products only\n婴儿装头单测试\n年度毒性测试",
            "criticity": "Critical",
            "control_type": "LAB control",
            "supplier_control_freq_note": null,
            "supplier_controller": null,
            "decathlon_control_freq_note": null,
            "active": true
          }
        ]
      }
    ]
  }
}
