{
  "filename": "CP 2.3_HKD_60580_TextileJacket _ Pant_Tania.xlsx",
  "count": 12,
  "product_family": {
    "name": "JACKETS PANTS",
    "processes": [
      {
        "name": "Metal raw material reception and storage",
        "category": "Incoming control",
        "steps": [
          {
            "step_number": "STORE",
            "control_item": "FABRIC CONTROL",
            "control_method": "DPR 02.004A",
            "requirement": null,
            "criticity": null,
            "control_type": "Visual/Manual",
            "supplier_control_freq_note": null,
            "supplier_controller": null,
            "decathlon_control_freq_note": "WEEKLY",
            "active": true
          },
          {
            "step_number": "STORE",
            "control_item": "FABRIC STORAGE",
            "control_method": "DPR 03.001A",
            "requirement": null,
            "criticity": null,
            "control_type": "Visual/Manual",
            "supplier_control_freq_note": null,
            "supplier_controller": null,
            "decathlon_control_freq_note": "WEEKLY",
            "active": true
          }
        ]
      },
      {
        "name": "Cutting",
        "category": "Online control",
        "steps": [
          {
            "step_number": "CUTTING",
            "control_item": "ACCURACY OF CUTTING",
            "control_method": "DPR 06.009 B",
            "requirement": null,
            "criticity": null,
            "control_type": "Visual/Manual",
            "supplier_control_freq_note": null,
            "supplier_controller": null,
            "decathlon_control_freq_note": "WEEKLY",
            "active": true
          },
          {
            "step_number": "CUTTING",
            "control_item": "PANEL CUTTING DIRECTION",
            "control_method": "DPR 06.003 B",
            "requirement": "FOR EMMERIZED AND, VELVET AND BRUSHED FABRICS",
            "criticity": null,
            "control_type": "Visual/Manual",
            "supplier_control_freq_note": null,
            "supplier_controller": null,
            "decathlon_control_freq_note": "WEEKLY",
            "active": true
          }
        ]
      },
      {
        "name": "Assembling process",
        "category": "Online control",
        "steps": [
          {
            "step_number": "SEWING",
            "control_item": "POCKET BAG ASSEMBLY",
            "control_method": "DPR 10.300 A",
            "requirement": null,
            "criticity": null,
            "control_type": "Visual/Manual",
            "supplier_control_freq_note": null,
            "supplier_controller": null,
            "decathlon_control_freq_note": "WEEKLY",
            "active": true
          },
          {
            "step_number": "SEWING",
            "control_item": "ASSEMBLIES CONFORMITY AND SOLIDITY",
            "control_method": "DCS 010.A",
            "requirement": "ON CRITICAL PRODUCT OPERATION (EX: UNDER ARM, INNERLEG, CROTCH,…)",
            "criticity": null,
            "control_type": "Visual/Manual",
            "supplier_control_freq_note": null,
            "supplier_controller": null,
            "decathlon_control_freq_note": "WEEKLY",
            "active": true
          },
          {
            "step_number": "SEWING",
            "control_item": "STITCHING REGULARITY",
            "control_method": "DCS 013.A",
            "requirement": "ON CRITICAL PRODUCT OPERATION (EX: UNDER ARM, INNERLEG, CROTCH,…)",
            "criticity": null,
            "control_type": "Visual/Manual",
            "supplier_control_freq_note": null,
            "supplier_controller": null,
            "decathlon_control_freq_note": "WEEKLY",
            "active": true
          },
          {
            "step_number": "SEWING",
            "control_item": "TO CHECK RFID LABEL BARCODE IS MATCHING WITH PRODUCT SIZE",
            "control_method": null,
            "requirement": null,
            "criticity": null,
            "control_type": "Visual/Manual",
            "supplier_control_freq_note": null,
            "supplier_controller": null,
            "decathlon_control_freq_note": "WEEKLY",
            "active": true
          },
          {
            "step_number": "SEWING",
            "control_item": "SUPPLIER ON LINE CONTROL",
            "control_method": null,
            "requirement": "Supplier has implemented a 100% on line control to inspect stitching quality of lining and outer shell before lining assembling.",
            "criticity": null,
            "control_type": "Visual/Manual",
            "supplier_control_freq_note": null,
            "supplier_controller": null,
            "decathlon_control_freq_note": "MONTHLY",
            "active": true
          }
        ]
      },
      {
        "name": "Sub part taping",
        "category": "Online control",
        "steps": [
          {
            "step_number": "TAPING",
            "control_item": "ZIP ASSEMBLY FOR TAPED FABRIC",
            "control_method": "DPR 10.116 A",
            "requirement": null,
            "criticity": null,
            "control_type": "Visual/Manual",
            "supplier_control_freq_note": null,
            "supplier_controller": null,
            "decathlon_control_freq_note": "WEEKLY",
            "active": true
          },
          {
            "step_number": "TAPING",
            "control_item": "TAPING VISUAL INSPECTION & EVALUATION",
            "control_method": "DPR 10.810 D",
            "requirement": null,
            "criticity": null,
            "control_type": "Visual/Manual",
            "supplier_control_freq_note": null,
            "supplier_controller": null,
            "decathlon_control_freq_note": "WEEKLY",
            "active": true
          },
          {
            "step_number": "TAPING",
            "control_item": "PEEL OFF TEST EVALUATION",
            "control_method": "DPR 10.811 B",
            "requirement": null,
            "criticity": null,
            "control_type": "Visual/Manual",
            "supplier_control_freq_note": null,
            "supplier_controller": null,
            "decathlon_control_freq_note": "WEEKLY",
            "active": true
          },
          {
            "step_number": "TAPING",
            "control_item": "LEAKING TEST PROCEDURE & EVALUATION",
            "control_method": "DPR 10.812 A",
            "requirement": null,
            "criticity": null,
            "control_type": "Functionnal and non destructive",
            "supplier_control_freq_note": null,
            "supplier_controller": null,
            "decathlon_control_freq_note": "WEEKLY",
            "active": true
          },
          {
            "step_number": "TAPING",
            "control_item": "DOMESTIC WASHING AND DRYING",
            "control_method": "DS034",
            "requirement": "Compare finish good product before and after 3 washing and drying",
            "criticity": null,
            "control_type": "Functionnal and non destructive",
            "supplier_control_freq_note": null,
            "supplier_controller": null,
            "decathlon_control_freq_note": "MONTHLY",
            "active": true
          }
        ]
      },
      {
        "name": "Sub part accessories",
        "category": "Online control",
        "steps": [
          {
            "step_number": "SNAP",
            "control_item": "FASTENERS CONTROL PROCEDURE",
            "control_method": "DPR 11.000 A",
            "requirement": null,
            "criticity": null,
            "control_type": "Functionnal and non destructive",
            "supplier_control_freq_note": null,
            "supplier_controller": null,
            "decathlon_control_freq_note": "WEEKLY",
            "active": true
          }
        ]
      },
      {
        "name": "Sub part finishing",
        "category": "Online control",
        "steps": [
          {
            "step_number": "FINISHING",
            "control_item": "IRONING TEMPERATURE",
            "control_method": "DPR 12.002 A",
            "requirement": "No ironing on RFID and marking",
            "criticity": null,
            "control_type": "Visual/Manual",
            "supplier_control_freq_note": null,
            "supplier_controller": null,
            "decathlon_control_freq_note": "WEEKLY",
            "active": true
          },
          {
            "step_number": "FINISHING",
            "control_item": "SUPPLIER ENDLINE",
            "control_method": "DPR 10.117 B",
            "requirement": null,
            "criticity": null,
            "control_type": "Visual/Manual",
            "supplier_control_freq_note": null,
            "supplier_controller": null,
            "decathlon_control_freq_note": "MONTHLY",
            "active": true
          },
          {
            "step_number": "FINISHING",
            "control_item": "SUPPLIER FINAL CONTROL",
            "control_method": "DPR 14.001 A",
            "requirement": null,
            "criticity": null,
            "control_type": "Visual/Manual",
            "supplier_control_freq_note": null,
            "supplier_controller": null,
            "decathlon_control_freq_note": "MONTHLY",
            "active": true
          }
        ]
      },
      {
        "name": "Sub part gtd",
        "category": "Final control",
        "steps": [
          {
            "step_number": "FINAL CONTROL",
            "control_item": "Check GTD",
            "control_method": "General Terms of Deliveries",
            "requirement": "Conform to GTD",
            "criticity": "Major",
            "control_type": "Visual/Manual",
            "supplier_control_freq_note": null,
            "supplier_controller": null,
            "decathlon_control_freq_note": "DFCAQL",
            "active": true
          }
        ]
      },
      {
        "name": "Sub part general",
        "category": "Final control",
        "steps": [
          {
            "step_number": "FINAL CONTROL",
            "control_item": "Check general appearance",
            "control_method": "DCS_024.A  General appearance",
            "requirement": null,
            "criticity": "Major",
            "control_type": "Visual/Manual",
            "supplier_control_freq_note": null,
            "supplier_controller": null,
            "decathlon_control_freq_note": "DFCAQL",
            "active": true
          },
          {
            "step_number": "FINAL CONTROL",
            "control_item": "Check the conformity of the hanging/folding",
            "control_method": "DCS_030.A  Hanging & Folding conformity",
            "requirement": null,
            "criticity": null,
            "control_type": null,
            "supplier_control_freq_note": null,
            "supplier_controller": null,
            "decathlon_control_freq_note": null,
            "active": true
          },
          {
            "step_number": "FINAL CONTROL",
            "control_item": "Check general functionality",
            "control_method": "Wear the product and test all functions",
            "requirement": "Example of defects: twisted lining, collar and pockets too small, electronic…",
            "criticity": "Major",
            "control_type": "Functionnal and non destructive",
            "supplier_control_freq_note": null,
            "supplier_controller": null,
            "decathlon_control_freq_note": "DFCAQL",
            "active": true
          },
          {
            "step_number": "FINAL CONTROL",
            "control_item": "Check BOM conformity",
            "control_method": "Compare to master sample and teck pack",
            "requirement": null,
            "criticity": "Major",
            "control_type": "Visual/Manual",
            "supplier_control_freq_note": null,
            "supplier_controller": null,
            "decathlon_control_freq_note": "DFCAQL",
            "active": true
          },
          {
            "step_number": "FINAL CONTROL",
            "control_item": "Check the symmetry of garment",
            "control_method": "DCS_018.A  symmetry conformity",
            "requirement": null,
            "criticity": "Major",
            "control_type": "Visual/Manual",
            "supplier_control_freq_note": null,
            "supplier_controller": null,
            "decathlon_control_freq_note": "DFCAQL",
            "active": true
          },
          {
            "step_number": "FINAL CONTROL",
            "control_item": "Check organic cotton traceability",
            "control_method": "Check supplier certification (GOTS or Organic exchange still valid) + check if transaction certificate has been asked or available for shipment",
            "requirement": "if product is with organic cotton",
            "criticity": "Critical",
            "control_type": "Visual/Manual",
            "supplier_control_freq_note": null,
            "supplier_controller": null,
            "decathlon_control_freq_note": "DFCAQL",
            "active": true
          },
          {
            "step_number": "FINAL CONTROL",
            "control_item": "Aspect after domestic washing and drying",
            "control_method": "DS 024 - Aspect only for Synthetic  - Aspect and shrinkage for Natural",
            "requirement": "3 washes & drying",
            "criticity": null,
            "control_type": "LabTest",
            "supplier_control_freq_note": null,
            "supplier_controller": null,
            "decathlon_control_freq_note": "DFC FG LAB TEST",
            "active": true
          },
          {
            "step_number": "FINAL CONTROL",
            "control_item": "Phenolic Yellowing test",
            "control_method": "DS 025",
            "requirement": "For light colors",
            "criticity": null,
            "control_type": "LabTest",
            "supplier_control_freq_note": null,
            "supplier_controller": null,
            "decathlon_control_freq_note": "DFC FG LAB TEST",
            "active": true
          },
          {
            "step_number": "FINAL CONTROL",
            "control_item": "Migration test",
            "control_method": "DS 031",
            "requirement": "FOR CONTRASTED COATED FABRICS AND PU ACCESSORIES",
            "criticity": "Major",
            "control_type": "LabTest",
            "supplier_control_freq_note": null,
            "supplier_controller": null,
            "decathlon_control_freq_note": "DFC FG LAB TEST",
            "active": true
          },
          {
            "step_number": "FINAL CONTROL",
            "control_item": "Check print",
            "control_method": "DS 132",
            "requirement": null,
            "criticity": "Major",
            "control_type": "LabTest",
            "supplier_control_freq_note": null,
            "supplier_controller": null,
            "decathlon_control_freq_note": "DFC FG LAB TEST",
            "active": true
          },
          {
            "step_number": "FINAL CONTROL",
            "control_item": "Check Heat Transfer",
            "control_method": "DS 096",
            "requirement": null,
            "criticity": null,
            "control_type": "LabTest",
            "supplier_control_freq_note": null,
            "supplier_controller": null,
            "decathlon_control_freq_note": "DFC FG LAB TEST",
            "active": true
          },
          {
            "step_number": "FINAL CONTROL",
            "control_item": "MTSR Washed Garments",
            "control_method": "Refer to tech pack",
            "requirement": "On natural garments washed after assembling",
            "criticity": null,
            "control_type": "LabTest",
            "supplier_control_freq_note": null,
            "supplier_controller": null,
            "decathlon_control_freq_note": "DFC FG LAB TEST",
            "active": true
          }
        ]
      },
      {
        "name": "Sub part packaging marking leaflets",
        "category": "Final control",
        "steps": [
          {
            "step_number": "FINAL CONTROL",
            "control_item": "Check packaging & size labelling conformity",
            "control_method": "DCS_019.A  Size Labelling conformity",
            "requirement": null,
            "criticity": "Major",
            "control_type": "Visual/Manual",
            "supplier_control_freq_note": null,
            "supplier_controller": null,
            "decathlon_control_freq_note": "DFCAQL",
            "active": true
          },
          {
            "step_number": "FINAL CONTROL",
            "control_item": "Check Labels",
            "control_method": "DCS_021.A  General Labels conformity",
            "requirement": "COMPOSITION INFORMATION ARE CRITICAL\nTraceability must include at minimum : main component batch number (or a number linked to it), production week of assembly, supplier code.",
            "criticity": "Major",
            "control_type": "Functionnal and non destructive",
            "supplier_control_freq_note": null,
            "supplier_controller": null,
            "decathlon_control_freq_note": "DFCAQL",
            "active": true
          },
          {
            "step_number": "FINAL CONTROL",
            "control_item": "Check Labels for Indian market",
            "control_method": "DCS_023.A_MRP_conformity",
            "requirement": null,
            "criticity": "Critical",
            "control_type": "Functionnal and non destructive",
            "supplier_control_freq_note": null,
            "supplier_controller": null,
            "decathlon_control_freq_note": "DFCAQL",
            "active": true
          },
          {
            "step_number": "FINAL CONTROL",
            "control_item": "Verify encoding and barcode reading on the RFID Tag",
            "control_method": "DCS_020.A_RFID_CONFORMITY",
            "requirement": null,
            "criticity": "Critical",
            "control_type": "Functionnal and non destructive",
            "supplier_control_freq_note": null,
            "supplier_controller": null,
            "decathlon_control_freq_note": "DFCAQL",
            "active": true
          }
        ]
      },
      {
        "name": "Sub part accessories functional conformity",
        "category": "Final control",
        "steps": [
          {
            "step_number": "FINAL CONTROL",
            "control_item": "Check zippers functionnality",
            "control_method": "DCS_003.B_Zip functionning",
            "requirement": null,
            "criticity": "Major",
            "control_type": "Functionnal and non destructive",
            "supplier_control_freq_note": null,
            "supplier_controller": null,
            "decathlon_control_freq_note": "DFCAQL",
            "active": true
          },
          {
            "step_number": "FINAL CONTROL",
            "control_item": "Check zippers assembly",
            "control_method": "DCS_09.A  Zip Assembly",
            "requirement": null,
            "criticity": "Major",
            "control_type": "Visual/Manual",
            "supplier_control_freq_note": null,
            "supplier_controller": null,
            "decathlon_control_freq_note": "DFCAQL",
            "active": true
          },
          {
            "step_number": "FINAL CONTROL",
            "control_item": "Check press studs",
            "control_method": "DCS_014.A  Conformity of the Press studs",
            "requirement": "CRITICAL FOR BABY",
            "criticity": "Major",
            "control_type": "Functionnal and non destructive",
            "supplier_control_freq_note": null,
            "supplier_controller": null,
            "decathlon_control_freq_note": "DFCAQL",
            "active": true
          },
          {
            "step_number": "FINAL CONTROL",
            "control_item": "Check hurtful or irritating accessories",
            "control_method": "DCS_005.A_Hurtful accessories",
            "requirement": "CRITICAL FOR BABY",
            "criticity": "Major",
            "control_type": "Visual/Manual",
            "supplier_control_freq_note": null,
            "supplier_controller": null,
            "decathlon_control_freq_note": "DFCAQL",
            "active": true
          },
          {
            "step_number": "FINAL CONTROL",
            "control_item": "Check drawstrings conformity (For junior)",
            "control_method": "DCS_001.C_Drawstring_conformity_for_junior",
            "requirement": null,
            "criticity": "Critical",
            "control_type": "Functionnal and non destructive",
            "supplier_control_freq_note": null,
            "supplier_controller": null,
            "decathlon_control_freq_note": "DFCAQL",
            "active": true
          },
          {
            "step_number": "FINAL CONTROL",
            "control_item": "Check assembly of buckle",
            "control_method": "DCS_002.A_Buckles conformity",
            "requirement": null,
            "criticity": "Major",
            "control_type": "Visual/Manual",
            "supplier_control_freq_note": null,
            "supplier_controller": null,
            "decathlon_control_freq_note": "DFCAQL",
            "active": true
          },
          {
            "step_number": "FINAL CONTROL",
            "control_item": "Check button and button holes",
            "control_method": "DCS_022.B uttons and Button holes conformity",
            "requirement": null,
            "criticity": "Major",
            "control_type": "Visual/Manual",
            "supplier_control_freq_note": null,
            "supplier_controller": null,
            "decathlon_control_freq_note": "DFCAQL",
            "active": true
          },
          {
            "step_number": "FINAL CONTROL",
            "control_item": "Check hanging components",
            "control_method": "DCS_015.A  Hanging components solidity",
            "requirement": null,
            "criticity": "Major",
            "control_type": "Visual/Manual",
            "supplier_control_freq_note": null,
            "supplier_controller": null,
            "decathlon_control_freq_note": "DFCAQL",
            "active": true
          },
          {
            "step_number": "FINAL CONTROL",
            "control_item": "Check marking conformity",
            "control_method": "DCS_007.A  Marking Conformity",
            "requirement": null,
            "criticity": "Major",
            "control_type": "Visual/Manual",
            "supplier_control_freq_note": null,
            "supplier_controller": null,
            "decathlon_control_freq_note": "DFCAQL",
            "active": true
          },
          {
            "step_number": "FINAL CONTROL",
            "control_item": "Check hook & loop",
            "control_method": "DCS_004.A_Hook and Loop conformity",
            "requirement": null,
            "criticity": "Major",
            "control_type": "Functionnal and non destructive",
            "supplier_control_freq_note": null,
            "supplier_controller": null,
            "decathlon_control_freq_note": "DFCAQL",
            "active": true
          }
        ]
      },
      {
        "name": "Sub part workmanship",
        "category": "Final control",
        "steps": [
          {
            "step_number": "FINAL CONTROL",
            "control_item": "Check the stitching regularity",
            "control_method": "DCS_013.A  Stitching regularity",
            "requirement": null,
            "criticity": "Minor",
            "control_type": "Visual/Manual",
            "supplier_control_freq_note": null,
            "supplier_controller": null,
            "decathlon_control_freq_note": "DFCAQL",
            "active": true
          },
          {
            "step_number": "FINAL CONTROL",
            "control_item": "Check the seam elasticity",
            "control_method": "DCS_012.A  Seam elasticity",
            "requirement": null,
            "criticity": "Major",
            "control_type": "Visual/Manual",
            "supplier_control_freq_note": null,
            "supplier_controller": null,
            "decathlon_control_freq_note": "DFCAQL",
            "active": true
          },
          {
            "step_number": "FINAL CONTROL",
            "control_item": "Check the type of seam conformity",
            "control_method": "Compare to teckpack",
            "requirement": "Focus especially on type of seam at crotch arm armpit",
            "criticity": "Major",
            "control_type": "Functionnal and non destructive",
            "supplier_control_freq_note": null,
            "supplier_controller": null,
            "decathlon_control_freq_note": "DFCAQL",
            "active": true
          },
          {
            "step_number": "FINAL CONTROL",
            "control_item": "Check the assemblies conformity & solidity",
            "control_method": "DCS_010.A  Assemblies solidity and conformi+B69ty",
            "requirement": "Focus on armpit and crotch",
            "criticity": "Major",
            "control_type": "Visual/Manual",
            "supplier_control_freq_note": null,
            "supplier_controller": null,
            "decathlon_control_freq_note": "DFCAQL",
            "active": true
          },
          {
            "step_number": "FINAL CONTROL",
            "control_item": "Check bartacks",
            "control_method": "DCS_008.A_Bartacks solidity",
            "requirement": null,
            "criticity": "Major",
            "control_type": "Visual/Manual",
            "supplier_control_freq_note": null,
            "supplier_controller": null,
            "decathlon_control_freq_note": "DFCAQL",
            "active": true
          },
          {
            "step_number": "FINAL CONTROL",
            "control_item": "Check conformity of bonded seams",
            "control_method": "OCS_017.A Conformity of bonded seam",
            "requirement": null,
            "criticity": "Major",
            "control_type": "Visual/Manual",
            "supplier_control_freq_note": null,
            "supplier_controller": null,
            "decathlon_control_freq_note": "DFCAQL",
            "active": true
          },
          {
            "step_number": "FINAL CONTROL",
            "control_item": "Check taping conformity",
            "control_method": "DPR 10.810 D",
            "requirement": null,
            "criticity": null,
            "control_type": "Visual/Manual",
            "supplier_control_freq_note": null,
            "supplier_controller": null,
            "decathlon_control_freq_note": "DFCAQL",
            "active": true
          },
          {
            "step_number": "FINAL CONTROL",
            "control_item": "Check waterproofness",
            "control_method": "DS 270",
            "requirement": "3 PSI / 30 seconds after 3 washings and Drying (DS024)",
            "criticity": null,
            "control_type": "LabTest",
            "supplier_control_freq_note": null,
            "supplier_controller": null,
            "decathlon_control_freq_note": "DFCAQL",
            "active": true
          },
          {
            "step_number": "FINAL CONTROL",
            "control_item": "Check waterproofness",
            "control_method": "DS 270",
            "requirement": "3 PSI / 30 seconds",
            "criticity": "Major",
            "control_type": "Functionnal and non destructive",
            "supplier_control_freq_note": null,
            "supplier_controller": null,
            "decathlon_control_freq_note": "DFCAQL",
            "active": true
          }
        ]
      },
      {
        "name": "Sub part specific",
        "category": "Final control",
        "steps": [
          {
            "step_number": "FINAL CONTROL",
            "control_item": "Toxicology test",
            "control_method": "Toxicology packages",
            "requirement": "implantation tested for baby products only",
            "criticity": "Critical",
            "control_type": "LabTest",
            "supplier_control_freq_note": null,
            "supplier_controller": null,
            "decathlon_control_freq_note": "DFC TOXICOLOGY",
            "active": true
          },
          {
            "step_number": "FINAL CONTROL",
            "control_item": "Check electric warming system functionnality",
            "control_method": "DCS_006.A_Electric warming system functionnality.pdf",
            "requirement": null,
            "criticity": "Major",
            "control_type": "Functionnal and non destructive",
            "supplier_control_freq_note": null,
            "supplier_controller": null,
            "decathlon_control_freq_note": "DFCAQL",
            "active": true
          }
        ]
      }
    ]
  }
}
