{
  "filename": "CP2.3_FUJI-TA sports goods_61839 finish bike_Richard Han.xlsx",
  "count": 1,
  "product_family": {
    "name": "BIKE",
    "processes": [
      {
        "name": "Assembling process",
        "category": "Incoming control",
        "steps": [
          {
            "step_number": "W1 点检",
            "control_item": "气压\npressure",
            "control_method": "气压表\nborameter",
            "requirement": "气动工具有铭牌标识，实际气压在标准气压内\npneumatic tools have name plate, actual pressure follow standard",
            "criticity": "Major",
            "control_type": "Process control,",
            "supplier_control_freq_note": "1次/2小时\neach 2 hours",
            "supplier_controller": "线长 、巡检\nline leader, process inspector",
            "decathlon_control_freq_note": "1次/月\nmonthly",
            "active": true
          },
          {
            "step_number": "W2 前变速器组装\nFD assembly",
            "control_item": "前变固定\nassemble FD",
            "control_method": "扭力扳手\ntorque wrench",
            "requirement": "（装配扭力检验标准）QA-002\n（torque inspection standard）QA-002",
            "criticity": "Critical",
            "control_type": "Process control,",
            "supplier_control_freq_note": "1次/2小时\neach 2 hours",
            "supplier_controller": "巡检员\nprocess inspector",
            "decathlon_control_freq_note": "1次/月\nmonthly",
            "active": true
          },
          {
            "step_number": "W2 前变速器组装\nFD assembly",
            "control_item": "前变位置\nFD position",
            "control_method": "目视/钢尺\nvisual/ruler",
            "requirement": "与大齿盘间隙1-3MM，与大齿盘平行\nFD parallel with Front Chainwheel and gap between FC top position within 1-3mm",
            "criticity": "Major",
            "control_type": "Process control,",
            "supplier_control_freq_note": "1次/2小时\neach 2 hours",
            "supplier_controller": "线长 、巡检\nline leader, process inspector",
            "decathlon_control_freq_note": "1次/月\nmonthly",
            "active": true
          },
          {
            "step_number": "W3 水壶螺丝组装\nkettle screw assembly",
            "control_item": "螺丝固定\nassemble screw",
            "control_method": "扭力扳手\ntorque wrench",
            "requirement": "先用手预锁\n（装配扭力检验标准）QA-002\npre-assemble by hand\n(torque inspection standard)QA-002",
            "criticity": "Major",
            "control_type": "Process control,",
            "supplier_control_freq_note": "1次/2小时\neach 2 hours",
            "supplier_controller": "巡检员\nprocess inspector",
            "decathlon_control_freq_note": "1次/月\nmonthly",
            "active": true
          },
          {
            "step_number": "W3 水壶螺丝组装\nkettle screw assembly",
            "control_item": "水壶螺丝\nscrew",
            "control_method": "目视\nvisual",
            "requirement": "无漏装\nno shortage",
            "criticity": "Major",
            "control_type": "Process control,",
            "supplier_control_freq_note": "1次/2小时\neach 2 hours",
            "supplier_controller": "巡检员\nprocess inspector",
            "decathlon_control_freq_note": "1次/月\nmonthly",
            "active": true
          },
          {
            "step_number": "W4 上下碗组立\nheadset assembly",
            "control_item": "密合度\nclose fit",
            "control_method": "目视+厚薄规\nvisual+thickness gauge",
            "requirement": "头碗必须要与车架贴合（0-0.3mm）\nThe cups must be inserted on the frame head tube without gap.  (0-0.3mm)",
            "criticity": "Major",
            "control_type": "Process control,",
            "supplier_control_freq_note": "1次/2小时\neach 2 hours",
            "supplier_controller": "巡检员\nprocess inspector",
            "decathlon_control_freq_note": "1次/月\nmonthly",
            "active": true
          },
          {
            "step_number": "W4 上下碗组立\nheadset assembly",
            "control_item": "碗组限位\nheadset stopper",
            "control_method": "目视\nvisual",
            "requirement": "1）双限位目视与前叉中心线垂直\n2）单限位与车架中心线一致\n3）无限位不做要求\n1. double limit perpendicular to fork\n2. single limit parallel to frame\n3. no limit no request",
            "criticity": "Major",
            "control_type": "Process control,",
            "supplier_control_freq_note": "1次/2小时\neach 2 hours",
            "supplier_controller": "巡检员\nprocess inspector",
            "decathlon_control_freq_note": "1次/月\nmonthly",
            "active": true
          },
          {
            "step_number": "W4 上下碗组立\nheadset assembly",
            "control_item": "外观\nappearance",
            "control_method": "目视\nvisual",
            "requirement": "不得爆漆,油漆橘皮，污染等\npaint no crack, no corrugation, no pollution.",
            "criticity": "Major",
            "control_type": "Process control,",
            "supplier_control_freq_note": "1次/2小时\neach 2 hours",
            "supplier_controller": "巡检员\nprocess inspector",
            "decathlon_control_freq_note": "1次/月\nmonthly",
            "active": true
          },
          {
            "step_number": "W4 上下碗组立\nheadset assembly",
            "control_item": "润滑\ngrease",
            "control_method": "目视\nvisual",
            "requirement": "头管上下碗必须有黄油，且黄油不得外露\nThe surfaces (bearings, internal surface of cups) are totally and uniformly covered by grease,No grease is visible outside the totally assembled headset",
            "criticity": "Major",
            "control_type": "Process control,",
            "supplier_control_freq_note": "1次/2小时\neach 2 hours",
            "supplier_controller": "巡检员\nprocess inspector",
            "decathlon_control_freq_note": "1次/月\nmonthly",
            "active": true
          },
          {
            "step_number": "W4 上下碗组立\nheadset assembly",
            "control_item": "五通抹油\nbottom bracket",
            "control_method": "目视\nvisual",
            "requirement": "牙纹处均有油,且黄油不得外漏\nensure thread have grease,and grease can not visual on surface",
            "criticity": "Major",
            "control_type": "Process control,",
            "supplier_control_freq_note": "1次/2小时\neach 2 hours",
            "supplier_controller": "巡检员\nprocess inspector",
            "decathlon_control_freq_note": "1次/月\nmonthly",
            "active": true
          },
          {
            "step_number": "W4 上下碗组立\nheadset assembly",
            "control_item": "座管夹方向\nseat clamp direction",
            "control_method": "目视\nvisual",
            "requirement": "座管夹开口与车架中管开口（依技术文件）\nseat clamp slot and seat tube slot direction（follow Spec.）",
            "criticity": "Major",
            "control_type": "Product control",
            "supplier_control_freq_note": "1次/2小时\neach 2 hours",
            "supplier_controller": "巡检员\nprocess inspector",
            "decathlon_control_freq_note": "1次/月\nmonthly",
            "active": true
          },
          {
            "step_number": "W5 后夹器组装\nRear-brake assembly",
            "control_item": "刹车座润滑\npivot lubrication",
            "control_method": "目视\nvisual",
            "requirement": "刹车座轴心需加黄油\nFrame brake's pivot must be greased all over the outter",
            "criticity": "Major",
            "control_type": null,
            "supplier_control_freq_note": "1次/2小时\neach 2 hours",
            "supplier_controller": "巡检员\nprocess inspector",
            "decathlon_control_freq_note": "1次/月\nmonthly",
            "active": true
          },
          {
            "step_number": "W5 后夹器组装\nRear-brake assembly",
            "control_item": "夹器定位弹簧固定\nfitting brake clamp spring",
            "control_method": "目视\nvisual",
            "requirement": "处于中间孔\nThe spring  of the caliper must be in the middle hole of the brake's pivot fork",
            "criticity": "Minor",
            "control_type": null,
            "supplier_control_freq_note": "1次/2小时\neach 2 hours",
            "supplier_controller": "巡检员\nprocess inspector",
            "decathlon_control_freq_note": "1次/月\nmonthly",
            "active": true
          },
          {
            "step_number": "W5 后夹器组装\nRear-brake assembly",
            "control_item": "夹器螺丝\nbrake screw",
            "control_method": "目视\nvisual",
            "requirement": "螺丝上有耐落胶\nscrew have NYLOK",
            "criticity": "Critical",
            "control_type": null,
            "supplier_control_freq_note": "1次/2小时\neach 2 hours",
            "supplier_controller": "巡检员\nprocess inspector",
            "decathlon_control_freq_note": "1次/月\nmonthly",
            "active": true
          },
          {
            "step_number": "W5 后夹器组装\nRear-brake assembly",
            "control_item": "夹器固定\nbrake assemble",
            "control_method": "扭力扳手\ntorque wrench",
            "requirement": "（装配扭力检验标准）QA-002\n(torque inspection standard) QA-002",
            "criticity": "Critical",
            "control_type": null,
            "supplier_control_freq_note": "1次/2小时\neach 2 hours",
            "supplier_controller": "巡检员\nprocess inspector",
            "decathlon_control_freq_note": "1次/月\nmonthly",
            "active": true
          },
          {
            "step_number": "W6 BB 组装工位\nBB assemble station",
            "control_item": "右碗扭力\nfixed cup torque",
            "control_method": "扭力扳手\ntorque wrench",
            "requirement": "（装配扭力检验标准）QA-002\n(torque inspection standard) QA-002",
            "criticity": "Critical",
            "control_type": null,
            "supplier_control_freq_note": "1次/2小时\neach 2 hours",
            "supplier_controller": "巡检员\nprocess inspector",
            "decathlon_control_freq_note": "1次/月\nmonthly",
            "active": true
          },
          {
            "step_number": "W6 BB 组装工位\nBB assemble station",
            "control_item": "右碗间隙\nfixed cup clearance",
            "control_method": "厚薄规\nthickness gauge",
            "requirement": "右碗和锁片必须与车架贴合（0-0.1mm）\nRight cup must be in contact with the frame(0-0.1mm)",
            "criticity": "Critical",
            "control_type": null,
            "supplier_control_freq_note": "1次/2小时\neach 2 hours",
            "supplier_controller": "巡检员\nprocess inspector",
            "decathlon_control_freq_note": "1次/月\nmonthly",
            "active": true
          },
          {
            "step_number": "W6 BB 组装工位\nBB assemble station",
            "control_item": "锁主轴左碗\nTightening of the mobile cup",
            "control_method": "手动\nmanual operation",
            "requirement": "转动顺畅，无松动\nno hard point, no play",
            "criticity": "Major",
            "control_type": null,
            "supplier_control_freq_note": "1次/2小时\neach 2 hours",
            "supplier_controller": "巡检员\nprocess inspector",
            "decathlon_control_freq_note": "1次/月\nmonthly",
            "active": true
          },
          {
            "step_number": "W6 BB 组装工位\nBB assemble station",
            "control_item": "锁左碗入锁圈\nScrewing and tightening of lockring.",
            "control_method": "扭力扳手\ntorque wrench",
            "requirement": "预锁2-3牙\n（装配扭力检验标准）QA-002\npre-tightening 2-3 thread\n(torque inspection standard) QA-002",
            "criticity": "Critical",
            "control_type": null,
            "supplier_control_freq_note": "1次/2小时\neach 2 hours",
            "supplier_controller": "巡检员\nprocess inspector",
            "decathlon_control_freq_note": "1次/月\nmonthly",
            "active": true
          },
          {
            "step_number": "W6 BB 组装工位\nBB assemble station",
            "control_item": "导线板\ncable pass",
            "control_method": "目视\nvisual",
            "requirement": "无漏装，组装方向正确\nno shortage, correct direction",
            "criticity": "Major",
            "control_type": null,
            "supplier_control_freq_note": "1次/2小时\neach 2 hours",
            "supplier_controller": "巡检员\nprocess inspector",
            "decathlon_control_freq_note": "1次/月\nmonthly",
            "active": true
          },
          {
            "step_number": "W6 BB 组装工位\nBB assemble station",
            "control_item": "导线板锁紧\ntightening cable pass",
            "control_method": "目视\nvisual",
            "requirement": "自攻螺丝锁紧无间隙，扭力无要求\nself-tapping screw tightening no clearance, no torque request",
            "criticity": "Major",
            "control_type": null,
            "supplier_control_freq_note": "1次/2小时\neach 2 hours",
            "supplier_controller": "巡检员\nprocess inspector",
            "decathlon_control_freq_note": "1次/月\nmonthly",
            "active": true
          },
          {
            "step_number": "W7 前叉装夹器工位\nFront-brake assembly",
            "control_item": "刹车座润滑\npivot lubrication",
            "control_method": "目视\nvisual",
            "requirement": "刹车座轴心需加黄油  \nFrame brake's pivot must be greased all over the outter",
            "criticity": "Major",
            "control_type": null,
            "supplier_control_freq_note": "1次/2小时\neach 2 hours",
            "supplier_controller": "巡检员\nprocess inspector",
            "decathlon_control_freq_note": "1次/月\nmonthly",
            "active": true
          },
          {
            "step_number": "W7 前叉装夹器工位\nFront-brake assembly",
            "control_item": "夹器定位弹簧固定\nfitting brake clamp spring",
            "control_method": "目视\nvisual",
            "requirement": "处于中间孔\nThe spring  of the caliper must be in the middle hole of the brake's pivot fork",
            "criticity": "Minor",
            "control_type": null,
            "supplier_control_freq_note": "1次/2小时\neach 2 hours",
            "supplier_controller": "巡检员\nprocess inspector",
            "decathlon_control_freq_note": "1次/月\nmonthly",
            "active": true
          },
          {
            "step_number": "W7 前叉装夹器工位\nFront-brake assembly",
            "control_item": "夹器螺丝\nbrake screw",
            "control_method": "目视\nvisual",
            "requirement": "螺丝上有耐落胶\nscrew have NYLOK",
            "criticity": "Critical",
            "control_type": null,
            "supplier_control_freq_note": "1次/2小时\neach 2 hours",
            "supplier_controller": "巡检员\nprocess inspector",
            "decathlon_control_freq_note": "1次/月\nmonthly",
            "active": true
          },
          {
            "step_number": "W7 前叉装夹器工位\nFront-brake assembly",
            "control_item": "夹器固定\nbrake assemble",
            "control_method": "扭力扳手\ntorque wrench",
            "requirement": "（装配扭力检验标准）QA-002\n(torque inspection standard) QA-002",
            "criticity": "Critical",
            "control_type": null,
            "supplier_control_freq_note": "1次/2小时\neach 2 hours",
            "supplier_controller": "巡检员\nprocess inspector",
            "decathlon_control_freq_note": "1次/月\nmonthly",
            "active": true
          },
          {
            "step_number": "W7 前叉装夹器工位\nFront-brake assembly",
            "control_item": "前叉下方塞子\nplug under the fork",
            "control_method": "目视\nvisual",
            "requirement": "塞子组装到位，无漏装\nno shortage",
            "criticity": "Minor",
            "control_type": null,
            "supplier_control_freq_note": "1次/2小时\neach 2 hours",
            "supplier_controller": "巡检员\nprocess inspector",
            "decathlon_control_freq_note": "1次/月\nmonthly",
            "active": true
          },
          {
            "step_number": "W8 前叉压碗\nheadset assembly",
            "control_item": "前叉润滑\nfork lubrication",
            "control_method": "目视\nvisual",
            "requirement": "前叉竖管底部需逆时针刷黄油\nbottom of fork must be greaseed by anticlockwise",
            "criticity": null,
            "control_type": null,
            "supplier_control_freq_note": "1次/2小时\neach 2 hours",
            "supplier_controller": null,
            "decathlon_control_freq_note": "1次/月\nmonthly",
            "active": true
          },
          {
            "step_number": "W8 前叉压碗\nheadset assembly",
            "control_item": "限位角度\nlimit angle",
            "control_method": "目视\nvisual",
            "requirement": "1）双限位目视与前叉中心线垂直\n2）单限位与车架中心线一致\n3）无限位不做要求\n1. double limit perpendicular to fork\n2. single limit parallel to frame\n3. no limit no request",
            "criticity": "Major",
            "control_type": null,
            "supplier_control_freq_note": "1次/2小时\neach 2 hours",
            "supplier_controller": "巡检员\nprocess inspector",
            "decathlon_control_freq_note": "1次/月\nmonthly",
            "active": true
          },
          {
            "step_number": "W8 前叉压碗\nheadset assembly",
            "control_item": "间隙\ngap",
            "control_method": "目视+厚薄规\nvisual+thickness gauge",
            "requirement": "前叉底碗必须安装到前叉底部（0-0.3mm）\nThe cups must be inserted on the frame head tube without gap(0-0.3mm)",
            "criticity": "Major",
            "control_type": null,
            "supplier_control_freq_note": "1次/2小时\neach 2 hours",
            "supplier_controller": "巡检员\nprocess inspector",
            "decathlon_control_freq_note": "1次/月\nmonthly",
            "active": true
          },
          {
            "step_number": "W8 前叉压碗\nheadset assembly",
            "control_item": "太阳花\nstar nut",
            "control_method": "卡尺\ncallipers",
            "requirement": "压入前叉竖管中15+-1mm\nmust be inserted perpendiculary to the stereer tube to 15+-1mm",
            "criticity": "Major",
            "control_type": null,
            "supplier_control_freq_note": "1次/2小时\neach 2 hours",
            "supplier_controller": "巡检员\nprocess inspector",
            "decathlon_control_freq_note": "1次/月\nmonthly",
            "active": true
          },
          {
            "step_number": "W9 三合一工位\nframe,fork,stem assembly",
            "control_item": "上碗锁紧\ntightening upper cup",
            "control_method": "扭力扳手\ntorque wrench",
            "requirement": "（装配扭力检验标准）QA-002\n(torque inspection standard) QA-002",
            "criticity": "Critical",
            "control_type": null,
            "supplier_control_freq_note": "1次/2小时\neach 2 hours",
            "supplier_controller": "巡检员\nprocess inspector",
            "decathlon_control_freq_note": "1次/月\nmonthly",
            "active": true
          },
          {
            "step_number": "W9 三合一工位\nframe,fork,stem assembly",
            "control_item": "零件位置\ncomponent position",
            "control_method": "目视\nvisual",
            "requirement": "按照顺序将零件进行安装（珠巢对碗）\naccroding the sequence to install the component",
            "criticity": "Major",
            "control_type": null,
            "supplier_control_freq_note": "1次/2小时\neach 2 hours",
            "supplier_controller": "巡检员\nprocess inspector",
            "decathlon_control_freq_note": "1次/月\nmonthly",
            "active": true
          },
          {
            "step_number": "W9 三合一工位\nframe,fork,stem assembly",
            "control_item": "间隙\ngap",
            "control_method": "目视\nvisual",
            "requirement": "有牙：前叉上碗与前叉竖管间隙在1mm-3mm\n无牙：车把立管，与前叉竖管间隙在1mm-3mm\nhave thread: upper cup and fork stem gap within 1-3mm\nno thread: stem and fork stem gap within 1-3mm",
            "criticity": "Major",
            "control_type": null,
            "supplier_control_freq_note": "1次/2小时\neach 2 hours",
            "supplier_controller": "巡检员\nprocess inspector",
            "decathlon_control_freq_note": "1次/月\nmonthly",
            "active": true
          },
          {
            "step_number": "W9 三合一工位\nframe,fork,stem assembly",
            "control_item": "前叉组装顺畅度\nfork assemble smooth",
            "control_method": "手动\nmanual operation",
            "requirement": "转动前叉碗组没有紧点，没有间隙\nrotating fork no tightening point, no gap",
            "criticity": "Critical",
            "control_type": null,
            "supplier_control_freq_note": "1次/2小时\neach 2 hours",
            "supplier_controller": "巡检员\nprocess inspector",
            "decathlon_control_freq_note": "1次/月\nmonthly",
            "active": true
          },
          {
            "step_number": "W9 三合一工位\nframe,fork,stem assembly",
            "control_item": "吊线架\ncable hook assembly",
            "control_method": "目视\nvisual",
            "requirement": "与前叉垂直\nvertical to fork",
            "criticity": "Major",
            "control_type": null,
            "supplier_control_freq_note": "1次/2小时\neach 2 hours",
            "supplier_controller": "巡检员\nprocess inspector",
            "decathlon_control_freq_note": "1次/月\nmonthly",
            "active": true
          },
          {
            "step_number": "W9 三合一工位\nframe,fork,stem assembly",
            "control_item": "密封圈\nseal ring",
            "control_method": "目视\nvisual",
            "requirement": "无褶皱变形，压痕\nno deformation, indentation",
            "criticity": "Major",
            "control_type": null,
            "supplier_control_freq_note": "1次/2小时\neach 2 hours",
            "supplier_controller": "巡检员\nprocess inspector",
            "decathlon_control_freq_note": "1次/月\nmonthly",
            "active": true
          },
          {
            "step_number": "W9 三合一工位\nframe,fork,stem assembly",
            "control_item": "前叉上盖保护塞\nplug for fork",
            "control_method": "目视\nvisual",
            "requirement": "无漏装\nno shortage",
            "criticity": "Major",
            "control_type": null,
            "supplier_control_freq_note": "1次/2小时\neach 2 hours",
            "supplier_controller": "巡检员\nprocess inspector",
            "decathlon_control_freq_note": "1次/月\nmonthly",
            "active": true
          },
          {
            "step_number": "W10 齿盘组立\ncrank assembly",
            "control_item": "曲柄螺丝扭力\ncrank screw torque",
            "control_method": "扭力扳手\ntorque wrench",
            "requirement": "（装配扭力检验标准）QA-002\n(torque inspection standard) QA-002",
            "criticity": "Critical",
            "control_type": null,
            "supplier_control_freq_note": "1次/2小时\neach 2 hours",
            "supplier_controller": "巡检员\nprocess inspector",
            "decathlon_control_freq_note": "1次/月\nmonthly",
            "active": true
          },
          {
            "step_number": "W10 齿盘组立\ncrank assembly",
            "control_item": "曲柄螺丝\ncrank screw",
            "control_method": "目视\nvisual",
            "requirement": "曲柄螺丝必须要有耐落胶，且无黄油\ncrank screw have NYLOK, no grease",
            "criticity": "Critical",
            "control_type": null,
            "supplier_control_freq_note": "1次/2小时\neach 2 hours",
            "supplier_controller": "巡检员\nprocess inspector",
            "decathlon_control_freq_note": "1次/月\nmonthly",
            "active": true
          },
          {
            "step_number": "W10 齿盘组立\ncrank assembly",
            "control_item": "外观\nappearance",
            "control_method": "目视\nvisual",
            "requirement": "曲柄方孔内及中轴末端不得有黄油\n曲柄无划伤碰伤，裂痕\ncrank hole inside and pivot no grease\ncrank no scratch, break",
            "criticity": "Major",
            "control_type": null,
            "supplier_control_freq_note": "1次/2小时\neach 2 hours",
            "supplier_controller": "巡检员\nprocess inspector",
            "decathlon_control_freq_note": "1次/月\nmonthly",
            "active": true
          },
          {
            "step_number": "W10 齿盘组立\ncrank assembly",
            "control_item": "曲柄的組裝\ncrank assembly",
            "control_method": "目视\nvisual",
            "requirement": "1）兩边曲柄呈180°反方向                                       \n2)带有大齿盘的曲柄在右边\n1. left crank and right crank  have to be assembly at 180°. \n2. crankset on the right side",
            "criticity": "Major",
            "control_type": null,
            "supplier_control_freq_note": "1次/2小时\neach 2 hours",
            "supplier_controller": "巡检员\nprocess inspector",
            "decathlon_control_freq_note": "1次/月\nmonthly",
            "active": true
          },
          {
            "step_number": "W10 齿盘组立\ncrank assembly",
            "control_item": "曲柄转动情况\ncrank rotating condition",
            "control_method": "目视/手动\nvisual/manual operation",
            "requirement": "转动曲柄，转动顺畅，与车架，配件无摩擦，无晃动\nThe crank set must not touch any part of the frame,  turn without  play, hard point and clearence",
            "criticity": "Major",
            "control_type": null,
            "supplier_control_freq_note": "1次/2小时\neach 2 hours",
            "supplier_controller": "巡检员\nprocess inspector",
            "decathlon_control_freq_note": "1次/月\nmonthly",
            "active": true
          },
          {
            "step_number": "W11 后变组装\nRear-derailleur assembly",
            "control_item": "后变扭力\nRD torque",
            "control_method": "扭力扳手\ntorque wrench",
            "requirement": "（装配扭力检验标准）QA-002\n(torque inspection standard) QA-002",
            "criticity": "Critical",
            "control_type": null,
            "supplier_control_freq_note": "1次/2小时\neach 2 hours",
            "supplier_controller": "巡检员\nprocess inspector",
            "decathlon_control_freq_note": "1次/月\nmonthly",
            "active": true
          },
          {
            "step_number": "W11 后变组装\nRear-derailleur assembly",
            "control_item": "组装情况\nassemble condition",
            "control_method": "目视\nvisual",
            "requirement": "1)锁到勾爪吊耳上的，螺丝完全所锁到底，无锁歪\n2）锁到沟槽里的，卡槽要完全装到沟槽\n1. fix the RD on the frame\n2. tightening to the slot",
            "criticity": "Major",
            "control_type": null,
            "supplier_control_freq_note": "1次/2小时\neach 2 hours",
            "supplier_controller": "巡检员\nprocess inspector",
            "decathlon_control_freq_note": "1次/月\nmonthly",
            "active": true
          },
          {
            "step_number": "W12 后轮组立\nrear-wheel assembly",
            "control_item": "链条装配\nchain assemble",
            "control_method": "目视，卡规\nvisual,caliper gauge",
            "requirement": "1.接头处生产时都有做一个白色记号，抽检时必须检查接头处链销销钉一定要完全穿出链片,链条不能有死结现象。\n2.链条扣完全闭合                   \n1.when product making white mark.  \n2. Link have to be correctly close",
            "criticity": "Major",
            "control_type": null,
            "supplier_control_freq_note": "1次/2小时\neach 2 hours",
            "supplier_controller": "巡检员\nprocess inspector",
            "decathlon_control_freq_note": "1次/月\nmonthly",
            "active": true
          },
          {
            "step_number": "W12 后轮组立\nrear-wheel assembly",
            "control_item": "轮子安装位置\nwheel assemble position",
            "control_method": "目视/检具\nvisual/gauge",
            "requirement": "1.轮子居中对称（两边间隙差小于2MM）\n2.轮子完全装入前叉沟槽，螺母先手动预锁，再用气枪锁紧\n1.wheel in the center and symmetry(the gap between two side less than 2mm)\n2.Wheel fully assemble on the fork groove, Axle Nuts are manualy tighten before using the pneumatic tool",
            "criticity": "Major",
            "control_type": null,
            "supplier_control_freq_note": "1次/2小时\neach 2 hours",
            "supplier_controller": "巡检员\nprocess inspector",
            "decathlon_control_freq_note": "1次/月\nmonthly",
            "active": true
          },
          {
            "step_number": "W12 后轮组立\nrear-wheel assembly",
            "control_item": "花鼓位置\nHUB position",
            "control_method": "目视/卷尺\nvisual/tape",
            "requirement": "保证链条松紧度（链条上下浮动6-15MM）\nensure the chain tightness degree",
            "criticity": "Major",
            "control_type": null,
            "supplier_control_freq_note": "1次/2小时\neach 2 hours",
            "supplier_controller": "巡检员\nprocess inspector",
            "decathlon_control_freq_note": "1次/月\nmonthly",
            "active": true
          },
          {
            "step_number": "W12 后轮组立\nrear-wheel assembly",
            "control_item": "扭力\ntorque",
            "control_method": "扭力扳手\ntorque wrench",
            "requirement": "（装配扭力检验标准）QA-002\n(torque inspection standard) QA-002",
            "criticity": "Critical",
            "control_type": null,
            "supplier_control_freq_note": "1次/2小时\neach 2 hours",
            "supplier_controller": "巡检员\nprocess inspector",
            "decathlon_control_freq_note": "1次/月\nmonthly",
            "active": true
          },
          {
            "step_number": "W12 后轮组立\nrear-wheel assembly",
            "control_item": "快拆锁紧\nQR tightening",
            "control_method": "推拉力计\nforce gauge",
            "requirement": "闭合小于于200N,打开大于50N\nclose force less than 200N, open force large than 50N",
            "criticity": "Major",
            "control_type": null,
            "supplier_control_freq_note": "1次/2小时\neach 2 hours",
            "supplier_controller": "巡检员\nprocess inspector",
            "decathlon_control_freq_note": "1次/月\nmonthly",
            "active": true
          },
          {
            "step_number": "W12 后轮组立\nrear-wheel assembly",
            "control_item": "外胎方向\ntyre direction",
            "control_method": "目视\nvisual",
            "requirement": "花纹箭头方向与行车方向一致(符合外胎标示）\nThe wheels must be assembled in the way indicated on the hub and tire  (same direction as rear hub)",
            "criticity": "Major",
            "control_type": null,
            "supplier_control_freq_note": "1次/2小时\neach 2 hours",
            "supplier_controller": "巡检员\nprocess inspector",
            "decathlon_control_freq_note": "1次/月\nmonthly",
            "active": true
          },
          {
            "step_number": "W13 车把把立组装\nhandlebar stem assembly",
            "control_item": "刹把角度\nbrake angle",
            "control_method": "角度规\nangle gauge",
            "requirement": "刹把角度依技术文件\nfollow Spec.",
            "criticity": "Major",
            "control_type": null,
            "supplier_control_freq_note": "1次/2小时\neach 2 hours",
            "supplier_controller": "巡检员\nprocess inspector",
            "decathlon_control_freq_note": "1次/月\nmonthly",
            "active": true
          },
          {
            "step_number": "W13 车把把立组装\nhandlebar stem assembly",
            "control_item": "刹把、变把扭力\nbrake, shift lever torque",
            "control_method": "扭力扳手\ntorque wrench",
            "requirement": "（装配扭力检验标准）QA-002\n(torque inspection standard) QA-002",
            "criticity": "Critical",
            "control_type": null,
            "supplier_control_freq_note": "1次/2小时\neach 2 hours",
            "supplier_controller": "巡检员\nprocess inspector",
            "decathlon_control_freq_note": "1次/月\nmonthly",
            "active": true
          },
          {
            "step_number": "W13 车把把立组装\nhandlebar stem assembly",
            "control_item": "车把塞子\nhandlebar plug",
            "control_method": "目视\nvisual",
            "requirement": "检查塞子的存在\nconfirm plug position",
            "criticity": "Major",
            "control_type": null,
            "supplier_control_freq_note": "1次/2小时\neach 2 hours",
            "supplier_controller": "巡检员\nprocess inspector",
            "decathlon_control_freq_note": "1次/月\nmonthly",
            "active": true
          },
          {
            "step_number": "W13 车把把立组装\nhandlebar stem assembly",
            "control_item": "手握，刹把间隙\ngrip and brake clearance",
            "control_method": "卷尺、钢尺\ntape,ruler",
            "requirement": "依技术文件\nfollow spec.",
            "criticity": "Major",
            "control_type": null,
            "supplier_control_freq_note": "1次/2小时\neach 2 hours",
            "supplier_controller": "巡检员\nprocess inspector",
            "decathlon_control_freq_note": "1次/月\nmonthly",
            "active": true
          },
          {
            "step_number": "W13 车把把立组装\nhandlebar stem assembly",
            "control_item": "车铃、反光片位置\nBell, reflector position",
            "control_method": "目视\nvisual",
            "requirement": "依照技术文件\nfollow Spec.",
            "criticity": "Minor",
            "control_type": null,
            "supplier_control_freq_note": "1次/2小时\neach 2 hours",
            "supplier_controller": "巡检员\nprocess inspector",
            "decathlon_control_freq_note": "1次/月\nmonthly",
            "active": true
          },
          {
            "step_number": "W13 车把把立组装\nhandlebar stem assembly",
            "control_item": "车铃固定\nfixed bell",
            "control_method": "手动\nmanual operation",
            "requirement": "使用情况下，按压铃铛时铃铛不能转动\nbell cannot rotating when using",
            "criticity": "Minor",
            "control_type": null,
            "supplier_control_freq_note": "1次/2小时\neach 2 hours",
            "supplier_controller": "巡检员\nprocess inspector",
            "decathlon_control_freq_note": "1次/月\nmonthly",
            "active": true
          },
          {
            "step_number": "W13 车把把立组装\nhandlebar stem assembly",
            "control_item": "把套组装\ngrip assemble",
            "control_method": "目视\nvisual",
            "requirement": "组装位置不能有水和油，肥皂沫，胶水\nassemble position cannot have water and oil",
            "criticity": "Major",
            "control_type": null,
            "supplier_control_freq_note": "1次/2小时\neach 2 hours",
            "supplier_controller": "巡检员\nprocess inspector",
            "decathlon_control_freq_note": "1次/月\nmonthly",
            "active": true
          },
          {
            "step_number": "W13 车把把立组装\nhandlebar stem assembly",
            "control_item": "车把立管上盖锁紧\nstem tightening",
            "control_method": "扭力扳手\ntorque wrench",
            "requirement": "（装配扭力检验标准）QA-002\n(torque inspection standard) QA-002",
            "criticity": "Critical",
            "control_type": null,
            "supplier_control_freq_note": "1次/2小时\neach 2 hours",
            "supplier_controller": "巡检员\nprocess inspector",
            "decathlon_control_freq_note": "1次/月\nmonthly",
            "active": true
          },
          {
            "step_number": "W13 车把把立组装\nhandlebar stem assembly",
            "control_item": "把立上盖锁紧方式\nstem tightening method",
            "control_method": "目视\nvisual",
            "requirement": "对角锁紧1-2-1分三次锁紧\n锁紧后两边间隙均匀\ndiagonal tightening, 1-2-1 tightening 3 times\nafter tightening, two side gap are uniform",
            "criticity": "Major",
            "control_type": null,
            "supplier_control_freq_note": "1次/2小时\neach 2 hours",
            "supplier_controller": "巡检员\nprocess inspector",
            "decathlon_control_freq_note": "1次/月\nmonthly",
            "active": true
          },
          {
            "step_number": "W13 车把把立组装\nhandlebar stem assembly",
            "control_item": "外观\nappearance",
            "control_method": "目视\nvisual",
            "requirement": "无碰伤掉漆，脏污\nno scratch",
            "criticity": "Major",
            "control_type": null,
            "supplier_control_freq_note": "1次/2小时\neach 2 hours",
            "supplier_controller": "巡检员\nprocess inspector",
            "decathlon_control_freq_note": "1次/月\nmonthly",
            "active": true
          },
          {
            "step_number": "W14 车把安装\nhandlebar assembly",
            "control_item": "车把安装\nhandlebar assemble",
            "control_method": "目视\nvisual",
            "requirement": "竖管安全线不得外露\nstem safty line cannot visual",
            "criticity": "Major",
            "control_type": null,
            "supplier_control_freq_note": "1次/2小时\neach 2 hours",
            "supplier_controller": "巡检员\nprocess inspector",
            "decathlon_control_freq_note": "1次/月\nmonthly",
            "active": true
          },
          {
            "step_number": "W14 车把安装\nhandlebar assembly",
            "control_item": "加黄油\nadd grease",
            "control_method": "目视\nvisual",
            "requirement": "立管下方钨棒内要加黄油，外侧不得有黄油\nThe stem must be greased at the threading(no grease on the surface of wedge nut).",
            "criticity": "Major",
            "control_type": null,
            "supplier_control_freq_note": "1次/2小时\neach 2 hours",
            "supplier_controller": "巡检员\nprocess inspector",
            "decathlon_control_freq_note": "1次/月\nmonthly",
            "active": true
          },
          {
            "step_number": "W15 链罩组装\nchain-guard assembly",
            "control_item": "扭力\ntorque",
            "control_method": "扭力扳手\ntorque wrench",
            "requirement": "（装配扭力检验标准）QA-002\n(torque inspection standard) QA-002",
            "criticity": "Critical",
            "control_type": null,
            "supplier_control_freq_note": "1次/2小时\neach 2 hours",
            "supplier_controller": "巡检员\nprocess inspector",
            "decathlon_control_freq_note": "1次/月\nmonthly",
            "active": true
          },
          {
            "step_number": "W15 链罩组装\nchain-guard assembly",
            "control_item": "组装间隙\nassemble clearance",
            "control_method": "目视\nvisual",
            "requirement": "卡合到位，无间隙\nno Visual space between left and right chain guard at top surface",
            "criticity": "Major",
            "control_type": null,
            "supplier_control_freq_note": "1次/2小时\neach 2 hours",
            "supplier_controller": "巡检员\nprocess inspector",
            "decathlon_control_freq_note": "1次/月\nmonthly",
            "active": true
          },
          {
            "step_number": "W15 链罩组装\nchain-guard assembly",
            "control_item": "链罩固定\nchainguard fixed",
            "control_method": "目视/手动\nvisual/manual operation",
            "requirement": "与链条无摩擦，螺丝无漏装\nno friction with chain, screw no shortage",
            "criticity": "Major",
            "control_type": null,
            "supplier_control_freq_note": "1次/2小时\neach 2 hours",
            "supplier_controller": "巡检员\nprocess inspector",
            "decathlon_control_freq_note": "1次/月\nmonthly",
            "active": true
          },
          {
            "step_number": "W15 链罩组装\nchain-guard assembly",
            "control_item": "链罩标\nchainguard mark",
            "control_method": "目视\nvisual",
            "requirement": "与车种信息一致\n链罩标无漏装，无贴反\nsame as model information\nno shortage, no pastes anti",
            "criticity": "Minor",
            "control_type": null,
            "supplier_control_freq_note": "1次/2小时\neach 2 hours",
            "supplier_controller": "巡检员\nprocess inspector",
            "decathlon_control_freq_note": "1次/月\nmonthly",
            "active": true
          },
          {
            "step_number": "W16 前轮组装\nfront wheel assembly",
            "control_item": "曲柄塞子组装\nplastic plug assemble",
            "control_method": "目视\nvisual",
            "requirement": "与曲柄贴合，无间隙\nfit with crank, no clearance",
            "criticity": "Minor",
            "control_type": null,
            "supplier_control_freq_note": "1次/2小时\neach 2 hours",
            "supplier_controller": "巡检员\nprocess inspector",
            "decathlon_control_freq_note": "1次/月\nmonthly",
            "active": true
          },
          {
            "step_number": "W16 前轮组装\nfront wheel assembly",
            "control_item": "扭力\ntorque",
            "control_method": "扭力扳手\ntorque wrench",
            "requirement": "（装配扭力检验标准）QA-002\n(torque inspection standard) QA-002",
            "criticity": "Critical",
            "control_type": null,
            "supplier_control_freq_note": "1次/2小时\neach 2 hours",
            "supplier_controller": "巡检员\nprocess inspector",
            "decathlon_control_freq_note": "1次/月\nmonthly",
            "active": true
          },
          {
            "step_number": "W16 前轮组装\nfront wheel assembly",
            "control_item": "快拆锁紧\nQR tightening",
            "control_method": "推拉力计\nforce gauge",
            "requirement": "闭合小于于200N,打开大于50N\nclose force less than 200N, open force large than 50N",
            "criticity": "Major",
            "control_type": null,
            "supplier_control_freq_note": "1次/2小时\neach 2 hours",
            "supplier_controller": "巡检员\nprocess inspector",
            "decathlon_control_freq_note": "1次/月\nmonthly",
            "active": true
          },
          {
            "step_number": "W16 前轮组装\nfront wheel assembly",
            "control_item": "轮子安装位置\nwheel assemble position",
            "control_method": "目视/检具\nvisual/gauge",
            "requirement": "1.轮子居中对称（两边间隙差小于2MM）\n2.轮子完全装入前叉沟槽，螺母先手动预锁，再用气枪锁紧\n1.wheel in the center and symmetry(the gap between two side less than 2mm)\n2.Wheel fully assemble on the fork groove, Axle Nuts are manualy tighten before using the pneumatic tool",
            "criticity": "Major",
            "control_type": null,
            "supplier_control_freq_note": "1次/2小时\neach 2 hours",
            "supplier_controller": "巡检员\nprocess inspector",
            "decathlon_control_freq_note": "1次/月\nmonthly",
            "active": true
          },
          {
            "step_number": "W16 前轮组装\nfront wheel assembly",
            "control_item": "安全挂钩\nsafety hook",
            "control_method": "目视\nvisual",
            "requirement": "无漏装\nno shortage",
            "criticity": "Major",
            "control_type": null,
            "supplier_control_freq_note": "1次/2小时\neach 2 hours",
            "supplier_controller": "巡检员\nprocess inspector",
            "decathlon_control_freq_note": "1次/月\nmonthly",
            "active": true
          },
          {
            "step_number": "W16 前轮组装\nfront wheel assembly",
            "control_item": "外胎方向\ntyre direction",
            "control_method": "目视\nvisual",
            "requirement": "花纹箭头方向与行车方向一致(符合客户要求）\nThe wheels must be assembled in the way indicated on the hub and tire  (same direction as rear hub)",
            "criticity": "Major",
            "control_type": null,
            "supplier_control_freq_note": "1次/2小时\neach 2 hours",
            "supplier_controller": "巡检员\nprocess inspector",
            "decathlon_control_freq_note": "1次/月\nmonthly",
            "active": true
          },
          {
            "step_number": "W17 刹车线走线方式\nbrake cable assemble method",
            "control_item": "穿刹车线\nassemble brake cable",
            "control_method": "目视\nvisual",
            "requirement": "CN□ 左后 右前  CNFR □左前 右后   （刹车前线压刹车后线）依客户要求（中国：左后 右前）\nfollow CN and FR spec.",
            "criticity": "Major",
            "control_type": null,
            "supplier_control_freq_note": "1次/2小时\neach 2 hours",
            "supplier_controller": "巡检员\nprocess inspector",
            "decathlon_control_freq_note": "1次/月\nmonthly",
            "active": true
          },
          {
            "step_number": "W17 刹车线走线方式\nbrake cable assemble method",
            "control_item": "线的外观\nappearance",
            "control_method": "目视\nvisual",
            "requirement": "检查刹车外壳线无破损，穿线无绕线现象\nAll housing must be cut properly without plastic tear and deformation",
            "criticity": "Minor",
            "control_type": null,
            "supplier_control_freq_note": "1次/2小时\neach 2 hours",
            "supplier_controller": "巡检员\nprocess inspector",
            "decathlon_control_freq_note": "1次/月\nmonthly",
            "active": true
          },
          {
            "step_number": "W18  变速调节\nshifting adjust",
            "control_item": "变速线锁紧\nshifting cable tightening",
            "control_method": "扭力扳手\ntorque wrench",
            "requirement": "（装配扭力检验标准）QA-002\n(torque inspection standard) QA-002",
            "criticity": "Major",
            "control_type": null,
            "supplier_control_freq_note": "1次/2小时\neach 2 hours",
            "supplier_controller": "巡检员\nprocess inspector",
            "decathlon_control_freq_note": "1次/月\nmonthly",
            "active": true
          },
          {
            "step_number": "W18  变速调节\nshifting adjust",
            "control_item": "变速调节\nshifting adjust",
            "control_method": "手动\nmanual operation",
            "requirement": "旋转变把，链条与变把一一对应，变速上下顺畅，无跳链、掉链、上不去的现象\nrotating shift lever, chain can touch each speed, no chian drop, no slip",
            "criticity": "Major",
            "control_type": null,
            "supplier_control_freq_note": "1次/2小时\neach 2 hours",
            "supplier_controller": "巡检员\nprocess inspector",
            "decathlon_control_freq_note": "1次/月\nmonthly",
            "active": true
          },
          {
            "step_number": "W18  变速调节\nshifting adjust",
            "control_item": "变速线管皮套位置\nouter cable protect position",
            "control_method": "目视\nvisual",
            "requirement": "变速线管皮套位于头管处\nouter cable protect on the headpost",
            "criticity": "Major",
            "control_type": null,
            "supplier_control_freq_note": "1次/2小时\neach 2 hours",
            "supplier_controller": "巡检员\nprocess inspector",
            "decathlon_control_freq_note": "1次/月\nmonthly",
            "active": true
          },
          {
            "step_number": "W18  变速调节\nshifting adjust",
            "control_item": "导线板处变速线位置\nshifting cable position",
            "control_method": "目视\nvisual",
            "requirement": "变速线在导线板线槽内\nshifting cable in the slot",
            "criticity": "Major",
            "control_type": null,
            "supplier_control_freq_note": "1次/2小时\neach 2 hours",
            "supplier_controller": "巡检员\nprocess inspector",
            "decathlon_control_freq_note": "1次/月\nmonthly",
            "active": true
          },
          {
            "step_number": "W19 调整前夹器和闸皮\n后刹车\nadjust front brake and pads",
            "control_item": "锁线扭力\nlocking wire torque",
            "control_method": "扭力扳手\ntorque wrench",
            "requirement": "（装配扭力检验标准）QA-002\n(torque inspection standard) QA-002",
            "criticity": "Critical",
            "control_type": null,
            "supplier_control_freq_note": "1次/2小时\neach 2 hours",
            "supplier_controller": "巡检员\nprocess inspector",
            "decathlon_control_freq_note": "1次/月\nmonthly",
            "active": true
          },
          {
            "step_number": "W19 调整前夹器和闸皮\n后刹车\nadjust front brake and pads",
            "control_item": "角度\nangle",
            "control_method": "目视\nvisual",
            "requirement": "前吊线架固定后，刹线角度，依照标准角度\nfollow spec.",
            "criticity": "Minor",
            "control_type": null,
            "supplier_control_freq_note": "1次/2小时\neach 2 hours",
            "supplier_controller": "巡检员\nprocess inspector",
            "decathlon_control_freq_note": "1次/月\nmonthly",
            "active": true
          },
          {
            "step_number": "W19 调整前夹器和闸皮\n后刹车\nadjust front brake and pads",
            "control_item": "圈与刹皮位置\nwheel and pads position",
            "control_method": "目视\nvisual",
            "requirement": "1）刹皮顺时针转动\n2）刹皮不能接触轮胎和超出车圈\n3）目视对称\n4）转动轮胎，刹皮无摩擦\n1. pads clockwise rotation\n2. pads cannot touch tyre\n3. visual symmetry\n4. rotating tyre, pads no friction",
            "criticity": "Major",
            "control_type": null,
            "supplier_control_freq_note": "1次/2小时\neach 2 hours",
            "supplier_controller": "巡检员\nprocess inspector",
            "decathlon_control_freq_note": "1次/月\nmonthly",
            "active": true
          },
          {
            "step_number": "W19 调整前夹器和闸皮\n后刹车\nadjust front brake and pads",
            "control_item": "刹车调节\nadjust brake",
            "control_method": "目视/手动\nvisual/manual operation",
            "requirement": "1）调节手法，用力将刹把握紧按压\n2）刹把在其行程的一半时刹皮开始刹车\n3）来回按压刹把，左右刹车臂浮动一致\n1. adjust method, press the brake\n2. brake on the half strok, pads begin braking\n3. observe caliper, two side in same condition",
            "criticity": "Major",
            "control_type": null,
            "supplier_control_freq_note": "1次/2小时\neach 2 hours",
            "supplier_controller": "巡检员\nprocess inspector",
            "decathlon_control_freq_note": "1次/月\nmonthly",
            "active": true
          },
          {
            "step_number": "W19 调整前夹器和闸皮\n后刹车\nadjust front brake and pads",
            "control_item": "线管插入\ninsert cable",
            "control_method": "目视\nvisual",
            "requirement": "1) 线管插入端正确的插入\n2) 每个线管末端都有一个盖帽\n1. cable can correct insert\n2. each cable have cap",
            "criticity": "Major",
            "control_type": null,
            "supplier_control_freq_note": "1次/2小时\neach 2 hours",
            "supplier_controller": "巡检员\nprocess inspector",
            "decathlon_control_freq_note": "1次/月\nmonthly",
            "active": true
          },
          {
            "step_number": "W19 调整前夹器和闸皮\n后刹车\nadjust front brake and pads",
            "control_item": "线的固定\ncable fixing",
            "control_method": "手动\nmanual operation",
            "requirement": "当用最大的力按压刹把直到接触握把时线不能滑动\ncable cannot slip when press the brake till touch the grip",
            "criticity": "Major",
            "control_type": null,
            "supplier_control_freq_note": "1次/2小时\neach 2 hours",
            "supplier_controller": "巡检员\nprocess inspector",
            "decathlon_control_freq_note": "1次/月\nmonthly",
            "active": true
          },
          {
            "step_number": "W20 变速保护杆\nderailleur protector",
            "control_item": "保护杆固定\nfixing",
            "control_method": "扭力扳手\ntorque wrench",
            "requirement": "（装配扭力检验标准）QA-002\n(torque inspection standard) QA-002",
            "criticity": "Major",
            "control_type": null,
            "supplier_control_freq_note": "1次/2小时\neach 2 hours",
            "supplier_controller": "巡检员\nprocess inspector",
            "decathlon_control_freq_note": "1次/月\nmonthly",
            "active": true
          },
          {
            "step_number": "W20 变速保护杆\nderailleur protector",
            "control_item": "外观\nappearance",
            "control_method": "目视\nvisual",
            "requirement": "无碰伤掉漆，脏污\nno scratch",
            "criticity": "Major",
            "control_type": null,
            "supplier_control_freq_note": "1次/2小时\neach 2 hours",
            "supplier_controller": "巡检员\nprocess inspector",
            "decathlon_control_freq_note": "1次/月\nmonthly",
            "active": true
          },
          {
            "step_number": "W21 剪线预留\ninner wire reserved",
            "control_item": "长度\nlength",
            "control_method": "卷尺/钢尺\ntape/ruler",
            "requirement": "刹车 /变速线上必须要有尾夹（剪线长度依检验报表）\nbrake cable/shifting cable must have inner cap(length follow spec.)",
            "criticity": "Major",
            "control_type": null,
            "supplier_control_freq_note": "1次/2小时\neach 2 hours",
            "supplier_controller": "巡检员\nprocess inspector",
            "decathlon_control_freq_note": "1次/月\nmonthly",
            "active": true
          },
          {
            "step_number": "W21 剪线预留\ninner wire reserved",
            "control_item": "尾夹\ninner wire cap",
            "control_method": "推拉力计\nforce gauge",
            "requirement": "铝尾套固定牢固50N拉力下不能松脱\npull out force >50N",
            "criticity": "Major",
            "control_type": null,
            "supplier_control_freq_note": "1次/2小时\neach 2 hours",
            "supplier_controller": "巡检员\nprocess inspector",
            "decathlon_control_freq_note": "1次/月\nmonthly",
            "active": true
          },
          {
            "step_number": "W21 剪线预留\ninner wire reserved",
            "control_item": "刹车内线\nbrake wire",
            "control_method": "目视\nvisual",
            "requirement": "无断丝，完全包在尾夹内\nno borken",
            "criticity": "Major",
            "control_type": null,
            "supplier_control_freq_note": "1次/2小时\neach 2 hours",
            "supplier_controller": "巡检员\nprocess inspector",
            "decathlon_control_freq_note": "1次/月\nmonthly",
            "active": true
          },
          {
            "step_number": "W22 贴标\npaste marking",
            "control_item": "追溯标\ntraceability",
            "control_method": "目视\nvisual",
            "requirement": "1）内容清晰、齐全\n2）内容和订单车种要求一致\n3）一台车2张追溯标，一张RFID标\n4‘）追溯标信息与RFID标信息一致\n5）面覆盖透明膜\n1. information clear, complete\n2. content same as order\n3. each cycles have 2pic traceability,1 pcs RFID mark\n4. traceability make consistent with RFID\n5. Cover the transparent membrane",
            "criticity": "Major",
            "control_type": null,
            "supplier_control_freq_note": "1次/2小时\neach 2 hours",
            "supplier_controller": "巡检员\nprocess inspector",
            "decathlon_control_freq_note": "1次/月\nmonthly",
            "active": true
          },
          {
            "step_number": "W22 贴标\npaste marking",
            "control_item": "尺寸标\nsize mark",
            "control_method": "目视\nvisual",
            "requirement": "依BOM表\nfollow BOM",
            "criticity": "Major",
            "control_type": null,
            "supplier_control_freq_note": "1次/2小时\neach 2 hours",
            "supplier_controller": "巡检员\nprocess inspector",
            "decathlon_control_freq_note": "1次/月\nmonthly",
            "active": true
          },
          {
            "step_number": "W22 贴标\npaste marking",
            "control_item": "3C标\n3C mark",
            "control_method": "目视\nvisual",
            "requirement": "无漏帖\nno shortage",
            "criticity": "Major",
            "control_type": null,
            "supplier_control_freq_note": "1次/2小时\neach 2 hours",
            "supplier_controller": "巡检员\nprocess inspector",
            "decathlon_control_freq_note": "1次/月\nmonthly",
            "active": true
          },
          {
            "step_number": "W23 坐垫组装\nsaddle assembly",
            "control_item": "扭力\ntorque",
            "control_method": "扭力扳手\ntorque wrench",
            "requirement": "M8:18-22N.m（一体式无扭力要求）\nM8:18-22N.m(integrated no torque request)",
            "criticity": "Critical",
            "control_type": null,
            "supplier_control_freq_note": "1次/2小时\neach 2 hours",
            "supplier_controller": "巡检员\nprocess inspector",
            "decathlon_control_freq_note": "1次/月\nmonthly",
            "active": true
          },
          {
            "step_number": "W23 坐垫组装\nsaddle assembly",
            "control_item": "座管夹位置\nseat clamp position",
            "control_method": "目视/钢尺\nvisual/ruler",
            "requirement": "与座弓中心+-2MM\nseat clamp and seat bow distance is +-2mm",
            "criticity": "Major",
            "control_type": null,
            "supplier_control_freq_note": "1次/2小时\neach 2 hours",
            "supplier_controller": "巡检员\nprocess inspector",
            "decathlon_control_freq_note": "1次/月\nmonthly",
            "active": true
          },
          {
            "step_number": "W23 坐垫组装\nsaddle assembly",
            "control_item": "坐垫角度\nsaddle angle",
            "control_method": "角度规\nangle gauge",
            "requirement": "坐垫水平与地面夹角：0 +2/-3° \nsaddle horizontal plane and ground angle:0+2/-3°",
            "criticity": "Major",
            "control_type": null,
            "supplier_control_freq_note": "1次/2小时\neach 2 hours",
            "supplier_controller": "巡检员\nprocess inspector",
            "decathlon_control_freq_note": "1次/月\nmonthly",
            "active": true
          },
          {
            "step_number": "W23 坐垫组装\nsaddle assembly",
            "control_item": "零件包装\ncomponent package",
            "control_method": "目视\nvisual",
            "requirement": "脚踏，快拆，保护杆无漏包\npedal. QR, protector no shortage",
            "criticity": "Minor",
            "control_type": null,
            "supplier_control_freq_note": "1次/2小时\neach 2 hours",
            "supplier_controller": "巡检员\nprocess inspector",
            "decathlon_control_freq_note": "1次/月\nmonthly",
            "active": true
          },
          {
            "step_number": "W23 坐垫组装\nsaddle assembly",
            "control_item": "说明书及合格证\nspecification and CERTIFICATION",
            "control_method": "目视\nvisual",
            "requirement": "说明书信息与车种一致\n有合格证\nspecification consistent with model\nhave CERTIFICATION",
            "criticity": "Major",
            "control_type": null,
            "supplier_control_freq_note": "1次/2小时\neach 2 hours",
            "supplier_controller": "巡检员\nprocess inspector",
            "decathlon_control_freq_note": "1次/月\nmonthly",
            "active": true
          },
          {
            "step_number": "W23 坐垫组装\nsaddle assembly",
            "control_item": "坐垫反光片\nsaddle Reflector",
            "control_method": "目视\nvisual",
            "requirement": "无漏装  锁紧后无松动\nno shortage, after tighten no looseness",
            "criticity": "Major",
            "control_type": null,
            "supplier_control_freq_note": "1次/2小时\neach 2 hours",
            "supplier_controller": "巡检员\nprocess inspector",
            "decathlon_control_freq_note": "1次/月\nmonthly",
            "active": true
          },
          {
            "step_number": "W24 停车架组装\nbicycle stand assemble",
            "control_item": "扭力\ntorque",
            "control_method": "扭力枪\ntorque gun",
            "requirement": "（装配扭力检验标准）QA-002\n(torque inspection standard) QA-002",
            "criticity": "Critical",
            "control_type": null,
            "supplier_control_freq_note": "1次/2小时\neach 2 hours",
            "supplier_controller": "巡检员\nprocess inspector",
            "decathlon_control_freq_note": "1次/月\nmonthly",
            "active": true
          },
          {
            "step_number": "W24 停车架组装\nbicycle stand assemble",
            "control_item": "实际组装\nactual assemble",
            "control_method": "目视\nvisual",
            "requirement": "组装到位，无松动\nno looseness",
            "criticity": "Major",
            "control_type": null,
            "supplier_control_freq_note": "1次/2小时\neach 2 hours",
            "supplier_controller": "巡检员\nprocess inspector",
            "decathlon_control_freq_note": "1次/月\nmonthly",
            "active": true
          },
          {
            "step_number": "W25 脚踏组装\npedal assemble",
            "control_item": "扭力\ntorque",
            "control_method": "扭力扳手\ntorque wrench",
            "requirement": "18-22N\n18-22N",
            "criticity": "Critical",
            "control_type": null,
            "supplier_control_freq_note": "1次/2小时\neach 2 hours",
            "supplier_controller": "巡检员\nprocess inspector",
            "decathlon_control_freq_note": "1次/月\nmonthly",
            "active": true
          },
          {
            "step_number": "W25 脚踏组装\npedal assemble",
            "control_item": "脚踏方向\npedal direction",
            "control_method": "目视\nvisual",
            "requirement": "确保脚踏LR方向，无漏装\nensure pedal LR direction, no short assemble",
            "criticity": "Major",
            "control_type": null,
            "supplier_control_freq_note": "1次/2小时\neach 2 hours",
            "supplier_controller": "巡检员\nprocess inspector",
            "decathlon_control_freq_note": "1次/月\nmonthly",
            "active": true
          },
          {
            "step_number": "W26 成品车包装\nF/G package",
            "control_item": "保护\nprotection",
            "control_method": "目视\nvisual",
            "requirement": "依包装明细，无漏装\nfollow package detail, no shortage",
            "criticity": "Minor",
            "control_type": null,
            "supplier_control_freq_note": "1次/2小时\neach 2 hours",
            "supplier_controller": "巡检员\nprocess inspector",
            "decathlon_control_freq_note": "1次/月\nmonthly",
            "active": true
          },
          {
            "step_number": "W26 成品车包装\nF/G package",
            "control_item": "配件\ncomponent",
            "control_method": "目视\nvisual",
            "requirement": "辅助轮及旋钮无漏装，可以正确组装\ntraining wheel and screw no mis-assemble",
            "criticity": "Major",
            "control_type": null,
            "supplier_control_freq_note": "1次/2小时\neach 2 hours",
            "supplier_controller": "巡检员\nprocess inspector",
            "decathlon_control_freq_note": "1次/月\nmonthly",
            "active": true
          },
          {
            "step_number": "W27 下车\ntransfer",
            "control_item": "座管夹锁紧\nseat clamp tightening",
            "control_method": "扭力扳手\ntorque wrench",
            "requirement": "（装配扭力检验标准）QA-002\n(torque inspection standard) QA-002",
            "criticity": "Critical",
            "control_type": null,
            "supplier_control_freq_note": "1次/2小时\neach 2 hours",
            "supplier_controller": "巡检员\nprocess inspector",
            "decathlon_control_freq_note": "1次/月\nmonthly",
            "active": true
          },
          {
            "step_number": "W27 下车\ntransfer",
            "control_item": "快拆座管夹锁紧\nQR seat clamp tightening",
            "control_method": "推拉力计\nforce gauge",
            "requirement": "闭合小于于200N,打开大于50N\nclose force less than 200N, open force large than 50N",
            "criticity": "Critical",
            "control_type": null,
            "supplier_control_freq_note": "1次/2小时\neach 2 hours",
            "supplier_controller": "巡检员\nprocess inspector",
            "decathlon_control_freq_note": "1次/月\nmonthly",
            "active": true
          },
          {
            "step_number": "W27 下车\ntransfer",
            "control_item": "信息\ninformation",
            "control_method": "目视\nvisual",
            "requirement": "核对唛头与追溯标信息保持一致\nshipping mark content consistent with traceability",
            "criticity": "Minor",
            "control_type": null,
            "supplier_control_freq_note": "1次/2小时\neach 2 hours",
            "supplier_controller": "巡检员\nprocess inspector",
            "decathlon_control_freq_note": "1次/月\nmonthly",
            "active": true
          },
          {
            "step_number": "W27 下车\ntransfer",
            "control_item": "座管抹油\nseatpost add grease",
            "control_method": "目视\nvisual",
            "requirement": "中管内有加黄油\nseatpost have grease",
            "criticity": "Major",
            "control_type": null,
            "supplier_control_freq_note": "1次/2小时\neach 2 hours",
            "supplier_controller": "巡检员\nprocess inspector",
            "decathlon_control_freq_note": "1次/月\nmonthly",
            "active": true
          },
          {
            "step_number": "W27 下车\ntransfer",
            "control_item": "插入深度\ninsert depth",
            "control_method": "目视\nvisual",
            "requirement": "依技术文件\nfollow spec.",
            "criticity": "Major",
            "control_type": null,
            "supplier_control_freq_note": "1次/2小时\neach 2 hours",
            "supplier_controller": "巡检员\nprocess inspector",
            "decathlon_control_freq_note": "1次/月\nmonthly",
            "active": true
          },
          {
            "step_number": "W27 下车\ntransfer",
            "control_item": "座垫安装\nsaddle assemble",
            "control_method": "手动\nmanual operation",
            "requirement": "座管可以完全插入车架中管（无漏装）\nseatpost can assemble on frame(no short assemble)",
            "criticity": "Major",
            "control_type": null,
            "supplier_control_freq_note": "1次/2小时\neach 2 hours",
            "supplier_controller": "巡检员\nprocess inspector",
            "decathlon_control_freq_note": "1次/月\nmonthly",
            "active": true
          }
        ]
      }
    ]
  }
}
