{
  "filename": "CP2.3_Arcana_ 61995_RC900_WZW.xlsx",
  "count": 5,
  "product_family": {
    "name": "RC900",
    "processes": [
      {
        "name": "Metal raw material reception and storage",
        "category": "Incoming control",
        "steps": [
          {
            "step_number": "进料控制",
            "control_item": "RC900/矩形钢管/外观",
            "control_method": "矩形钢管/检验规范\nLX/QC-01-29\nA/2版",
            "requirement": "表面光亮，无生锈，划伤等缺陷",
            "criticity": "Minor",
            "control_type": "目测",
            "supplier_control_freq_note": "S-4/AQL=4.0",
            "supplier_controller": null,
            "decathlon_control_freq_note": null,
            "active": true
          },
          {
            "step_number": "进料控制",
            "control_item": "RC900/矩形钢管/宽度",
            "control_method": "矩形钢管/检验规范\nLX/QC-01-29\nA/2版",
            "requirement": "60  （+0.2/0mm）",
            "criticity": "Major",
            "control_type": "带表卡尺（精度0.02）",
            "supplier_control_freq_note": "S-2/AQL=0.65",
            "supplier_controller": null,
            "decathlon_control_freq_note": null,
            "active": true
          },
          {
            "step_number": "进料控制",
            "control_item": "RC900/矩形钢管/宽度",
            "control_method": "矩形钢管/检验规范\nLX/QC-01-29\nA/2版",
            "requirement": "40   （+0.2/0mm）",
            "criticity": "Major",
            "control_type": "带表卡尺（精度0.02）",
            "supplier_control_freq_note": "S-2/AQL=0.65",
            "supplier_controller": null,
            "decathlon_control_freq_note": null,
            "active": true
          },
          {
            "step_number": "进料控制",
            "control_item": "RC900/矩形钢管/厚度",
            "control_method": "矩形钢管/检验规范\nLX/QC-01-29\nA/2版",
            "requirement": "2.0  （0/-0.1mm）",
            "criticity": "Critical",
            "control_type": "壁厚千分尺（精度0.01）",
            "supplier_control_freq_note": "S-2/AQL=0.65",
            "supplier_controller": null,
            "decathlon_control_freq_note": null,
            "active": true
          },
          {
            "step_number": "进料控制",
            "control_item": "RC900/方管钢管/外观",
            "control_method": "方管钢管/检验规范\nLX/QC-01-28\nA/2版",
            "requirement": "表面光亮，无生锈，划伤等缺陷",
            "criticity": "Minor",
            "control_type": "目测",
            "supplier_control_freq_note": "S-4/AQL=4.0",
            "supplier_controller": null,
            "decathlon_control_freq_note": null,
            "active": true
          },
          {
            "step_number": "进料控制",
            "control_item": "RC900/方管钢管/宽度",
            "control_method": "方管钢管/检验规范\nLX/QC-01-28\nA/2版",
            "requirement": "40   （+0.2/0mm）",
            "criticity": "Major",
            "control_type": "带表卡尺（精度0.02）",
            "supplier_control_freq_note": "S-2/AQL=0.65",
            "supplier_controller": null,
            "decathlon_control_freq_note": null,
            "active": true
          },
          {
            "step_number": "进料控制",
            "control_item": "RC900/方管钢管/厚度",
            "control_method": "方管钢管/检验规范\nLX/QC-01-28\nA/2版",
            "requirement": "2.0  （0/-0.1mm）",
            "criticity": "Critical",
            "control_type": "壁厚千分尺（精度0.01）",
            "supplier_control_freq_note": "S-2/AQL=0.65",
            "supplier_controller": null,
            "decathlon_control_freq_note": null,
            "active": true
          },
          {
            "step_number": "进料控制",
            "control_item": "RC900/方管钢管/外观",
            "control_method": "方管钢管/检验规范\nLX/QC-01-28\nA/2版",
            "requirement": "表面光亮，无生锈，划伤等缺陷",
            "criticity": "Minor",
            "control_type": "目测",
            "supplier_control_freq_note": "S-4/AQL=4.0",
            "supplier_controller": null,
            "decathlon_control_freq_note": null,
            "active": true
          },
          {
            "step_number": "进料控制",
            "control_item": "RC900/方管钢管/宽度",
            "control_method": "方管钢管/检验规范\nLX/QC-01-28\nA/2版",
            "requirement": "45   （+0.2/0mm)",
            "criticity": "Major",
            "control_type": "带表卡尺（精度0.02）",
            "supplier_control_freq_note": "S-2/AQL=0.65",
            "supplier_controller": null,
            "decathlon_control_freq_note": null,
            "active": true
          },
          {
            "step_number": "进料控制",
            "control_item": "RC900/方管钢管/厚度",
            "control_method": "方管钢管/检验规范\nLX/QC-01-28\nA/2版",
            "requirement": "2.5  （0/-0.1mm)",
            "criticity": "Critical",
            "control_type": "壁厚千分尺（精度0.01）",
            "supplier_control_freq_note": "每批次抽：1-2PCS",
            "supplier_controller": null,
            "decathlon_control_freq_note": null,
            "active": true
          },
          {
            "step_number": "进料控制",
            "control_item": "RC900/圆管钢管/外观",
            "control_method": "圆管钢管/检验规范\nLX/QC-01-27\nA/0版",
            "requirement": "表面光亮，无生锈，划伤等缺陷",
            "criticity": "Minor",
            "control_type": "高度尺（精度0.02）",
            "supplier_control_freq_note": "S-2/AQL=0.65",
            "supplier_controller": null,
            "decathlon_control_freq_note": null,
            "active": true
          },
          {
            "step_number": "进料控制",
            "control_item": "RC900/圆管钢管/外径",
            "control_method": "圆管钢管/检验规范\nLX/QC-01-27\nA/3版",
            "requirement": "φ38.1 （+0.2/0mm）",
            "criticity": "Major",
            "control_type": "带表卡尺（精度0.02）",
            "supplier_control_freq_note": "S-2/AQL=0.65",
            "supplier_controller": null,
            "decathlon_control_freq_note": null,
            "active": true
          },
          {
            "step_number": "进料控制",
            "control_item": "RC900/圆管钢管/厚度",
            "control_method": "圆管钢管/检验规范\nLX/QC-01-27\nA/3版",
            "requirement": "3.0   （0/-0.1mm）",
            "criticity": "Critical",
            "control_type": "壁厚千分尺（精度0.01）",
            "supplier_control_freq_note": "S-2/AQL=0.65",
            "supplier_controller": null,
            "decathlon_control_freq_note": null,
            "active": true
          },
          {
            "step_number": "进料控制",
            "control_item": "RC900/圆管钢管/外观",
            "control_method": "圆管钢管/检验规范\nLX/QC-01-27\nA/3版",
            "requirement": "φ28  （+0.2/0mm)",
            "criticity": "Minor",
            "control_type": "目测",
            "supplier_control_freq_note": "S-4/AQL=4.0",
            "supplier_controller": null,
            "decathlon_control_freq_note": null,
            "active": true
          },
          {
            "step_number": "进料控制",
            "control_item": "RC900/圆管钢管/厚度",
            "control_method": "圆管钢管/检验规范\nLX/QC-01-27\nA/3版",
            "requirement": "2.5   （0/-0.1mm)",
            "criticity": "Critical",
            "control_type": "壁厚千分尺（精度0.01）",
            "supplier_control_freq_note": "S-2/AQL=0.65",
            "supplier_controller": null,
            "decathlon_control_freq_note": null,
            "active": true
          },
          {
            "step_number": "进料控制",
            "control_item": "RC900/圆管钢管/硬度",
            "control_method": "圆管钢管/检验规范\nLX/QC-01-27\nA/3版",
            "requirement": "HRB65-100°",
            "criticity": "Critical",
            "control_type": "洛氏硬度计",
            "supplier_control_freq_note": "每批次测试：1-2PCS",
            "supplier_controller": null,
            "decathlon_control_freq_note": null,
            "active": true
          },
          {
            "step_number": "进料控制",
            "control_item": "RC900/杠铃橡胶垫/外观",
            "control_method": "杠铃橡胶垫/检验规范\nLX/QC-01-149\nA/0版",
            "requirement": "表面无毛边、划伤、变形颜色均匀",
            "criticity": "Minor",
            "control_type": "目测",
            "supplier_control_freq_note": "S-4/AQL=4.0",
            "supplier_controller": null,
            "decathlon_control_freq_note": null,
            "active": true
          },
          {
            "step_number": "进料控制",
            "control_item": "RC900/杠铃橡胶垫/硬度",
            "control_method": "杠铃橡胶垫/检验规范\nLX/QC-01-149\nA/0版",
            "requirement": "HRB85-90°",
            "criticity": "Critical",
            "control_type": "邵氏硬度计",
            "supplier_control_freq_note": "S-2/AQL=0.65",
            "supplier_controller": null,
            "decathlon_control_freq_note": null,
            "active": true
          },
          {
            "step_number": "进料控制",
            "control_item": "RC900/橡胶缓冲垫/外观",
            "control_method": "橡胶缓冲垫/检验规范\nLX/QC-01-154\nA/0版",
            "requirement": "表面无毛边、划伤、变形颜色均匀",
            "criticity": "Minor",
            "control_type": "目测",
            "supplier_control_freq_note": "S-4/AQL=4.0",
            "supplier_controller": null,
            "decathlon_control_freq_note": null,
            "active": true
          },
          {
            "step_number": "进料控制",
            "control_item": "RC900/橡胶缓冲垫/硬度",
            "control_method": "橡胶缓冲垫/检验规范\nLX/QC-01-154\nA/0版",
            "requirement": "LX-A:70-75°",
            "criticity": "Critical",
            "control_type": "邵氏硬度计",
            "supplier_control_freq_note": "S-2/AQL=0.65",
            "supplier_controller": null,
            "decathlon_control_freq_note": null,
            "active": true
          },
          {
            "step_number": "进料控制",
            "control_item": "RC900/杠铃支持横杆橡胶垫/外观",
            "control_method": "杠铃支持横杆橡胶垫/检验规范\nLX/QC-01-150\nA/0版",
            "requirement": "表面无毛边、划伤、变形颜色均匀",
            "criticity": "Minor",
            "control_type": "目测",
            "supplier_control_freq_note": "S-4/AQL=4.0",
            "supplier_controller": null,
            "decathlon_control_freq_note": null,
            "active": true
          },
          {
            "step_number": "进料控制",
            "control_item": "RC900/杠铃支持横杆橡胶垫/硬度",
            "control_method": "杠铃支持横杆橡胶垫/检验规范\nLX/QC-01-150\nA/0版",
            "requirement": "85-90°",
            "criticity": "Critical",
            "control_type": "邵氏硬度计",
            "supplier_control_freq_note": "S-2/AQL=0.65",
            "supplier_controller": null,
            "decathlon_control_freq_note": null,
            "active": true
          }
        ]
      },
      {
        "name": "Process cutting punching bending",
        "category": "Incoming control",
        "steps": [
          {
            "step_number": "切冲弯控制",
            "control_item": "RC900下料外观",
            "control_method": "依切冲弯检验SOP LX-QC-02-03",
            "requirement": "产品无生锈，表面无划伤，碰伤，压痕，切管无影响使用的毛刺",
            "criticity": "Minor",
            "control_type": "目测",
            "supplier_control_freq_note": "首件、巡检检查记录 1次/2小时",
            "supplier_controller": null,
            "decathlon_control_freq_note": null,
            "active": true
          },
          {
            "step_number": "切冲弯控制",
            "control_item": "RC900立柱（RC900-G01)",
            "control_method": "依切冲弯检验SOP                 LX-QC-02-02 A/1",
            "requirement": "冲孔： 30MM",
            "criticity": "Critical",
            "control_type": "卡尺",
            "supplier_control_freq_note": "首件、巡检检查记录 1次/2小时",
            "supplier_controller": null,
            "decathlon_control_freq_note": null,
            "active": true
          },
          {
            "step_number": "切冲弯控制",
            "control_item": "RC900滑座立管（RC900-G03)",
            "control_method": "依切冲弯检验SOP                 LX-QC-02-02 A/1",
            "requirement": "冲孔： 30MM",
            "criticity": "Critical",
            "control_type": "卡尺",
            "supplier_control_freq_note": "首件、巡检检查记录 1次/2小时",
            "supplier_controller": null,
            "decathlon_control_freq_note": null,
            "active": true
          },
          {
            "step_number": "切冲弯控制",
            "control_item": "RC900底座支持管（RC900-G07)",
            "control_method": "依切冲弯检验SOP                 LX-QC-02-02 A/1",
            "requirement": "冲孔：  110MM",
            "criticity": "Critical",
            "control_type": "卡尺",
            "supplier_control_freq_note": "首件、巡检检查记录 1次/2小时",
            "supplier_controller": null,
            "decathlon_control_freq_note": null,
            "active": true
          },
          {
            "step_number": "切冲弯控制",
            "control_item": "RC900滑轮固定管（RC900-G08)",
            "control_method": "依切冲弯检验SOP           LX-QC-02-02 A/1",
            "requirement": "冲孔： 122.5MM         69MM",
            "criticity": "Critical",
            "control_type": "卡尺",
            "supplier_control_freq_note": "首件、巡检检查记录 1次/2小时",
            "supplier_controller": null,
            "decathlon_control_freq_note": null,
            "active": true
          },
          {
            "step_number": "切冲弯控制",
            "control_item": "RC900滑管（RC900-G10)",
            "control_method": "依切冲弯检验SOP                        LX-QC-02-02 A/1",
            "requirement": "冲孔： 18.5(-0.1/-0.2)MM",
            "criticity": "Critical",
            "control_type": "卡尺",
            "supplier_control_freq_note": "首件、巡检检查记录 1次/2小时",
            "supplier_controller": null,
            "decathlon_control_freq_note": null,
            "active": true
          },
          {
            "step_number": "切冲弯控制",
            "control_item": "RC900滑轮支撑管（RC900-G11)",
            "control_method": "依切冲弯检验SOP                           LX-QC-02-02 A/1",
            "requirement": "冲孔：67MM  210MM",
            "criticity": "Critical",
            "control_type": "卡尺",
            "supplier_control_freq_note": "首件、巡检检查记录 1次/2小时",
            "supplier_controller": null,
            "decathlon_control_freq_note": null,
            "active": true
          },
          {
            "step_number": "切冲弯控制",
            "control_item": "RC900连接横管（RC900-G12)",
            "control_method": "依切冲弯检验SOP                       LX-QC-02-02 A/1",
            "requirement": "冲孔：  120±0.2MM",
            "criticity": "Critical",
            "control_type": "卡尺",
            "supplier_control_freq_note": "首件、巡检检查记录 1次/2小时",
            "supplier_controller": null,
            "decathlon_control_freq_note": null,
            "active": true
          },
          {
            "step_number": "切冲弯控制",
            "control_item": "RC900引体管（RC900-G06)",
            "control_method": "依切冲弯检验SOP                       LX-QC-02-03 A/1",
            "requirement": "弯管：  1:1检具",
            "criticity": "Critical",
            "control_type": "检具",
            "supplier_control_freq_note": "首件、巡检检查记录 1次/2小时",
            "supplier_controller": null,
            "decathlon_control_freq_note": null,
            "active": true
          },
          {
            "step_number": "切冲弯控制",
            "control_item": "RC900底部支持管（RC900-G040",
            "control_method": "依切冲弯检验SOP                        LX-QC-02-02 A/1",
            "requirement": "冲孔：  30±0.5MM    150MM",
            "criticity": "Critical",
            "control_type": "卡尺",
            "supplier_control_freq_note": "首件、巡检检查记录 1次/2小时",
            "supplier_controller": null,
            "decathlon_control_freq_note": null,
            "active": true
          },
          {
            "step_number": "切冲弯控制",
            "control_item": "RC900杠铃支持横管（RC900-G16)",
            "control_method": "依切冲弯检验SOP                        LX-QC-02-02 A/1",
            "requirement": "冲孔：29.5MM",
            "criticity": "Critical",
            "control_type": "卡尺",
            "supplier_control_freq_note": "首件、巡检检查记录 1次/2小时",
            "supplier_controller": null,
            "decathlon_control_freq_note": null,
            "active": true
          },
          {
            "step_number": "切冲弯控制",
            "control_item": "RC900顶管（RC900-G05)",
            "control_method": "依切冲弯检验SOP                       LX-QC-02-02 A/1",
            "requirement": "冲孔：90MM    730MM",
            "criticity": "Critical",
            "control_type": "卡尺，卷尺",
            "supplier_control_freq_note": "首件、巡检检查记录 1次/2小时",
            "supplier_controller": null,
            "decathlon_control_freq_note": null,
            "active": true
          }
        ]
      },
      {
        "name": "Process welding",
        "category": "Online control",
        "steps": [
          {
            "step_number": "焊接welding",
            "control_item": "RC900各部件焊接  外观",
            "control_method": "焊接检验SOP       LX/QC--03-A/1",
            "requirement": "焊道饱满；无假焊、漏焊、气孔、焊破、咬边等现象",
            "criticity": "Critical",
            "control_type": "目测",
            "supplier_control_freq_note": "首件、巡检检查记录 1次/2小时",
            "supplier_controller": null,
            "decathlon_control_freq_note": null,
            "active": true
          },
          {
            "step_number": "焊接welding",
            "control_item": "RC900立柱焊接  焊接尺寸",
            "control_method": "RC900-GH01",
            "requirement": "3°±0.5°   10 ±1    5±1",
            "criticity": "Critical",
            "control_type": "卡尺/角度仪",
            "supplier_control_freq_note": "首件、巡检检查记录 1次/2小时",
            "supplier_controller": null,
            "decathlon_control_freq_note": null,
            "active": true
          },
          {
            "step_number": "焊接welding",
            "control_item": "RC900下滑轮座焊接  焊接尺寸",
            "control_method": "RC900-GH03",
            "requirement": "10 ±1   173±1   120±1",
            "criticity": "Critical",
            "control_type": "卡尺",
            "supplier_control_freq_note": "首件、巡检检查记录 1次/2小时",
            "supplier_controller": null,
            "decathlon_control_freq_note": null,
            "active": true
          },
          {
            "step_number": "焊接welding",
            "control_item": "RC900滑座焊接  焊接尺寸",
            "control_method": "RC900-GH04",
            "requirement": "85.5±1   86±1",
            "criticity": "Critical",
            "control_type": "卡尺",
            "supplier_control_freq_note": "首件、巡检检查记录 1次/2小时",
            "supplier_controller": null,
            "decathlon_control_freq_note": null,
            "active": true
          },
          {
            "step_number": "焊接welding",
            "control_item": "RC900上滑轮座焊接  焊接尺寸",
            "control_method": "RC900-GH05",
            "requirement": "203±0.2   173±1    23±1   20°±1°",
            "criticity": "Critical",
            "control_type": "卡尺/角度仪",
            "supplier_control_freq_note": "首件、巡检检查记录 1次/2小时",
            "supplier_controller": null,
            "decathlon_control_freq_note": null,
            "active": true
          },
          {
            "step_number": "焊接welding",
            "control_item": "RC900连接横管焊接  焊接尺寸",
            "control_method": "RC900-GH06",
            "requirement": "1084（﹣1 0）  60±1",
            "criticity": "Critical",
            "control_type": "卷尺/卡尺",
            "supplier_control_freq_note": "首件、巡检检查记录 1次/2小时",
            "supplier_controller": null,
            "decathlon_control_freq_note": null,
            "active": true
          },
          {
            "step_number": "焊接welding",
            "control_item": "RC900引体支架焊接  焊接尺寸",
            "control_method": "RC900-GH07",
            "requirement": "1084（﹣1 0）",
            "criticity": "Critical",
            "control_type": "卷尺",
            "supplier_control_freq_note": "首件、巡检检查记录 1次/2小时",
            "supplier_controller": null,
            "decathlon_control_freq_note": null,
            "active": true
          },
          {
            "step_number": "焊接welding",
            "control_item": "RC900杠铃支持横管焊接  焊接尺寸",
            "control_method": "RC900-GH08",
            "requirement": "970（﹢1  0） 45.5±1    53±1   12.5±1   14.5±1",
            "criticity": "Critical",
            "control_type": "卷尺/卡尺",
            "supplier_control_freq_note": "首件、巡检检查记录 1次/2小时",
            "supplier_controller": null,
            "decathlon_control_freq_note": null,
            "active": true
          },
          {
            "step_number": "焊接welding",
            "control_item": "RC900杠铃片挂座焊接  焊接尺寸",
            "control_method": "RC900-GH09",
            "requirement": "70±1   46±1  31±0.5",
            "criticity": "Major",
            "control_type": "卡尺",
            "supplier_control_freq_note": "首件、巡检检查记录 1次/2小时",
            "supplier_controller": null,
            "decathlon_control_freq_note": null,
            "active": true
          },
          {
            "step_number": "焊接welding",
            "control_item": "RC900杠铃支撑座焊接L  焊接尺寸",
            "control_method": "RC900-GH10",
            "requirement": "73±1   70（0 -1) 29.5(+1  +0.5）",
            "criticity": "Major",
            "control_type": "卡尺",
            "supplier_control_freq_note": "首件、巡检检查记录 1次/2小时",
            "supplier_controller": null,
            "decathlon_control_freq_note": null,
            "active": true
          },
          {
            "step_number": "焊接welding",
            "control_item": "RC900杠铃支撑座焊接R  焊接尺寸",
            "control_method": "RC900-GH11",
            "requirement": "73±1   70（0 -1) 29.5(+1  +0.5）",
            "criticity": "Major",
            "control_type": "卡尺",
            "supplier_control_freq_note": "首件、巡检检查记录 1次/2小时",
            "supplier_controller": null,
            "decathlon_control_freq_note": null,
            "active": true
          },
          {
            "step_number": "焊接welding",
            "control_item": "RC900滑座立管固定片焊接  焊接尺寸",
            "control_method": "RC900-GH12",
            "requirement": "44±1",
            "criticity": "Major",
            "control_type": "卡尺",
            "supplier_control_freq_note": "首件、巡检检查记录 1次/2小时",
            "supplier_controller": null,
            "decathlon_control_freq_note": null,
            "active": true
          },
          {
            "step_number": "焊接welding",
            "control_item": "RC900高拉转动套焊接  焊接尺寸",
            "control_method": "RC900-GH13",
            "requirement": "5±1",
            "criticity": "Major",
            "control_type": "卡尺",
            "supplier_control_freq_note": "首件、巡检检查记录 1次/2小时",
            "supplier_controller": null,
            "decathlon_control_freq_note": null,
            "active": true
          },
          {
            "step_number": "焊接welding",
            "control_item": "电流电压参数",
            "control_method": "依据焊接作业指导书",
            "requirement": "根据焊接作业指导书设置的参数标准，QC对现场记录进行检查确认",
            "criticity": "Critical",
            "control_type": "目测",
            "supplier_control_freq_note": "每班确认1次",
            "supplier_controller": null,
            "decathlon_control_freq_note": null,
            "active": true
          }
        ]
      },
      {
        "name": "Process painting",
        "category": "Online control",
        "steps": [
          {
            "step_number": "涂装控制",
            "control_item": "烤漆件前处理",
            "control_method": "涂装IPQC检验标准\nLX-QC-04-01",
            "requirement": "1.脱脂PH值（11-12）                           2.脱脂水洗PH值（7-10）                        3.表调PH值（8-11）                            4.磷化PH值（3-4）                               5.磷化水洗PH值（5-6）",
            "criticity": "Critical",
            "control_type": "试纸（1-14色卡）/目测",
            "supplier_control_freq_note": "2次/每天/不定时检测",
            "supplier_controller": null,
            "decathlon_control_freq_note": null,
            "active": true
          },
          {
            "step_number": "涂装控制",
            "control_item": "上粉",
            "control_method": "涂装IPQC检验标准\nLX-QC-04-01",
            "requirement": "1.流水线速度（6-7.8米/每分钟）                  2.固化温度（190-230摄氏度）                    3.防涂：对要求不需要粉末的地方进行清除.不能有烤漆",
            "criticity": null,
            "control_type": "仪器.防涂工具",
            "supplier_control_freq_note": "2次/每天/不定时检测",
            "supplier_controller": null,
            "decathlon_control_freq_note": null,
            "active": true
          },
          {
            "step_number": "涂装控制",
            "control_item": "烤漆件外观",
            "control_method": "涂装IPQC检验标准\nLX-QC-04-01",
            "requirement": "1.烤漆颜色，对照色板，2.不能有（橘皮，麻点，漏喷，）",
            "criticity": "Critical",
            "control_type": "制单/目测",
            "supplier_control_freq_note": "首件、,巡检。检查记录5个部件各1个/每批/2小时",
            "supplier_controller": null,
            "decathlon_control_freq_note": null,
            "active": true
          },
          {
            "step_number": "涂装控制",
            "control_item": "烤漆厚度",
            "control_method": "涂装IPQC检验标准\nLX-QC-04-01",
            "requirement": "一次、60~120UM\n二次、小于或等于180UM",
            "criticity": "Major",
            "control_type": "测厚仪器",
            "supplier_control_freq_note": "记录5个部件各1个/毎批/2小时/首件",
            "supplier_controller": null,
            "decathlon_control_freq_note": null,
            "active": true
          },
          {
            "step_number": "涂装控制",
            "control_item": "烤漆附着力",
            "control_method": "涂装IPQC检验标准\nLX-QC-04-01",
            "requirement": "1MM百格内烤漆用3M胶带粘附不整片脱落",
            "criticity": "Critical",
            "control_type": "画格仪",
            "supplier_control_freq_note": "记录5个部件各1个/毎批/首件",
            "supplier_controller": null,
            "decathlon_control_freq_note": null,
            "active": true
          },
          {
            "step_number": "涂装控制",
            "control_item": "烤漆冲击测试",
            "control_method": "涂装IPQC检验标准\nLX-QC-04-01",
            "requirement": "500mm高0.5KG冲击锤自由落体 烤漆件不能存在烤漆整面积的破裂",
            "criticity": "Critical",
            "control_type": "冲击测试仪",
            "supplier_control_freq_note": "记录5个部件各1个/毎批/首件",
            "supplier_controller": null,
            "decathlon_control_freq_note": null,
            "active": true
          },
          {
            "step_number": "涂装控制",
            "control_item": "网印外观",
            "control_method": "涂装IPQC检验标准\nLX-QC-04-01",
            "requirement": "表面印刷清晰.不能有重影断字",
            "criticity": "Critical",
            "control_type": "目测",
            "supplier_control_freq_note": "首件、巡检。检查5个记录1个/每批/2小时",
            "supplier_controller": null,
            "decathlon_control_freq_note": null,
            "active": true
          },
          {
            "step_number": "涂装控制",
            "control_item": "网印附着力",
            "control_method": "涂装IPQC检验标准\nLX-QC-04-01",
            "requirement": "3M胶带粘附网印不能脱落",
            "criticity": "Critical",
            "control_type": "M3胶带",
            "supplier_control_freq_note": "记录1个/抽5个/毎批次每个网印/2小时",
            "supplier_controller": null,
            "decathlon_control_freq_note": null,
            "active": true
          }
        ]
      },
      {
        "name": "Assembling process",
        "category": "Online control",
        "steps": [
          {
            "step_number": "组装控制",
            "control_item": "低拉把手",
            "control_method": "RC900装配SOP和装配主线作业规范",
            "requirement": "外观检查1、不能有漏焊、假焊、焊渣、焊瘤 \n2、不能有漏电镀、电镀不均、电镀色差",
            "criticity": "Minor",
            "control_type": "目测/操作测试",
            "supplier_control_freq_note": "首件、巡检检查记录 1次/2小时",
            "supplier_controller": null,
            "decathlon_control_freq_note": null,
            "active": true
          },
          {
            "step_number": "组装控制",
            "control_item": "零件包组立",
            "control_method": "RC900装配SOP和装配主线作业规范",
            "requirement": "将配件包好的零件包用200*500*5T（瓦顺200）的隔纸包装，并封上胶带",
            "criticity": "Minor",
            "control_type": "目测/操作测试",
            "supplier_control_freq_note": "首件、巡检检查记录 1次/2小时",
            "supplier_controller": null,
            "decathlon_control_freq_note": null,
            "active": true
          },
          {
            "step_number": "组装控制",
            "control_item": "滑座立管固定片组立",
            "control_method": "RC900装配SOP和装配主线作业规范",
            "requirement": "外观检查：不能有漏焊、假焊、焊渣、焊瘤，不能有漏涂、漏喷、麻点、划伤。注意每块片子之间必须用油纸隔开",
            "criticity": "Minor",
            "control_type": "目测/操作测试",
            "supplier_control_freq_note": "首件、巡检检查记录 1次/2小时",
            "supplier_controller": null,
            "decathlon_control_freq_note": null,
            "active": true
          },
          {
            "step_number": "组装控制",
            "control_item": "动滑轮组立",
            "control_method": "RC900装配SOP和装配主线作业规范",
            "requirement": "1.治具的使用2.阻力顺序3用手全检滑轮必须顺畅转动，但不能左右窜动",
            "criticity": "Major",
            "control_type": "目测/操作测试",
            "supplier_control_freq_note": "首件、巡检检查记录 1次/2小时",
            "supplier_controller": null,
            "decathlon_control_freq_note": null,
            "active": true
          },
          {
            "step_number": "组装控制",
            "control_item": "杠铃支持横管组立",
            "control_method": "RC900装配SOP和装配主线作业规范",
            "requirement": "1.检查外观2.检具全检杠铃支持横管管口，能顺畅卡入的为良品3.用杠铃支持横管检具全检杠铃支持横管，杠铃支持横管能顺畅卡入检具内的为良品4.橡胶垫组立，双面胶，螺丝固定",
            "criticity": "Major",
            "control_type": "目测/操作测试",
            "supplier_control_freq_note": "首件、巡检检查记录 1次/2小时",
            "supplier_controller": null,
            "decathlon_control_freq_note": null,
            "active": true
          },
          {
            "step_number": "组装控制",
            "control_item": "滑座组立",
            "control_method": "RC900装配SOP和装配主线作业规范",
            "requirement": "1.外观2.衬套组立卡点卡到冲孔内 3.缓冲垫组立凸点必须卡入滑座圆孔内4.护套组立，松紧度确认",
            "criticity": "Major",
            "control_type": "目测/操作测试",
            "supplier_control_freq_note": "首件、巡检检查记录 1次/2小时",
            "supplier_controller": null,
            "decathlon_control_freq_note": null,
            "active": true
          },
          {
            "step_number": "组装控制",
            "control_item": "上滑轮座组立",
            "control_method": "RC900装配SOP和装配主线作业规范",
            "requirement": "1.外观2.滑轮的组立顺序，顺畅度，不可左右窜动3.管塞不要遗漏",
            "criticity": "Major",
            "control_type": "目测/操作测试",
            "supplier_control_freq_note": "首件、巡检检查记录 1次/2小时",
            "supplier_controller": null,
            "decathlon_control_freq_note": null,
            "active": true
          },
          {
            "step_number": "组装控制",
            "control_item": "下滑轮座组立",
            "control_method": "RC900装配SOP和装配主线作业规范",
            "requirement": "1.外观2.滑轮的组立顺序，顺畅度，不可左右窜动3.管塞不要遗漏",
            "criticity": "Major",
            "control_type": "目测/操作测试",
            "supplier_control_freq_note": "首件、巡检检查记录 1次/2小时",
            "supplier_controller": null,
            "decathlon_control_freq_note": null,
            "active": true
          },
          {
            "step_number": "组装控制",
            "control_item": "杠铃支撑座左右组立",
            "control_method": "RC900装配SOP和装配主线作业规范",
            "requirement": "1.检查外观.2.橡胶垫组立，双面胶，螺丝固定",
            "criticity": "Minor",
            "control_type": "目测/操作测试",
            "supplier_control_freq_note": "首件、巡检检查记录 1次/2小时",
            "supplier_controller": null,
            "decathlon_control_freq_note": null,
            "active": true
          },
          {
            "step_number": "组装控制",
            "control_item": "杠铃片挂座组立",
            "control_method": "RC900装配SOP和装配主线作业规范",
            "requirement": "1.外观检查2.护套到位",
            "criticity": "Minor",
            "control_type": "目测/操作测试",
            "supplier_control_freq_note": "首件、巡检检查记录 1次/2小时",
            "supplier_controller": null,
            "decathlon_control_freq_note": null,
            "active": true
          },
          {
            "step_number": "组装控制",
            "control_item": "高拉转动套组立",
            "control_method": "RC900装配SOP和装配主线作业规范",
            "requirement": "1.外观检查2.高拉转动套组立步骤3.管塞不要遗漏",
            "criticity": "Major",
            "control_type": "目测/操作测试",
            "supplier_control_freq_note": "首件、巡检检查记录 1次/2小时",
            "supplier_controller": null,
            "decathlon_control_freq_note": null,
            "active": true
          },
          {
            "step_number": "组装控制",
            "control_item": "引体支架组立",
            "control_method": "RC900装配SOP和装配主线作业规范",
            "requirement": "外观检查",
            "criticity": "Minor",
            "control_type": "目测",
            "supplier_control_freq_note": "首件、巡检检查记录 1次/2小时",
            "supplier_controller": null,
            "decathlon_control_freq_note": null,
            "active": true
          },
          {
            "step_number": "组装控制",
            "control_item": "连接横管组立",
            "control_method": "RC900装配SOP和装配主线作业规范",
            "requirement": "外观检查",
            "criticity": "Minor",
            "control_type": "目测/操作测试",
            "supplier_control_freq_note": "首件、巡检检查记录 1次/2小时",
            "supplier_controller": null,
            "decathlon_control_freq_note": null,
            "active": true
          },
          {
            "step_number": "组装控制",
            "control_item": "顶管组立+滑座立管组立",
            "control_method": "RC900装配SOP和装配主线作业规范",
            "requirement": "1.顶管检具全检顶管，检具能顺畅插入且孔位对齐的为良品2.管塞3.滑座立管电镀效果",
            "criticity": "Minor",
            "control_type": "目测/操作测试",
            "supplier_control_freq_note": "首件、巡检检查记录 1次/2小时",
            "supplier_controller": null,
            "decathlon_control_freq_note": null,
            "active": true
          },
          {
            "step_number": "组装控制",
            "control_item": "底部支持管组立",
            "control_method": "RC900装配SOP和装配主线作业规范",
            "requirement": "1.外观检查，左右区分2.检具使用畅插入且孔位对齐的为良品，注意左右两侧都需检查 3.管塞",
            "criticity": "Major",
            "control_type": "目测/操作测试",
            "supplier_control_freq_note": "首件、巡检检查记录 1次/2小时",
            "supplier_controller": null,
            "decathlon_control_freq_note": null,
            "active": true
          },
          {
            "step_number": "组装控制",
            "control_item": "立柱组立一",
            "control_method": "RC900装配SOP和装配主线作业规范",
            "requirement": "外观检查",
            "criticity": "Minor",
            "control_type": "目测",
            "supplier_control_freq_note": "首件、巡检检查记录 1次/2小时",
            "supplier_controller": null,
            "decathlon_control_freq_note": null,
            "active": true
          },
          {
            "step_number": "组装控制",
            "control_item": "立柱组立二",
            "control_method": "RC900装配SOP和装配主线作业规范",
            "requirement": "外观检查",
            "criticity": "Minor",
            "control_type": "目测",
            "supplier_control_freq_note": "首件、巡检检查记录 1次/2小时",
            "supplier_controller": null,
            "decathlon_control_freq_note": null,
            "active": true
          },
          {
            "step_number": "组装控制",
            "control_item": "连接横管焊接片和引体支架连接片包装",
            "control_method": "RC900装配SOP和装配主线作业规范",
            "requirement": "1.外观检查 2.连接横管焊接片（4孔）引体支架连接片（3孔）",
            "criticity": "Minor",
            "control_type": "目测/操作测试",
            "supplier_control_freq_note": "首件、巡检检查记录 1次/2小时",
            "supplier_controller": null,
            "decathlon_control_freq_note": null,
            "active": true
          },
          {
            "step_number": "成品控制",
            "control_item": "外观经验",
            "control_method": "RC900成品检验sop",
            "requirement": "1.检验零部件烤漆不要有划伤，漏喷、橘皮、水印              2.检验网印不要有划伤，模糊，断字  3.检验贴纸内容及贴纸位置",
            "criticity": "Major",
            "control_type": "目测/操作测试",
            "supplier_control_freq_note": "S-2/AQL=2.5",
            "supplier_controller": null,
            "decathlon_control_freq_note": null,
            "active": true
          },
          {
            "step_number": "成品控制",
            "control_item": "组立检验",
            "control_method": "RC900成品检验sop",
            "requirement": "1.按照说明书步骤进行组立，不要更改组立步骤2.组立时不可强行组立",
            "criticity": "Critical",
            "control_type": "目测/操作测试",
            "supplier_control_freq_note": "S-2/AQL=2.5",
            "supplier_controller": null,
            "decathlon_control_freq_note": null,
            "active": true
          },
          {
            "step_number": "成品控制",
            "control_item": "包装检验",
            "control_method": "RC900成品检验sop",
            "requirement": "1.开箱检验包装方式是否正确",
            "criticity": "Major",
            "control_type": "目测/操作测试",
            "supplier_control_freq_note": "S-2/AQL=2.5",
            "supplier_controller": null,
            "decathlon_control_freq_note": null,
            "active": true
          },
          {
            "step_number": "成品控制",
            "control_item": "功能检验",
            "control_method": "EL520成品检验sop",
            "requirement": "依技术要求检查",
            "criticity": "Critical",
            "control_type": "目测/操作测试",
            "supplier_control_freq_note": "S-2/AQL=2.5",
            "supplier_controller": null,
            "decathlon_control_freq_note": null,
            "active": true
          }
        ]
      }
    ]
  }
}
