{
  "filename": "CP2.3_Massload Hongzhan_62202_T7XL&T5XL_Lighten Zhu.xlsx",
  "count": 5,
  "product_family": {
    "name": "T7XL",
    "processes": [
      {
        "name": "Metal raw material reception and storage",
        "category": "Incoming control",
        "steps": [
          {
            "step_number": "八角轴心进料检验",
            "control_item": "八角轴心的外径20.5+0/-0.05MM",
            "control_method": "Check the supplier frequency + control method + the records 检查供应商的管控频率+ 管控方法+管控记录",
            "requirement": "The frequencies, the control method and the records are respected. If supplier records NC, challenge the way he manage it 管控频率，方法和记录都被遵守，如果供应商记录有不良，盘问他的管理方法",
            "criticity": "Major",
            "control_type": "Product control",
            "supplier_control_freq_note": "进料每批依S-2标准抽样",
            "supplier_controller": "IQC/冉本雪",
            "decathlon_control_freq_note": "monthly",
            "active": true
          },
          {
            "step_number": "八角轴心进料检验",
            "control_item": "八角轴心的外径20.5+0/-0.05MM",
            "control_method": "1, 根据图纸， 核对规格,\n2, 进料每批依S-2标准抽样 \n3, 使用卡尺及检具对外径检测\n4, 依抽样数量记录。",
            "requirement": "外径尺寸：20.5+0/-0.05MM不能超公差",
            "criticity": "Major",
            "control_type": "Records and method control",
            "supplier_control_freq_note": "每二周检查一次",
            "supplier_controller": "尹昌灯",
            "decathlon_control_freq_note": null,
            "active": true
          },
          {
            "step_number": "底板来料检验",
            "control_item": "底板停车架孔",
            "control_method": "Check the supplier frequency + control method + the records 检查供应商的管控频率+ 管控方法+管控记录",
            "requirement": "The frequencies, the control method and the records are respected. If supplier records NC, challenge the way he manage it 管控频率，方法和记录都被遵守，如果供应商记录有不良，盘问他的管理方法",
            "criticity": "Major",
            "control_type": "Product control",
            "supplier_control_freq_note": "进料每批依S-1标准抽样",
            "supplier_controller": "IQC/冉本雪",
            "decathlon_control_freq_note": null,
            "active": true
          },
          {
            "step_number": "底板来料检验",
            "control_item": "底板停车架孔",
            "control_method": "1, 核对规格后,\n2, 进料每批依S-2标准抽样 \n3, 使用卡尺检测停车架孔\n4, 依抽样数量记录。",
            "requirement": "1. 停车架孔尺寸：\n     1.孔径∮5.5±0.1\n     2.孔中心距22±0.1　\n     3.孔中心侧到边距8±0.1　\n2.  停加架孔不可漏冲孔",
            "criticity": "Major",
            "control_type": "Records and method control",
            "supplier_control_freq_note": "每二周检查一次",
            "supplier_controller": "尹昌灯",
            "decathlon_control_freq_note": "monthly",
            "active": true
          },
          {
            "step_number": "底板来料检验",
            "control_item": "底板外观",
            "control_method": "Check the supplier frequency + control method + the records 检查供应商的管控频率+ 管控方法+管控记录",
            "requirement": "The frequencies, the control method and the records are respected. If supplier records NC, challenge the way he manage it 管控频率，方法和记录都被遵守，如果供应商记录有不良，盘问他的管理方法",
            "criticity": "Major",
            "control_type": "Product control",
            "supplier_control_freq_note": "进料每批依S-1标准抽样",
            "supplier_controller": "IQC/冉本雪",
            "decathlon_control_freq_note": null,
            "active": true
          },
          {
            "step_number": "底板来料检验",
            "control_item": "底板外观",
            "control_method": "1.检查底板需使用280#沙袋打磨\n2.进料每批依S-2标准抽样 \n3.目视及用手接触检查底板边缘毛边",
            "requirement": "1. 打磨不能过粗\n2.打磨后，边缘位置不能有刮手现象。",
            "criticity": "Major",
            "control_type": "Records and method control",
            "supplier_control_freq_note": "每二周检查一次",
            "supplier_controller": "尹昌灯",
            "decathlon_control_freq_note": null,
            "active": true
          },
          {
            "step_number": "扶手上管来料检验",
            "control_item": "扶手上管内外径",
            "control_method": "Check the supplier frequency + control method + the records 检查供应商的管控频率+ 管控方法+管控记录",
            "requirement": "The frequencies, the control method and the records are respected. If supplier records NC, challenge the way he manage it 管控频率，方法和记录都被遵守，如果供应商记录有不良，盘问他的管理方法",
            "criticity": "Major",
            "control_type": "Product control",
            "supplier_control_freq_note": "进料每批依S-2标准抽样",
            "supplier_controller": "IQC/冉本雪",
            "decathlon_control_freq_note": null,
            "active": true
          },
          {
            "step_number": "扶手上管来料检验",
            "control_item": "扶手上管内外径",
            "control_method": "1, 核对规格后,\n2, 进料每批依S-2标准抽样 \n3, 使用卡尺或千分尺对内外径检测\n4, 依抽样数量记录。",
            "requirement": "1.外径：28.6+0/-0.15\n2.内径：24.6±0.1",
            "criticity": "Major",
            "control_type": "Records and method control",
            "supplier_control_freq_note": "每二周检查一次",
            "supplier_controller": "尹昌灯",
            "decathlon_control_freq_note": "monthly",
            "active": true
          },
          {
            "step_number": "扶手上管来料检验",
            "control_item": "扶手上管外观",
            "control_method": "Check the supplier frequency + control method + the records 检查供应商的管控频率+ 管控方法+管控记录",
            "requirement": "The frequencies, the control method and the records are respected. If supplier records NC, challenge the way he manage it 管控频率，方法和记录都被遵守，如果供应商记录有不良，盘问他的管理方法",
            "criticity": "Major",
            "control_type": "Product control",
            "supplier_control_freq_note": "进料每批依S-2标准抽样",
            "supplier_controller": "IQC/冉本雪",
            "decathlon_control_freq_note": null,
            "active": true
          },
          {
            "step_number": "扶手上管来料检验",
            "control_item": "扶手上管外观",
            "control_method": "1, 核对规格后,\n2, 进料每批依S-2标准抽样 \n3, 抽取的样品去阳极进行碱洗\n4, 检查外观并做记录",
            "requirement": "碱洗后表面不可有线条及起斑现象",
            "criticity": "Major",
            "control_type": "Records and method control",
            "supplier_control_freq_note": "每二周检查一次",
            "supplier_controller": "尹昌灯",
            "decathlon_control_freq_note": "monthly",
            "active": true
          },
          {
            "step_number": "仓库",
            "control_item": "仓库的储存环境",
            "control_method": "Check the supplier frequency + control method + the records 检查供应商的管控频率+ 管控方法+管控记录",
            "requirement": "The frequencies, the control method and the records are respected. If supplier records NC, challenge the way he manage it 管控频率，方法和记录都被遵守，如果供应商记录有不良，盘问他的管理方法",
            "criticity": "Major",
            "control_type": "Process control,",
            "supplier_control_freq_note": "每天依仓库管理程序要求进行管理维护",
            "supplier_controller": "仓库/胡国辉",
            "decathlon_control_freq_note": null,
            "active": true
          },
          {
            "step_number": "仓库",
            "control_item": "仓库的储存环境",
            "control_method": "1. 仓库的物料区域规划图\n2. 观察物料摆放需符合仓储要求",
            "requirement": "1.物料摆放条件不可有腐蚀的风险。\n2.物料摆放条件不可有混料。\n3.物料摆放条件不可有受损。",
            "criticity": "Major",
            "control_type": "Records and method control",
            "supplier_control_freq_note": "依仓库管理程序要求，每周提核一次",
            "supplier_controller": "资材/骆顺波",
            "decathlon_control_freq_note": "monthly",
            "active": true
          },
          {
            "step_number": "方管来料检测",
            "control_item": "方管内外宽尺寸",
            "control_method": "Check the supplier frequency + control method + the records 检查供应商的管控频率+ 管控方法+管控记录",
            "requirement": "The frequencies, the control method and the records are respected. If supplier records NC, challenge the way he manage it 管控频率，方法和记录都被遵守，如果供应商记录有不良，盘问他的管理方法",
            "criticity": "Major",
            "control_type": "Product control",
            "supplier_control_freq_note": "进料每批依S-2标准抽样",
            "supplier_controller": "IQC/冉本雪",
            "decathlon_control_freq_note": null,
            "active": true
          },
          {
            "step_number": "方管来料检测",
            "control_item": "方管内外宽尺寸",
            "control_method": "1, 核对规格后,\n2, 进料每批依S-2标准抽样 \n3, 使用卡尺或千分尺对内外径检测\n4, 依抽样数量记录。",
            "requirement": "1.外宽：45±0.2mm\n2.侧宽：35+0/-0.3mm\n3.内宽：28±0.15mm",
            "criticity": "Major",
            "control_type": "Records and method control",
            "supplier_control_freq_note": "每二周检查一次",
            "supplier_controller": "尹昌灯",
            "decathlon_control_freq_note": "monthly",
            "active": true
          },
          {
            "step_number": "方管来料检测",
            "control_item": "方管外观",
            "control_method": "Check the supplier frequency + control method + the records 检查供应商的管控频率+ 管控方法+管控记录",
            "requirement": "The frequencies, the control method and the records are respected. If supplier records NC, challenge the way he manage it 管控频率，方法和记录都被遵守，如果供应商记录有不良，盘问他的管理方法",
            "criticity": "Major",
            "control_type": "Product control",
            "supplier_control_freq_note": "进料每批依S-2标准抽样",
            "supplier_controller": "IQC/冉本雪",
            "decathlon_control_freq_note": null,
            "active": true
          },
          {
            "step_number": "方管来料检测",
            "control_item": "方管外观",
            "control_method": "1, 核对规格后,\n2, 进料每批依S-2标准抽样 \n3, 抽取的样品去阳极进行碱洗\n4, 检查外观并做记录",
            "requirement": "碱洗后表面不可有线条及起斑现象",
            "criticity": "Major",
            "control_type": "Records and method control",
            "supplier_control_freq_note": "每二周检查一次",
            "supplier_controller": "尹昌灯",
            "decathlon_control_freq_note": "monthly",
            "active": true
          },
          {
            "step_number": "把手管来料检验",
            "control_item": "把手管内外径尺寸",
            "control_method": "Check the supplier frequency + control method + the records 检查供应商的管控频率+ 管控方法+管控记录",
            "requirement": "The frequencies, the control method and the records are respected. If supplier records NC, challenge the way he manage it 管控频率，方法和记录都被遵守，如果供应商记录有不良，盘问他的管理方法",
            "criticity": "Major",
            "control_type": "Process control,",
            "supplier_control_freq_note": "进料每批依S-2标准抽样",
            "supplier_controller": "IQC/冉本雪",
            "decathlon_control_freq_note": null,
            "active": true
          },
          {
            "step_number": "把手管来料检验",
            "control_item": "把手管内外径尺寸",
            "control_method": "1, 核对规格后,\n2, 进料每批依S-2标准抽样 \n3, 抽取的样品去阳极进行碱洗\n5, 检查外观并做记录",
            "requirement": "1.外径：22.2±0.1mm\n2.内径：18.2±0.1mm",
            "criticity": "Major",
            "control_type": "Records and method control",
            "supplier_control_freq_note": "每二周检查一次",
            "supplier_controller": "尹昌灯",
            "decathlon_control_freq_note": "monthly",
            "active": true
          },
          {
            "step_number": "把手管来料检验",
            "control_item": "把手管外观",
            "control_method": "Check the supplier frequency + control method + the records 检查供应商的管控频率+ 管控方法+管控记录",
            "requirement": "The frequencies, the control method and the records are respected. If supplier records NC, challenge the way he manage it 管控频率，方法和记录都被遵守，如果供应商记录有不良，盘问他的管理方法",
            "criticity": "Major",
            "control_type": "Product control",
            "supplier_control_freq_note": "进料每批依S-2标准抽样",
            "supplier_controller": "IQC/冉本雪",
            "decathlon_control_freq_note": null,
            "active": true
          },
          {
            "step_number": "把手管来料检验",
            "control_item": "把手管外观",
            "control_method": "1, 核对规格后,\n2, 进料每批依S-2标准抽样 \n3, 抽取的样品去阳极进行碱洗\n4, 检查外观并做记录",
            "requirement": "碱洗后表面不可有线条及起斑现象",
            "criticity": "Major",
            "control_type": "Records and method control",
            "supplier_control_freq_note": "每二周检查一次",
            "supplier_controller": "尹昌灯",
            "decathlon_control_freq_note": "monthly",
            "active": true
          },
          {
            "step_number": "把手管来料检验",
            "control_item": "把手管硬度",
            "control_method": "Check the supplier frequency + control method + the records 检查供应商的管控频率+ 管控方法+管控记录",
            "requirement": "The frequencies, the control method and the records are respected. If supplier records NC, challenge the way he manage it 管控频率，方法和记录都被遵守，如果供应商记录有不良，盘问他的管理方法",
            "criticity": "Major",
            "control_type": "Product control",
            "supplier_control_freq_note": "进料每批依S-2标准抽样",
            "supplier_controller": "IQC/冉本雪",
            "decathlon_control_freq_note": null,
            "active": true
          },
          {
            "step_number": "把手管来料检验",
            "control_item": "把手管硬度",
            "control_method": "1, 核对规格后,\n2, 进料每批依S-2标准抽样 \n3, 抽取的样品用铝管硬度计进行检测\n4, 测量硬度并做记录",
            "requirement": "WB15-17°",
            "criticity": "Major",
            "control_type": "Records and method control",
            "supplier_control_freq_note": "每周检查一次",
            "supplier_controller": "尹昌灯",
            "decathlon_control_freq_note": "monthly",
            "active": true
          },
          {
            "step_number": "IQC",
            "control_item": "扶手下管内外径",
            "control_method": "Check the supplier frequency + control method + the records 检查供应商的管控频率+ 管控方法+管控记录",
            "requirement": "The frequencies, the control method and the records are respected. If supplier records NC, challenge the way he manage it 管控频率，方法和记录都被遵守，如果供应商记录有不良，盘问他的管理方法",
            "criticity": "Major",
            "control_type": "Product control",
            "supplier_control_freq_note": "进料每批依S-2标准抽样",
            "supplier_controller": "IQC/冉本雪",
            "decathlon_control_freq_note": null,
            "active": true
          },
          {
            "step_number": "IQC",
            "control_item": "扶手下管内外径",
            "control_method": "1, 核对规格后,\n2, 进料每批依S-2标准抽样 \n3, 使用卡尺或千分尺对内外径检测\n4, 依抽样数量记录。",
            "requirement": "1.外径：￠33.6±0.1mm\n2.内径：￠28.6+0.2/-0mm",
            "criticity": "Major",
            "control_type": "Records and method control",
            "supplier_control_freq_note": "每周检查一次",
            "supplier_controller": "尹昌灯",
            "decathlon_control_freq_note": "monthly",
            "active": true
          },
          {
            "step_number": "IQC",
            "control_item": "扶手下管硬度",
            "control_method": "Check the supplier frequency + control method + the records 检查供应商的管控频率+ 管控方法+管控记录",
            "requirement": "The frequencies, the control method and the records are respected. If supplier records NC, challenge the way he manage it 管控频率，方法和记录都被遵守，如果供应商记录有不良，盘问他的管理方法",
            "criticity": "Major",
            "control_type": "Product control",
            "supplier_control_freq_note": "进料每批依S-2标准抽样",
            "supplier_controller": "IQC/冉本雪",
            "decathlon_control_freq_note": null,
            "active": true
          },
          {
            "step_number": "IQC",
            "control_item": "扶手下管硬度",
            "control_method": "1, 核对规格后,\n2, 进料每批依S-2标准抽样 \n3, 抽取的样品用铝管硬度计进行检测\n4, 测量硬度并做记录",
            "requirement": "WB15-17°",
            "criticity": "Major",
            "control_type": "Records and method control",
            "supplier_control_freq_note": "每周检查一次",
            "supplier_controller": "尹昌灯",
            "decathlon_control_freq_note": "monthly",
            "active": true
          },
          {
            "step_number": "IQC",
            "control_item": "扶手下管外径",
            "control_method": "Check the supplier frequency + control method + the records 检查供应商的管控频率+ 管控方法+管控记录",
            "requirement": "The frequencies, the control method and the records are respected. If supplier records NC, challenge the way he manage it 管控频率，方法和记录都被遵守，如果供应商记录有不良，盘问他的管理方法",
            "criticity": "Major",
            "control_type": "Product control",
            "supplier_control_freq_note": "进料每批依S-2标准抽样",
            "supplier_controller": "IQC/冉本雪",
            "decathlon_control_freq_note": null,
            "active": true
          },
          {
            "step_number": "IQC",
            "control_item": "扶手下管外径",
            "control_method": "1, 核对规格后,\n2, 进料每批依S-2标准抽样 \n3, 抽取的样品去阳极进行碱洗\n4, 检查外观并做记录",
            "requirement": "碱洗后表面不可有线条及起斑现象",
            "criticity": "Major",
            "control_type": "Records and method control",
            "supplier_control_freq_note": "每二周检查一次",
            "supplier_controller": "尹昌灯",
            "decathlon_control_freq_note": "monthly",
            "active": true
          },
          {
            "step_number": "转动手柄来料检验",
            "control_item": "转动手柄外形尺寸",
            "control_method": "Check the supplier frequency + control method + the records 检查供应商的管控频率+ 管控方法+管控记录",
            "requirement": "The frequencies, the control method and the records are respected. If supplier records NC, challenge the way he manage it 管控频率，方法和记录都被遵守，如果供应商记录有不良，盘问他的管理方法",
            "criticity": "Major",
            "control_type": "Product control",
            "supplier_control_freq_note": "进料每批依S-2标准抽样",
            "supplier_controller": "IQC/冉本雪",
            "decathlon_control_freq_note": null,
            "active": true
          },
          {
            "step_number": "转动手柄来料检验",
            "control_item": "转动手柄外形尺寸",
            "control_method": "1, 核对规格后,\n2, 进料每批依S-2标准抽样 \n3, 使用检具检验转动手柄外形尺寸\n4, 检查外观并做记录",
            "requirement": "尺寸符合SOP要求",
            "criticity": "Major",
            "control_type": "Records and method control",
            "supplier_control_freq_note": "每二周检查一次",
            "supplier_controller": "尹昌灯",
            "decathlon_control_freq_note": "monthly",
            "active": true
          },
          {
            "step_number": "转动手柄来料检验",
            "control_item": "转动手柄硬度",
            "control_method": "Check the supplier frequency + control method + the records 检查供应商的管控频率+ 管控方法+管控记录",
            "requirement": "The frequencies, the control method and the records are respected. If supplier records NC, challenge the way he manage it 管控频率，方法和记录都被遵守，如果供应商记录有不良，盘问他的管理方法",
            "criticity": "Major",
            "control_type": "Product control",
            "supplier_control_freq_note": "进料每批依S-2标准抽样",
            "supplier_controller": "IQC/冉本雪",
            "decathlon_control_freq_note": null,
            "active": true
          },
          {
            "step_number": "转动手柄来料检验",
            "control_item": "转动手柄硬度",
            "control_method": "1, 核对规格后,\n2, 进料每批依S-2标准抽样 \n3, 抽取的样品用铝管硬度计进行检测\n4, 测量硬度并做记录",
            "requirement": "WB15-17°",
            "criticity": "Major",
            "control_type": "Records and method control",
            "supplier_control_freq_note": "每周检查一次",
            "supplier_controller": "尹昌灯",
            "decathlon_control_freq_note": "monthly",
            "active": true
          },
          {
            "step_number": "转动手柄来料检验",
            "control_item": "转动手柄外观",
            "control_method": "Check the supplier frequency + control method + the records 检查供应商的管控频率+ 管控方法+管控记录",
            "requirement": "The frequencies, the control method and the records are respected. If supplier records NC, challenge the way he manage it 管控频率，方法和记录都被遵守，如果供应商记录有不良，盘问他的管理方法",
            "criticity": "Major",
            "control_type": "Product control",
            "supplier_control_freq_note": "进料每批依S-2标准抽样",
            "supplier_controller": "IQC/冉本雪",
            "decathlon_control_freq_note": null,
            "active": true
          },
          {
            "step_number": "转动手柄来料检验",
            "control_item": "转动手柄外观",
            "control_method": "1, 核对规格后,\n2, 进料每批依S-2标准抽样 \n3, 抽取的样品去阳极进行碱洗\n4, 检查外观并做记录",
            "requirement": "碱洗后表面不可有线条及夹心料的现象",
            "criticity": "Major",
            "control_type": "Records and method control",
            "supplier_control_freq_note": "每二周检查一次",
            "supplier_controller": "尹昌灯",
            "decathlon_control_freq_note": "monthly",
            "active": true
          },
          {
            "step_number": "立管来料检验",
            "control_item": "立管内外径尺寸",
            "control_method": "Check the supplier frequency + control method + the records 检查供应商的管控频率+ 管控方法+管控记录",
            "requirement": "The frequencies, the control method and the records are respected. If supplier records NC, challenge the way he manage it 管控频率，方法和记录都被遵守，如果供应商记录有不良，盘问他的管理方法",
            "criticity": "Major",
            "control_type": "Product control",
            "supplier_control_freq_note": "进料每批依S-2标准抽样",
            "supplier_controller": "IQC/冉本雪",
            "decathlon_control_freq_note": null,
            "active": true
          },
          {
            "step_number": "立管来料检验",
            "control_item": "立管内外径尺寸",
            "control_method": "1, 核对规格后,\n2, 进料每批依S-2标准抽样 \n3, 使用卡尺或千分尺对内外径检测\n4, 依抽样数量记录。",
            "requirement": "1.外径：￠31.8±0.2mm\n2.内径：￠25.4±0.2mm",
            "criticity": "Major",
            "control_type": "Records and method control",
            "supplier_control_freq_note": "每二周检查一次",
            "supplier_controller": "尹昌灯",
            "decathlon_control_freq_note": "monthly",
            "active": true
          },
          {
            "step_number": "立管来料检验",
            "control_item": "立管重量",
            "control_method": "Check the supplier frequency + control method + the records 检查供应商的管控频率+ 管控方法+管控记录",
            "requirement": "The frequencies, the control method and the records are respected. If supplier records NC, challenge the way he manage it 管控频率，方法和记录都被遵守，如果供应商记录有不良，盘问他的管理方法",
            "criticity": "Major",
            "control_type": "Product control",
            "supplier_control_freq_note": "进料每批依S-2标准抽样",
            "supplier_controller": "IQC/冉本雪",
            "decathlon_control_freq_note": null,
            "active": true
          },
          {
            "step_number": "立管来料检验",
            "control_item": "立管重量",
            "control_method": "1, 核对规格后,\n2, 进料每批依S-2标准抽样 \n3, 使用电子称对立管进行重量检测\n4, 依抽样数量记录。",
            "requirement": "360±5g",
            "criticity": "Major",
            "control_type": "Records and method control",
            "supplier_control_freq_note": "每二周检查一次",
            "supplier_controller": "尹昌灯",
            "decathlon_control_freq_note": "monthly",
            "active": true
          },
          {
            "step_number": "立管来料检验",
            "control_item": "立管车牙",
            "control_method": "Check the supplier frequency + control method + the records 检查供应商的管控频率+ 管控方法+管控记录",
            "requirement": "The frequencies, the control method and the records are respected. If supplier records NC, challenge the way he manage it 管控频率，方法和记录都被遵守，如果供应商记录有不良，盘问他的管理方法",
            "criticity": "Major",
            "control_type": "Process control,",
            "supplier_control_freq_note": "进料每批依S-2标准抽样",
            "supplier_controller": "IQC/冉本雪",
            "decathlon_control_freq_note": null,
            "active": true
          },
          {
            "step_number": "立管来料检验",
            "control_item": "立管车牙",
            "control_method": "1, 核对规格后,\n2, 进料每批依S-2标准抽样 \n3, 使用牙规检具对立管车牙进行检测\n4, 依抽样数量记录。",
            "requirement": "1.立管盖端M28.6*P1.25牙规通规GO止规NO GO\n2.锁碗组端用1/8″-26Ｔ通止规检查",
            "criticity": "Major",
            "control_type": "Records and method control",
            "supplier_control_freq_note": "每二周检查一次",
            "supplier_controller": "尹昌灯",
            "decathlon_control_freq_note": "monthly",
            "active": true
          },
          {
            "step_number": "立管来料检验",
            "control_item": "立管盐雾",
            "control_method": "Check the supplier frequency + control method + the records 检查供应商的管控频率+ 管控方法+管控记录",
            "requirement": "The frequencies, the control method and the records are respected. If supplier records NC, challenge the way he manage it 管控频率，方法和记录都被遵守，如果供应商记录有不良，盘问他的管理方法",
            "criticity": "Major",
            "control_type": "Product control",
            "supplier_control_freq_note": "每批抽2支",
            "supplier_controller": "IQC/冉本雪",
            "decathlon_control_freq_note": null,
            "active": true
          },
          {
            "step_number": "立管来料检验",
            "control_item": "立管盐雾",
            "control_method": "1, 核对规格后,\n2, 进料每批抽2个\n3, 使用盐雾测试机测试48H\n4, 记录盐雾测试机测试结果",
            "requirement": "48H不可生锈",
            "criticity": "Major",
            "control_type": "Records and method control",
            "supplier_control_freq_note": "每二周检查一次",
            "supplier_controller": "尹昌灯",
            "decathlon_control_freq_note": "monthly",
            "active": true
          },
          {
            "step_number": "后轮盖来料检验",
            "control_item": "后轮盖外形尺寸",
            "control_method": "Check the supplier frequency + control method + the records 检查供应商的管控频率+ 管控方法+管控记录",
            "requirement": "The frequencies, the control method and the records are respected. If supplier records NC, challenge the way he manage it 管控频率，方法和记录都被遵守，如果供应商记录有不良，盘问他的管理方法",
            "criticity": "Major",
            "control_type": "Product control",
            "supplier_control_freq_note": "进料每批依S-2标准抽样",
            "supplier_controller": "IQC/冉本雪",
            "decathlon_control_freq_note": null,
            "active": true
          },
          {
            "step_number": "后轮盖来料检验",
            "control_item": "后轮盖外形尺寸",
            "control_method": "1, 核对规格后,\n2, 进料每批依S-2标准抽样 \n3, 使用1：1图纸比对外形尺寸\n4, 检查外观并做记录",
            "requirement": "尺寸符合SOP要求",
            "criticity": "Major",
            "control_type": "Records and method control",
            "supplier_control_freq_note": "每二周检查一次",
            "supplier_controller": "尹昌灯",
            "decathlon_control_freq_note": "monthly",
            "active": true
          },
          {
            "step_number": "后轮盖来料检验",
            "control_item": "后轮盖硬度",
            "control_method": "Check the supplier frequency + control method + the records 检查供应商的管控频率+ 管控方法+管控记录",
            "requirement": "The frequencies, the control method and the records are respected. If supplier records NC, challenge the way he manage it 管控频率，方法和记录都被遵守，如果供应商记录有不良，盘问他的管理方法",
            "criticity": "Major",
            "control_type": "Product control",
            "supplier_control_freq_note": "进料每批依S-2标准抽样",
            "supplier_controller": "IQC/冉本雪",
            "decathlon_control_freq_note": null,
            "active": true
          },
          {
            "step_number": "后轮盖来料检验",
            "control_item": "后轮盖硬度",
            "control_method": "1, 核对规格后,\n2, 进料每批依S-2标准抽样 \n3, 抽取的样品用铝管硬度计进行检测\n4, 测量硬度并做记录",
            "requirement": "WB15-17°",
            "criticity": "Major",
            "control_type": "Records and method control",
            "supplier_control_freq_note": "每二周检查一次",
            "supplier_controller": "尹昌灯",
            "decathlon_control_freq_note": "monthly",
            "active": true
          },
          {
            "step_number": "后轮盖来料检验",
            "control_item": "后轮盖外观",
            "control_method": "Check the supplier frequency + control method + the records 检查供应商的管控频率+ 管控方法+管控记录",
            "requirement": "The frequencies, the control method and the records are respected. If supplier records NC, challenge the way he manage it 管控频率，方法和记录都被遵守，如果供应商记录有不良，盘问他的管理方法",
            "criticity": "Major",
            "control_type": "Product control",
            "supplier_control_freq_note": "进料每批依S-2标准抽样",
            "supplier_controller": "IQC/冉本雪",
            "decathlon_control_freq_note": null,
            "active": true
          },
          {
            "step_number": "后轮盖来料检验",
            "control_item": "后轮盖外观",
            "control_method": "1, 核对规格后,\n2, 进料每批依S-2标准抽样 \n3, 抽取的样品去阳极进行碱洗\n4, 检查外观并做记录",
            "requirement": "碱洗后表面不可有线条及夹心料的现象",
            "criticity": "Major",
            "control_type": "Records and method control",
            "supplier_control_freq_note": "每二周检查一次",
            "supplier_controller": "尹昌灯",
            "decathlon_control_freq_note": "monthly",
            "active": true
          },
          {
            "step_number": "定位片",
            "control_item": "定位片外形尺寸",
            "control_method": "Check the supplier frequency + control method + the records 检查供应商的管控频率+ 管控方法+管控记录",
            "requirement": "The frequencies, the control method and the records are respected. If supplier records NC, challenge the way he manage it 管控频率，方法和记录都被遵守，如果供应商记录有不良，盘问他的管理方法",
            "criticity": "Major",
            "control_type": "Product control",
            "supplier_control_freq_note": "进料每批依S-2标准抽样",
            "supplier_controller": "IQC/冉本雪",
            "decathlon_control_freq_note": null,
            "active": true
          },
          {
            "step_number": "定位片",
            "control_item": "定位片外形尺寸",
            "control_method": "1, 核对规格后,\n2, 进料每批依S-2标准抽样 \n3, 使用检具检验定位片外形尺寸\n4, 检查尺寸并做记录",
            "requirement": "尺寸符合SOP要求",
            "criticity": "Major",
            "control_type": "Records and method control",
            "supplier_control_freq_note": "每二周检查一次",
            "supplier_controller": "尹昌灯",
            "decathlon_control_freq_note": "monthly",
            "active": true
          },
          {
            "step_number": "定位片",
            "control_item": "定位片外观",
            "control_method": "Check the supplier frequency + control method + the records 检查供应商的管控频率+ 管控方法+管控记录",
            "requirement": "The frequencies, the control method and the records are respected. If supplier records NC, challenge the way he manage it 管控频率，方法和记录都被遵守，如果供应商记录有不良，盘问他的管理方法",
            "criticity": "Major",
            "control_type": "Product control",
            "supplier_control_freq_note": "进料每批依S-2标准抽样",
            "supplier_controller": "IQC/冉本雪",
            "decathlon_control_freq_note": null,
            "active": true
          },
          {
            "step_number": "定位片",
            "control_item": "定位片外观",
            "control_method": "1, 核对规格后,\n2, 进料每批依S-2标准抽样 \n3, 抽取的样品去阳极进行碱洗\n4, 检查外观并做记录",
            "requirement": "碱洗后表面不可有线条及夹心料的现象",
            "criticity": "Major",
            "control_type": "Records and method control",
            "supplier_control_freq_note": "每二周检查一次",
            "supplier_controller": "尹昌灯",
            "decathlon_control_freq_note": "monthly",
            "active": true
          },
          {
            "step_number": "上横管来料检验",
            "control_item": "上横管内外径尺寸",
            "control_method": "Check the supplier frequency + control method + the records 检查供应商的管控频率+ 管控方法+管控记录",
            "requirement": "The frequencies, the control method and the records are respected. If supplier records NC, challenge the way he manage it 管控频率，方法和记录都被遵守，如果供应商记录有不良，盘问他的管理方法",
            "criticity": "Major",
            "control_type": "Product control",
            "supplier_control_freq_note": "进料每批依S-2标准抽样",
            "supplier_controller": "IQC/冉本雪",
            "decathlon_control_freq_note": null,
            "active": true
          },
          {
            "step_number": "上横管来料检验",
            "control_item": "上横管内外径尺寸",
            "control_method": "1, 核对规格后,\n2, 进料每批依S-2标准抽样 \n3, 使用卡尺或千分尺对内外径检测\n4, 依抽样数量记录。",
            "requirement": "1.外径：￠35±0.1\n2.内径：￠22.3+0.1/-0",
            "criticity": "Major",
            "control_type": "Records and method control",
            "supplier_control_freq_note": "每二周检查一次",
            "supplier_controller": "尹昌灯",
            "decathlon_control_freq_note": "monthly",
            "active": true
          },
          {
            "step_number": "上横管来料检验",
            "control_item": "上横管外观",
            "control_method": "Check the supplier frequency + control method + the records 检查供应商的管控频率+ 管控方法+管控记录",
            "requirement": "The frequencies, the control method and the records are respected. If supplier records NC, challenge the way he manage it 管控频率，方法和记录都被遵守，如果供应商记录有不良，盘问他的管理方法",
            "criticity": "Major",
            "control_type": "Product control",
            "supplier_control_freq_note": "进料每批依S-2标准抽样",
            "supplier_controller": "IQC/冉本雪",
            "decathlon_control_freq_note": null,
            "active": true
          },
          {
            "step_number": "上横管来料检验",
            "control_item": "上横管外观",
            "control_method": "1, 核对规格后,\n2, 进料每批依S-2标准抽样 \n3, 抽取的样品去阳极进行碱洗\n4, 检查外观并做记录",
            "requirement": "碱洗后表面不可有线条及夹心料的现象",
            "criticity": "Major",
            "control_type": "Records and method control",
            "supplier_control_freq_note": "每二周检查一次",
            "supplier_controller": "尹昌灯",
            "decathlon_control_freq_note": "monthly",
            "active": true
          },
          {
            "step_number": "主轴头衬套来料检验",
            "control_item": "主轴头衬套外径及长度尺寸",
            "control_method": "Check the supplier frequency + control method + the records 检查供应商的管控频率+ 管控方法+管控记录",
            "requirement": "The frequencies, the control method and the records are respected. If supplier records NC, challenge the way he manage it 管控频率，方法和记录都被遵守，如果供应商记录有不良，盘问他的管理方法",
            "criticity": "Major",
            "control_type": "Product control",
            "supplier_control_freq_note": "进料每批依S-2标准抽样",
            "supplier_controller": "IQC/冉本雪",
            "decathlon_control_freq_note": null,
            "active": true
          },
          {
            "step_number": "主轴头衬套来料检验",
            "control_item": "主轴头衬套外径及长度尺寸",
            "control_method": "1, 核对规格后,\n2, 进料每批依S-2标准抽样 \n3, 使用卡尺检测\n4, 依抽样数量记录。",
            "requirement": "1.外径：12±0.02MM\n2.长度：12+0/-0.1MM",
            "criticity": "Major",
            "control_type": "Records and method control",
            "supplier_control_freq_note": "每二周检查一次",
            "supplier_controller": "尹昌灯",
            "decathlon_control_freq_note": "monthly",
            "active": true
          },
          {
            "step_number": "转轴衬套来料检验",
            "control_item": "转轴衬套孔径及台阶尺寸",
            "control_method": "Check the supplier frequency + control method + the records 检查供应商的管控频率+ 管控方法+管控记录",
            "requirement": "The frequencies, the control method and the records are respected. If supplier records NC, challenge the way he manage it 管控频率，方法和记录都被遵守，如果供应商记录有不良，盘问他的管理方法",
            "criticity": "Major",
            "control_type": "Product control",
            "supplier_control_freq_note": "进料每批依S-2标准抽样",
            "supplier_controller": "IQC/冉本雪",
            "decathlon_control_freq_note": null,
            "active": true
          },
          {
            "step_number": "转轴衬套来料检验",
            "control_item": "转轴衬套孔径及台阶尺寸",
            "control_method": "1, 核对规格后,\n2, 进料每批依S-2标准抽样 \n3, 使用卡尺检测\n4, 依抽样数量记录。",
            "requirement": "1.孔径：∮8+0.05/-0MM\n2.台阶：1.0±0.05MM",
            "criticity": "Major",
            "control_type": "Records and method control",
            "supplier_control_freq_note": "每二周检查一次",
            "supplier_controller": "尹昌灯",
            "decathlon_control_freq_note": "monthly",
            "active": true
          },
          {
            "step_number": "后避震支点螺丝来料检验",
            "control_item": "后避震支点螺丝折弯扭力盐雾测试",
            "control_method": "Check the supplier frequency + control method + the records 检查供应商的管控频率+ 管控方法+管控记录",
            "requirement": "The frequencies, the control method and the records are respected. If supplier records NC, challenge the way he manage it 管控频率，方法和记录都被遵守，如果供应商记录有不良，盘问他的管理方法",
            "criticity": "Major",
            "control_type": "LAB control",
            "supplier_control_freq_note": "测试项目每种抽2个",
            "supplier_controller": "IQC/冉本雪",
            "decathlon_control_freq_note": null,
            "active": true
          },
          {
            "step_number": "后避震支点螺丝来料检验",
            "control_item": "后避震支点螺丝折弯扭力盐雾测试",
            "control_method": "1, 核对规格后,\n2, 进料每批每项目抽2个进行测试\n3, 送顺传测试室进行送检\n4, 记录测试的结果",
            "requirement": "1.折弯15度不可断裂，螺丝10.9级\n2.扭力≥130ＫＧ\n3.48Ｈ盐雾测试不可生锈",
            "criticity": "Major",
            "control_type": "Records and method control",
            "supplier_control_freq_note": "每二周检查一次",
            "supplier_controller": "尹昌灯",
            "decathlon_control_freq_note": "monthly",
            "active": true
          },
          {
            "step_number": "后避震支点螺丝来料检验",
            "control_item": "后避震对锁螺丝折弯扭力盐雾测试",
            "control_method": "Check the supplier frequency + control method + the records 检查供应商的管控频率+ 管控方法+管控记录",
            "requirement": "The frequencies, the control method and the records are respected. If supplier records NC, challenge the way he manage it 管控频率，方法和记录都被遵守，如果供应商记录有不良，盘问他的管理方法",
            "criticity": "Major",
            "control_type": "LAB control",
            "supplier_control_freq_note": "测试项目每种抽2个",
            "supplier_controller": "IQC/冉本雪",
            "decathlon_control_freq_note": null,
            "active": true
          },
          {
            "step_number": "后避震支点螺丝来料检验",
            "control_item": "后避震对锁螺丝折弯扭力盐雾测试",
            "control_method": "1, 核对规格后,\n2, 进料每批每项目抽2个进行测试\n3, 送顺传测试室进行送检\n4, 记录测试的结果",
            "requirement": "1.折弯15度不可断裂，螺丝10.9级\n2.扭力≥130ＫＧ\n3.48Ｈ盐雾测试不可生锈",
            "criticity": "Major",
            "control_type": "Records and method control",
            "supplier_control_freq_note": "每二周检查一次",
            "supplier_controller": "尹昌灯",
            "decathlon_control_freq_note": "monthly",
            "active": true
          },
          {
            "step_number": "半圆形转轴",
            "control_item": "半圆形转轴孔位置",
            "control_method": "Check the supplier frequency + control method + the records 检查供应商的管控频率+ 管控方法+管控记录",
            "requirement": "The frequencies, the control method and the records are respected. If supplier records NC, challenge the way he manage it 管控频率，方法和记录都被遵守，如果供应商记录有不良，盘问他的管理方法",
            "criticity": "Major",
            "control_type": "Product control",
            "supplier_control_freq_note": "进料每批依S-2标准抽样",
            "supplier_controller": "IQC/冉本雪",
            "decathlon_control_freq_note": null,
            "active": true
          },
          {
            "step_number": "半圆形转轴",
            "control_item": "半圆形转轴孔位置",
            "control_method": "1, 核对规格后,\n2, 进料每批依S-2标准抽样 \n3, 使用卡尺检测\n4, 依抽样数量记录。",
            "requirement": "要求孔位符合SOP要求，且孔要居中，不可有偏歪现象",
            "criticity": "Major",
            "control_type": "Records and method control",
            "supplier_control_freq_note": "每二周检查一次",
            "supplier_controller": "尹昌灯",
            "decathlon_control_freq_note": "monthly",
            "active": true
          },
          {
            "step_number": "立管滑套",
            "control_item": "立管滑套正八角对边尺寸",
            "control_method": "Check the supplier frequency + control method + the records 检查供应商的管控频率+ 管控方法+管控记录",
            "requirement": "The frequencies, the control method and the records are respected. If supplier records NC, challenge the way he manage it 管控频率，方法和记录都被遵守，如果供应商记录有不良，盘问他的管理方法",
            "criticity": "Major",
            "control_type": "Product control",
            "supplier_control_freq_note": "进料每批依S-2标准抽样",
            "supplier_controller": "IQC/冉本雪",
            "decathlon_control_freq_note": null,
            "active": true
          },
          {
            "step_number": "立管滑套",
            "control_item": "立管滑套正八角对边尺寸",
            "control_method": "1, 核对规格后,\n2, 进料每批依S-2标准抽样 \n3, 使用卡尺检测\n4, 依抽样数量记录。",
            "requirement": "23.55+0.1/-0MM",
            "criticity": "Major",
            "control_type": "Records and method control",
            "supplier_control_freq_note": "每二周检查一次",
            "supplier_controller": "尹昌灯",
            "decathlon_control_freq_note": "monthly",
            "active": true
          },
          {
            "step_number": "八角轴心焊接",
            "control_item": "八角轴心焊接螺母",
            "control_method": "Check the supplier frequency + control method + the records 检查供应商的管控频率+ 管控方法+管控记录",
            "requirement": "The frequencies, the control method and the records are respected. If supplier records NC, challenge the way he manage it 管控频率，方法和记录都被遵守，如果供应商记录有不良，盘问他的管理方法",
            "criticity": "Major",
            "control_type": "Product control",
            "supplier_control_freq_note": "进料每批依S-2标准抽样",
            "supplier_controller": "IQC/冉本雪",
            "decathlon_control_freq_note": null,
            "active": true
          },
          {
            "step_number": "八角轴心焊接",
            "control_item": "八角轴心焊接螺母",
            "control_method": "1, 检查首件样品\n2, 首件巡回检验记录",
            "requirement": "焊接时轴心螺母有台阶朝上，无台阶而且有牙纹朝下",
            "criticity": "Major",
            "control_type": "Records and method control",
            "supplier_control_freq_note": "每二周检查一次",
            "supplier_controller": "尹昌灯",
            "decathlon_control_freq_note": "monthly",
            "active": true
          },
          {
            "step_number": "立管滑套",
            "control_item": "立管滑套壁厚度",
            "control_method": "Check the supplier frequency + control method + the records 检查供应商的管控频率+ 管控方法+管控记录",
            "requirement": "The frequencies, the control method and the records are respected. If supplier records NC, challenge the way he manage it 管控频率，方法和记录都被遵守，如果供应商记录有不良，盘问他的管理方法",
            "criticity": "Major",
            "control_type": "Product control",
            "supplier_control_freq_note": "进料每批依S-2标准抽样",
            "supplier_controller": "IQC/冉本雪",
            "decathlon_control_freq_note": null,
            "active": true
          },
          {
            "step_number": "立管滑套",
            "control_item": "立管滑套壁厚度",
            "control_method": "1, 核对规格后,\n2, 进料每批依S-2标准抽样 \n3, 使用卡尺检测\n4, 依抽样数量记录。",
            "requirement": "1.4±0.05MM",
            "criticity": "Major",
            "control_type": "Records and method control",
            "supplier_control_freq_note": "每二周检查一次",
            "supplier_controller": "尹昌灯",
            "decathlon_control_freq_note": "monthly",
            "active": true
          },
          {
            "step_number": "立管滑套",
            "control_item": "立管滑套外观",
            "control_method": "Check the supplier frequency + control method + the records 检查供应商的管控频率+ 管控方法+管控记录",
            "requirement": "The frequencies, the control method and the records are respected. If supplier records NC, challenge the way he manage it 管控频率，方法和记录都被遵守，如果供应商记录有不良，盘问他的管理方法",
            "criticity": "Major",
            "control_type": "Product control",
            "supplier_control_freq_note": "进料每批依S-2标准抽样",
            "supplier_controller": "IQC/冉本雪",
            "decathlon_control_freq_note": null,
            "active": true
          },
          {
            "step_number": "立管滑套",
            "control_item": "立管滑套外观",
            "control_method": "1, 核对规格后,\n2, 进料每批依S-2标准抽样 \n3, 目视检查外观\n4, 依抽样数量记录。",
            "requirement": "1.二端需倒角，倒角需均匀.\n2.内孔不可有台阶毛边",
            "criticity": "Major",
            "control_type": "Records and method control",
            "supplier_control_freq_note": "每二周检查一次",
            "supplier_controller": "尹昌灯",
            "decathlon_control_freq_note": "monthly",
            "active": true
          },
          {
            "step_number": "连接片",
            "control_item": "连接片孔",
            "control_method": "Check the supplier frequency + control method + the records 检查供应商的管控频率+ 管控方法+管控记录",
            "requirement": "The frequencies, the control method and the records are respected. If supplier records NC, challenge the way he manage it 管控频率，方法和记录都被遵守，如果供应商记录有不良，盘问他的管理方法",
            "criticity": "Major",
            "control_type": "Product control",
            "supplier_control_freq_note": "进料每批依S-2标准抽样",
            "supplier_controller": "IQC/冉本雪",
            "decathlon_control_freq_note": null,
            "active": true
          },
          {
            "step_number": "连接片",
            "control_item": "连接片孔",
            "control_method": "1, 核对规格后,\n2, 进料每批依S-2标准抽样 \n3, 使用卡尺进行检测\n4, 依抽样数量记录。",
            "requirement": "1.孔径：￠8+0.1/-0mm\n2.外观：孔不可有毛边和变形",
            "criticity": "Major",
            "control_type": "Records and method control",
            "supplier_control_freq_note": "每二周检查一次",
            "supplier_controller": "尹昌灯",
            "decathlon_control_freq_note": "monthly",
            "active": true
          }
        ]
      },
      {
        "name": "制程加工",
        "category": "Online control",
        "steps": [
          {
            "step_number": "方管冲压",
            "control_item": "方管下料尺寸及角度",
            "control_method": "Check the supplier frequency + control method + the records 检查供应商的管控频率+ 管控方法+管控记录",
            "requirement": "The frequencies, the control method and the records are respected. If supplier records NC, challenge the way he manage it 管控频率，方法和记录都被遵守，如果供应商记录有不良，盘问他的管理方法",
            "criticity": "Major",
            "control_type": "Product control",
            "supplier_control_freq_note": "5个/2H",
            "supplier_controller": "IPQC/罗青",
            "decathlon_control_freq_note": null,
            "active": true
          },
          {
            "step_number": "方管冲压",
            "control_item": "方管下料尺寸及角度",
            "control_method": "1.依图纸核对规格\n2.使用卡尺及角度规测量\n3.保存首件样品\n4, 每2H做首件巡回检验记录",
            "requirement": "1.第一次下料长度：491±0.5mm\n2.第二次下料长度：270±1mm\n3.下料角度：40±1°",
            "criticity": "Major",
            "control_type": "Records and method control",
            "supplier_control_freq_note": "每二周检查一次",
            "supplier_controller": "尹昌灯",
            "decathlon_control_freq_note": "monthly",
            "active": true
          },
          {
            "step_number": "方管冲压",
            "control_item": "方管冲槽尺寸",
            "control_method": "Check the supplier frequency + control method + the records 检查供应商的管控频率+ 管控方法+管控记录",
            "requirement": "The frequencies, the control method and the records are respected. If supplier records NC, challenge the way he manage it 管控频率，方法和记录都被遵守，如果供应商记录有不良，盘问他的管理方法",
            "criticity": "Major",
            "control_type": "Product control",
            "supplier_control_freq_note": "5个/2H",
            "supplier_controller": "IPQC/罗青",
            "decathlon_control_freq_note": null,
            "active": true
          },
          {
            "step_number": "方管冲压",
            "control_item": "方管冲槽尺寸",
            "control_method": "1,依图纸核对规格\n2.使用卡尺测量\n3.保存首件样品\n4.每2H做首件巡回检验记录",
            "requirement": "1.冲槽长度：68.7±0.2mm\n2.冲槽宽度：27.8+0.2/-0mm",
            "criticity": "Major",
            "control_type": "Product control",
            "supplier_control_freq_note": "每二周检查一次",
            "supplier_controller": "尹昌灯",
            "decathlon_control_freq_note": "monthly",
            "active": true
          },
          {
            "step_number": "方管冲压",
            "control_item": "方管冲￠8.0孔尺寸",
            "control_method": "Check the supplier frequency + control method + the records 检查供应商的管控频率+ 管控方法+管控记录",
            "requirement": "The frequencies, the control method and the records are respected. If supplier records NC, challenge the way he manage it 管控频率，方法和记录都被遵守，如果供应商记录有不良，盘问他的管理方法",
            "criticity": "Major",
            "control_type": "Product control",
            "supplier_control_freq_note": "5个/2H",
            "supplier_controller": "IPQC/罗青",
            "decathlon_control_freq_note": null,
            "active": true
          },
          {
            "step_number": "方管冲压",
            "control_item": "方管冲￠8.0孔尺寸",
            "control_method": "1,依图纸核对规格\n2.使用卡尺测量\n3.保存首件样品\n4.每2H做首件巡回检验记录",
            "requirement": "1.孔中心边距：18±0.2mm\n2.￠8.孔0至冲槽边距：50.5±0.2mm",
            "criticity": "Major",
            "control_type": "Records and method control",
            "supplier_control_freq_note": "每二周检查一次",
            "supplier_controller": "尹昌灯",
            "decathlon_control_freq_note": "monthly",
            "active": true
          },
          {
            "step_number": "方管冲压",
            "control_item": "方管放检具",
            "control_method": "Check the supplier frequency + control method + the records 检查供应商的管控频率+ 管控方法+管控记录",
            "requirement": "The frequencies, the control method and the records are respected. If supplier records NC, challenge the way he manage it 管控频率，方法和记录都被遵守，如果供应商记录有不良，盘问他的管理方法",
            "criticity": "Major",
            "control_type": "Product control",
            "supplier_control_freq_note": "5个/2H",
            "supplier_controller": "IPQC/罗青",
            "decathlon_control_freq_note": null,
            "active": true
          },
          {
            "step_number": "方管冲压",
            "control_item": "方管放检具",
            "control_method": "1,核对规格\n2.方管冲压加工完后放检具检查",
            "requirement": "1.与检具相箱",
            "criticity": "Major",
            "control_type": "Records and method control",
            "supplier_control_freq_note": "每二周检查一次",
            "supplier_controller": "尹昌灯",
            "decathlon_control_freq_note": "monthly",
            "active": true
          },
          {
            "step_number": "头管与方管焊接",
            "control_item": "头管与方管焊接角度管控",
            "control_method": "Check the supplier frequency + control method + the records 检查供应商的管控频率+ 管控方法+管控记录",
            "requirement": "The frequencies, the control method and the records are respected. If supplier records NC, challenge the way he manage it 管控频率，方法和记录都被遵守，如果供应商记录有不良，盘问他的管理方法",
            "criticity": "Major",
            "control_type": "Product control",
            "supplier_control_freq_note": "5个/2H",
            "supplier_controller": "IPQC/罗青",
            "decathlon_control_freq_note": null,
            "active": true
          },
          {
            "step_number": "头管与方管焊接",
            "control_item": "头管与方管焊接角度管控",
            "control_method": "1,核对规格\n2.使用角度规测量\n3.保存首件样品\n4.每2H做首件巡回检验记录",
            "requirement": "焊接角度：40±1°",
            "criticity": "Major",
            "control_type": "Records and method control",
            "supplier_control_freq_note": "每二周检查一次",
            "supplier_controller": "尹昌灯",
            "decathlon_control_freq_note": "monthly",
            "active": true
          },
          {
            "step_number": "头管与方管焊接",
            "control_item": "头管与方管焊接头管孔位置管控",
            "control_method": "Check the supplier frequency + control method + the records 检查供应商的管控频率+ 管控方法+管控记录",
            "requirement": "The frequencies, the control method and the records are respected. If supplier records NC, challenge the way he manage it 管控频率，方法和记录都被遵守，如果供应商记录有不良，盘问他的管理方法",
            "criticity": "Major",
            "control_type": "Product control",
            "supplier_control_freq_note": "5个/2H",
            "supplier_controller": "IPQC/罗青",
            "decathlon_control_freq_note": null,
            "active": true
          },
          {
            "step_number": "头管与方管焊接",
            "control_item": "头管与方管焊接头管孔位置管控",
            "control_method": "1,核对规格\n2.目视检查孔位置\n3.焊接时依焊接模定位装模\n4.保存首件样品\n5.每2H做首件巡回检验记录",
            "requirement": "孔位依SOP方向管控，需保证孔位正确",
            "criticity": "Major",
            "control_type": "Records and method control",
            "supplier_control_freq_note": "每二周检查一次",
            "supplier_controller": "尹昌灯",
            "decathlon_control_freq_note": "monthly",
            "active": true
          },
          {
            "step_number": "头管与方管焊接",
            "control_item": "头管与方管焊道宽度及鱼鳞片管控",
            "control_method": "Check the supplier frequency + control method + the records 检查供应商的管控频率+ 管控方法+管控记录",
            "requirement": "The frequencies, the control method and the records are respected. If supplier records NC, challenge the way he manage it 管控频率，方法和记录都被遵守，如果供应商记录有不良，盘问他的管理方法",
            "criticity": "Major",
            "control_type": "Product control",
            "supplier_control_freq_note": "5个/2H",
            "supplier_controller": "IPQC/罗青",
            "decathlon_control_freq_note": null,
            "active": true
          },
          {
            "step_number": "头管与方管焊接",
            "control_item": "头管与方管焊道宽度及鱼鳞片管控",
            "control_method": "1,核对规格\n2.使用卡尺测量\n3.保存首件样品\n4.每2H做首件巡回检验一次",
            "requirement": "1焊道9-11片鱼鳞纹/25.4MM\n2.焊道宽度6-8mm\n3.没有假焊，漏焊，气孔，焊渣",
            "criticity": "Major",
            "control_type": "Records and method control",
            "supplier_control_freq_note": "每二周检查一次",
            "supplier_controller": "尹昌灯",
            "decathlon_control_freq_note": "monthly",
            "active": true
          },
          {
            "step_number": "头管与方管焊接",
            "control_item": "头管与方管焊道熔深管控",
            "control_method": "Check the supplier frequency + control method + the records 检查供应商的管控频率+ 管控方法+管控记录",
            "requirement": "The frequencies, the control method and the records are respected. If supplier records NC, challenge the way he manage it 管控频率，方法和记录都被遵守，如果供应商记录有不良，盘问他的管理方法",
            "criticity": "Major",
            "control_type": "LAB control",
            "supplier_control_freq_note": "每月/次",
            "supplier_controller": "左枫",
            "decathlon_control_freq_note": null,
            "active": true
          },
          {
            "step_number": "头管与方管焊接",
            "control_item": "头管与方管焊道熔深管控",
            "control_method": "1,核对规格\n2.每个月抽1个作熔深破坏检测熔深",
            "requirement": "20%≤焊道熔渗标准为≤70%",
            "criticity": "Major",
            "control_type": "Records and method control",
            "supplier_control_freq_note": "每月检查一次",
            "supplier_controller": "尹昌灯",
            "decathlon_control_freq_note": "monthly",
            "active": true
          },
          {
            "step_number": "连接片",
            "control_item": "连接片牙纹",
            "control_method": "Check the supplier frequency + control method + the records 检查供应商的管控频率+ 管控方法+管控记录",
            "requirement": "The frequencies, the control method and the records are respected. If supplier records NC, challenge the way he manage it 管控频率，方法和记录都被遵守，如果供应商记录有不良，盘问他的管理方法",
            "criticity": "Major",
            "control_type": "Product control",
            "supplier_control_freq_note": "5个/2H",
            "supplier_controller": "IPQC/罗青",
            "decathlon_control_freq_note": null,
            "active": true
          },
          {
            "step_number": "连接片",
            "control_item": "连接片牙纹",
            "control_method": "1,核对规格\n2.使用牙规检测\n3.保存首件样品\n4.每2H做首件巡回检验一次",
            "requirement": "Ｍ4*Ｐ0.7牙规通规GO止规NO GO",
            "criticity": "Major",
            "control_type": "Records and method control",
            "supplier_control_freq_note": "每二周检查一次",
            "supplier_controller": "尹昌灯",
            "decathlon_control_freq_note": "monthly",
            "active": true
          },
          {
            "step_number": "连接片",
            "control_item": "连接片与底板焊接宽度管控",
            "control_method": "Check the supplier frequency + control method + the records 检查供应商的管控频率+ 管控方法+管控记录",
            "requirement": "The frequencies, the control method and the records are respected. If supplier records NC, challenge the way he manage it 管控频率，方法和记录都被遵守，如果供应商记录有不良，盘问他的管理方法",
            "criticity": "Major",
            "control_type": "Product control",
            "supplier_control_freq_note": "5个/2H",
            "supplier_controller": "IPQC/罗青",
            "decathlon_control_freq_note": null,
            "active": true
          },
          {
            "step_number": "连接片",
            "control_item": "连接片与底板焊接宽度管控",
            "control_method": "1,核对规格\n2.使用卡尺测量\n3.保存首件样品\n4.每2H做首件巡回检验一次",
            "requirement": "宽度标准：38.5±0.3mm，焊接后过检具",
            "criticity": "Major",
            "control_type": "Records and method control",
            "supplier_control_freq_note": "每周检查一次",
            "supplier_controller": "尹昌灯",
            "decathlon_control_freq_note": "monthly",
            "active": true
          },
          {
            "step_number": "底板焊接",
            "control_item": "底板与后避震转座焊接尺寸",
            "control_method": "Check the supplier frequency + control method + the records 检查供应商的管控频率+ 管控方法+管控记录",
            "requirement": "The frequencies, the control method and the records are respected. If supplier records NC, challenge the way he manage it 管控频率，方法和记录都被遵守，如果供应商记录有不良，盘问他的管理方法",
            "criticity": "Major",
            "control_type": "Product control",
            "supplier_control_freq_note": "5个/2H",
            "supplier_controller": "IPQC/罗青",
            "decathlon_control_freq_note": null,
            "active": true
          },
          {
            "step_number": "底板焊接",
            "control_item": "底板与后避震转座焊接尺寸",
            "control_method": "1,核对规格\n2.使用卡尺测量\n3.保存首件样品\n4.每2H做首件巡回检验一次",
            "requirement": "1. 外宽：51.5-0.1/-0.3mm\n2. 边距：32+0.2/-0mm",
            "criticity": "Major",
            "control_type": "Records and method control",
            "supplier_control_freq_note": "每二周检查一次",
            "supplier_controller": "尹昌灯",
            "decathlon_control_freq_note": "monthly",
            "active": true
          },
          {
            "step_number": "底板焊接",
            "control_item": "底板与刹车线固定管套焊接尺寸管控",
            "control_method": "Check the supplier frequency + control method + the records 检查供应商的管控频率+ 管控方法+管控记录",
            "requirement": "The frequencies, the control method and the records are respected. If supplier records NC, challenge the way he manage it 管控频率，方法和记录都被遵守，如果供应商记录有不良，盘问他的管理方法",
            "criticity": "Major",
            "control_type": "Product control",
            "supplier_control_freq_note": "5个/2H",
            "supplier_controller": "IPQC/罗青",
            "decathlon_control_freq_note": null,
            "active": true
          },
          {
            "step_number": "底板焊接",
            "control_item": "底板与刹车线固定管套焊接尺寸管控",
            "control_method": "1,核对规格\n2.使用卡尺测量\n3.保存首件样品\n4.每2H做首件巡回检验一次",
            "requirement": "边距：225.4±3mm",
            "criticity": "Major",
            "control_type": "Records and method control",
            "supplier_control_freq_note": "每二周检查一次",
            "supplier_controller": "尹昌灯",
            "decathlon_control_freq_note": "monthly",
            "active": true
          },
          {
            "step_number": "底板焊接",
            "control_item": "底板整体焊接后管控",
            "control_method": "Check the supplier frequency + control method + the records 检查供应商的管控频率+ 管控方法+管控记录",
            "requirement": "The frequencies, the control method and the records are respected. If supplier records NC, challenge the way he manage it 管控频率，方法和记录都被遵守，如果供应商记录有不良，盘问他的管理方法",
            "criticity": "Major",
            "control_type": "Product control",
            "supplier_control_freq_note": "5个/2H",
            "supplier_controller": "IPQC/罗青",
            "decathlon_control_freq_note": null,
            "active": true
          },
          {
            "step_number": "底板焊接",
            "control_item": "底板整体焊接后管控",
            "control_method": "1,核对规格\n2.使用卡尺测量\n3.保存首件样品\n4.每2H做首件巡回检验一次",
            "requirement": "1 焊道9-11片鱼鳞纹/25.4\n2.焊道宽度6-8mm\n3.没有假焊，漏焊，气孔，焊渣，电伤.焊穿等",
            "criticity": "Major",
            "control_type": "Records and method control",
            "supplier_control_freq_note": "每二周检查一次",
            "supplier_controller": "尹昌灯",
            "decathlon_control_freq_note": "monthly",
            "active": true
          },
          {
            "step_number": "底板焊接",
            "control_item": "底板焊接后熔深管控",
            "control_method": "Check the supplier frequency + control method + the records 检查供应商的管控频率+ 管控方法+管控记录",
            "requirement": "The frequencies, the control method and the records are respected. If supplier records NC, challenge the way he manage it 管控频率，方法和记录都被遵守，如果供应商记录有不良，盘问他的管理方法",
            "criticity": "Major",
            "control_type": "LAB control",
            "supplier_control_freq_note": "每月/次",
            "supplier_controller": "左枫",
            "decathlon_control_freq_note": null,
            "active": true
          },
          {
            "step_number": "底板焊接",
            "control_item": "底板焊接后熔深管控",
            "control_method": "1,核对规格\n2.每个月抽1个作熔深破坏检测熔深",
            "requirement": "20%≤焊道熔渗标准为≤70%",
            "criticity": "Major",
            "control_type": "Records and method control",
            "supplier_control_freq_note": "每月检查一次",
            "supplier_controller": "尹昌灯",
            "decathlon_control_freq_note": "monthly",
            "active": true
          },
          {
            "step_number": "底板焊接",
            "control_item": "底板焊接后熔深管控",
            "control_method": null,
            "requirement": null,
            "criticity": "Major",
            "control_type": null,
            "supplier_control_freq_note": null,
            "supplier_controller": null,
            "decathlon_control_freq_note": "monthly",
            "active": true
          }
        ]
      },
      {
        "name": "Assembling process",
        "category": "Online control",
        "steps": [
          {
            "step_number": "立管组组装",
            "control_item": "立管八角轴心组装",
            "control_method": "Check the supplier frequency + control method + the records检查供应商的管控频率+ 管控方法+管控记录",
            "requirement": "The frequencies, the control method and the records are respected. If supplier records NC, challenge the way he manage it 管控频率，方法和记录都被遵守，如果供应商记录有不良，盘问他的管理方法",
            "criticity": "Major",
            "control_type": "Product control",
            "supplier_control_freq_note": "全检",
            "supplier_controller": "线上作业员",
            "decathlon_control_freq_note": "Every 2 weeks Check 5 times the screwdriver",
            "active": true
          },
          {
            "step_number": "立管组组装",
            "control_item": "立管八角轴心组装",
            "control_method": "1.观察作业员组装时，有无全检轴心螺母牙纹，有无依SOP要求作业",
            "requirement": "1.作业员组装立管前，检查螺母需有牙纹\n2.立管螺丝不可以漏装",
            "criticity": "Major",
            "control_type": "Records and method control",
            "supplier_control_freq_note": "二周一次",
            "supplier_controller": "尹昌灯",
            "decathlon_control_freq_note": "Every 2 weeks Check 5 times the screwdriver",
            "active": true
          },
          {
            "step_number": "立管盖铆合",
            "control_item": "铆合深度及位置",
            "control_method": "Check the supplier frequency + control method + the records  检查供应商的管控频率+ 管控方法+管控记录",
            "requirement": "The frequencies, the control method and the records are respected. If supplier records NC, challenge the way he manage it 管控频率，方法和记录都被遵守，如果供应商记录有不良，盘问他的管理方法",
            "criticity": "Major",
            "control_type": "Product control",
            "supplier_control_freq_note": "5个/2H",
            "supplier_controller": "QA/廖志刚",
            "decathlon_control_freq_note": "Every 2 days",
            "active": true
          },
          {
            "step_number": "立管盖铆合",
            "control_item": "铆合深度及位置",
            "control_method": "1.核对规格\n2.使用专用机器进行铆合\n3.铆合后做首件确认",
            "requirement": "1.铆合四个点，铆合的深度能咬住立管，铆合的位置要在立管盖的中间，不可以在边缘位置",
            "criticity": "Major",
            "control_type": "Records and method control",
            "supplier_control_freq_note": "二周一次",
            "supplier_controller": "尹昌灯",
            "decathlon_control_freq_note": "Every 2 days 每两天",
            "active": true
          },
          {
            "step_number": "立管盖铆合",
            "control_item": "碗组垫片位置",
            "control_method": "Check the supplier frequency + control method + the records  检查供应商的管控频率+ 管控方法+管控记录",
            "requirement": "The frequencies, the control method and the records are respected. If supplier records NC, challenge the way he manage it 管控频率，方法和记录都被遵守，如果供应商记录有不良，盘问他的管理方法",
            "criticity": "Major",
            "control_type": "Product control",
            "supplier_control_freq_note": "5个/2H",
            "supplier_controller": "QA/廖志刚",
            "decathlon_control_freq_note": null,
            "active": true
          },
          {
            "step_number": "立管盖铆合",
            "control_item": "碗组垫片位置",
            "control_method": "1.核对规格\n2.使用专用机器进行铆合\n3.铆合后做首件确认",
            "requirement": "碗组垫片铆合后要平整到位，不可以歪斜",
            "criticity": "Major",
            "control_type": "Product control",
            "supplier_control_freq_note": "二周一次",
            "supplier_controller": "尹昌灯",
            "decathlon_control_freq_note": null,
            "active": true
          },
          {
            "step_number": "主轴头铆合",
            "control_item": "铆合点深度",
            "control_method": "Check the supplier frequency + control method + the records  检查供应商的管控频率+ 管控方法+管控记录",
            "requirement": "The frequencies, the control method and the records are respected. If supplier records NC, challenge the way he manage it 管控频率，方法和记录都被遵守，如果供应商记录有不良，盘问他的管理方法",
            "criticity": "Major",
            "control_type": "Product control",
            "supplier_control_freq_note": "5个/2H",
            "supplier_controller": "QA/廖志刚",
            "decathlon_control_freq_note": null,
            "active": true
          },
          {
            "step_number": "主轴头铆合",
            "control_item": "铆合点深度",
            "control_method": "1.核对规格\n2.使用专用机器进行铆合\n3.铆合后做首件确认",
            "requirement": "主轴头铆合后，深度依样品",
            "criticity": "Major",
            "control_type": "Records and method control",
            "supplier_control_freq_note": "二周一次",
            "supplier_controller": "尹昌灯",
            "decathlon_control_freq_note": null,
            "active": true
          },
          {
            "step_number": "主轴头铆合",
            "control_item": "主轴头螺母扭力",
            "control_method": "Check the supplier frequency + control method + the records  检查供应商的管控频率+ 管控方法+管控记录",
            "requirement": "The frequencies, the control method and the records are respected. If supplier records NC, challenge the way he manage it 管控频率，方法和记录都被遵守，如果供应商记录有不良，盘问他的管理方法",
            "criticity": "Major",
            "control_type": "Product control",
            "supplier_control_freq_note": "5个/2H",
            "supplier_controller": "QA/廖志刚",
            "decathlon_control_freq_note": null,
            "active": true
          },
          {
            "step_number": "主轴头铆合",
            "control_item": "主轴头螺母扭力",
            "control_method": "1.核对规格\n2.使用扭力计锁紧螺母\n3.铆合后做首件确认",
            "requirement": "扭力标准150-200KG",
            "criticity": "Major",
            "control_type": "Records and method control",
            "supplier_control_freq_note": "二周一次",
            "supplier_controller": "尹昌灯",
            "decathlon_control_freq_note": null,
            "active": true
          },
          {
            "step_number": "碗组",
            "control_item": "顺畅度",
            "control_method": "Check the supplier frequency + control method + the records  检查供应商的管控频率+ 管控方法+管控记录",
            "requirement": "The frequencies, the control method and the records are respected. If supplier records NC, challenge the way he manage it 管控频率，方法和记录都被遵守，如果供应商记录有不良，盘问他的管理方法",
            "criticity": "Major",
            "control_type": "Product control",
            "supplier_control_freq_note": "5个/2H",
            "supplier_controller": "QA/廖志刚",
            "decathlon_control_freq_note": null,
            "active": true
          },
          {
            "step_number": "碗组",
            "control_item": "顺畅度",
            "control_method": "1.核对规格\n2.使用定位扳手锁紧螺母\n3.铆合后做首件确认",
            "requirement": "1.定力扳手锁紧力150KG\n2.锁紧后方管需顺畅，不可有卡住现象",
            "criticity": "Major",
            "control_type": "Records and method control",
            "supplier_control_freq_note": "二周一次",
            "supplier_controller": "尹昌灯",
            "decathlon_control_freq_note": null,
            "active": true
          },
          {
            "step_number": "组装下束仔",
            "control_item": "锁紧力",
            "control_method": "Check the supplier frequency + control method + the records  检查供应商的管控频率+ 管控方法+管控记录",
            "requirement": "The frequencies, the control method and the records are respected. If supplier records NC, challenge the way he manage it 管控频率，方法和记录都被遵守，如果供应商记录有不良，盘问他的管理方法",
            "criticity": "Major",
            "control_type": "Product control",
            "supplier_control_freq_note": "5个/2H",
            "supplier_controller": "QA/廖志刚",
            "decathlon_control_freq_note": null,
            "active": true
          },
          {
            "step_number": "组装下束仔",
            "control_item": "锁紧力",
            "control_method": "1.核对规格\n2.使用定位扳手锁紧下束仔\n3.铆合后做首件确认",
            "requirement": "1.定力扳手锁紧力80-150KG\n2.锁紧后下束仔不可松动，歪斜",
            "criticity": "Major",
            "control_type": "Records and method control",
            "supplier_control_freq_note": "二周一次",
            "supplier_controller": "尹昌灯",
            "decathlon_control_freq_note": null,
            "active": true
          },
          {
            "step_number": "组装扶手上管",
            "control_item": "顺畅度及刻度线",
            "control_method": "Check the supplier frequency + control method + the records  检查供应商的管控频率+ 管控方法+管控记录",
            "requirement": "The frequencies, the control method and the records are respected. If supplier records NC, challenge the way he manage it 管控频率，方法和记录都被遵守，如果供应商记录有不良，盘问他的管理方法",
            "criticity": "Major",
            "control_type": "Product control",
            "supplier_control_freq_note": "全检",
            "supplier_controller": "FQC",
            "decathlon_control_freq_note": null,
            "active": true
          },
          {
            "step_number": "组装扶手上管",
            "control_item": "顺畅度及刻度线",
            "control_method": "1.核对规格\n2.依SOP组装",
            "requirement": "1.上下升降顺畅\n2.升到最高和最低点与对应的镭雕刻度线相符",
            "criticity": "Major",
            "control_type": "Records and method control",
            "supplier_control_freq_note": "二周一次",
            "supplier_controller": "尹昌灯",
            "decathlon_control_freq_note": null,
            "active": true
          },
          {
            "step_number": "组装扶手上管",
            "control_item": "T把承载力",
            "control_method": "Check the supplier frequency + control method + the records  检查供应商的管控频率+ 管控方法+管控记录",
            "requirement": "The frequencies, the control method and the records are respected. If supplier records NC, challenge the way he manage it 管控频率，方法和记录都被遵守，如果供应商记录有不良，盘问他的管理方法",
            "criticity": "Major",
            "control_type": "Product control",
            "supplier_control_freq_note": "1.上束仔扭力全检\n2.承载力每小时1台",
            "supplier_controller": "FQC",
            "decathlon_control_freq_note": null,
            "active": true
          },
          {
            "step_number": "组装扶手上管",
            "control_item": "T把承载力",
            "control_method": "1.核对规格\n2.依SIP组装\n3.使用扭力扳手将上束仔锁紧",
            "requirement": "1.上束仔扭力6-7N.M\n2.T把承载力80KG不下滑",
            "criticity": "Major",
            "control_type": "Records and method control",
            "supplier_control_freq_note": "二周一次",
            "supplier_controller": "尹昌灯",
            "decathlon_control_freq_note": null,
            "active": true
          },
          {
            "step_number": "手刹片组装",
            "control_item": "刹车间隙",
            "control_method": "Check the supplier frequency + control method + the records  检查供应商的管控频率+ 管控方法+管控记录",
            "requirement": "The frequencies, the control method and the records are respected. If supplier records NC, challenge the way he manage it 管控频率，方法和记录都被遵守，如果供应商记录有不良，盘问他的管理方法",
            "criticity": "Major",
            "control_type": "Product control",
            "supplier_control_freq_note": "全检",
            "supplier_controller": "FQC",
            "decathlon_control_freq_note": null,
            "active": true
          },
          {
            "step_number": "手刹片组装",
            "control_item": "刹车间隙",
            "control_method": "1.核对规格\n2.依SOP组装\n3.刹车间隙使用定位治具进行组装",
            "requirement": "滑板车折叠后刹车不可以卡住轮子，要求轮子能灵活转动",
            "criticity": "Major",
            "control_type": "Records and method control",
            "supplier_control_freq_note": "二周一次",
            "supplier_controller": "尹昌灯",
            "decathlon_control_freq_note": null,
            "active": true
          },
          {
            "step_number": "全检拉力测试",
            "control_item": "前轮不可脱落",
            "control_method": "Check the supplier frequency + control method + the records检查供应商的管控频率+ 管控方法+管控记录",
            "requirement": "The frequencies, the control method and the records are respected. If supplier records NC, challenge the way he manage it 管控频率，方法和记录都被遵守，如果供应商记录有不良，盘问他的管理方法",
            "criticity": "Major",
            "control_type": "Product control",
            "supplier_control_freq_note": "全检",
            "supplier_controller": "FQC",
            "decathlon_control_freq_note": null,
            "active": true
          },
          {
            "step_number": "全检拉力测试",
            "control_item": "前轮不可脱落",
            "control_method": "1.核对规格\n2.依SIP要求将前轮挂在架子上向下用力拉动",
            "requirement": "检查前轮不可以发生脱落",
            "criticity": "Major",
            "control_type": "Records and method control",
            "supplier_control_freq_note": "二周一次",
            "supplier_controller": "尹昌灯",
            "decathlon_control_freq_note": null,
            "active": true
          }
        ]
      },
      {
        "name": "Packaging process",
        "category": "Online control",
        "steps": [
          {
            "step_number": "贴贴纸",
            "control_item": "贴纸流水号",
            "control_method": "Check the supplier frequency + control method + the records 检查供应商的管控频率+ 管控方法+管控记录",
            "requirement": "The frequencies, the control method and the records are respected. If supplier records NC, challenge the way he manage it 管控频率，方法和记录都被遵守，如果供应商记录有不良，盘问他的管理方法",
            "criticity": "Major",
            "control_type": "Product control",
            "supplier_control_freq_note": "5个/2H",
            "supplier_controller": "FQC",
            "decathlon_control_freq_note": null,
            "active": true
          },
          {
            "step_number": "贴贴纸",
            "control_item": "贴纸流水号",
            "control_method": "1.核对规格\n2.依SOP要求进行贴贴纸",
            "requirement": "彩盒和产品上的流水号贴纸要对应",
            "criticity": "Major",
            "control_type": "Records and method control",
            "supplier_control_freq_note": "二周一次",
            "supplier_controller": "尹昌灯",
            "decathlon_control_freq_note": null,
            "active": true
          },
          {
            "step_number": "封箱",
            "control_item": "打包方式",
            "control_method": "Check the supplier frequency + control method + the records 检查供应商的管控频率+ 管控方法+管控记录",
            "requirement": "The frequencies, the control method and the records are respected. If supplier records NC, challenge the way he manage it 管控频率，方法和记录都被遵守，如果供应商记录有不良，盘问他的管理方法",
            "criticity": null,
            "control_type": "Product control",
            "supplier_control_freq_note": "5个/2H",
            "supplier_controller": "FQC",
            "decathlon_control_freq_note": null,
            "active": true
          },
          {
            "step_number": "封箱",
            "control_item": "打包方式",
            "control_method": "1.核对规格\n2.依SOP要求进行打包",
            "requirement": "1.使用DKL专用胶带\n2.封箱成工字形状\n3.外箱不可有破损",
            "criticity": "Major",
            "control_type": "Records and method control",
            "supplier_control_freq_note": "二周一次",
            "supplier_controller": "尹昌灯",
            "decathlon_control_freq_note": null,
            "active": true
          },
          {
            "step_number": "条码",
            "control_item": "条码正确可扫描",
            "control_method": "Check the supplier frequency + control method + the records 检查供应商的管控频率+ 管控方法+管控记录",
            "requirement": "The frequencies, the control method and the records are respected. If supplier records NC, challenge the way he manage it 管控频率，方法和记录都被遵守，如果供应商记录有不良，盘问他的管理方法",
            "criticity": "Major",
            "control_type": "Product control",
            "supplier_control_freq_note": "每批首件抽测",
            "supplier_controller": "陈玉",
            "decathlon_control_freq_note": null,
            "active": true
          },
          {
            "step_number": "条码",
            "control_item": "条码正确可扫描",
            "control_method": "用扫描仪扫条码",
            "requirement": "条码能正确扫描，并号码正确",
            "criticity": "Major",
            "control_type": "Product control",
            "supplier_control_freq_note": "二周一次",
            "supplier_controller": "尹昌灯",
            "decathlon_control_freq_note": null,
            "active": true
          }
        ]
      },
      {
        "name": "Sub part",
        "category": "Lab test",
        "steps": [
          {
            "step_number": "双轴测试",
            "control_item": "产品功能正常，无变形破裂",
            "control_method": "Check the supplier frequency + control method + the records 检查供应商的管控频率+ 管控方法+管控记录",
            "requirement": "The frequencies, the control method and the records are respected. If supplier records NC, challenge the way he manage it 管控频率，方法和记录都被遵守，如果供应商记录有不良，盘问他的管理方法",
            "criticity": "Major",
            "control_type": "LAB control",
            "supplier_control_freq_note": "25000台/次",
            "supplier_controller": "廖志刚",
            "decathlon_control_freq_note": null,
            "active": true
          },
          {
            "step_number": "双轴测试",
            "control_item": "产品功能正常，无变形破裂",
            "control_method": "送测试房使用双轴测试机测试",
            "requirement": "产品功能正常，无断裂",
            "criticity": "Major",
            "control_type": "Records and method control",
            "supplier_control_freq_note": "二个月",
            "supplier_controller": "尹昌灯",
            "decathlon_control_freq_note": null,
            "active": true
          },
          {
            "step_number": "疲劳测试",
            "control_item": "产品功能正常，无变形破裂",
            "control_method": "Check the supplier frequency + control method + the records 检查供应商的管控频率+ 管控方法+管控记录",
            "requirement": "The frequencies, the control method and the records are respected. If supplier records NC, challenge the way he manage it 管控频率，方法和记录都被遵守，如果供应商记录有不良，盘问他的管理方法",
            "criticity": "Major",
            "control_type": "LAB control",
            "supplier_control_freq_note": "25000台/次",
            "supplier_controller": "左枫",
            "decathlon_control_freq_note": null,
            "active": true
          },
          {
            "step_number": "疲劳测试",
            "control_item": "产品功能正常，无变形破裂",
            "control_method": "送测试房使用疲劳测试机测试",
            "requirement": "产品功能正常，无变形破裂",
            "criticity": "Major",
            "control_type": "Records and method control",
            "supplier_control_freq_note": "二个月",
            "supplier_controller": "尹昌灯",
            "decathlon_control_freq_note": null,
            "active": true
          }
        ]
      }
    ]
  }
}
