{
  "filename": "CP 2.3_UHM_62550_Underwear KDRY 100LS JuniorTshirt_Israt Jahan.xlsx",
  "count": 9,
  "product_family": {
    "name": "UNDERWEAR KDRY100 LS J",
    "processes": [
      {
        "name": "Incoming control",
        "category": "Incoming control",
        "steps": [
          {
            "step_number": "1.0",
            "control_item": "Fabric IQC        \nLabelling of received goods\nFabric Quantity and Packaging Quality\"",
            "control_method": "DPR 02.001 A, DPR 02.002A",
            "requirement": "\"Labelling of received goods\nFabric Quantity and Packaging Quality\"",
            "criticity": "Major",
            "control_type": "Visual/cosmetic control",
            "supplier_control_freq_note": null,
            "supplier_controller": null,
            "decathlon_control_freq_note": "Weekly",
            "active": true
          },
          {
            "step_number": "2.0",
            "control_item": "RFID",
            "control_method": "DCS 020A, DPR 02.003A",
            "requirement": "RFID Control",
            "criticity": "Critical",
            "control_type": "Visual/cosmetic control",
            "supplier_control_freq_note": null,
            "supplier_controller": null,
            "decathlon_control_freq_note": "Monthly",
            "active": true
          },
          {
            "step_number": "3.0",
            "control_item": "HTL",
            "control_method": "DCS 03007A, DPR 03007C",
            "requirement": "each invoice",
            "criticity": "Major",
            "control_type": "Visual/cosmetic control",
            "supplier_control_freq_note": null,
            "supplier_controller": null,
            "decathlon_control_freq_note": "Monthly",
            "active": true
          }
        ]
      },
      {
        "name": "Sub part warehouse",
        "category": "Online control",
        "steps": [
          {
            "step_number": "1.0",
            "control_item": "FABRIC STORAGE",
            "control_method": "DPR 03.001A , DPR 03.002 A, DPR 03.004A, DPR 03.004B",
            "requirement": "---Fabric rolls must be :\n- Protected from excessive pressure,\n- Stored along side,\n- Packaged,\n- On a raised and adapted rack.\n- Protected from sunlight and Bad weather\n\n---Each roll must be identified.Labels must be visible and well fixed on\nthe parcel.\n-Minimum information on label\nare :\n- Reference\n- Color reference\n- Quantity\n- Batch number",
            "criticity": "Major",
            "control_type": "Visual/cosmetic control",
            "supplier_control_freq_note": null,
            "supplier_controller": null,
            "decathlon_control_freq_note": null,
            "active": true
          }
        ]
      },
      {
        "name": "Sub part cutting",
        "category": "Online control",
        "steps": [
          {
            "step_number": "1.0",
            "control_item": "RELAXING PROCEDURE",
            "control_method": "DPR 04.001",
            "requirement": "D LEVEL FOR ALL STRETCHED FABRICS\n E LEVEL FOR SWIMWEAR",
            "criticity": "Major",
            "control_type": "Visual/cosmetic control",
            "supplier_control_freq_note": null,
            "supplier_controller": null,
            "decathlon_control_freq_note": null,
            "active": true
          },
          {
            "step_number": "2.0",
            "control_item": "SPREADING PROCESS",
            "control_method": "DPR 05.007",
            "requirement": "Spreading Procedure",
            "criticity": "Major",
            "control_type": "Visual/cosmetic control",
            "supplier_control_freq_note": null,
            "supplier_controller": null,
            "decathlon_control_freq_note": null,
            "active": true
          },
          {
            "step_number": "3.0",
            "control_item": "RECOMMANDED LAY HEIGHT & LENGHT",
            "control_method": "DPR 05.010",
            "requirement": "D LEVEL FOR ALL STRETCHED FABRICS\n E LEVEL FOR SWIMWEAR",
            "criticity": "Major",
            "control_type": "Visual/cosmetic control",
            "supplier_control_freq_note": null,
            "supplier_controller": null,
            "decathlon_control_freq_note": null,
            "active": true
          },
          {
            "step_number": "4.0",
            "control_item": "PANEL CUTTING DIRECTION",
            "control_method": "DPR 06.003",
            "requirement": "Panel Cutting Direction",
            "criticity": "Major",
            "control_type": "Visual/cosmetic control",
            "supplier_control_freq_note": null,
            "supplier_controller": null,
            "decathlon_control_freq_note": null,
            "active": true
          },
          {
            "step_number": "5.0",
            "control_item": "ACCURACY OF CUTTING",
            "control_method": "DPR 06.009",
            "requirement": "Maximum deviation is 1% of\nthe piece total length or maximum\n0,5 cm.",
            "criticity": "Major",
            "control_type": "Visual/cosmetic control",
            "supplier_control_freq_note": null,
            "supplier_controller": null,
            "decathlon_control_freq_note": null,
            "active": true
          },
          {
            "step_number": "6.0",
            "control_item": "ACCURACY OF NOTCHES & NOTCHES DIRECTION",
            "control_method": "DPR 06.011",
            "requirement": "Accuracy of notches",
            "criticity": "Major",
            "control_type": "Visual/cosmetic control",
            "supplier_control_freq_note": null,
            "supplier_controller": null,
            "decathlon_control_freq_note": null,
            "active": true
          },
          {
            "step_number": "7.0",
            "control_item": "MARKER TRACING",
            "control_method": "DPR 06.001",
            "requirement": "No manual marking",
            "criticity": null,
            "control_type": "Visual/cosmetic control",
            "supplier_control_freq_note": null,
            "supplier_controller": null,
            "decathlon_control_freq_note": null,
            "active": true
          },
          {
            "step_number": "8.0",
            "control_item": "CONTROL OF CUT PIECES",
            "control_method": "DPR 06.021",
            "requirement": "FOR SWIMWEAR & UNDERWEAR",
            "criticity": "Major",
            "control_type": "Visual/cosmetic control",
            "supplier_control_freq_note": null,
            "supplier_controller": null,
            "decathlon_control_freq_note": null,
            "active": true
          }
        ]
      },
      {
        "name": "Sub part assembling",
        "category": "Online control",
        "steps": [
          {
            "step_number": "1.0",
            "control_item": "OVERLOCK PROCESS",
            "control_method": "DPR 10.107 Overlock process",
            "requirement": "Defect is critical on leggings family products and major on the others",
            "criticity": "Major",
            "control_type": "Visual/cosmetic control",
            "supplier_control_freq_note": null,
            "supplier_controller": null,
            "decathlon_control_freq_note": null,
            "active": true
          },
          {
            "step_number": "2.0",
            "control_item": "BINDING SHAPE CONTROL",
            "control_method": "DPR 10.312 A",
            "requirement": "Check the shape of binding on Armhole & Neck",
            "criticity": "Major",
            "control_type": "Visual/cosmetic control",
            "supplier_control_freq_note": null,
            "supplier_controller": null,
            "decathlon_control_freq_note": null,
            "active": true
          },
          {
            "step_number": "3.0",
            "control_item": "MEASUREMENT CONTROL",
            "control_method": "As per Spec",
            "requirement": "Check the measurement of Neck , armhole, Chest & Length specially",
            "criticity": "Major",
            "control_type": "Visual/cosmetic control",
            "supplier_control_freq_note": null,
            "supplier_controller": null,
            "decathlon_control_freq_note": null,
            "active": true
          },
          {
            "step_number": "4.0",
            "control_item": "CHECK SEAM ELASTICITY",
            "control_method": "DPR 10.106, DCS 012A",
            "requirement": "No seam break",
            "criticity": "Major",
            "control_type": "Visual/cosmetic control",
            "supplier_control_freq_note": null,
            "supplier_controller": null,
            "decathlon_control_freq_note": null,
            "active": true
          },
          {
            "step_number": "5.0",
            "control_item": "ASSEMBLIES CONFORMITY AND SOLIDITY",
            "control_method": "DCS_010A",
            "requirement": "Assemblies solidity and conformity",
            "criticity": "Major",
            "control_type": "Visual/cosmetic control",
            "supplier_control_freq_note": null,
            "supplier_controller": null,
            "decathlon_control_freq_note": null,
            "active": true
          },
          {
            "step_number": "4.0",
            "control_item": "STITCHING DENSITY",
            "control_method": "DPR_Textile_10.111",
            "requirement": "Stitch Density for assesmbly",
            "criticity": "Major",
            "control_type": "Visual/cosmetic control",
            "supplier_control_freq_note": null,
            "supplier_controller": null,
            "decathlon_control_freq_note": null,
            "active": true
          },
          {
            "step_number": "5.0",
            "control_item": "CHECK THE THREAD VS BOM",
            "control_method": "BOM",
            "requirement": "SAME THAN MTSR (BRAND, REF)",
            "criticity": "Major",
            "control_type": "Visual/cosmetic control",
            "supplier_control_freq_note": null,
            "supplier_controller": null,
            "decathlon_control_freq_note": null,
            "active": true
          },
          {
            "step_number": "6.0",
            "control_item": "TO CHECK RFID LABEL IS MATCHING WITH PRODUCT SIZE",
            "control_method": "On 3 products, check if RFID is matching with the product (model, size)",
            "requirement": "RFID on product must be conformed with the product",
            "criticity": "Major",
            "control_type": "Visual/cosmetic control",
            "supplier_control_freq_note": null,
            "supplier_controller": null,
            "decathlon_control_freq_note": null,
            "active": true
          },
          {
            "step_number": "7.0",
            "control_item": "TO GUARANTEE THE BROKEN NEEDLE MANAGEMENT",
            "control_method": "DPR 10.122 broken needle register",
            "requirement": "critical on baby products lines",
            "criticity": "Critical",
            "control_type": "Visual/cosmetic control",
            "supplier_control_freq_note": null,
            "supplier_controller": null,
            "decathlon_control_freq_note": null,
            "active": true
          },
          {
            "step_number": "8.0",
            "control_item": "Drop Test on Finished Products",
            "control_method": "DCS 011.A",
            "requirement": "Moisture Management Test",
            "criticity": "Major",
            "control_type": "Visual/cosmetic control",
            "supplier_control_freq_note": null,
            "supplier_controller": null,
            "decathlon_control_freq_note": null,
            "active": true
          }
        ]
      },
      {
        "name": "Sub part accessories and marking",
        "category": "Online control",
        "steps": [
          {
            "step_number": "9.0",
            "control_item": "HEAT TRANSFER LABEL APPLICATION",
            "control_method": "DPR 09.105",
            "requirement": "Heat Transfert Label Application",
            "criticity": "Major",
            "control_type": "Visual/cosmetic control",
            "supplier_control_freq_note": null,
            "supplier_controller": null,
            "decathlon_control_freq_note": null,
            "active": true
          },
          {
            "step_number": "10.0",
            "control_item": "HEAT TRANSFER LABEL POSITION UNDER PRESS",
            "control_method": "DPR 09.106",
            "requirement": "HTL position under press",
            "criticity": "Major",
            "control_type": "Visual/cosmetic control",
            "supplier_control_freq_note": null,
            "supplier_controller": null,
            "decathlon_control_freq_note": null,
            "active": true
          },
          {
            "step_number": "11.0",
            "control_item": "SELF CONTROL ON HEAT TRANSFER",
            "control_method": "DPR 09.109",
            "requirement": "Quality and Durability of HTL",
            "criticity": "Major",
            "control_type": "Visual/cosmetic control",
            "supplier_control_freq_note": null,
            "supplier_controller": null,
            "decathlon_control_freq_note": null,
            "active": true
          }
        ]
      },
      {
        "name": "Sub part finsihing packing",
        "category": "Online control",
        "steps": [
          {
            "step_number": "12.0",
            "control_item": "IRONING AREAS",
            "control_method": "DPR 12.002",
            "requirement": "Ironing is totally forbidden on :\n- Print\n- Plastic / metallic accessories\n- Zip\n- RFID.",
            "criticity": "Major",
            "control_type": "Visual/cosmetic control",
            "supplier_control_freq_note": null,
            "supplier_controller": null,
            "decathlon_control_freq_note": null,
            "active": true
          },
          {
            "step_number": "13.0",
            "control_item": "PACKING MOLD PREVENTION",
            "control_method": "DPR 13.007",
            "requirement": "No visible condensation during packing, In case of any additional water using process/water proof test, drying time must be respected",
            "criticity": "Major",
            "control_type": "Visual/cosmetic control",
            "supplier_control_freq_note": null,
            "supplier_controller": null,
            "decathlon_control_freq_note": null,
            "active": true
          },
          {
            "step_number": "14.0",
            "control_item": "SUPPLIER END OF LINE CONTROL",
            "control_method": "DPR 10.117",
            "requirement": "-Internaly validated sample.\n-Measurement chart with fundamentals\nhighlighled.\n- records of the defects.\n- Support for decision like : DCS,\nexamples of defects.",
            "criticity": "Major",
            "control_type": "Visual/cosmetic control",
            "supplier_control_freq_note": null,
            "supplier_controller": null,
            "decathlon_control_freq_note": null,
            "active": true
          },
          {
            "step_number": "17.0",
            "control_item": "RFID CONTROL",
            "control_method": "DPR 14.005, DPR 13.003",
            "requirement": "Check if the process is reliable. The process must detect when there is non conformity in term of reference or quantity.",
            "criticity": "Major",
            "control_type": "Visual/cosmetic control",
            "supplier_control_freq_note": null,
            "supplier_controller": null,
            "decathlon_control_freq_note": null,
            "active": true
          },
          {
            "step_number": "18.0",
            "control_item": "LIGHT MACHINE FOR END LINE CONTROL",
            "control_method": "DPR 10.120 light machine for seam control",
            "requirement": "To check Lycra burn issue",
            "criticity": "Major",
            "control_type": "Visual/cosmetic control",
            "supplier_control_freq_note": null,
            "supplier_controller": null,
            "decathlon_control_freq_note": null,
            "active": true
          }
        ]
      },
      {
        "name": "Final control",
        "category": "Final control",
        "steps": [
          {
            "step_number": "1.0",
            "control_item": "fondamental measurement",
            "control_method": "\"To check 2 pieces per size \n(or 3 pieces if order qty over 35000pcs)\"",
            "requirement": "1 measurement NOK --> Take 5 more pieces & control on the failed measurement.  If 1 piece min of new sampling is NOK, the order result is REJECTED",
            "criticity": null,
            "control_type": "Visual/cosmetic control",
            "supplier_control_freq_note": null,
            "supplier_controller": null,
            "decathlon_control_freq_note": null,
            "active": true
          },
          {
            "step_number": "2.0",
            "control_item": "non fundamental measurement",
            "control_method": "\"To check 1 piece per size\n(or 3 pieces if order qty over 35000pcs)\"",
            "requirement": "1 measurement NOK --> Take 5 more pieces & control on the failed measurement.  If 2 pieces min of new sampling are NOK, the order result is REJECTED",
            "criticity": null,
            "control_type": "Visual/cosmetic control",
            "supplier_control_freq_note": null,
            "supplier_controller": null,
            "decathlon_control_freq_note": null,
            "active": true
          }
        ]
      },
      {
        "name": "Sub part gtd",
        "category": "Final control",
        "steps": [
          {
            "step_number": "4.0",
            "control_item": "Check GTD",
            "control_method": "General Terms of deliveries",
            "requirement": "Conform to GTD",
            "criticity": "Major",
            "control_type": "Visual/cosmetic control",
            "supplier_control_freq_note": null,
            "supplier_controller": null,
            "decathlon_control_freq_note": null,
            "active": true
          },
          {
            "step_number": "5.0",
            "control_item": "Verify encoding and barcode reading on the RFID Tag",
            "control_method": "DCS_20_RFID_CONFORMITY",
            "requirement": null,
            "criticity": "Critical",
            "control_type": null,
            "supplier_control_freq_note": null,
            "supplier_controller": null,
            "decathlon_control_freq_note": null,
            "active": true
          }
        ]
      },
      {
        "name": "Sub part general",
        "category": "Final control",
        "steps": [
          {
            "step_number": "6.0",
            "control_item": "Check the conformity of the hanging/folding",
            "control_method": "DCS_30 Hanging & Folding conformity",
            "requirement": null,
            "criticity": "Major",
            "control_type": "Visual/cosmetic control",
            "supplier_control_freq_note": null,
            "supplier_controller": null,
            "decathlon_control_freq_note": null,
            "active": true
          },
          {
            "step_number": "7.0",
            "control_item": "Check packaging & size labelling conformity",
            "control_method": "DCS_019 Size Labelling conformity",
            "requirement": null,
            "criticity": "Major",
            "control_type": "Visual/cosmetic control",
            "supplier_control_freq_note": null,
            "supplier_controller": null,
            "decathlon_control_freq_note": null,
            "active": true
          },
          {
            "step_number": "8.0",
            "control_item": "Lycra Burning in fabric",
            "control_method": "Check with lighting system.\n Hold the pieces (Single side) against light.",
            "requirement": "No lycra burning in fabric",
            "criticity": "Major",
            "control_type": "Visual/cosmetic control",
            "supplier_control_freq_note": null,
            "supplier_controller": null,
            "decathlon_control_freq_note": null,
            "active": true
          },
          {
            "step_number": "9.0",
            "control_item": "Check general appearance",
            "control_method": "DCS_024 General appearance",
            "requirement": null,
            "criticity": "Major",
            "control_type": "Visual/cosmetic control",
            "supplier_control_freq_note": null,
            "supplier_controller": null,
            "decathlon_control_freq_note": null,
            "active": true
          },
          {
            "step_number": "10.0",
            "control_item": "Check BOM conformity",
            "control_method": "Compare to master sample and teck pach",
            "requirement": null,
            "criticity": "Major",
            "control_type": "Visual/cosmetic control",
            "supplier_control_freq_note": null,
            "supplier_controller": null,
            "decathlon_control_freq_note": null,
            "active": true
          },
          {
            "step_number": "11.0",
            "control_item": "Check marking conformity",
            "control_method": "DCS_007 Marking Conformity",
            "requirement": null,
            "criticity": "Major",
            "control_type": "Visual/cosmetic control",
            "supplier_control_freq_note": null,
            "supplier_controller": null,
            "decathlon_control_freq_note": null,
            "active": true
          },
          {
            "step_number": "12.0",
            "control_item": "Check Labels",
            "control_method": "DCS_021 General Labels conformity",
            "requirement": "COMPOSITION INFORMATION ARE CRITICAL\n Traceability must include at minimum : main component batch number (or a number linked to it), production week of assembly, supplier code.",
            "criticity": "Minor",
            "control_type": "Visual/cosmetic control",
            "supplier_control_freq_note": null,
            "supplier_controller": null,
            "decathlon_control_freq_note": null,
            "active": true
          },
          {
            "step_number": "13.0",
            "control_item": "Check the symmetry of garment",
            "control_method": "DCS_018 symmetry conformity",
            "requirement": null,
            "criticity": "Major",
            "control_type": "Visual/cosmetic control",
            "supplier_control_freq_note": null,
            "supplier_controller": null,
            "decathlon_control_freq_note": null,
            "active": true
          },
          {
            "step_number": "14.0",
            "control_item": "Check the stitching regularity",
            "control_method": "DCS_013 Stitching regularity",
            "requirement": null,
            "criticity": "Major",
            "control_type": "Visual/cosmetic control",
            "supplier_control_freq_note": null,
            "supplier_controller": null,
            "decathlon_control_freq_note": null,
            "active": true
          },
          {
            "step_number": "15.0",
            "control_item": "Check the seam elasticity",
            "control_method": "DCS_012 Seam elasticity",
            "requirement": null,
            "criticity": "Major",
            "control_type": "Visual/cosmetic control",
            "supplier_control_freq_note": null,
            "supplier_controller": null,
            "decathlon_control_freq_note": null,
            "active": true
          },
          {
            "step_number": "16.0",
            "control_item": "Check the assemblies conformity & solidity",
            "control_method": "DCS_010 Assemblies solidity and conformity",
            "requirement": null,
            "criticity": "Major",
            "control_type": "Visual/cosmetic control",
            "supplier_control_freq_note": null,
            "supplier_controller": null,
            "decathlon_control_freq_note": null,
            "active": true
          }
        ]
      }
    ]
  }
}
