{
  "filename": "Cp2.3_TD_62830_B1-500 Scooter_Alex L.xlsx",
  "count": 5,
  "product_family": {
    "name": "B1 500",
    "processes": [
      {
        "name": "Metal raw material reception and storage",
        "category": "Incoming control",
        "steps": [
          {
            "step_number": "000",
            "control_item": "来料检验可靠性",
            "control_method": "Check the supplier frequency + control method + the records 检查供应商的管控频率+ 管控方法+管控记录",
            "requirement": "The frequencies, the control method and the records are respected. If supplier records NC, challenge the way he manage it 管控频率，方法和记录都被遵守，如果供应商记录有不良，盘问他的管理方法",
            "criticity": "Major",
            "control_type": "Records and method control",
            "supplier_control_freq_note": "QC",
            "supplier_controller": "Q leader",
            "decathlon_control_freq_note": "1 次/周",
            "active": true
          },
          {
            "step_number": "塑料米进料",
            "control_item": "塑料米",
            "control_method": "拉伸强度，缺口冲击强度\n测试条件：50mm/min\n测试设备：电脑拉力计",
            "requirement": "参照《改性材料测试标准》",
            "criticity": "Major",
            "control_type": "LAB control",
            "supplier_control_freq_note": "检验频次：不同批次号每批来料测试",
            "supplier_controller": "次/2周",
            "decathlon_control_freq_note": "1 次/周",
            "active": true
          },
          {
            "step_number": "发光轮",
            "control_item": "外观",
            "control_method": "目视外观检查",
            "requirement": "轮毂不可有毛边刮手。",
            "criticity": "Minor",
            "control_type": "Visual/cosmetic control",
            "supplier_control_freq_note": null,
            "supplier_controller": null,
            "decathlon_control_freq_note": null,
            "active": true
          },
          {
            "step_number": "发光轮",
            "control_item": "芯子高度",
            "control_method": "卡尺",
            "requirement": "10.4±0.1mm",
            "criticity": "Major",
            "control_type": "Product control",
            "supplier_control_freq_note": null,
            "supplier_controller": null,
            "decathlon_control_freq_note": "1 次/周",
            "active": true
          },
          {
            "step_number": "发光轮",
            "control_item": "亮灯检查",
            "control_method": "转动芯子",
            "requirement": "确认4颗灯芯要全亮（敏感度对比）",
            "criticity": "Major",
            "control_type": "Product control",
            "supplier_control_freq_note": null,
            "supplier_controller": null,
            "decathlon_control_freq_note": "1 次/周",
            "active": true
          },
          {
            "step_number": "B1-500标贴",
            "control_item": "外观",
            "control_method": "目视外观检查",
            "requirement": "颜色参照样品",
            "criticity": "Minor",
            "control_type": "Product control",
            "supplier_control_freq_note": null,
            "supplier_controller": null,
            "decathlon_control_freq_note": null,
            "active": true
          },
          {
            "step_number": "B1-500标贴",
            "control_item": "芯子高度",
            "control_method": "卡尺",
            "requirement": "39.0±0.2mm；52.0±0.2mm",
            "criticity": "Major",
            "control_type": "Product control",
            "supplier_control_freq_note": null,
            "supplier_controller": null,
            "decathlon_control_freq_note": "1 次/周",
            "active": true
          },
          {
            "step_number": "警告标",
            "control_item": "芯子高度",
            "control_method": "卡尺",
            "requirement": "190.0±0.2mm；27.0±0.2mm",
            "criticity": "Minor",
            "control_type": "Product control",
            "supplier_control_freq_note": null,
            "supplier_controller": null,
            "decathlon_control_freq_note": null,
            "active": true
          },
          {
            "step_number": "五金\n进料",
            "control_item": "T型架尺寸",
            "control_method": "卡尺、检具测量",
            "requirement": "②直管外径 ：φ18.6±0.1mm\n⑤弹扣孔直径：φ7.0+0.2/-0mm\n④孔距：21.5±0.2mm(用检具检查，通规通、止规止）",
            "criticity": "Major",
            "control_type": "Product control",
            "supplier_control_freq_note": null,
            "supplier_controller": null,
            "decathlon_control_freq_note": "1 次/周",
            "active": true
          },
          {
            "step_number": "五金\n进料",
            "control_item": "T型架尺寸",
            "control_method": "检具测量",
            "requirement": "检查T形架弯曲高度以及垂直度，以及弹扣孔的位置检具能通过",
            "criticity": "Major",
            "control_type": "Product control",
            "supplier_control_freq_note": null,
            "supplier_controller": null,
            "decathlon_control_freq_note": "1 次/周",
            "active": true
          },
          {
            "step_number": "五金\n进料",
            "control_item": "调节铝管尺寸",
            "control_method": "卡尺测量",
            "requirement": "⑤弹扣孔内径：φ7±0.2mm\n⑦管内径：φ25.4±0.1mm",
            "criticity": "Major",
            "control_type": "Product control",
            "supplier_control_freq_note": null,
            "supplier_controller": null,
            "decathlon_control_freq_note": "1 次/周",
            "active": true
          },
          {
            "step_number": "五金\n进料",
            "control_item": "调节铝管尺寸",
            "control_method": "外观",
            "requirement": "产品开口位置口部不允许有利口，以免刮伤",
            "criticity": "Critical",
            "control_type": "Product control",
            "supplier_control_freq_note": null,
            "supplier_controller": null,
            "decathlon_control_freq_note": null,
            "active": true
          },
          {
            "step_number": "五金\n进料",
            "control_item": "调节铝管尺寸",
            "control_method": "检具检验",
            "requirement": "调节铝管放入检具中：\n按钮孔检具、按钮定位槽、锁紧环定位槽、弹扣孔检具能通过\n来料百格测试OK",
            "criticity": "Major",
            "control_type": "Product control",
            "supplier_control_freq_note": null,
            "supplier_controller": null,
            "decathlon_control_freq_note": "1 次/周",
            "active": true
          },
          {
            "step_number": "五金\n进料",
            "control_item": "橡胶绑带尺寸",
            "control_method": "卡尺测量",
            "requirement": "②厚度1：2±0.2mm \n③厚度2：3.5±0.2mm",
            "criticity": "Major",
            "control_type": "Product control",
            "supplier_control_freq_note": null,
            "supplier_controller": null,
            "decathlon_control_freq_note": "1 次/周",
            "active": true
          },
          {
            "step_number": "五金\n进料",
            "control_item": "五金件性能",
            "control_method": "盐雾机",
            "requirement": "盐雾测试24H后产品表面不允许出现生锈状况（表面出现红色锈迹）",
            "criticity": "Major",
            "control_type": "Product control",
            "supplier_control_freq_note": null,
            "supplier_controller": null,
            "decathlon_control_freq_note": "1 次/周",
            "active": true
          }
        ]
      },
      {
        "name": "Online control",
        "category": "Online control",
        "steps": [
          {
            "step_number": "烘料",
            "control_item": "控制塑料米含水率",
            "control_method": "Check the supplier frequency + control method + the records  检查供应商的管控频率+ 管控方法+管控记录",
            "requirement": "The frequencies, the control method and the records are respected. If supplier records NC, challenge the way he manage it 管控频率，方法和记录都被遵守，如果供应商记录有不良，盘问他的管理方法",
            "criticity": null,
            "control_type": "Records and method control",
            "supplier_control_freq_note": "1次/周 1次/天（2019/03前）",
            "supplier_controller": "quality leader",
            "decathlon_control_freq_note": "1 次/周",
            "active": true
          },
          {
            "step_number": "烘料",
            "control_item": "控制塑料米含水率",
            "control_method": "热风烘干机参数",
            "requirement": "1.具体参数见标准工艺参数，比对受控工艺参数及现场工艺参数符合度\n2.烘料温度，确认首件时间与加料时间时间间隔，满足烘料时间要求",
            "criticity": "Major",
            "control_type": "Process control,",
            "supplier_control_freq_note": "检验频次：12H/次",
            "supplier_controller": "次/1周",
            "decathlon_control_freq_note": null,
            "active": true
          },
          {
            "step_number": "注塑",
            "control_item": "料筒温度",
            "control_method": "Check the supplier frequency + control method + the records  检查供应商的管控频率+ 管控方法+管控记录",
            "requirement": "The frequencies, the control method and the records are respected. If supplier records NC, challenge the way he manage it 管控频率，方法和记录都被遵守，如果供应商记录有不良，盘问他的管理方法",
            "criticity": "Major",
            "control_type": "Process control,",
            "supplier_control_freq_note": null,
            "supplier_controller": null,
            "decathlon_control_freq_note": "1 次/周",
            "active": true
          },
          {
            "step_number": "注塑",
            "control_item": "料筒温度",
            "control_method": "目视读取仪器数值",
            "requirement": "1.机台炮筒温度分4/5段，具体参数见标准工艺参数，比对受控工艺参数及现场工艺参数符合度",
            "criticity": "Major",
            "control_type": "Process control,",
            "supplier_control_freq_note": null,
            "supplier_controller": null,
            "decathlon_control_freq_note": null,
            "active": true
          },
          {
            "step_number": "注塑",
            "control_item": "模具温度",
            "control_method": "Check the supplier frequency + control method + the records 检查供应商的管控频率+ 管控方法+管控记录",
            "requirement": "The frequencies, the control method and the records are respected. If supplier records NC, challenge the way he manage it 管控频率，方法和记录都被遵守，如果供应商记录有不良，盘问他的管理方法",
            "criticity": "Major",
            "control_type": "Process control,",
            "supplier_control_freq_note": null,
            "supplier_controller": null,
            "decathlon_control_freq_note": "1 次/周",
            "active": true
          },
          {
            "step_number": "注塑",
            "control_item": "模具温度",
            "control_method": "目视读取仪器数值",
            "requirement": "1.动模 2.定模 3.芯子/滑块等控制温度，具体参数见标准工艺参数，比对受控工艺参数及现场工艺参数符合度",
            "criticity": "Major",
            "control_type": "Process control,",
            "supplier_control_freq_note": null,
            "supplier_controller": null,
            "decathlon_control_freq_note": null,
            "active": true
          },
          {
            "step_number": "注塑",
            "control_item": "车架主体孔径",
            "control_method": "通止规测量",
            "requirement": "孔直径，通规通，止规止",
            "criticity": "Major",
            "control_type": "Product control",
            "supplier_control_freq_note": "4小时1模",
            "supplier_controller": "次/1周",
            "decathlon_control_freq_note": "1 次/周",
            "active": true
          },
          {
            "step_number": "注塑",
            "control_item": "管套",
            "control_method": "卡尺、通止规测量",
            "requirement": "外径：通规通\n内径：通止规\n飞边检查",
            "criticity": "Major",
            "control_type": "Product control",
            "supplier_control_freq_note": "4小时2模",
            "supplier_controller": null,
            "decathlon_control_freq_note": null,
            "active": true
          },
          {
            "step_number": "注塑",
            "control_item": "手柄",
            "control_method": "目视",
            "requirement": "颜色参照样品，熔接痕有深度的需挑出，组装单独组装；\n流痕参照样板， 并把深的流痕朝下装配。",
            "criticity": "Major",
            "control_type": "Process control,",
            "supplier_control_freq_note": "4小时2模",
            "supplier_controller": null,
            "decathlon_control_freq_note": null,
            "active": true
          },
          {
            "step_number": "注塑",
            "control_item": "手柄",
            "control_method": "工显",
            "requirement": "18+0/-0.3mm",
            "criticity": "Minor",
            "control_type": "Process control,",
            "supplier_control_freq_note": "4小时2模",
            "supplier_controller": null,
            "decathlon_control_freq_note": null,
            "active": true
          },
          {
            "step_number": "注塑",
            "control_item": "手柄",
            "control_method": "高低温测试箱",
            "requirement": "手柄拉拔力",
            "criticity": "Major",
            "control_type": "Process control,",
            "supplier_control_freq_note": "首件2模/换批次",
            "supplier_controller": null,
            "decathlon_control_freq_note": null,
            "active": true
          },
          {
            "step_number": "注塑",
            "control_item": "刹车片",
            "control_method": "目视",
            "requirement": "颜色参照样品",
            "criticity": "Minor",
            "control_type": "Process control,",
            "supplier_control_freq_note": "4小时2模",
            "supplier_controller": null,
            "decathlon_control_freq_note": null,
            "active": true
          },
          {
            "step_number": "注塑",
            "control_item": "刹车片",
            "control_method": "卡尺",
            "requirement": "φ2.85±0.15mm",
            "criticity": "Minor",
            "control_type": "Process control,",
            "supplier_control_freq_note": "4小时2模",
            "supplier_controller": null,
            "decathlon_control_freq_note": null,
            "active": true
          },
          {
            "step_number": "注塑",
            "control_item": "外壳",
            "control_method": "目视",
            "requirement": "颜色参照样品",
            "criticity": "Minor",
            "control_type": "Process control,",
            "supplier_control_freq_note": "4小时2模",
            "supplier_controller": null,
            "decathlon_control_freq_note": null,
            "active": true
          },
          {
            "step_number": "注塑",
            "control_item": "外壳",
            "control_method": "卡尺",
            "requirement": "φ3.2±0.1mm(5个螺钉孔)",
            "criticity": "Minor",
            "control_type": "Process control,",
            "supplier_control_freq_note": "4小时2模",
            "supplier_controller": null,
            "decathlon_control_freq_note": null,
            "active": true
          },
          {
            "step_number": "注塑",
            "control_item": "锁紧环扳手",
            "control_method": "目视",
            "requirement": "颜色参照样品",
            "criticity": "Minor",
            "control_type": "Process control,",
            "supplier_control_freq_note": "4小时2模",
            "supplier_controller": null,
            "decathlon_control_freq_note": null,
            "active": true
          },
          {
            "step_number": "注塑",
            "control_item": "锁紧环",
            "control_method": "目视",
            "requirement": "颜色参照样品",
            "criticity": "Minor",
            "control_type": "Process control,",
            "supplier_control_freq_note": "4小时2模",
            "supplier_controller": null,
            "decathlon_control_freq_note": null,
            "active": true
          },
          {
            "step_number": "注塑",
            "control_item": "锁紧环",
            "control_method": "实配",
            "requirement": "能顺畅装入调节铝管",
            "criticity": "Minor",
            "control_type": "Process control,",
            "supplier_control_freq_note": "4小时2模",
            "supplier_controller": null,
            "decathlon_control_freq_note": null,
            "active": true
          },
          {
            "step_number": "注塑",
            "control_item": "前轮支架",
            "control_method": "通止规测量",
            "requirement": "通规通",
            "criticity": "Major",
            "control_type": "Process control,",
            "supplier_control_freq_note": "4小时2模",
            "supplier_controller": null,
            "decathlon_control_freq_note": null,
            "active": true
          },
          {
            "step_number": "注塑",
            "control_item": "后轮轮毂",
            "control_method": "通规卡尺测量",
            "requirement": "①内径：通规通，止规止\n②封胶面高度：19.5±0.3mm",
            "criticity": "Major",
            "control_type": "Process control,",
            "supplier_control_freq_note": "4小时2模",
            "supplier_controller": null,
            "decathlon_control_freq_note": null,
            "active": true
          },
          {
            "step_number": "注塑",
            "control_item": "后轮轮胎",
            "control_method": "目视检查",
            "requirement": "包胶飞边、鼓包参照限度样品",
            "criticity": "Major",
            "control_type": "Process control,",
            "supplier_control_freq_note": "4小时2模",
            "supplier_controller": null,
            "decathlon_control_freq_note": null,
            "active": true
          },
          {
            "step_number": "组装",
            "control_item": "后轮轮胎",
            "control_method": "Check the supplier frequency + control method + the records检查供应商的管控频率+ 管控方法+管控记录",
            "requirement": "The frequencies, the control method and the records are respected. If supplier records NC, challenge the way he manage it 管控频率，方法和记录都被遵守，如果供应商记录有不良，盘问他的管理方法",
            "criticity": "Major",
            "control_type": "Records and method control",
            "supplier_control_freq_note": "1次/周",
            "supplier_controller": "quality leader",
            "decathlon_control_freq_note": "1次/周",
            "active": true
          },
          {
            "step_number": "组装",
            "control_item": "T型架装弹扣",
            "control_method": "目视/手感",
            "requirement": "1）Tbar表面不允许粘手；\n2）检查弹扣需顺畅，按压3次能回弹则OK；\n检查焊缝不允许有气孔；",
            "criticity": "Major",
            "control_type": "Product control",
            "supplier_control_freq_note": "首件1pcs\n2小时2pcs\n4小时2pcs",
            "supplier_controller": "次/1周",
            "decathlon_control_freq_note": "1 次/周",
            "active": true
          },
          {
            "step_number": "组装",
            "control_item": "压管帽+吹手柄",
            "control_method": "目视/手感",
            "requirement": "1）检查装配需到位，手柄需完全压入T形架，按压手柄有硬物感为OK；\n2）检查手柄不允许破损；\n3）检查产品无飞边，毛刺，刮手；",
            "criticity": "Critical",
            "control_type": "Product control",
            "supplier_control_freq_note": null,
            "supplier_controller": null,
            "decathlon_control_freq_note": null,
            "active": true
          },
          {
            "step_number": "组装",
            "control_item": "装按钮",
            "control_method": "目视/手感",
            "requirement": "1）物料不可少装漏装弹簧；",
            "criticity": "Major",
            "control_type": "Product control",
            "supplier_control_freq_note": "首件1pcs\n2小时2pcs\n4小时2pcs",
            "supplier_controller": null,
            "decathlon_control_freq_note": null,
            "active": true
          },
          {
            "step_number": "组装",
            "control_item": "装按钮",
            "control_method": "目视/手感",
            "requirement": "2）检查按压至铝管齐平（与管套配合可拔出状态）不允许刮料屑；\n3）检查按钮需涂油，组装后按钮表面及周边不允许有油脂",
            "criticity": "Major",
            "control_type": "Product control",
            "supplier_control_freq_note": null,
            "supplier_controller": null,
            "decathlon_control_freq_note": null,
            "active": true
          },
          {
            "step_number": "组装",
            "control_item": "装按钮",
            "control_method": "目视/手感",
            "requirement": "4）按按钮3下能回弹则OK；",
            "criticity": "Critical",
            "control_type": "Product control",
            "supplier_control_freq_note": null,
            "supplier_controller": null,
            "decathlon_control_freq_note": null,
            "active": true
          },
          {
            "step_number": "组装",
            "control_item": "贴B1-500标贴+\n警示标贴",
            "control_method": "钢尺",
            "requirement": "1）检查标贴方向不允许贴反贴歪；位置需正确，按照铝管缺口位置居中",
            "criticity": "Major",
            "control_type": "Product control",
            "supplier_control_freq_note": "首件1pcs\n2小时2pcs\n4小时2pcs",
            "supplier_controller": "次/1周",
            "decathlon_control_freq_note": "1 次/周",
            "active": true
          },
          {
            "step_number": "组装",
            "control_item": "贴B1-500标贴+\n警示标贴",
            "control_method": "目视/手感",
            "requirement": "2）检查标贴/Logo不允许破损，掉色，起泡，警示标贴内容及字体大小一致；",
            "criticity": "Major",
            "control_type": "Product control",
            "supplier_control_freq_note": null,
            "supplier_controller": null,
            "decathlon_control_freq_note": null,
            "active": true
          },
          {
            "step_number": "组装",
            "control_item": "装锁紧环扳手",
            "control_method": "目视/手感",
            "requirement": "1）物料不可少装漏装，包含扳手、锁紧环、锁紧环螺钉、转轴、锁紧环螺栓共6个部件\n2）检查锁紧环不允许毛边；",
            "criticity": "Major",
            "control_type": "Product control",
            "supplier_control_freq_note": null,
            "supplier_controller": "次/1周",
            "decathlon_control_freq_note": "1 次/周",
            "active": true
          },
          {
            "step_number": "组装",
            "control_item": "装锁紧环扳手",
            "control_method": "目视/手感",
            "requirement": "3）检查锁紧环螺栓需有蓝胶；",
            "criticity": "Critical",
            "control_type": "Product control",
            "supplier_control_freq_note": null,
            "supplier_controller": null,
            "decathlon_control_freq_note": null,
            "active": true
          },
          {
            "step_number": "组装",
            "control_item": "装锁紧环扳手",
            "control_method": "目视/手感",
            "requirement": "4）检查锁紧环螺栓与锁紧环、锁紧环转轴装配不允许卡涩；\n5）检查锁紧环扳手不允许装反；",
            "criticity": "Major",
            "control_type": "Product control",
            "supplier_control_freq_note": null,
            "supplier_controller": null,
            "decathlon_control_freq_note": null,
            "active": true
          },
          {
            "step_number": "组装",
            "control_item": "T型架调节铝管锁紧环组装",
            "control_method": "目视/手感",
            "requirement": "1）检查调节铝管与T形架需装配顺畅无卡涩，装配后产品无划伤；",
            "criticity": "Major",
            "control_type": "Product control",
            "supplier_control_freq_note": null,
            "supplier_controller": "次/1周",
            "decathlon_control_freq_note": "1 次/周",
            "active": true
          },
          {
            "step_number": "组装",
            "control_item": "T型架调节铝管锁紧环组装",
            "control_method": "扭力扳手/拉力计",
            "requirement": "2) 检查扳手的推开，闭合力：\n推开：大于等于20N\n闭合：小于等于200N",
            "criticity": "Critical",
            "control_type": "Product control",
            "supplier_control_freq_note": "4小时2pcs",
            "supplier_controller": null,
            "decathlon_control_freq_note": null,
            "active": true
          },
          {
            "step_number": "组装",
            "control_item": "T型架调节铝管锁紧环组装",
            "control_method": "扭力扳手/拉力计",
            "requirement": "3）检查螺栓扭力：3.5±1.5N.m（旋出力）\n锁紧环固定螺母检查是否滑牙；",
            "criticity": "Major",
            "control_type": "Product control",
            "supplier_control_freq_note": "4小时2pcs",
            "supplier_controller": null,
            "decathlon_control_freq_note": null,
            "active": true
          },
          {
            "step_number": "组装",
            "control_item": "T型架调节铝管锁紧环组装",
            "control_method": "扭力校验设备",
            "requirement": "4）检查扭力，锁紧环电P扭力校验：3.5 ±0.5 N.m",
            "criticity": "Critical",
            "control_type": "Product control",
            "supplier_control_freq_note": "12H/1次\n4小时校验1次",
            "supplier_controller": null,
            "decathlon_control_freq_note": null,
            "active": true
          },
          {
            "step_number": "组装",
            "control_item": "T型架调节铝管锁紧环组装",
            "control_method": "目视/手感",
            "requirement": "4）检查锁紧环组件：\n①锁紧环转轴不能露在上面\n②扳手不允许装反，扳手需装在锁紧环弧槽里；\n5）检查Tbar弹扣需正常从调节铝管弹出；\n6）不允许调节铝管高出锁紧环；",
            "criticity": "Major",
            "control_type": "Product control",
            "supplier_control_freq_note": "首件1pcs\n2小时2pcs\n4小时2pcs",
            "supplier_controller": null,
            "decathlon_control_freq_note": null,
            "active": true
          },
          {
            "step_number": "组装",
            "control_item": "锁后轮",
            "control_method": "目视/手感",
            "requirement": "1）检查轴承需完全装入后轮，不可塌陷也不可露出；\n2）检查螺栓需旋到底，螺钉无飞毛刺刮手；\n3）转动轮子，检查转动需顺畅；\n5）检查绑带不允许破裂，不允许装反；",
            "criticity": "Major",
            "control_type": "Product control",
            "supplier_control_freq_note": null,
            "supplier_controller": "次/1周",
            "decathlon_control_freq_note": "1 次/周",
            "active": true
          },
          {
            "step_number": "组装",
            "control_item": "锁后轮",
            "control_method": "扭力扳手",
            "requirement": "6）检查扭力，后轮螺栓扭力：4.5 ±1.5 N.m（旋出力）",
            "criticity": "Major",
            "control_type": "Product control",
            "supplier_control_freq_note": "4小时2pcs",
            "supplier_controller": null,
            "decathlon_control_freq_note": null,
            "active": true
          },
          {
            "step_number": "组装",
            "control_item": "锁后轮",
            "control_method": "扭力校验设备",
            "requirement": "7）后轮电P扭力校验：7 ±1.5 N.m",
            "criticity": "Critical",
            "control_type": "Product control",
            "supplier_control_freq_note": "12H/1次\n4小时校验1次",
            "supplier_controller": null,
            "decathlon_control_freq_note": null,
            "active": true
          },
          {
            "step_number": "组装",
            "control_item": "锁前轮",
            "control_method": "目视/手感",
            "requirement": "1）检查螺钉需装配到位，不允许装歪，螺钉需旋到底；\n2）检查前轮滚动需顺畅，螺钉无飞毛刺刮手；\n3）检查轮子飞边参照限度样品；\n4）检查轮子朝向，车子向前行驶时转动方向如右图。\n5）转动轮子检验是否4盏灯全亮",
            "criticity": "Major",
            "control_type": "Product control",
            "supplier_control_freq_note": "首件1pcs\n2小时2pcs\n4小时2pcs",
            "supplier_controller": null,
            "decathlon_control_freq_note": null,
            "active": true
          },
          {
            "step_number": "组装",
            "control_item": "锁前轮",
            "control_method": "扭力扳手",
            "requirement": "6）检查扭力，后轮螺栓扭力：3.5 ±1.5 N.m（旋出力）",
            "criticity": "Major",
            "control_type": "Product control",
            "supplier_control_freq_note": "4小时2pcs",
            "supplier_controller": null,
            "decathlon_control_freq_note": null,
            "active": true
          },
          {
            "step_number": "组装",
            "control_item": "锁前轮",
            "control_method": "扭力扳手",
            "requirement": "7）前轮电P扭力校验：5.7+/-0.5 N.m",
            "criticity": "Critical",
            "control_type": "Product control",
            "supplier_control_freq_note": "12H/1次\n4小时校验1次",
            "supplier_controller": "次/1周",
            "decathlon_control_freq_note": "1 次/周",
            "active": true
          },
          {
            "step_number": "组装",
            "control_item": "装前轮支架和车架主体",
            "control_method": "目视/手感",
            "requirement": "1) 检查POM垫圈、橡胶套筒不允许漏装；\n2）检查前轮支架与主体装配需到位并且无卡涩；\n3）润滑脂不可漏涂，需整圈涂油，组装后不可有油脂在外面；\n4）检查方向杆转动需顺畅，不可卡涩；车架主体与前轮支架间隙均匀，不允许偏大，以偏摆OK为判定，用500g砝码检查前轮需从最高点转动到最低点（两侧均需测试）；",
            "criticity": "Major",
            "control_type": "Product control",
            "supplier_control_freq_note": "首件1pcs\n2小时2pcs\n4小时2pcs",
            "supplier_controller": null,
            "decathlon_control_freq_note": null,
            "active": true
          },
          {
            "step_number": "组装",
            "control_item": "装前轮支架和车架主体",
            "control_method": "扭力扳手",
            "requirement": "5）检查扭力，前轮支架枢轴螺栓：1+0.5/-0.5 N.m（旋出力）",
            "criticity": "Major",
            "control_type": "Product control",
            "supplier_control_freq_note": "4小时2pcs",
            "supplier_controller": null,
            "decathlon_control_freq_note": null,
            "active": true
          },
          {
            "step_number": "组装",
            "control_item": "装前轮支架和车架主体",
            "control_method": "扭力校验设备",
            "requirement": "6）枢轴螺栓电P扭力校验：1+0.5/-0.5 N.m",
            "criticity": "Critical",
            "control_type": "Product control",
            "supplier_control_freq_note": "12H/1次\n4小时校验1次",
            "supplier_controller": null,
            "decathlon_control_freq_note": null,
            "active": true
          },
          {
            "step_number": "组装",
            "control_item": "锁刹车片+外壳锁螺栓",
            "control_method": "目视/手感",
            "requirement": "1）检查螺钉需安装到位，锁好后不允许晃动，螺栓锁到位无漏锁，无锁偏，螺栓不晃动滑牙；；",
            "criticity": "Major",
            "control_type": "Product control",
            "supplier_control_freq_note": "首件1pcs\n2小时2pcs\n4小时2pcs",
            "supplier_controller": "次/1周",
            "decathlon_control_freq_note": "1 次/周",
            "active": true
          },
          {
            "step_number": "组装",
            "control_item": "锁刹车片+外壳锁螺栓",
            "control_method": null,
            "requirement": "2）刹车片与后轮间距检查：5mm≤刹车片与后轮间距≤12mm",
            "criticity": "Major",
            "control_type": "Product control",
            "supplier_control_freq_note": null,
            "supplier_controller": null,
            "decathlon_control_freq_note": null,
            "active": true
          },
          {
            "step_number": "组装",
            "control_item": "车把与车架装配",
            "control_method": "目视/手感",
            "requirement": "1）检查螺钉是否刮手，检查方向杆与管套装配后按键顺畅弹起，不允许有按键不弹状况；",
            "criticity": "Critical",
            "control_type": "Product control",
            "supplier_control_freq_note": null,
            "supplier_controller": null,
            "decathlon_control_freq_note": null,
            "active": true
          },
          {
            "step_number": "组装",
            "control_item": "车把与车架装配",
            "control_method": "500G砝码",
            "requirement": "2）检查方向杆方向杆插拔力测试顺畅，不可卡涩；--见非破坏性测试项目“方向杆转向力测试”以测试结果为准",
            "criticity": "Major",
            "control_type": "Product control",
            "supplier_control_freq_note": null,
            "supplier_controller": null,
            "decathlon_control_freq_note": null,
            "active": true
          },
          {
            "step_number": "组装",
            "control_item": "车把与车架装配",
            "control_method": "Visual check 目视检验",
            "requirement": "3）检查方向杆与管套装配后，不允许晃动，晃动时以偏摆测试判定；",
            "criticity": "Major",
            "control_type": "Product control",
            "supplier_control_freq_note": "首件1pcs\n2小时2pcs\n4小时2pcs",
            "supplier_controller": "次/1周",
            "decathlon_control_freq_note": "1 次/周",
            "active": true
          },
          {
            "step_number": "组装",
            "control_item": "车把与车架装配",
            "control_method": null,
            "requirement": "4）转动方向杆，检查不允许异响；",
            "criticity": "Critical",
            "control_type": "Product control",
            "supplier_control_freq_note": null,
            "supplier_controller": null,
            "decathlon_control_freq_note": null,
            "active": true
          },
          {
            "step_number": "组装",
            "control_item": "全检",
            "control_method": "外观",
            "requirement": "产品不允许有利口，以免刮伤",
            "criticity": "Critical",
            "control_type": "Product control",
            "supplier_control_freq_note": null,
            "supplier_controller": null,
            "decathlon_control_freq_note": null,
            "active": true
          },
          {
            "step_number": "组装",
            "control_item": "贴条形码+装彩盒",
            "control_method": "目视/RFID扫描仪",
            "requirement": "1）外壳条形码贴纸不可漏贴，且能扫描，位数正确，且印刷不能掉墨；\n2）出印度时，印度标贴不可漏贴，\n3）外壳及外箱条形码能扫描且与RIFD能对应匹配，数字一致；\n4）检查包装纸箱内容、结构、外观颜色结构需与样品一致；\n5）检查说明书不允许漏装；",
            "criticity": "Major",
            "control_type": "Product control",
            "supplier_control_freq_note": null,
            "supplier_controller": null,
            "decathlon_control_freq_note": null,
            "active": true
          }
        ]
      },
      {
        "name": "Shipping process",
        "category": "Online control",
        "steps": [
          {
            "step_number": "000",
            "control_item": "贴条形码+装彩盒",
            "control_method": "Check the supplier frequency + control method + the records检查供应商的管控频率+ 管控方法+管控记录",
            "requirement": "The frequencies, the control method and the records are respected. If supplier records NC, challenge the way he manage it 管控频率，方法和记录都被遵守，如果供应商记录有不良，盘问他的管理方法",
            "criticity": "Major",
            "control_type": "Records and method control",
            "supplier_control_freq_note": "1次/周",
            "supplier_controller": "quality leader",
            "decathlon_control_freq_note": "1次/周",
            "active": true
          },
          {
            "step_number": "包装标识检查",
            "control_item": "Appearance 外观",
            "control_method": "Visual check 目视检验",
            "requirement": "1.外观检查：纸箱无破损、脏污和凹陷变形；唛头无破损，内容清晰；\n2.封箱方式：使用蓝色胶带并采用“H型”封装",
            "criticity": "Minor",
            "control_type": "Visual/cosmetic control",
            "supplier_control_freq_note": "Each batch每批/Sampling level抽样水平:Leve I,AQL:6.50%",
            "supplier_controller": "次/1周",
            "decathlon_control_freq_note": null,
            "active": true
          },
          {
            "step_number": "功能检查",
            "control_item": "车架组件检查",
            "control_method": "Visual check 目视检验",
            "requirement": "1)刹车片装配OK，与轮子无干涉，\n2）刹车片与后轮间距检查：5mm≤刹车片与后轮间距≤12mm\n3）检查轮子朝向，左轮光面朝外，右轮纹理面朝外。\n4）转动轮子检验是否4盏灯全亮",
            "criticity": "Major",
            "control_type": "Product control",
            "supplier_control_freq_note": "Each batch每批/Sampling level抽样水平:Leve S-2,AQL:2.50%",
            "supplier_controller": null,
            "decathlon_control_freq_note": null,
            "active": true
          },
          {
            "step_number": "功能检查",
            "control_item": "车架组件检查",
            "control_method": null,
            "requirement": "5）方向杆与管套装配，按钮能顺畅弹出",
            "criticity": "Critical",
            "control_type": "Product control",
            "supplier_control_freq_note": null,
            "supplier_controller": null,
            "decathlon_control_freq_note": null,
            "active": true
          },
          {
            "step_number": "功能检查",
            "control_item": "车架组件检查",
            "control_method": null,
            "requirement": "6）检查螺钉是否刮手，锁紧环螺栓需有蓝胶；",
            "criticity": "Critical",
            "control_type": "Product control",
            "supplier_control_freq_note": null,
            "supplier_controller": null,
            "decathlon_control_freq_note": null,
            "active": true
          },
          {
            "step_number": "功能检查",
            "control_item": "车架组件检查",
            "control_method": null,
            "requirement": "7）检查方向杆方向杆插拔力测试顺畅，不可卡涩；--见非破坏性测试项目“方向杆转向力测试”以测试结果为准",
            "criticity": "Major",
            "control_type": "Product control",
            "supplier_control_freq_note": null,
            "supplier_controller": "次/1周",
            "decathlon_control_freq_note": null,
            "active": true
          },
          {
            "step_number": "功能检查",
            "control_item": "车架组件检查",
            "control_method": null,
            "requirement": "8）检查方向杆与管套装配后，不允许晃动，晃动时以偏摆测试判定；",
            "criticity": "Major",
            "control_type": "Product control",
            "supplier_control_freq_note": null,
            "supplier_controller": null,
            "decathlon_control_freq_note": null,
            "active": true
          },
          {
            "step_number": "功能检查",
            "control_item": "车架组件检查",
            "control_method": null,
            "requirement": "9）转动方向杆，检查不允许异响；",
            "criticity": "Major",
            "control_type": "Product control",
            "supplier_control_freq_note": null,
            "supplier_controller": null,
            "decathlon_control_freq_note": null,
            "active": true
          },
          {
            "step_number": "功能检查",
            "control_item": "RFID Checking\nRFID检查",
            "control_method": "RFID scanner RFID扫描",
            "requirement": "车架主体侧面条形码、EAN code贴纸、RFID印刷清晰，能正常扫描，读数与样品一致；核对扫码最终结果是否与标准一致",
            "criticity": "Major",
            "control_type": "Product control",
            "supplier_control_freq_note": "1PCS",
            "supplier_controller": "次/1周",
            "decathlon_control_freq_note": null,
            "active": true
          },
          {
            "step_number": "功能检查",
            "control_item": "锁紧环推拉力检测",
            "control_method": "推力测量",
            "requirement": "1.打开锁紧环扳手力值F1≥20N\n2.关闭锁紧环扳手力值F2≤200N",
            "criticity": "Critical",
            "control_type": "Product control",
            "supplier_control_freq_note": "1PCS/2000PCS",
            "supplier_controller": null,
            "decathlon_control_freq_note": null,
            "active": true
          },
          {
            "step_number": "功能检查",
            "control_item": "扭力检查",
            "control_method": "扭力（旋出力）",
            "requirement": "1.前轮螺栓：3.5±1.5 N.m\n2.后轮螺栓：4.5±1.5 N.m\n3.锁紧环螺栓：3.5±1.5 N.m",
            "criticity": "Major",
            "control_type": "Product control",
            "supplier_control_freq_note": "1PCS/2000PCS",
            "supplier_controller": null,
            "decathlon_control_freq_note": null,
            "active": true
          }
        ]
      },
      {
        "name": "Lab test",
        "category": "Lab test",
        "steps": [
          {
            "step_number": "功能检查",
            "control_item": "扭力检查",
            "control_method": "Check the supplier frequency + control method + the records检查供应商的管控频率+ 管控方法+管控记录",
            "requirement": "The frequencies, the control method and the records are respected. If supplier records NC, challenge the way he manage it 管控频率，方法和记录都被遵守，如果供应商记录有不良，盘问他的管理方法",
            "criticity": "Major",
            "control_type": "Records and method control",
            "supplier_control_freq_note": "1次/周",
            "supplier_controller": "quality leader",
            "decathlon_control_freq_note": "1次/周",
            "active": true
          },
          {
            "step_number": "成品",
            "control_item": "实验室",
            "control_method": "设备测试",
            "requirement": "方向杆偏摆测试<15mm（<20MM 降档接受）",
            "criticity": "Major",
            "control_type": "LAB control",
            "supplier_control_freq_note": "2pcs/1H\n2pcs/6H",
            "supplier_controller": "QE",
            "decathlon_control_freq_note": "1 次/周",
            "active": true
          },
          {
            "step_number": "成品",
            "control_item": "实验室",
            "control_method": "设备测试",
            "requirement": "方向杆转向力测试",
            "criticity": "Major",
            "control_type": "LAB control",
            "supplier_control_freq_note": "2pcs/4H",
            "supplier_controller": "QE",
            "decathlon_control_freq_note": "1 次/周",
            "active": true
          },
          {
            "step_number": "成品",
            "control_item": "实验室",
            "control_method": null,
            "requirement": "方向杆插拔力测试",
            "criticity": "Major",
            "control_type": "LAB control",
            "supplier_control_freq_note": "2pcs/4H",
            "supplier_controller": "QE",
            "decathlon_control_freq_note": "1 次/周",
            "active": true
          },
          {
            "step_number": "成品",
            "control_item": "实验室",
            "control_method": null,
            "requirement": "滑板车静载测试",
            "criticity": "Critical",
            "control_type": "LAB control",
            "supplier_control_freq_note": "1pcs/1W",
            "supplier_controller": "QE",
            "decathlon_control_freq_note": "1 次/周",
            "active": true
          },
          {
            "step_number": "成品",
            "control_item": "实验室",
            "control_method": null,
            "requirement": "方向杆负载测试",
            "criticity": "Critical",
            "control_type": "LAB control",
            "supplier_control_freq_note": "1pcs/1W",
            "supplier_controller": "QE",
            "decathlon_control_freq_note": "1 次/周",
            "active": true
          },
          {
            "step_number": "成品",
            "control_item": "实验室",
            "control_method": null,
            "requirement": "侧摔测试",
            "criticity": "Major",
            "control_type": "LAB control",
            "supplier_control_freq_note": "1pcs/1W",
            "supplier_controller": "QE",
            "decathlon_control_freq_note": "1 次/周",
            "active": true
          },
          {
            "step_number": "成品",
            "control_item": "实验室",
            "control_method": null,
            "requirement": "轮子可靠性测试",
            "criticity": "Major",
            "control_type": "LAB control",
            "supplier_control_freq_note": "1pcs/1W",
            "supplier_controller": "QE",
            "decathlon_control_freq_note": "1 次/周",
            "active": true
          },
          {
            "step_number": "成品",
            "control_item": "实验室",
            "control_method": null,
            "requirement": "滑板车路况测试",
            "criticity": "Critical",
            "control_type": "LAB control",
            "supplier_control_freq_note": "1pcs/1W",
            "supplier_controller": "QE",
            "decathlon_control_freq_note": "1 次/周",
            "active": true
          },
          {
            "step_number": "成品",
            "control_item": "实验室",
            "control_method": null,
            "requirement": "滑板车疲劳测试",
            "criticity": "Critical",
            "control_type": "LAB control",
            "supplier_control_freq_note": "1pcs/1W",
            "supplier_controller": "QE",
            "decathlon_control_freq_note": "1 次/周",
            "active": true
          }
        ]
      },
      {
        "name": "变更记录",
        "category": "Lab test",
        "steps": [
          {
            "step_number": "1",
            "control_item": "2018.09.23",
            "control_method": "增加调节铝管插入位置，要求不允许有利角",
            "requirement": null,
            "criticity": null,
            "control_type": null,
            "supplier_control_freq_note": null,
            "supplier_controller": null,
            "decathlon_control_freq_note": null,
            "active": true
          },
          {
            "step_number": "2",
            "control_item": "2018.12.11",
            "control_method": "增加检查频次翻倍，注塑:2pcs/4H改为4pcs/4h组装4小时2pcs改为2小时2pcs,4批之后下降变回原有频次；\n注塑手柄增加熔接痕凹印单独挑出。来料调节铝管增加百格测试要求",
            "requirement": null,
            "criticity": null,
            "control_type": null,
            "supplier_control_freq_note": null,
            "supplier_controller": null,
            "decathlon_control_freq_note": null,
            "active": true
          },
          {
            "step_number": "3",
            "control_item": "2018.12.17",
            "control_method": "组装线扭力检查增加锁紧力电P校验； 增加烘料时间温度管控； 偏摆测试增加为每小时2个,4批之后下降变回原有频次；",
            "requirement": null,
            "criticity": null,
            "control_type": null,
            "supplier_control_freq_note": null,
            "supplier_controller": null,
            "decathlon_control_freq_note": null,
            "active": true
          },
          {
            "step_number": "4",
            "control_item": "2019.1.7",
            "control_method": "来料增加标贴尺寸要求；增加刹车片间隙要求；变更缺陷等级",
            "requirement": null,
            "criticity": null,
            "control_type": null,
            "supplier_control_freq_note": null,
            "supplier_controller": null,
            "decathlon_control_freq_note": null,
            "active": true
          }
        ]
      }
    ]
  }
}
