{
  "filename": "CP2.3_TD_62830_Flat cones_Alex L.xlsx",
  "count": 3,
  "product_family": {
    "name": "Flat cones",
    "processes": [
      {
        "name": "Metal raw material reception and storage",
        "category": "Incoming control",
        "steps": [
          {
            "step_number": "塑料米进料",
            "control_item": "塑料米\nLDPE  MG70",
            "control_method": "物性测试",
            "requirement": "参照《原材料测试标准》（A-SOP-ZS-51）与\n《改性材料测试标准》（A-SOP-ZS-50）",
            "criticity": "Major",
            "control_type": "Product control",
            "supplier_control_freq_note": "检验频次：\n1次/每批",
            "supplier_controller": "QE",
            "decathlon_control_freq_note": "1次/月",
            "active": true
          },
          {
            "step_number": "铁架子",
            "control_item": "外观结构",
            "control_method": "Visual check 目视检验",
            "requirement": "1、颜色为黑色，与样品一致，色差参考限度\n2、产品四周不允许有飞边刮手，镀层脱落",
            "criticity": "Major",
            "control_type": "Product control",
            "supplier_control_freq_note": "检验频次：2PCS/每批",
            "supplier_controller": "QE",
            "decathlon_control_freq_note": "1次/月",
            "active": true
          },
          {
            "step_number": "铁架子",
            "control_item": "性能测试",
            "control_method": "盐雾测试",
            "requirement": "中性盐雾120小时后无红锈",
            "criticity": "Major",
            "control_type": "Product control",
            "supplier_control_freq_note": null,
            "supplier_controller": "QE",
            "decathlon_control_freq_note": "1次/月",
            "active": true
          }
        ]
      },
      {
        "name": "Online control",
        "category": "Online control",
        "steps": [
          {
            "step_number": "烘料",
            "control_item": "控制塑料米含水率",
            "control_method": "Check the supplier frequency + control method + the records  检查供应商的管控频率+ 管控方法+管控记录",
            "requirement": "The frequencies, the control method and the records are respected. If supplier records NC, challenge the way he manage it 管控频率，方法和记录都被遵守，如果供应商记录有不良，盘问他的管理方法",
            "criticity": null,
            "control_type": "Process control,",
            "supplier_control_freq_note": "1次/周",
            "supplier_controller": "QE",
            "decathlon_control_freq_note": "1次/周",
            "active": true
          },
          {
            "step_number": "烘料",
            "control_item": "控制塑料米含水率",
            "control_method": "热风烘干机参数",
            "requirement": "烘料温度：\nABS 80℃\nPA66+15%GF 120℃\nTPU3680 90℃",
            "criticity": "Major",
            "control_type": "Product control",
            "supplier_control_freq_note": "检验频次：12H/次\n抽查批次：\n1次/周",
            "supplier_controller": "检查人员：\n生产工艺\n抽查人员：\n工艺 班长",
            "decathlon_control_freq_note": "1次/周",
            "active": true
          },
          {
            "step_number": "烘料",
            "control_item": "控制塑料米含水率",
            "control_method": null,
            "requirement": "烘料时间：\nABS 2H\nPA66+15%GF 4H\nTPU3680 3-5H",
            "criticity": "Major",
            "control_type": "Product control",
            "supplier_control_freq_note": null,
            "supplier_controller": null,
            "decathlon_control_freq_note": null,
            "active": true
          },
          {
            "step_number": "障碍桩\n成型",
            "control_item": "Parameter checking\n注塑参数确认",
            "control_method": "visual checking 目视检验",
            "requirement": "Compare to pilot validated parameter\n与量产参数比较",
            "criticity": null,
            "control_type": "Product control",
            "supplier_control_freq_note": "检验频次：12H/次",
            "supplier_controller": "QE",
            "decathlon_control_freq_note": "1次/月",
            "active": true
          },
          {
            "step_number": "障碍桩\n成型",
            "control_item": "外观结构",
            "control_method": "Visual check 目视检验",
            "requirement": "外观检查\n1）没有裂缝，也没有油污\n2)没有气泡",
            "criticity": "Major",
            "control_type": "Product control",
            "supplier_control_freq_note": "检验频次：\n4PCS/2小时",
            "supplier_controller": "QE",
            "decathlon_control_freq_note": "1次/月",
            "active": true
          },
          {
            "step_number": "障碍桩\n成型",
            "control_item": "外观结构",
            "control_method": "颜色",
            "requirement": "颜色参照样品",
            "criticity": "Minor",
            "control_type": "Product control",
            "supplier_control_freq_note": null,
            "supplier_controller": "QE",
            "decathlon_control_freq_note": "1次/月",
            "active": true
          },
          {
            "step_number": "障碍桩\n成型",
            "control_item": "外观结构",
            "control_method": "Weight checking\n重量标准",
            "requirement": "障碍桩B：26.5±1.5g",
            "criticity": "Major",
            "control_type": null,
            "supplier_control_freq_note": "检验频次：\n4PCS/4小时",
            "supplier_controller": "QE",
            "decathlon_control_freq_note": "1次/月",
            "active": true
          },
          {
            "step_number": "障碍桩\n成型",
            "control_item": "外观结构",
            "control_method": "堆放检查",
            "requirement": "每10PCS一组，且LOGO在同一侧，透光检即可",
            "criticity": "Major",
            "control_type": null,
            "supplier_control_freq_note": null,
            "supplier_controller": "QE",
            "decathlon_control_freq_note": "1次/月",
            "active": true
          },
          {
            "step_number": "障碍桩\n成型",
            "control_item": "破坏性测试",
            "control_method": "Dropping Test\n跌落测试",
            "requirement": "在一个地板上，从2米高处掉下来，100次没有任何的破裂/不可恢复的变形损失。",
            "criticity": "Major",
            "control_type": "Product control",
            "supplier_control_freq_note": "检验频次：\n2PCS/首件/12H",
            "supplier_controller": "QE",
            "decathlon_control_freq_note": "1次/月",
            "active": true
          },
          {
            "step_number": "障碍桩\n成型",
            "control_item": "破坏性测试",
            "control_method": "Deformation test\n碾压测试",
            "requirement": "产品的水平方向捏合，捏合10次。\n碾压手法如图。",
            "criticity": "Critical",
            "control_type": "Product control",
            "supplier_control_freq_note": null,
            "supplier_controller": "QE",
            "decathlon_control_freq_note": "1次/月",
            "active": true
          },
          {
            "step_number": "障碍桩\n成型",
            "control_item": "破坏性测试",
            "control_method": "UV test",
            "requirement": "100h Uv exposition in referenced lab - \nDS 379 NR1 - without spray - 65h  - 550 w/m²\n“参考实验室的100h紫外线展示”。DS 379 NR1——没有被喷雾- 65 h - 550 w / m²”",
            "criticity": "Major",
            "control_type": "Product control",
            "supplier_control_freq_note": null,
            "supplier_controller": "测试认证",
            "decathlon_control_freq_note": null,
            "active": true
          },
          {
            "step_number": "ONLINE CONTROL 线上管控",
            "control_item": "破坏性测试",
            "control_method": null,
            "requirement": null,
            "criticity": null,
            "control_type": null,
            "supplier_control_freq_note": null,
            "supplier_controller": null,
            "decathlon_control_freq_note": null,
            "active": true
          },
          {
            "step_number": "Assembling process 组装流程",
            "control_item": "破坏性测试",
            "control_method": null,
            "requirement": null,
            "criticity": null,
            "control_type": null,
            "supplier_control_freq_note": null,
            "supplier_controller": null,
            "decathlon_control_freq_note": null,
            "active": true
          },
          {
            "step_number": "组装检验",
            "control_item": "数量检查",
            "control_method": "Visual check 目视检验",
            "requirement": "PCB=12，UE=1\n4种颜色，每种颜色10pcs，共40pcs",
            "criticity": "Major",
            "control_type": "Product control",
            "supplier_control_freq_note": "检验频次：\n4PCS/4小时",
            "supplier_controller": "QE",
            "decathlon_control_freq_note": "1次/月",
            "active": true
          },
          {
            "step_number": "组装检验",
            "control_item": "产品堆叠检查",
            "control_method": "Visual check 目视检验",
            "requirement": "1.从上往下，分别为红、黄、灰、蓝，顺序不允许错\n2.LOGO需在同一侧，透光检查即可",
            "criticity": "Major",
            "control_type": "Product control",
            "supplier_control_freq_note": null,
            "supplier_controller": "QE",
            "decathlon_control_freq_note": "1次/月",
            "active": true
          },
          {
            "step_number": "组装检验",
            "control_item": "装铁架子",
            "control_method": "Visual check 目视检验",
            "requirement": "铁架子需与LOGO在同一侧",
            "criticity": "Major",
            "control_type": "Product control",
            "supplier_control_freq_note": "检验频次：\n4PCS/4小时",
            "supplier_controller": "QE",
            "decathlon_control_freq_note": "1次/月",
            "active": true
          },
          {
            "step_number": "组装检验",
            "control_item": "贴彩贴、RFID标、追溯标、绑扎带",
            "control_method": "Visual check 目视检验",
            "requirement": "1.贴纸不允许超出产品，需将铁架子黏住，且贴于LOGO左侧\n2.RFID标、追溯标不允许漏贴，RFID标可往上贴，避免折叠\n3.扎带不允许漏绑，扎带绑于无LOGO和无贴纸面，且不允许绑太死，食指可轻松穿过即可",
            "criticity": "Major",
            "control_type": "Product control",
            "supplier_control_freq_note": null,
            "supplier_controller": "QE",
            "decathlon_control_freq_note": "1次/月",
            "active": true
          },
          {
            "step_number": "组装检验",
            "control_item": "装箱",
            "control_method": "Visual check 目视检验",
            "requirement": "检查数量共12组，三角隔板不允许漏装，顶层的两组RFID标朝上",
            "criticity": "Major",
            "control_type": "Product control",
            "supplier_control_freq_note": "检验频次：\n4PCS/4小时",
            "supplier_controller": "QE",
            "decathlon_control_freq_note": "1次/月",
            "active": true
          }
        ]
      },
      {
        "name": "Final control",
        "category": "Final control",
        "steps": [
          {
            "step_number": "出货检验",
            "control_item": "包装检查",
            "control_method": "Visual check 目视检验",
            "requirement": "1.贴纸不允许超出产品，需将铁架子黏住，且贴于LOGO左侧\n2.贴纸需贴在logo左侧\n3.检查铁架子需被贴纸黏住\n4.扎带不允许漏绑，扎带绑于无LOGO和无贴纸面，且不允许绑太死，食指可轻松穿过即可",
            "criticity": "Major",
            "control_type": "Product control",
            "supplier_control_freq_note": null,
            "supplier_controller": null,
            "decathlon_control_freq_note": null,
            "active": true
          },
          {
            "step_number": "出货检验",
            "control_item": "RFID是否可读",
            "control_method": "RFID扫描仪\n目视检",
            "requirement": "核对是否和客户码一致\nRFID标可往上贴，避免折叠",
            "criticity": "Major",
            "control_type": "Visual/cosmetic control",
            "supplier_control_freq_note": "检验频次：\nAQL",
            "supplier_controller": "QE",
            "decathlon_control_freq_note": "1次/月",
            "active": true
          },
          {
            "step_number": "出货检验",
            "control_item": "外观\n部件完整",
            "control_method": "Visual check 目视检验",
            "requirement": "外观检查\n1）没有裂缝，也没有油污\n2)没有气泡",
            "criticity": "Major",
            "control_type": "Product control",
            "supplier_control_freq_note": null,
            "supplier_controller": null,
            "decathlon_control_freq_note": null,
            "active": true
          },
          {
            "step_number": "出货检验",
            "control_item": "外观\n部件完整",
            "control_method": "颜色",
            "requirement": "颜色参照样品",
            "criticity": "Minor",
            "control_type": "Product control",
            "supplier_control_freq_note": null,
            "supplier_controller": null,
            "decathlon_control_freq_note": null,
            "active": true
          },
          {
            "step_number": "出货检验",
            "control_item": "外观\n部件完整",
            "control_method": "数量检查",
            "requirement": "PCU=12，UE=1\n每组40PCS，从上而下橙、黄、灰、蓝每色10PCS。",
            "criticity": "Major",
            "control_type": "Product control",
            "supplier_control_freq_note": null,
            "supplier_controller": null,
            "decathlon_control_freq_note": null,
            "active": true
          },
          {
            "step_number": "出货检验",
            "control_item": "破坏性测试",
            "control_method": "Dropping Test\n跌落测试",
            "requirement": "在一个地板上，从2米高处掉下来，100次没有任何的破裂/不可恢复的变形损失。",
            "criticity": "Major",
            "control_type": "LAB control",
            "supplier_control_freq_note": null,
            "supplier_controller": null,
            "decathlon_control_freq_note": null,
            "active": true
          },
          {
            "step_number": "出货检验",
            "control_item": "破坏性测试",
            "control_method": "Deformation test\n碾压测试",
            "requirement": "产品的水平方向捏合，捏合10次。\n碾压手法如图。",
            "criticity": "Critical",
            "control_type": "LAB control",
            "supplier_control_freq_note": null,
            "supplier_controller": null,
            "decathlon_control_freq_note": null,
            "active": true
          }
        ]
      }
    ]
  }
}
