{
  "filename": "CP2.3_TD_62830_Discover Junior CN_Alex L.xlsx",
  "count": 4,
  "product_family": {
    "name": "Discover Junior CN",
    "processes": [
      {
        "name": "Metal raw material reception and storage",
        "category": "Incoming control",
        "steps": [
          {
            "step_number": "1.1000000000000001",
            "control_item": "弓臂\n进料检验",
            "control_method": "Appearance 外观",
            "requirement": "Visual check 目视检验",
            "criticity": null,
            "control_type": "X",
            "supplier_control_freq_note": "Visual/cosmetic control",
            "supplier_controller": "Each batch每批/Sampling level抽样水平:Level 1,AQL:1.50%",
            "decathlon_control_freq_note": "QE\nA Month",
            "active": true
          },
          {
            "step_number": "1.1000000000000001",
            "control_item": "弓臂\n进料检验",
            "control_method": "Measure 尺寸",
            "requirement": "Measure the dimensions 尺寸测量",
            "criticity": "Minor",
            "control_type": null,
            "supplier_control_freq_note": "Records and method control",
            "supplier_controller": "Each batch每批/Sampling level抽样水平:Leve S-2,AQL:1.50%",
            "decathlon_control_freq_note": "QE\nA Month",
            "active": true
          },
          {
            "step_number": "1.1000000000000001",
            "control_item": "弓臂\n进料检验",
            "control_method": "弓臂三点抗折",
            "requirement": "把弓臂固定在夹具上，两点之间距离400mm（以支撑柱中间为准），速度：25mm/min,预加载1N，从中间处下压，弓臂需对准压块正中，且与压块保持垂直。",
            "criticity": "Minor",
            "control_type": null,
            "supplier_control_freq_note": "LAB control",
            "supplier_controller": "Each batch每批/Sampling level抽样水平:1 PCS",
            "decathlon_control_freq_note": "QE\nA Month",
            "active": true
          },
          {
            "step_number": "1.1000000000000001",
            "control_item": "弓臂\n进料检验",
            "control_method": "Rohs 环保",
            "requirement": "Rohs testing  Rohs 测试",
            "criticity": "Major",
            "control_type": null,
            "supplier_control_freq_note": "LAB control",
            "supplier_controller": "Each batch每批/1 PCS",
            "decathlon_control_freq_note": "QE\nA Month",
            "active": true
          },
          {
            "step_number": "1.2",
            "control_item": "弓弦\n进料检验",
            "control_method": "Appearance 外观",
            "requirement": "Visual check 目视检验",
            "criticity": null,
            "control_type": "X",
            "supplier_control_freq_note": "Records and method control",
            "supplier_controller": "Each batch每批/Sampling level抽样水平:Leve S-2,AQL:1.50%",
            "decathlon_control_freq_note": "QE\nA Month",
            "active": true
          },
          {
            "step_number": "1.2",
            "control_item": "弓弦\n进料检验",
            "control_method": "Measure 尺寸",
            "requirement": "Measure the dimensions  尺寸测量",
            "criticity": "Minor",
            "control_type": null,
            "supplier_control_freq_note": "Records and method control",
            "supplier_controller": "Each batch每批/Sampling level抽样水平:Leve S-2,AQL:1.50%",
            "decathlon_control_freq_note": "QE\nA Month",
            "active": true
          },
          {
            "step_number": "1.2",
            "control_item": "弓弦\n进料检验",
            "control_method": "弓弦延伸性测试",
            "requirement": "截取500mm弓弦，将两端固定，速度300mm/min,预加载1N，拉伸500N后将产品取下来",
            "criticity": "Minor",
            "control_type": null,
            "supplier_control_freq_note": "LAB control",
            "supplier_controller": "Each batch每批/Sampling level抽样水平:1 PCS",
            "decathlon_control_freq_note": "QE\nA Month",
            "active": true
          },
          {
            "step_number": "1.2",
            "control_item": "弓弦\n进料检验",
            "control_method": "弓弦车缝强度测试",
            "requirement": "车缝处两端固定，速度300mm/min,预加载1N，用1000N拉伸车缝处",
            "criticity": "Minor",
            "control_type": null,
            "supplier_control_freq_note": "LAB control",
            "supplier_controller": "Each batch每批/Sampling level抽样水平:1 PCS",
            "decathlon_control_freq_note": "QE\nA Month",
            "active": true
          },
          {
            "step_number": "1.2",
            "control_item": "弓弦\n进料检验",
            "control_method": "弓弦强度测试",
            "requirement": "截取500mm的弓弦，两端固定，速度300mm/min,预加载1N",
            "criticity": "Minor",
            "control_type": null,
            "supplier_control_freq_note": "LAB control",
            "supplier_controller": "Each batch每批/Sampling level抽样水平:1 PCS",
            "decathlon_control_freq_note": "QE\nA Month",
            "active": true
          },
          {
            "step_number": "1.2",
            "control_item": "弓弦\n进料检验",
            "control_method": "Rohs 环保",
            "requirement": "Rohs testing  Rohs 测试",
            "criticity": "Major",
            "control_type": null,
            "supplier_control_freq_note": "LAB control",
            "supplier_controller": "Each batch每批/1 PCS",
            "decathlon_control_freq_note": "QE\nA Month",
            "active": true
          },
          {
            "step_number": "1.3",
            "control_item": "箭杆\n进料检验",
            "control_method": "Appearance 外观",
            "requirement": "Visual check 目视检验",
            "criticity": null,
            "control_type": "X",
            "supplier_control_freq_note": "Visual/cosmetic control",
            "supplier_controller": "Each batch每批/Sampling level抽样水平:Level 1,AQL:1.50%",
            "decathlon_control_freq_note": "QE\nA Month",
            "active": true
          },
          {
            "step_number": "1.3",
            "control_item": "箭杆\n进料检验",
            "control_method": "Measure 尺寸",
            "requirement": "Measure the dimensions 尺寸测量",
            "criticity": "Minor",
            "control_type": null,
            "supplier_control_freq_note": "Records and method control",
            "supplier_controller": "Each batch每批/Sampling level抽样水平:Leve S-2,AQL:1.50%",
            "decathlon_control_freq_note": "QE\nA Month",
            "active": true
          },
          {
            "step_number": "1.3",
            "control_item": "箭杆\n进料检验",
            "control_method": "箭杆三点抗折测试",
            "requirement": "测试方法：将箭杆放置于三点抗折测试夹具上，杆上两点距离500mm，预加载0.1N，速度10mm/min从中心处下压当力值达到8.63±0.05时按停止。",
            "criticity": "Minor",
            "control_type": null,
            "supplier_control_freq_note": "LAB control",
            "supplier_controller": "Each batch每批/Sampling level抽样水平:1 PCS",
            "decathlon_control_freq_note": "QE\nA Month",
            "active": true
          },
          {
            "step_number": "1.3",
            "control_item": "箭杆\n进料检验",
            "control_method": "Rohs 环保",
            "requirement": "Rohs testing  Rohs 测试",
            "criticity": "Major",
            "control_type": null,
            "supplier_control_freq_note": "LAB control",
            "supplier_controller": "Each batch每批/1 PCS",
            "decathlon_control_freq_note": "QE\nA Month",
            "active": true
          }
        ]
      },
      {
        "name": "Injection process",
        "category": "Online control",
        "steps": [
          {
            "step_number": "2.1",
            "control_item": "握把注塑检验",
            "control_method": "Visual,Structure 外观,结构",
            "requirement": "Visual check 目视检验",
            "criticity": null,
            "control_type": "X",
            "supplier_control_freq_note": "Visual/cosmetic control",
            "supplier_controller": "2h巡检 4PCS\n 4h抽检 /Sampling level I抽样水平:AQL:2.50%",
            "decathlon_control_freq_note": "QE\nA Month",
            "active": true
          },
          {
            "step_number": "2.1",
            "control_item": "握把注塑检验",
            "control_method": "Measure 尺寸",
            "requirement": "Measure the dimensions   尺寸测量",
            "criticity": "Minor",
            "control_type": null,
            "supplier_control_freq_note": "Product control",
            "supplier_controller": "2h巡检  2PCS\n 4h抽检 /Sampling level S-2 抽样水平:AQL:AC=0 RE=1",
            "decathlon_control_freq_note": "QE\nA Month",
            "active": true
          },
          {
            "step_number": "2.1",
            "control_item": "握把注塑检验",
            "control_method": "握把与弓臂结合力检查",
            "requirement": "把握把弓臂固定在夹具上，电脑拉力计速度为100mm/min，预加载1N",
            "criticity": "Minor",
            "control_type": null,
            "supplier_control_freq_note": "LAB control",
            "supplier_controller": "once production 1PCS\n开机首件封样1pcs",
            "decathlon_control_freq_note": "QE\nA Month",
            "active": true
          },
          {
            "step_number": "2.1",
            "control_item": "握把注塑检验",
            "control_method": "Parameter checking注塑参数确认",
            "requirement": "visual checking 目视检验",
            "criticity": "Minor",
            "control_type": null,
            "supplier_control_freq_note": "Process control,",
            "supplier_controller": "once production\n每次开机",
            "decathlon_control_freq_note": "QE\nA Month",
            "active": true
          },
          {
            "step_number": "2.2000000000000002",
            "control_item": "弓弦包胶注塑检验",
            "control_method": "Visual,Structure 外观,结构",
            "requirement": "Visual check 目视检验",
            "criticity": null,
            "control_type": "X",
            "supplier_control_freq_note": "Visual/cosmetic control",
            "supplier_controller": "2h巡检 4PCS\n 4h抽检 /Sampling level I抽样水平:AQL:2.50%",
            "decathlon_control_freq_note": "QE\nA Month",
            "active": true
          },
          {
            "step_number": "2.2000000000000002",
            "control_item": "弓弦包胶注塑检验",
            "control_method": "Measure 尺寸",
            "requirement": "Measure the dimensions   尺寸测量",
            "criticity": "Minor",
            "control_type": null,
            "supplier_control_freq_note": "Product control",
            "supplier_controller": "2h巡检  2PCS\n 4h抽检 /Sampling level S-2 抽样水平:AQL:AC=0 RE=1",
            "decathlon_control_freq_note": "QE\nA Month",
            "active": true
          },
          {
            "step_number": "2.2000000000000002",
            "control_item": "弓弦包胶注塑检验",
            "control_method": "包胶与弓弦结合力检查",
            "requirement": "把弓弦包胶固定在夹具上，两端固定，电脑拉力计预加载1N，设定速度50mm/min，",
            "criticity": "Minor",
            "control_type": null,
            "supplier_control_freq_note": "LAB control",
            "supplier_controller": "once production 1PCS\n开机首件封样1pcs",
            "decathlon_control_freq_note": "QE\nA Month",
            "active": true
          },
          {
            "step_number": "2.2000000000000002",
            "control_item": "弓弦包胶注塑检验",
            "control_method": "Parameter checking注塑参数确认",
            "requirement": "visual checking 目视检验",
            "criticity": "Minor",
            "control_type": null,
            "supplier_control_freq_note": "Process control,",
            "supplier_controller": "once production\n每次开机",
            "decathlon_control_freq_note": "QE\nA Month",
            "active": true
          },
          {
            "step_number": "2.2999999999999998",
            "control_item": "弓耳注塑检验",
            "control_method": "Visual,Structure 外观,结构",
            "requirement": "Visual check 目视检验",
            "criticity": null,
            "control_type": "X",
            "supplier_control_freq_note": "Visual/cosmetic control",
            "supplier_controller": "2h巡检 4PCS\n 4h抽检 /Sampling level I抽样水平:AQL:2.50%",
            "decathlon_control_freq_note": "QE\nA Month",
            "active": true
          },
          {
            "step_number": "2.2999999999999998",
            "control_item": "弓耳注塑检验",
            "control_method": "Measure 尺寸",
            "requirement": "Measure the dimensions   尺寸测量",
            "criticity": "Minor",
            "control_type": null,
            "supplier_control_freq_note": "Product control",
            "supplier_controller": "2h巡检  2PCS\n 4h抽检 /Sampling level S-2 抽样水平:AQL:AC=0 RE=1",
            "decathlon_control_freq_note": "QE\nA Month",
            "active": true
          },
          {
            "step_number": "2.2999999999999998",
            "control_item": "弓耳注塑检验",
            "control_method": "装配检查",
            "requirement": "弓耳与弓臂组装",
            "criticity": "Minor",
            "control_type": null,
            "supplier_control_freq_note": "LAB control",
            "supplier_controller": "once production 1PCS\n开机首件封样1pcs",
            "decathlon_control_freq_note": "QE\nA Month",
            "active": true
          },
          {
            "step_number": "2.2999999999999998",
            "control_item": "弓耳注塑检验",
            "control_method": "Parameter checking注塑参数确认",
            "requirement": "visual checking 目视检验",
            "criticity": "Minor",
            "control_type": null,
            "supplier_control_freq_note": "Process control,",
            "supplier_controller": "once production\n每次开机",
            "decathlon_control_freq_note": "QE\nA Month",
            "active": true
          },
          {
            "step_number": "2.4",
            "control_item": "吸头\n注塑检验",
            "control_method": "Visual,Structure 外观,结构",
            "requirement": "Visual check 目视检验",
            "criticity": null,
            "control_type": "X",
            "supplier_control_freq_note": "Visual/cosmetic control",
            "supplier_controller": "2h巡检 8PCS\n 4h抽检 /Sampling level I抽样水平:AQL:2.50%",
            "decathlon_control_freq_note": "QE\nA Month",
            "active": true
          },
          {
            "step_number": "2.4",
            "control_item": "吸头\n注塑检验",
            "control_method": "Measure 尺寸",
            "requirement": "Measure the dimensions   尺寸测量",
            "criticity": "Minor",
            "control_type": null,
            "supplier_control_freq_note": "Records and method control",
            "supplier_controller": "2h巡检  4PCS\n 4h抽检 /Sampling level S-2 抽样水平:AQL:AC=0 RE=1",
            "decathlon_control_freq_note": "QE\nA Month",
            "active": true
          },
          {
            "step_number": "2.4",
            "control_item": "吸头\n注塑检验",
            "control_method": "吸力检查",
            "requirement": "吸头装好箭杆，并将吸盘吸在带底座的箭靶上，然后通过箭柄提起整个箭靶在空中停留５秒钟",
            "criticity": "Minor",
            "control_type": null,
            "supplier_control_freq_note": "LAB control",
            "supplier_controller": "开机首件封样1pcs",
            "decathlon_control_freq_note": "QE\nA Month",
            "active": true
          },
          {
            "step_number": "2.4",
            "control_item": "吸头\n注塑检验",
            "control_method": "Parameter checking注塑参数确认",
            "requirement": "visual checking 目视检验",
            "criticity": "Minor",
            "control_type": null,
            "supplier_control_freq_note": "Process control,",
            "supplier_controller": "once production \n每次开机",
            "decathlon_control_freq_note": "QE\nA Month",
            "active": true
          },
          {
            "step_number": "2.5",
            "control_item": "箭羽\n注塑检验",
            "control_method": "Visual,Structure 外观,结构",
            "requirement": "Visual check 目视检验",
            "criticity": null,
            "control_type": "X",
            "supplier_control_freq_note": "Visual/cosmetic control",
            "supplier_controller": "2h巡检 8PCS\n 4h抽检 /Sampling level I抽样水平:AQL:2.50%",
            "decathlon_control_freq_note": "QE\nA Month",
            "active": true
          },
          {
            "step_number": "2.5",
            "control_item": "箭羽\n注塑检验",
            "control_method": "Measure 尺寸",
            "requirement": "Measure the dimensions   尺寸测量",
            "criticity": "Minor",
            "control_type": null,
            "supplier_control_freq_note": "Records and method control",
            "supplier_controller": "2h巡检  4PCS\n 4h抽检 /Sampling level S-2 抽样水平:AQL:AC=0 RE=1",
            "decathlon_control_freq_note": "QE\nA Month",
            "active": true
          },
          {
            "step_number": "2.5",
            "control_item": "箭羽\n注塑检验",
            "control_method": "箭羽与箭杆结合力检查",
            "requirement": "测试方法：把箭杆包胶固定在夹具上，两端固定，电脑拉力计预加载5N，设定速度5mm/min，",
            "criticity": "Minor",
            "control_type": null,
            "supplier_control_freq_note": "LAB control",
            "supplier_controller": "开机首件封样1pcs",
            "decathlon_control_freq_note": "QE\nA Month",
            "active": true
          },
          {
            "step_number": "2.5",
            "control_item": "箭羽\n注塑检验",
            "control_method": "Parameter checking注塑参数确认",
            "requirement": "visual checking 目视检验",
            "criticity": "Minor",
            "control_type": null,
            "supplier_control_freq_note": "Process control,",
            "supplier_controller": "once production \n每次开机",
            "decathlon_control_freq_note": "QE\nA Month",
            "active": true
          },
          {
            "step_number": "2.6",
            "control_item": "包装板\n注塑检验",
            "control_method": "Visual,Structure 外观,结构",
            "requirement": "Visual check 目视检验",
            "criticity": null,
            "control_type": "X",
            "supplier_control_freq_note": "Visual/cosmetic control",
            "supplier_controller": "2h巡检 8PCS\n 4h抽检 /Sampling level I抽样水平:AQL:2.50%",
            "decathlon_control_freq_note": "QE\nA Month",
            "active": true
          },
          {
            "step_number": "2.6",
            "control_item": "包装板\n注塑检验",
            "control_method": "Measure 尺寸",
            "requirement": "Measure the dimensions   尺寸测量",
            "criticity": "Minor",
            "control_type": null,
            "supplier_control_freq_note": "Records and method control",
            "supplier_controller": "2h巡检  4PCS\n 4h抽检 /Sampling level S-2 抽样水平:AQL:AC=0 RE=1",
            "decathlon_control_freq_note": "QE\nA Month",
            "active": true
          },
          {
            "step_number": "2.6",
            "control_item": "包装板\n注塑检验",
            "control_method": "Parameter checking注塑参数确认",
            "requirement": "visual checking 目视检验",
            "criticity": "Minor",
            "control_type": null,
            "supplier_control_freq_note": "Process control,",
            "supplier_controller": "once production \n每次开机",
            "decathlon_control_freq_note": "QE\nA Month",
            "active": true
          }
        ]
      },
      {
        "name": "Assembling process",
        "category": "Online control",
        "steps": [
          {
            "step_number": "3.1",
            "control_item": "Discover junior CN 组装检验",
            "control_method": "装配弓耳",
            "requirement": "Visual check 目视检验",
            "criticity": null,
            "control_type": "X",
            "supplier_control_freq_note": "Process control,",
            "supplier_controller": "2h巡检 4pcs\n 4h抽检   Sampling level I抽样水平:AQL:2.50%",
            "decathlon_control_freq_note": "QE\nA Month",
            "active": true
          },
          {
            "step_number": "3.2",
            "control_item": "Discover junior CN 组装检验",
            "control_method": "组装弓弦",
            "requirement": "Visual check 目视检验\nMeasure the dimensions   尺寸测量",
            "criticity": null,
            "control_type": "X",
            "supplier_control_freq_note": "Process control,",
            "supplier_controller": "2h巡检 4pcs\n 4h抽检   Sampling level I抽样水平:AQL:2.50%",
            "decathlon_control_freq_note": "QE\nA Month",
            "active": true
          },
          {
            "step_number": "3.3",
            "control_item": "Discover junior CN 组装检验",
            "control_method": "装包装板",
            "requirement": "Visual check 目视检验",
            "criticity": "Minor",
            "control_type": null,
            "supplier_control_freq_note": "Process control,",
            "supplier_controller": "2h巡检 4pcs\n 4h抽检   Sampling level I抽样水平:AQL:2.50%",
            "decathlon_control_freq_note": "QE\nA Month",
            "active": true
          },
          {
            "step_number": "3.4",
            "control_item": "Discover junior CN 组装检验",
            "control_method": "剪扎带与装说明书",
            "requirement": "Visual check 目视检验",
            "criticity": "Minor",
            "control_type": null,
            "supplier_control_freq_note": "Process control,",
            "supplier_controller": "2h巡检 4pcs\n 4h抽检   Sampling level I抽样水平:AQL:2.50%",
            "decathlon_control_freq_note": "QE\nA Month",
            "active": true
          },
          {
            "step_number": "3.5",
            "control_item": "Discover junior CN 组装检验",
            "control_method": "包装",
            "requirement": "Visual check 目视检验",
            "criticity": null,
            "control_type": "X",
            "supplier_control_freq_note": "Process control,",
            "supplier_controller": "2h巡检 4pcs\n 4h抽检   Sampling level I抽样水平:AQL:2.50%",
            "decathlon_control_freq_note": "QE\nA Month",
            "active": true
          }
        ]
      },
      {
        "name": "Shipping process",
        "category": "Online control",
        "steps": [
          {
            "step_number": "4.0999999999999996",
            "control_item": "出货检验Shipment Inspection",
            "control_method": "Appearance 外观",
            "requirement": "Visual check 目视检验",
            "criticity": null,
            "control_type": "X",
            "supplier_control_freq_note": "Visual/cosmetic control",
            "supplier_controller": "Each batch每批/Sampling level抽样水平:Leve I,AQL:6.50%",
            "decathlon_control_freq_note": "QE\nA Month",
            "active": true
          },
          {
            "step_number": "4.0999999999999996",
            "control_item": "出货检验Shipment Inspection",
            "control_method": "Measure 尺寸",
            "requirement": "Measure the dimensions 尺寸测量",
            "criticity": "Minor",
            "control_type": null,
            "supplier_control_freq_note": "Records and method control",
            "supplier_controller": "Each batch每批/Sampling level抽样水平:Leve S-2,AQL:2.50%",
            "decathlon_control_freq_note": "QE\nA Month",
            "active": true
          },
          {
            "step_number": "4.0999999999999996",
            "control_item": "出货检验Shipment Inspection",
            "control_method": "弓疲劳测试",
            "requirement": "测试前需测试弓臂力值，拉伸长度533mm，力值要求44±9N。握把到弓弦的距离：170±20mm\n测试一：弓组件成品进行高温测试，投入温度为65℃的烤箱12h，置于室温条件下至少一小时后，测试弓臂力值，拉伸长度533mm。\n\n测试二：力值测试后进行疲劳测试，调节行程为533mm（从握把开始测量），气动疲劳测试仪测试18000次，周期为2±0.5s。",
            "criticity": "Minor",
            "control_type": null,
            "supplier_control_freq_note": "LAB control",
            "supplier_controller": "1PCS/2000PCS",
            "decathlon_control_freq_note": "QE\nA Month",
            "active": true
          },
          {
            "step_number": "4.0999999999999996",
            "control_item": "出货检验Shipment Inspection",
            "control_method": "弓静载测试",
            "requirement": "弓疲劳测试后进行弓静载测试\n测试一：将弓组装为成品，测试弓臂力值要求44±9N。将弓固定在相应夹具上，保持弓弦水平，从弓弦正中间处拉伸，设置条件为：最大形变量=533mm-握把最凹处（如右图）与弓弦之间的距离；速度150mm/min，预加载0.1N；\n测试二：测试一完成后，调整最大形变量=800mm-握把最凹处（如右图）与弓弦之间的距离；速度150mm/min，预加载0.1N。",
            "criticity": "Minor",
            "control_type": null,
            "supplier_control_freq_note": "LAB control",
            "supplier_controller": "1PCS/2000PCS",
            "decathlon_control_freq_note": "QE\nA Month",
            "active": true
          },
          {
            "step_number": "4.0999999999999996",
            "control_item": "出货检验Shipment Inspection",
            "control_method": "高低温环境测试",
            "requirement": "测试方法：将拆卸的弓箭组件置于恒温恒湿试验箱，按照以下条件测试两个循环（共48H）：①-20±2°、12H，②80±2°、湿度（90±5）%12H。",
            "criticity": "Minor",
            "control_type": null,
            "supplier_control_freq_note": "LAB control",
            "supplier_controller": "1PCS/50000PCS",
            "decathlon_control_freq_note": "QE\nA Month",
            "active": true
          },
          {
            "step_number": "时间",
            "control_item": "出货检验Shipment Inspection",
            "control_method": "变更内容",
            "requirement": null,
            "criticity": null,
            "control_type": null,
            "supplier_control_freq_note": null,
            "supplier_controller": null,
            "decathlon_control_freq_note": null,
            "active": true
          }
        ]
      }
    ]
  }
}
