{
  "filename": "CP2.3_HF-Fishing&69807_ Metal Process_Fiona ZHAO.xlsx.xlsx",
  "count": 2,
  "product_family": {
    "name": "Fishing Metal Process",
    "processes": [
      {
        "name": "加工流程",
        "category": "Online control",
        "steps": [
          {
            "step_number": "迪卡侬/Jason管控",
            "control_item": "相应工位管控内容",
            "control_method": "检查IQC/巡检/OQC的检验频率+ 检验方法+检验记录",
            "requirement": "管控频率，方法和记录都被遵守，如果检验记录有不良，盘问他的管理方法",
            "criticity": null,
            "control_type": "记录和方法管控",
            "supplier_control_freq_note": null,
            "supplier_controller": null,
            "decathlon_control_freq_note": null,
            "active": true
          },
          {
            "step_number": "#1管材下料",
            "control_item": "裁剪长度",
            "control_method": "调模--按下料尺寸调整定位模（首样测试）",
            "requirement": "下料长度误差1mm以内",
            "criticity": "Major",
            "control_type": "过程管控",
            "supplier_control_freq_note": "首检，自检(次/100pcs)",
            "supplier_controller": "作业员",
            "decathlon_control_freq_note": "次/2H(3pcs)",
            "active": true
          },
          {
            "step_number": "#1管材下料",
            "control_item": "管材外径、壁厚",
            "control_method": "测量",
            "requirement": "依具体产品图纸要求",
            "criticity": "Critical",
            "control_type": "过程管控",
            "supplier_control_freq_note": "首检",
            "supplier_controller": "作业员",
            "decathlon_control_freq_note": "次/2H(3pcs)",
            "active": true
          },
          {
            "step_number": "#1管材下料",
            "control_item": "外观",
            "control_method": "目视检查",
            "requirement": "管件无刮伤.夹伤.碰伤.变形，切割面平整，切口毛刺<0.5mm",
            "criticity": "Minor",
            "control_type": "目视\\外观管控",
            "supplier_control_freq_note": "1.0",
            "supplier_controller": "作业员",
            "decathlon_control_freq_note": null,
            "active": true
          },
          {
            "step_number": "#2.弯管",
            "control_item": "长度，宽度，和R角\nU形管垂直度",
            "control_method": "调模-按图纸尺寸调整模具（首样测试）",
            "requirement": "弯管尺寸符合具体产品图纸要求",
            "criticity": "Major",
            "control_type": "过程管控",
            "supplier_control_freq_note": "首检，自检(次/50pcs)",
            "supplier_controller": "作业员",
            "decathlon_control_freq_note": "次/2H(3pcs)",
            "active": true
          },
          {
            "step_number": "#2.弯管",
            "control_item": "平面度",
            "control_method": "目视检查",
            "requirement": "扭转间隙0.5mm以内",
            "criticity": "Major",
            "control_type": "过程管控",
            "supplier_control_freq_note": "首检，自检(次/50pcs)",
            "supplier_controller": "作业员",
            "decathlon_control_freq_note": null,
            "active": true
          },
          {
            "step_number": "#2.弯管",
            "control_item": "外观",
            "control_method": "目视检查",
            "requirement": "无夹伤、凹陷、凸包、扭曲开裂等",
            "criticity": "Minor",
            "control_type": "目视\\外观管控",
            "supplier_control_freq_note": "1.0",
            "supplier_controller": "作业员",
            "decathlon_control_freq_note": null,
            "active": true
          },
          {
            "step_number": "#3冲孔&.钻孔",
            "control_item": "孔位/孔径/孔距",
            "control_method": "调模-按图纸尺寸调整模具（首样测试）",
            "requirement": "孔径公差ΦD±0.1mm，孔距及孔位公差L±0.5mm/，具体尺寸符合产品图纸要求",
            "criticity": "Major",
            "control_type": "过程管控",
            "supplier_control_freq_note": "首检，自检(次/100pcs)",
            "supplier_controller": "作业员",
            "decathlon_control_freq_note": "次/2H(3pcs)",
            "active": true
          },
          {
            "step_number": "#3冲孔&.钻孔",
            "control_item": "外观",
            "control_method": "目视检查",
            "requirement": "管件无刮伤.夹伤.碰伤.变形，冲钻孔毛刺<0.5mm",
            "criticity": "Minor",
            "control_type": "目视\\外观管控",
            "supplier_control_freq_note": "1.0",
            "supplier_controller": "作业员",
            "decathlon_control_freq_note": null,
            "active": true
          },
          {
            "step_number": "#4.缩管&.扩管",
            "control_item": "管件孔径/长度",
            "control_method": "调模-按图纸尺寸调整模具（首样测试）",
            "requirement": "孔径公差ΦD±0.1mm，长度误差L±0.5mm以内，具体尺寸符合产品图纸要求",
            "criticity": "Major",
            "control_type": "过程管控",
            "supplier_control_freq_note": "首检，自检(次/50pcs)",
            "supplier_controller": "作业员",
            "decathlon_control_freq_note": "次/2H(3pcs)",
            "active": true
          },
          {
            "step_number": "#4.缩管&.扩管",
            "control_item": "外观",
            "control_method": "目视检查",
            "requirement": "管件不弯曲、表面无挤压痕、端口平整。",
            "criticity": "Minor",
            "control_type": "目视\\外观管控",
            "supplier_control_freq_note": "1.0",
            "supplier_controller": "作业员",
            "decathlon_control_freq_note": null,
            "active": true
          },
          {
            "step_number": "#5.去毛刺",
            "control_item": "外观",
            "control_method": "目视检查",
            "requirement": "无碰伤、夹伤、毛刺、凸包、凹陷等",
            "criticity": "Critical",
            "control_type": "过程管控",
            "supplier_control_freq_note": "1.0",
            "supplier_controller": "作业员",
            "decathlon_control_freq_note": "次/2H(3pcs)",
            "active": true
          }
        ]
      },
      {
        "name": "焊接流程",
        "category": "Online control",
        "steps": [
          {
            "step_number": "#1.焊接",
            "control_item": "点焊精度",
            "control_method": "试模（首样测试）",
            "requirement": "具体产品依图面",
            "criticity": "Critical",
            "control_type": "过程管控",
            "supplier_control_freq_note": "首检",
            "supplier_controller": "作业员",
            "decathlon_control_freq_note": "2H/次(3pcs)",
            "active": true
          },
          {
            "step_number": "#1.焊接",
            "control_item": "焊接尺寸",
            "control_method": "卷尺/量规量测",
            "requirement": "具体产品依图面",
            "criticity": "Critical",
            "control_type": "过程管控",
            "supplier_control_freq_note": "首检",
            "supplier_controller": "作业员",
            "decathlon_control_freq_note": "2H/次(3pcs)",
            "active": true
          },
          {
            "step_number": "#1.焊接",
            "control_item": "管件外观",
            "control_method": "目视检查",
            "requirement": "无碰伤、夹伤、毛刺、凸包、凹陷等",
            "criticity": "Minor",
            "control_type": "目视\\外观管控",
            "supplier_control_freq_note": "1.0",
            "supplier_controller": "作业员",
            "decathlon_control_freq_note": null,
            "active": true
          },
          {
            "step_number": "#1.焊接",
            "control_item": "焊道外观",
            "control_method": "目视检查",
            "requirement": "焊接表面平整，无漏焊、焊穿、凹陷、蚀肉、灼伤、焊渣气孔等",
            "criticity": "Critical",
            "control_type": "过程管控",
            "supplier_control_freq_note": "1.0",
            "supplier_controller": "作业员",
            "decathlon_control_freq_note": "2H/次(3pcs)",
            "active": true
          },
          {
            "step_number": "#2.研磨",
            "control_item": "外观",
            "control_method": "目视检查",
            "requirement": "平顺.无凹陷.磨痕.环纹",
            "criticity": "Minor",
            "control_type": "目视\\外观管控",
            "supplier_control_freq_note": "1.0",
            "supplier_controller": "作业员",
            "decathlon_control_freq_note": null,
            "active": true
          }
        ]
      }
    ]
  }
}
