{
  "filename": "CP2.3_HF-Fishing&69807_Pole Roller_Fiona ZHAO.xlsx.xlsx",
  "count": 4,
  "product_family": {
    "name": "Pole Roller",
    "processes": [
      {
        "name": "Metal raw material reception and storage",
        "category": "Incoming control",
        "steps": [
          {
            "step_number": "#1. EVA",
            "control_item": "颜色&尺寸",
            "control_method": "检查IQC的检验方法+检验记录\n技术资料/封样",
            "requirement": "检查IQC来料检验是否按照SOP进行，以及是否按照检验标准进行判定，确认来料检验记录以及判定结果和不良时处理办法",
            "criticity": "Major",
            "control_type": "记录和方法管控",
            "supplier_control_freq_note": "按生产单",
            "supplier_controller": "IQC",
            "decathlon_control_freq_note": "1 time/4h",
            "active": true
          },
          {
            "step_number": "#1. EVA",
            "control_item": "“Caperlan+logo” printing (颜色 & 外观 & 位置) +管子颜色. \n（Incoming+process）",
            "control_method": "检查IQC的检验方法+检验记录\n图纸/技术资料/封样",
            "requirement": "检查IQC来料检验是否按照SOP进行，以及是否按照检验标准进行判定，确认来料检验记录以及判定结果和不良时处理办法",
            "criticity": "Major",
            "control_type": "记录和方法管控",
            "supplier_control_freq_note": "按生产单",
            "supplier_controller": "IQC",
            "decathlon_control_freq_note": "1 time/4h",
            "active": true
          },
          {
            "step_number": "#2. 金属管材规格和物性",
            "control_item": "直径、壁厚、硬度等",
            "control_method": "检查IQC的检验方法+检验记录\n图纸/技术资料/封样/实验室测试",
            "requirement": "检查IQC来料检验是否按照SOP进行，以及是否按照检验标准进行判定，确认来料检验记录以及判定结果和不良时处理办法",
            "criticity": "Major",
            "control_type": "记录和方法管控",
            "supplier_control_freq_note": "按生产单",
            "supplier_controller": "IQC",
            "decathlon_control_freq_note": "1 time/4h",
            "active": true
          },
          {
            "step_number": "#4. 纸箱",
            "control_item": "纸箱",
            "control_method": "检查IQC的检验方法+检验记录\n图纸/技术资料/封样",
            "requirement": "检查IQC来料检验是否按照SOP进行，以及是否按照检验标准进行判定，确认来料检验记录以及判定结果和不良时处理办法",
            "criticity": "Major",
            "control_type": "记录和方法管控",
            "supplier_control_freq_note": "按生产单",
            "supplier_controller": "IQC",
            "decathlon_control_freq_note": "1 time/4h",
            "active": true
          },
          {
            "step_number": "#5. 小五金件",
            "control_item": "小五金件",
            "control_method": "检查IQC的检验方法+检验记录\n图纸/技术资料/封样/实验室测试",
            "requirement": "检查IQC来料检验是否按照SOP进行，以及是否按照检验标准进行判定，确认来料检验记录以及判定结果和不良时处理办法",
            "criticity": "Major",
            "control_type": "记录和方法管控",
            "supplier_control_freq_note": "按生产单",
            "supplier_controller": "IQC",
            "decathlon_control_freq_note": "1 time/4h",
            "active": true
          }
        ]
      },
      {
        "name": "Metal process",
        "category": "Online control",
        "steps": [
          {
            "step_number": "#1. 割管",
            "control_item": "裁剪长度",
            "control_method": "调模--按下料尺寸调整定位模（首样测试）",
            "requirement": "下料长度误差1mm以内",
            "criticity": "Major",
            "control_type": "过程管控",
            "supplier_control_freq_note": "首检，自检(次/100pcs)",
            "supplier_controller": "作业员",
            "decathlon_control_freq_note": "次/2H(3pcs)",
            "active": true
          },
          {
            "step_number": "#1. 割管",
            "control_item": "管材外径、壁厚",
            "control_method": "测量",
            "requirement": "依具体产品图纸要求",
            "criticity": "Critical",
            "control_type": "过程管控",
            "supplier_control_freq_note": "首检",
            "supplier_controller": "作业员",
            "decathlon_control_freq_note": "次/2H(3pcs)",
            "active": true
          },
          {
            "step_number": "#1. 割管",
            "control_item": "外观",
            "control_method": "目视检查",
            "requirement": "管件无刮伤.夹伤.碰伤.变形，切割面平整，切口毛刺<0.5mm",
            "criticity": "Major",
            "control_type": "过程管控",
            "supplier_control_freq_note": "1.0",
            "supplier_controller": "作业员",
            "decathlon_control_freq_note": null,
            "active": true
          },
          {
            "step_number": "#2. 打孔",
            "control_item": "孔位/孔径/孔距",
            "control_method": "调模-按图纸尺寸调整模具（首样测试）",
            "requirement": "孔径公差ΦD±0.1mm，孔距及孔位公差L±0.5mm/，具体尺寸符合产品图纸要求",
            "criticity": "Major",
            "control_type": "过程管控",
            "supplier_control_freq_note": "1.0",
            "supplier_controller": "作业员",
            "decathlon_control_freq_note": null,
            "active": true
          },
          {
            "step_number": "#2. 打孔",
            "control_item": "外观",
            "control_method": "目视检查",
            "requirement": "管件无刮伤.夹伤.碰伤.变形，冲钻孔毛刺<0.5mm",
            "criticity": "Major",
            "control_type": "过程管控",
            "supplier_control_freq_note": "1.0",
            "supplier_controller": "作业员",
            "decathlon_control_freq_note": null,
            "active": true
          }
        ]
      },
      {
        "name": "Asse process",
        "category": "Online control",
        "steps": [
          {
            "step_number": "#1. 基座组装",
            "control_item": "追溯标位置&尺寸",
            "control_method": "目视",
            "requirement": "符合技术资料/封样",
            "criticity": "Major",
            "control_type": "过程管控",
            "supplier_control_freq_note": "1.0",
            "supplier_controller": "作业员",
            "decathlon_control_freq_note": null,
            "active": true
          },
          {
            "step_number": "#1. 基座组装",
            "control_item": "EVA与基座间隙",
            "control_method": "目视",
            "requirement": "符合技术资料/封样",
            "criticity": "Major",
            "control_type": "过程管控",
            "supplier_control_freq_note": "1.0",
            "supplier_controller": "作业员",
            "decathlon_control_freq_note": null,
            "active": true
          },
          {
            "step_number": "#2.端基座与连杆连接",
            "control_item": "连接杆安装方向正确",
            "control_method": "使用防呆定位模",
            "requirement": "连接杆插销孔确保壁厚一侧位于基座内侧，壁薄一侧位于基座外侧",
            "criticity": "Major",
            "control_type": "过程管控",
            "supplier_control_freq_note": "1.0",
            "supplier_controller": "作业员",
            "decathlon_control_freq_note": null,
            "active": true
          },
          {
            "step_number": "#2.端基座与连杆连接",
            "control_item": "端基座外观",
            "control_method": "目视",
            "requirement": "端基座塑料件表面无碰伤、划痕",
            "criticity": "Minor",
            "control_type": "过程管控",
            "supplier_control_freq_note": "1.0",
            "supplier_controller": "作业员",
            "decathlon_control_freq_note": null,
            "active": true
          },
          {
            "step_number": "#3.端基座/EVA表面丝印",
            "control_item": "丝印位置&方向",
            "control_method": "目视",
            "requirement": "符合技术资料/封样",
            "criticity": "Minor",
            "control_type": "过程管控",
            "supplier_control_freq_note": "1.0",
            "supplier_controller": "作业员",
            "decathlon_control_freq_note": null,
            "active": true
          },
          {
            "step_number": "#3.端基座/EVA表面丝印",
            "control_item": "表面外观",
            "control_method": "丝印使用定位模",
            "requirement": "表面无碰伤、划痕、污染",
            "criticity": "Minor",
            "control_type": "过程管控",
            "supplier_control_freq_note": "1.0",
            "supplier_controller": "作业员",
            "decathlon_control_freq_note": null,
            "active": true
          },
          {
            "step_number": "#4.横梁EVA组件组装",
            "control_item": "EVA外观",
            "control_method": "目视",
            "requirement": "EVA表面无污染、划痕",
            "criticity": "Minor",
            "control_type": "过程管控",
            "supplier_control_freq_note": "1.0",
            "supplier_controller": "作业员",
            "decathlon_control_freq_note": null,
            "active": true
          },
          {
            "step_number": "#5.连杆套敲进EVA",
            "control_item": "塑料件与EVA的顶部间隙",
            "control_method": "首检封样",
            "requirement": "塑料件与EVA的顶部平行（误差1mm以内）",
            "criticity": "Major",
            "control_type": "过程管控",
            "supplier_control_freq_note": "首检",
            "supplier_controller": "作业员",
            "decathlon_control_freq_note": "次/2H(3pcs)",
            "active": true
          },
          {
            "step_number": "#5.连杆套敲进EVA",
            "control_item": "EVA转动",
            "control_method": "手动测试",
            "requirement": "EVA转动顺畅，无阻碍",
            "criticity": "Major",
            "control_type": "过程管控",
            "supplier_control_freq_note": "1.0",
            "supplier_controller": "作业员",
            "decathlon_control_freq_note": null,
            "active": true
          },
          {
            "step_number": "#5.连杆套敲进EVA",
            "control_item": "EVA外观",
            "control_method": "目视",
            "requirement": "EVA表面无污染、划痕",
            "criticity": "Minor",
            "control_type": "过程管控",
            "supplier_control_freq_note": "1.0",
            "supplier_controller": "作业员",
            "decathlon_control_freq_note": null,
            "active": true
          },
          {
            "step_number": "#6.搁杆架脚管组装",
            "control_item": "2侧脚管锁紧力一致",
            "control_method": "目视",
            "requirement": "基座两颗螺丝露出的牙一样多（2到3牙）",
            "criticity": "Major",
            "control_type": "过程管控",
            "supplier_control_freq_note": "1.0",
            "supplier_controller": "作业员",
            "decathlon_control_freq_note": null,
            "active": true
          },
          {
            "step_number": "#6.搁杆架脚管组装",
            "control_item": "端基座外观",
            "control_method": "目视",
            "requirement": "端基座塑料件表面无碰伤、划痕",
            "criticity": "Minor",
            "control_type": "过程管控",
            "supplier_control_freq_note": "1.0",
            "supplier_controller": "作业员",
            "decathlon_control_freq_note": null,
            "active": true
          },
          {
            "step_number": "#7.挂钩组装",
            "control_item": "挂钩方向",
            "control_method": "目视",
            "requirement": "挂钩方向与横梁管保持水平",
            "criticity": "Major",
            "control_type": "过程管控",
            "supplier_control_freq_note": "1.0",
            "supplier_controller": "作业员",
            "decathlon_control_freq_note": null,
            "active": true
          },
          {
            "step_number": "#8.在线全检",
            "control_item": "EVA水平滚筒转动情况",
            "control_method": "手动测试",
            "requirement": "水平滚筒绕轴水平转动，转动顺畅无卡顿",
            "criticity": "Major",
            "control_type": "过程管控",
            "supplier_control_freq_note": "1.0",
            "supplier_controller": "作业员",
            "decathlon_control_freq_note": "次/2H(3pcs)",
            "active": true
          },
          {
            "step_number": "#8.在线全检",
            "control_item": "EVA竖直滚筒折叠功能",
            "control_method": "手动测试",
            "requirement": "竖直滚筒：两端滚筒仅可以向中间收折，中间滚筒可向两端收折",
            "criticity": "Major",
            "control_type": "过程管控",
            "supplier_control_freq_note": "1.0",
            "supplier_controller": "作业员",
            "decathlon_control_freq_note": null,
            "active": true
          },
          {
            "step_number": "#8.在线全检",
            "control_item": "基座结构稳定性",
            "control_method": "手动测试",
            "requirement": "折叠后基座的四个点在一个平面上",
            "criticity": "Major",
            "control_type": "过程管控",
            "supplier_control_freq_note": "1.0",
            "supplier_controller": "作业员",
            "decathlon_control_freq_note": null,
            "active": true
          },
          {
            "step_number": "#8.在线全检",
            "control_item": "外观",
            "control_method": "目视",
            "requirement": "EVA表面无污染、划痕；\n端基座塑料件表面无碰伤、划痕",
            "criticity": "Minor",
            "control_type": "过程管控",
            "supplier_control_freq_note": "1.0",
            "supplier_controller": "作业员",
            "decathlon_control_freq_note": null,
            "active": true
          }
        ]
      },
      {
        "name": "Final control",
        "category": "Final control",
        "steps": [
          {
            "step_number": "#1.保护&包装",
            "control_item": "保护",
            "control_method": "目视检查",
            "requirement": "EVA 和脚管用发泡保护",
            "criticity": "Major",
            "control_type": "产品管控",
            "supplier_control_freq_note": "1.0",
            "supplier_controller": "作业员",
            "decathlon_control_freq_note": null,
            "active": true
          },
          {
            "step_number": "#1.保护&包装",
            "control_item": "挂牌&贴标",
            "control_method": "目视检查/记录",
            "requirement": "RFID/水洗标/追溯标位置\nRFID/追溯标/挂牌信息\nRFID群扫记录检查",
            "criticity": "Major",
            "control_type": "记录和方法管控",
            "supplier_control_freq_note": "1.0",
            "supplier_controller": "作业员",
            "decathlon_control_freq_note": null,
            "active": true
          },
          {
            "step_number": "#1.保护&包装",
            "control_item": "“SHU”标签质量检查",
            "control_method": "查看方法+记录",
            "requirement": "\"SHU\"标签检查和评级记录",
            "criticity": "Major",
            "control_type": "记录和方法管控",
            "supplier_control_freq_note": "1.0",
            "supplier_controller": "作业员",
            "decathlon_control_freq_note": null,
            "active": true
          },
          {
            "step_number": "#2.搁杆架大小",
            "control_item": "搁杆架脚管打开后高度",
            "control_method": "手动测量",
            "requirement": "75+-1 cm",
            "criticity": "Major",
            "control_type": "产品管控",
            "supplier_control_freq_note": "按生产单，每次一个",
            "supplier_controller": "OQC",
            "decathlon_control_freq_note": null,
            "active": true
          },
          {
            "step_number": "#2.搁杆架大小",
            "control_item": "搁杆架脚管收缩后高度",
            "control_method": "手动测量",
            "requirement": "119+-1 cm",
            "criticity": "Major",
            "control_type": "产品管控",
            "supplier_control_freq_note": "按生产单，每次一个",
            "supplier_controller": "OQC",
            "decathlon_control_freq_note": null,
            "active": true
          },
          {
            "step_number": "#3. 产品外观",
            "control_item": "丝印位置及外观",
            "control_method": "目视检查",
            "requirement": "Carperlan颜色、位置正确，丝印清晰完整",
            "criticity": "Minor",
            "control_type": "记录和方法管控",
            "supplier_control_freq_note": "按生产单，每次一个",
            "supplier_controller": "OQC",
            "decathlon_control_freq_note": null,
            "active": true
          },
          {
            "step_number": "#3. 产品外观",
            "control_item": "产品清洁",
            "control_method": "目视检查",
            "requirement": "表面清洁无脏污和腐蚀生锈等缺陷",
            "criticity": "Minor",
            "control_type": "记录和方法管控",
            "supplier_control_freq_note": "按生产单，每次一个",
            "supplier_controller": "OQC",
            "decathlon_control_freq_note": null,
            "active": true
          },
          {
            "step_number": "#4. 功能性测试",
            "control_item": "承重",
            "control_method": "测试",
            "requirement": "稳定承重8kg",
            "criticity": "Major",
            "control_type": "记录和方法管控",
            "supplier_control_freq_note": "按生产单，每次一个",
            "supplier_controller": "OQC",
            "decathlon_control_freq_note": null,
            "active": true
          },
          {
            "step_number": "#4. 功能性测试",
            "control_item": "折叠/伸缩功能及稳定性",
            "control_method": "手动测试",
            "requirement": "基座在200次折叠打开后仍可卡住脚管,搁杆架稳定不影响使用",
            "criticity": "Major",
            "control_type": "记录和方法管控",
            "supplier_control_freq_note": "按生产单，每次一个",
            "supplier_controller": "OQC",
            "decathlon_control_freq_note": null,
            "active": true
          },
          {
            "step_number": "#4. 功能性测试",
            "control_item": "EVA水平滚筒转动情况",
            "control_method": "手动测试",
            "requirement": "水平滚筒绕轴水平转动，转动顺畅无卡顿",
            "criticity": "Major",
            "control_type": "记录和方法管控",
            "supplier_control_freq_note": "按生产单，每次一个",
            "supplier_controller": "OQC",
            "decathlon_control_freq_note": null,
            "active": true
          },
          {
            "step_number": "#4. 功能性测试",
            "control_item": "EVA竖直滚筒折叠功能",
            "control_method": "手动测试",
            "requirement": "竖直滚筒：两端滚筒仅可以向中间收折，中间滚筒可向两端收折",
            "criticity": "Major",
            "control_type": "记录和方法管控",
            "supplier_control_freq_note": "按生产单，每次一个",
            "supplier_controller": "OQC",
            "decathlon_control_freq_note": null,
            "active": true
          }
        ]
      }
    ]
  }
}
