{
  "filename": "CP2.3_OceanMaster&71037_Trampoline_Jianguo Wang.xlsx",
  "count": 6,
  "product_family": {
    "name": "Trampoline",
    "processes": [
      {
        "name": "Metal raw material reception and storage",
        "category": "Incoming control",
        "steps": [
          {
            "step_number": "IQC-Tube；  原材料检验-钢管",
            "control_item": "外观Appearance checking",
            "control_method": "目测 Visual check",
            "requirement": "Surface should be smooth, does not allow a squeeze marks, scratches, pitting, corrosion and other defects, external surface of the steel tube hot dip color is consistent, the galvanized layer adhesion is good, no oxidation and corrosion. Joint and surface can not have a mouth, crack, coagulator, branding, rough, defects such as scratches, plane mouth will level off, smooth weld wants even, without welding, lap welding, welding phenomenon exists, zinc spray weld is good.表面应光滑，不允许有挤痕、划伤、麻点、锈蚀等缺陷，钢管外表面热镀颜色一致，镀锌层附着良好，无氧化、锈蚀。焊口及表面不得有搭口、裂纹、电烧、烙印、不平、刮伤等缺陷，刨口要圆滑平整，焊缝要均匀，无开焊、搭焊、假焊现象存在，焊缝喷锌良好。",
            "criticity": "Minor",
            "control_type": "Visual/cosmetic control",
            "supplier_control_freq_note": "sampling plan 1；抽样方案1",
            "supplier_controller": "QC",
            "decathlon_control_freq_note": "每3个月\nEvery 3 month",
            "active": true
          },
          {
            "step_number": "IQC-Tube；  原材料检验-钢管",
            "control_item": "zinc coating；镀锌层",
            "control_method": "salt spray test；盐雾实验箱",
            "requirement": "5% outdoor product 96H salt spray experiment no red embroidery /5% 室外产品96H盐雾实验无红绣",
            "criticity": "Major",
            "control_type": "Records and method control",
            "supplier_control_freq_note": "更换供应商时实验12件，1件（锌层厚度最低）/订单/厂家",
            "supplier_controller": "QC",
            "decathlon_control_freq_note": "每月\nEvery month",
            "active": true
          },
          {
            "step_number": "IQC-Tube；  原材料检验-钢管",
            "control_item": "Zinc layer thickness；锌层厚度",
            "control_method": "thickness gauge；锌层测厚仪",
            "requirement": "thickness≥8um；厚度≥8um",
            "criticity": "Major",
            "control_type": "Records and method control",
            "supplier_control_freq_note": "3PCS/Batch;3件/批次",
            "supplier_controller": "QC",
            "decathlon_control_freq_note": "每月\nEvery month",
            "active": true
          },
          {
            "step_number": "IQC-Tube；  原材料检验-钢管",
            "control_item": "strength；强度(弯管、扩口、压扁)",
            "control_method": "Pipe bending/Reducing/vise；弯管机/缩口机/台钳",
            "requirement": "For details, please refer to the \"Guidelines for Raw Material Inspection - Steel Pipe\" Document No.: ZY/ZL35 - Steel Pipe - 002;具体参照《原材料检验指导书-钢管》文件编号：ZY/ZL35—钢管—002",
            "criticity": "Critical",
            "control_type": "Records and method control",
            "supplier_control_freq_note": "3PCS/month/material;3件/月/材质",
            "supplier_controller": "QC",
            "decathlon_control_freq_note": "每月\nEvery month",
            "active": true
          },
          {
            "step_number": "IQC-Tube；  原材料检验-钢管",
            "control_item": "含铅量测试",
            "control_method": "Commissioned laboratory委托实验室",
            "requirement": "According to the technical requirements of the \"Hazardous Substances Requirements.\";按照技术制定的《有害物质要求进行》--Pb含量。",
            "criticity": "Major",
            "control_type": "Records and method control",
            "supplier_control_freq_note": "1月1次",
            "supplier_controller": "QC",
            "decathlon_control_freq_note": "每6个月\nEvery 6 month",
            "active": true
          },
          {
            "step_number": "IQC-Tube；  原材料检验-钢管",
            "control_item": "Material certificate；材质证明",
            "control_method": "Check the supplier's self-test report and material certificate, check the composition and strength of each element according to the national standard.查看供应商自检报告和材质证明，根据国标核对各元素成分以及强度是否符合要求",
            "requirement": "The elemental composition and strength index meet the requirements of the national standard, and the sum of %C (carbon content) + % Mn (manganese content) / 6 in the chemical element must always be less than < 0.35;元素成分以及强度指标满足国标要求，同时化学元素中 %C（碳含量）+ %Mn（锰含量）/6 的和必须一直 小于< 0.35",
            "criticity": "Critical",
            "control_type": "Records and method control",
            "supplier_control_freq_note": "1.新开发供货厂家首次供货时；\n2.工艺或材料有变动时；\n3.正常稳定使用时，每季度一次。\n5.生产出现异常时。",
            "supplier_controller": "QC",
            "decathlon_control_freq_note": "每3个月\nEvery 3 month",
            "active": true
          },
          {
            "step_number": "IQC-Mat;原材料检验-跳布",
            "control_item": "Thickness厚度",
            "control_method": "Caliper卡尺",
            "requirement": "0.5±0.02mm",
            "criticity": "Major",
            "control_type": "Records and method control",
            "supplier_control_freq_note": "sampling plan 1；抽样方案1",
            "supplier_controller": "QC",
            "decathlon_control_freq_note": "每3个月\nEvery 3 month",
            "active": true
          },
          {
            "step_number": "IQC-Mat;原材料检验-跳布",
            "control_item": "外观Appearance checking",
            "control_method": "Visual；目测",
            "requirement": "No wreckage, broken wire or spinning phenomenon on the surface, the weaving process is three latitudes (according to customer requirements). Double-sided calendering. Others meet the drawing requirements and so on.\nColour: Black;表面无残疵、断丝、抽丝现象，编织工艺经三纬四(根据客户要求）.双面压光。其他符合图纸要求等。\n颜色：黑色",
            "criticity": "Minor",
            "control_type": "Records and method control",
            "supplier_control_freq_note": "sampling plan 1；抽样方案1",
            "supplier_controller": "QC",
            "decathlon_control_freq_note": "每3个月\nEvery 3 month",
            "active": true
          },
          {
            "step_number": "IQC-Mat;原材料检验-跳布",
            "control_item": "Material certificate；材质证明",
            "control_method": "Check the supplier's self-test report and material certificate, check the composition and strength of each element according to the national standard.查看供应商自检报告和材质证明，根据国标核对各元素成分以及强度是否符合要求",
            "requirement": "PP",
            "criticity": null,
            "control_type": "Records and method control",
            "supplier_control_freq_note": "sampling plan 1；抽样方案1",
            "supplier_controller": "QC",
            "decathlon_control_freq_note": "每3个月\nEvery 3 month",
            "active": true
          },
          {
            "step_number": "IQC-Mat;原材料检验-跳布",
            "control_item": "单丝拉力",
            "control_method": "tensile machine；拉力计",
            "requirement": "＞31N.",
            "criticity": "Major",
            "control_type": "Records and method control",
            "supplier_control_freq_note": "3PCS/Batch;3件/批次",
            "supplier_controller": "QC",
            "decathlon_control_freq_note": "每3个月\nEvery 3 month",
            "active": true
          },
          {
            "step_number": "IQC-Mat;原材料检验-跳布",
            "control_item": "weight；重量",
            "control_method": "electronic balance；电子秤",
            "requirement": "Conform to the requirements of the drawings；                     符合图纸要求（260g/㎡±2%）",
            "criticity": "Minor",
            "control_type": "Records and method control",
            "supplier_control_freq_note": "sampling plan 1；抽样方案1",
            "supplier_controller": "QC",
            "decathlon_control_freq_note": "每3个月\nEvery 3 month",
            "active": true
          },
          {
            "step_number": "IQC-Mat;原材料检验-跳布",
            "control_item": "Flame retardant test阻燃测试",
            "control_method": "Commissioned laboratory委托实验室",
            "requirement": "符合EN71-2标准，测试样品在火焰上燃烧的速度不能超过30MM/S，或自行熄灭。",
            "criticity": "Critical",
            "control_type": "Records and method control",
            "supplier_control_freq_note": "不更换供应商、不更换材质时，1次/年",
            "supplier_controller": "QC",
            "decathlon_control_freq_note": "每12个月\nEvery 12month",
            "active": true
          },
          {
            "step_number": "IQC-Mat;原材料检验-跳布",
            "control_item": "含铅量测试",
            "control_method": "Commissioned laboratory委托实验室",
            "requirement": "According to the technical requirements of the \"Hazardous Substances Requirements.\";按照技术制定的《有害物质要求进行》。",
            "criticity": "Critical",
            "control_type": "Records and method control",
            "supplier_control_freq_note": "1.迪卡侬每年度抽样检测2次                2.新供方第一次供货时提供检测报告                                                 3、更换材质时由供方提供检测报告                                          4.必要时由供方或海硕委托检测                                           5、内部检测总铅含量报告仅做参考，每个供方每种材质每月度检测一次，1件/次",
            "supplier_controller": "QC",
            "decathlon_control_freq_note": "每6个月\nEvery 6month",
            "active": true
          },
          {
            "step_number": "IQC-Mat;原材料检验-跳布",
            "control_item": "UV test;UV测试",
            "control_method": "Insolation aging test chamber；   日晒老化试验箱",
            "requirement": "欧标EN71，不低于400h",
            "criticity": "Critical",
            "control_type": "Records and method control",
            "supplier_control_freq_note": "不更换供应商、不更换材质时，1次/年",
            "supplier_controller": "QC",
            "decathlon_control_freq_note": "每12个月\nEvery 12month",
            "active": true
          },
          {
            "step_number": "IQC-Spring;原材料检验-弹簧",
            "control_item": "Size；尺寸",
            "control_method": "Caliper卡尺",
            "requirement": "1. Wire diameter: 3.2±0.05mm 2. Intermediate wire diameter: 24-0.1/+0.3mm 3. Opening size at both ends 4. Total length of spring: Meet the requirements of the corresponding drawings 5. Effective number of turns: Compound drawing requirements;                1.线径：3.2±0.05mm　       　         　　　　　　　　　　　  2.中间线径：24-0.1/+0.3mm 　               　　　　　　              3.两端开口大小                                                    4.弹簧总长 ：符合相应图纸要求                                                      5.有效圈数：复合图纸要求",
            "criticity": "Major",
            "control_type": "Records and method control",
            "supplier_control_freq_note": "sampling plan 1；  抽样方案1",
            "supplier_controller": "QC",
            "decathlon_control_freq_note": "每3个月\nEvery 3 month",
            "active": true
          },
          {
            "step_number": "IQC-Spring;原材料检验-弹簧",
            "control_item": "外观Appearance checking",
            "control_method": "Visual；目测",
            "requirement": "1. Smooth surface, no sharp corners, squeezing scratches, pitting corrosion and other defects, consistent plating color, good adhesion of galvanized layer, no oxidative corrosion, etc. 2. The relative twist of the two hooks does not exceed 30 degrees;                                         1.表面光滑、无尖角、挤痕划伤、麻点锈蚀等缺陷，电镀颜色一致、镀锌层附着力好、无氧化锈蚀现象等                             2.两钩环相对扭向不超过30度",
            "criticity": "Minor",
            "control_type": "Records and method control",
            "supplier_control_freq_note": "sampling plan 1；  抽样方案1",
            "supplier_controller": "QC",
            "decathlon_control_freq_note": "每3个月\nEvery 3 month",
            "active": true
          },
          {
            "step_number": "IQC-Spring;原材料检验-弹簧",
            "control_item": "R角",
            "control_method": "R5",
            "requirement": "R regulations, in line with drawing requirements;R规，符合图纸要求",
            "criticity": "Major",
            "control_type": "Records and method control",
            "supplier_control_freq_note": "sampling plan 1；  抽样方案1",
            "supplier_controller": "QC",
            "decathlon_control_freq_note": "每3个月\nEvery 3 month",
            "active": true
          },
          {
            "step_number": "IQC-Spring;原材料检验-弹簧",
            "control_item": "fatigue cycle；疲劳循环",
            "control_method": "fatigue machine；疲劳试验机；受控009-弹簧检验指导书 文件编号：ZY/ZL35—弹簧—009",
            "requirement": "cycle index＞45000 without broken;                                   循环次数＞45000次没有断裂",
            "criticity": "Major",
            "control_type": "Records and method control",
            "supplier_control_freq_note": "Change supplier, the supplier to replace material, such as new product validation case, three times before delivery must be for 12 pieces/order, the same supplier in the same kind of product can take the 12 pieces per order；更换供应商、供应商更换材质、新产品验证等情况下，前三次送货均需实验12件/订单、正常同一供应商同一种产品可抽12件/订单",
            "supplier_controller": "QC",
            "decathlon_control_freq_note": "每3个月\nEvery 3 month",
            "active": true
          },
          {
            "step_number": "IQC-Spring;原材料检验-弹簧",
            "control_item": "Pull;拉力",
            "control_method": "tensile and compression testing machine；弹簧拉压试验机",
            "requirement": "符合相应图纸要求",
            "criticity": "Major",
            "control_type": "Records and method control",
            "supplier_control_freq_note": "3PCS/order;3件/订单",
            "supplier_controller": "QC",
            "decathlon_control_freq_note": "每3个月\nEvery 3 month",
            "active": true
          },
          {
            "step_number": "IQC-Spring;原材料检验-弹簧",
            "control_item": "zinc coating；镀锌层",
            "control_method": "salt spray test；盐雾实验箱",
            "requirement": "5% 96H Salt spray test without rust;5% 室外产品96H盐雾实验无锈蚀",
            "criticity": "Major",
            "control_type": "Records and method control",
            "supplier_control_freq_note": "Change supplier, the supplier to replace material test 12 pieces, under normal circumstances, three pieces of/batch；更换供应商、供应商更换材质试验12件，正常情况下：3件/批次",
            "supplier_controller": "QC",
            "decathlon_control_freq_note": "每3个月\nEvery 3 month",
            "active": true
          },
          {
            "step_number": "IQC-Spring;原材料检验-弹簧",
            "control_item": "identifying标识",
            "control_method": "Visual；目测",
            "requirement": "The order number of the product is outside the spring box.弹簧箱外都有产品的订单号",
            "criticity": "Minor",
            "control_type": "Records and method control",
            "supplier_control_freq_note": "sampling plan 1；  抽样方案1",
            "supplier_controller": "QC",
            "decathlon_control_freq_note": "每3个月\nEvery 3 month",
            "active": true
          },
          {
            "step_number": "IQC-Spring;原材料检验-弹簧",
            "control_item": "Material材质",
            "control_method": "Material proof；材质证明",
            "requirement": "弹簧钢72B.",
            "criticity": "Critical",
            "control_type": "Records and method control",
            "supplier_control_freq_note": "供方提供材质证明1次/季度",
            "supplier_controller": "QC",
            "decathlon_control_freq_note": "每3个月\nEvery 3 month",
            "active": true
          },
          {
            "step_number": "IQC-Spring;原材料检验-弹簧",
            "control_item": "含铅量测试",
            "control_method": "Supplier commitment letter, test report；供方承诺书，检测报告",
            "requirement": "Hazardous substance control requirements；有害物质控制要求",
            "criticity": "Major",
            "control_type": "Records and method control",
            "supplier_control_freq_note": "1.迪卡侬每年度抽样检测2次                2.新供方第一次供货时提供检测报告                                                 3、更换材质时由供方提供检测报告                                          4.必要时由供方或海硕委托检测                                           5、内部检测总铅含量报告仅做参考，每个供方每种材质每月度检测一次，1件/次",
            "supplier_controller": "QC",
            "decathlon_control_freq_note": "每6个月\nEvery 6 month",
            "active": true
          },
          {
            "step_number": "弹力绳",
            "control_item": "Material；材质",
            "control_method": "Check the supplier's self-test report and material certificate, check the composition and strength of each element according to the national standard.查看供应商自检报告和材质证明，根据国标核对各元素成分以及强度是否符合要求",
            "requirement": "Material: Nylon；材质：尼龙",
            "criticity": "Major",
            "control_type": "Records and method control",
            "supplier_control_freq_note": "供方材质证明1次/季度",
            "supplier_controller": "QC",
            "decathlon_control_freq_note": "每3个月\nEvery 3 month",
            "active": true
          },
          {
            "step_number": "弹力绳",
            "control_item": "Exterior外观",
            "control_method": "Visual inspection目测",
            "requirement": "Smooth surface, no residue, no dirt, less wire, silk jump, etc.\nThe weaving process meets the requirements of the drawings.表面光滑、无残疵、无脏污、少丝、跳丝等缺陷\n编织工艺符合图纸要求等。",
            "criticity": "Minor",
            "control_type": "Records and method control",
            "supplier_control_freq_note": "sampling plan 1；  抽样方案1",
            "supplier_controller": "QC",
            "decathlon_control_freq_note": "每3个月\nEvery 3 month",
            "active": true
          },
          {
            "step_number": "弹力绳",
            "control_item": "structure结构",
            "control_method": "Visual inspection\nColor Card\nCut the number of epidermis counts；   目测\n色卡\n割开表皮清点股数",
            "requirement": "Color: Yellow Nylon + Latex, outer skin yellow nylon double strand 840D line, containing 60 strands of latex yarn.颜色：黄色  尼龙丝+乳胶丝，外表皮黄色尼龙双股840D线，内包乳胶丝60股。",
            "criticity": "Major",
            "control_type": "Records and method control",
            "supplier_control_freq_note": "sampling plan 1；  抽样方案1",
            "supplier_controller": "QC",
            "decathlon_control_freq_note": "每3个月\nEvery 3 month",
            "active": true
          },
          {
            "step_number": "弹力绳",
            "control_item": "size尺寸",
            "control_method": "Tape measure；卷尺；卡尺",
            "requirement": "Cutting size 450mm+10-0\nDraw the finished product size 225mm+5-0\nThe diameter of the wire is D7mm±0.18 (according to the unlabeled tolerance table 1), the diameter of the latex wire is D0.9mm.                                       下料尺寸450mm+10-0\n打好扣成品尺寸225mm+5-0                                线径D7mm±0.18（按照未标注公差表1），乳胶丝直径尺寸D0.9mm",
            "criticity": "Major",
            "control_type": "Records and method control",
            "supplier_control_freq_note": "sampling plan 1；  抽样方案1",
            "supplier_controller": "QC",
            "decathlon_control_freq_note": "每3个月\nEvery 3 month",
            "active": true
          },
          {
            "step_number": "弹力绳",
            "control_item": "gram weight 克重",
            "control_method": "Electronic scale；电子秤",
            "requirement": "40g/m±2% per meter；每米重量40g/m±2%",
            "criticity": "Major",
            "control_type": "Records and method control",
            "supplier_control_freq_note": "3件/批次",
            "supplier_controller": "QC",
            "decathlon_control_freq_note": "每3个月\nEvery 3 month",
            "active": true
          },
          {
            "step_number": "弹力绳",
            "control_item": "Pull;拉力",
            "control_method": "Electronic universal testing machine；电子式万能实验机",
            "requirement": "Raw material pulling force ≥2000N\nLay the pull force ≥1500N；                           原材料拉力≥2000N\n打好扣拉力≥1500N",
            "criticity": "Major",
            "control_type": "Records and method control",
            "supplier_control_freq_note": "3件/批次",
            "supplier_controller": "QC",
            "decathlon_control_freq_note": "每3个月\nEvery 3 month",
            "active": true
          },
          {
            "step_number": "弹力绳",
            "control_item": "Elongation延伸率",
            "control_method": "Puller；管状拉力器",
            "requirement": "The effective length is 300mm, and the tensile strength of each tensile length is as follows:\n(1) When the tensile length is 50mm, the tensile force is 60N ±6\n(2) When the tensile length is 100mm, the tensile value is 75N±6.\n(3) When the tensile length is 150mm, the tensile value is 100N±10\n(4) When the tensile length is 200mm, the tensile force value is 130N±12 (5) When the tensile length is 300mm, the tensile value is 250N±30.           有效长度为300mm，各拉伸长度拉力值如下：\n（1）拉伸长度50mm时， 拉力值60N ±6\n（2）拉伸长度100mm时，拉力值75N±6\n（3）拉伸长度150mm时，拉力值是100N±10 \n（4）拉伸长度200mm时，拉力值130N±12                  （5）拉伸长度300mm时，拉力值是250N±30",
            "criticity": "Major",
            "control_type": "Records and method control",
            "supplier_control_freq_note": "3件/批次",
            "supplier_controller": "QC",
            "decathlon_control_freq_note": "每3个月\nEvery 3 month",
            "active": true
          },
          {
            "step_number": "弹力绳",
            "control_item": "Hazardous substance testing有害物质检测",
            "control_method": "Commissioned laboratory, X-ray fluorescence spectrometer；委托实验室，X荧光光谱仪",
            "requirement": "\"Hazardous Substance Control Requirements\" formulated by the company；公司制定的“有害物质控制要求”",
            "criticity": "Critical",
            "control_type": null,
            "supplier_control_freq_note": "1.迪卡侬每年度抽样检测2次                2.新供方第一次供货时提供检测报告                                                 3、更换材质时由供方提供检测报告                                          4.必要时由供方或海硕委托检测                                           5、内部检测总铅含量报告仅做参考，每个供方每种材质每月度检测一次，1件/次",
            "supplier_controller": "QC",
            "decathlon_control_freq_note": "供应商每年提供两次检测报告",
            "active": true
          },
          {
            "step_number": "IQC-Net;原材料检验-护网",
            "control_item": "Exterior外观",
            "control_method": "Visual inspection\nColor Card\nCompare with the seal                 目测\n色卡\n与封样比对",
            "requirement": "The surface is smooth, no residue, less wire, jumper, the weaving process meets the requirements of the drawings, and each wire must be locked without tripping.表面光滑、无残疵、少丝、跳扣，编织工艺符合图纸要求、每根丝都要锁住不能有脱扣等现象。",
            "criticity": "Minor",
            "control_type": "Records and method control",
            "supplier_control_freq_note": "sampling plan 1；  抽样方案1",
            "supplier_controller": "QC",
            "decathlon_control_freq_note": "每3个月\nEvery 3 month",
            "active": true
          },
          {
            "step_number": "IQC-Net;原材料检验-护网",
            "control_item": "Material；材质",
            "control_method": "Check the supplier's self-test report and material certificate, check the composition and strength of each element according to the national standard.查看供应商自检报告和材质证明，根据国标核对各元素成分以及强度是否符合要求",
            "requirement": "PE",
            "criticity": "Major",
            "control_type": "Records and method control",
            "supplier_control_freq_note": "供方材质证明1次/季度",
            "supplier_controller": "QC",
            "decathlon_control_freq_note": "每3个月\nEvery 3 month",
            "active": true
          },
          {
            "step_number": "IQC-Net;原材料检验-护网",
            "control_item": "Size;尺寸",
            "control_method": "tape measure\nHomemade checker\nTemplate;                                     卷尺\n自制检具\n样板",
            "requirement": "1. Length according to drawing requirements\n2. Width according to drawing requirements\n3. Encryption width 40MM;                                   1.长度 根据图纸要求   \n2.宽度根据图纸要求                                    \n3.加密宽度40MM",
            "criticity": "Major",
            "control_type": "Records and method control",
            "supplier_control_freq_note": "sampling plan 1；  抽样方案1",
            "supplier_controller": "QC",
            "decathlon_control_freq_note": "每3个月\nEvery 3 month",
            "active": true
          },
          {
            "step_number": "IQC-Net;原材料检验-护网",
            "control_item": "weight;重量",
            "control_method": "electronic balance；电子秤",
            "requirement": "网片重量≥100g/㎡",
            "criticity": "Major",
            "control_type": "Records and method control",
            "supplier_control_freq_note": "3件/批次",
            "supplier_controller": "QC",
            "decathlon_control_freq_note": "每3个月\nEvery 3 month",
            "active": true
          },
          {
            "step_number": "IQC-Net;原材料检验-护网",
            "control_item": "Monofilament tension;单丝拉力",
            "control_method": "Universal testing machine；万能实验机",
            "requirement": "拉力≥14N",
            "criticity": "Major",
            "control_type": "Records and method control",
            "supplier_control_freq_note": "3件/批次",
            "supplier_controller": "QC",
            "decathlon_control_freq_note": "每3个月\nEvery 3 month",
            "active": true
          },
          {
            "step_number": "IQC-Net;原材料检验-护网",
            "control_item": "Pulling force;拉断力",
            "control_method": "tensile machine；拉力计",
            "requirement": "Length and width test tensile force value, sample size: 50*200MM: tensile force greater than 150N;；  长宽方向测试拉断力值,试样尺寸：50*200MM：拉力大于150N；",
            "criticity": "Major",
            "control_type": "Records and method control",
            "supplier_control_freq_note": "3件/批次",
            "supplier_controller": "QC",
            "decathlon_control_freq_note": "每3个月\nEvery 3 month",
            "active": true
          },
          {
            "step_number": "IQC-Net;原材料检验-护网",
            "control_item": "含铅量测试",
            "control_method": "X fluorescence spectrometer；           X荧光光谱仪",
            "requirement": "\"Hazardous Substance Control Requirements\" formulated by the company；公司制定的“有害物质控制要求”",
            "criticity": "Critical",
            "control_type": "Records and method control",
            "supplier_control_freq_note": "1.迪卡侬每年度抽样检测2次                2.新供方第一次供货时提供检测报告                                                 3、更换材质时由供方提供检测报告                                          4.必要时由供方或海硕委托检测                                           5、内部检测总铅含量报告仅做参考，每个供方每种材质每月度检测一次，1件/次",
            "supplier_controller": "QC",
            "decathlon_control_freq_note": "供应商每年提供两次检测报告",
            "active": true
          },
          {
            "step_number": "IQC-Net;原材料检验-护网",
            "control_item": "UV Test;UV测试",
            "control_method": "Insolation aging test chamber；日晒老化试验箱",
            "requirement": "With the jump cloth UV test project requirements, increase: the tension of the net must meet the 150N standard, sampling size: 50 * 200MM;                同跳布UV测试项目要求，增加：护网的拉力必须满足150N的标准，取样尺寸：50*200MM；",
            "criticity": "Major",
            "control_type": "Records and method control",
            "supplier_control_freq_note": "不更换供应商、不更换材质时，1次/年",
            "supplier_controller": "QC",
            "decathlon_control_freq_note": "每12个月\nEvery 12 month",
            "active": true
          },
          {
            "step_number": "材料检验-夹网布",
            "control_item": "Material；材质",
            "control_method": "Visual inspection；目测、封样",
            "requirement": "PVC",
            "criticity": "Major",
            "control_type": "Records and method control",
            "supplier_control_freq_note": "sampling plan 1；抽样方案1",
            "supplier_controller": "QC",
            "decathlon_control_freq_note": "每3个月\nEvery 3 month",
            "active": true
          },
          {
            "step_number": "材料检验-夹网布",
            "control_item": "Exterior color;外观、颜色",
            "control_method": "Visual；目测",
            "requirement": "Surface clean without foreign bodies, the absence of any defect, such as bad, or color matching color and seal samples, size conform to the technical drawings;表面洁净无异物、无瑕疵等不良，颜色与封样或色卡比对，尺寸符合技术图纸",
            "criticity": "Minor",
            "control_type": "Records and method control",
            "supplier_control_freq_note": "sampling plan 1；抽样方案1",
            "supplier_controller": "QC",
            "decathlon_control_freq_note": "每3个月\nEvery 3 month",
            "active": true
          },
          {
            "step_number": "材料检验-夹网布",
            "control_item": "thickness；厚度",
            "control_method": "Caliper;卡尺",
            "requirement": "Requires 0.4mm ± 0.02 (according to unmarked tolerances);要求0.4mm±0.02（按未标注公差）",
            "criticity": "Major",
            "control_type": "Records and method control",
            "supplier_control_freq_note": "sampling plan 1；抽样方案1",
            "supplier_controller": "QC",
            "decathlon_control_freq_note": "每3个月\nEvery 3 month",
            "active": true
          },
          {
            "step_number": "材料检验-夹网布",
            "control_item": "Width;幅宽",
            "control_method": "tape measure;卷尺",
            "requirement": "Measurement tolerance L+10mm according to drawing requirements (according to unmarked tolerances);根据图纸要求测量公差L+10mm（按照未标注公差）",
            "criticity": "Major",
            "control_type": "Records and method control",
            "supplier_control_freq_note": "sampling plan 1；抽样方案1",
            "supplier_controller": "QC",
            "decathlon_control_freq_note": "每3个月\nEvery 3 month",
            "active": true
          },
          {
            "step_number": "材料检验-夹网布",
            "control_item": "Pull;拉力",
            "control_method": "tensile machine；拉力计。具体参照《夹网布检验指导书》",
            "requirement": "宽方向拉力＞395N，长方向拉力＞485N。（取宽50MM）",
            "criticity": "Major",
            "control_type": "Records and method control",
            "supplier_control_freq_note": "sampling plan 1；抽样方案1",
            "supplier_controller": "QC",
            "decathlon_control_freq_note": "每3个月\nEvery 3 month",
            "active": true
          },
          {
            "step_number": "材料检验-夹网布",
            "control_item": "weight;重量",
            "control_method": "electronic balance；电子秤",
            "requirement": "Meet the corresponding drawing requirements;       符合相应图纸要求",
            "criticity": "Minor",
            "control_type": "Records and method control",
            "supplier_control_freq_note": "sampling plan 1；抽样方案1",
            "supplier_controller": "QC",
            "decathlon_control_freq_note": "每3个月\nEvery 3 month",
            "active": true
          },
          {
            "step_number": "材料检验-夹网布",
            "control_item": "含铅量测试",
            "control_method": "Commissioned laboratory, X-ray fluorescence spectrometer;委托实验室，X荧光光谱仪",
            "requirement": "\"Hazardous Substance Control Requirements\" formulated by the company;公司制定的“有害物质控制要求”",
            "criticity": "Critical",
            "control_type": "Records and method control",
            "supplier_control_freq_note": "1.迪卡侬每年度抽样检测2次                2.新供方第一次供货时提供检测报告                                                 3、更换材质时由供方提供检测报告                                          4.必要时由供方或海硕委托检测                                           5、内部检测总铅含量报告仅做参考，每个供方每种材质每月度检测一次，1件/次",
            "supplier_controller": "QC",
            "decathlon_control_freq_note": "每6个月\nEvery 6 month",
            "active": true
          },
          {
            "step_number": "材料检验-夹网布",
            "control_item": "UV TEST;UV测试",
            "control_method": "Insolation aging test chamber；日晒老化试验箱",
            "requirement": "The experimental standard adopts the European standard EN71-14:\n  The UV test maintained 80% of its original strength after 400 hours.                            实验标准采用欧标EN71-14: \n UV试验400小时后保持其原始强度的80%.",
            "criticity": "Major",
            "control_type": "Records and method control",
            "supplier_control_freq_note": "不更换供应商、不更换材质时，2个订单*3件/次/1年",
            "supplier_controller": "QC",
            "decathlon_control_freq_note": "每12个月\nEvery 12 month",
            "active": true
          },
          {
            "step_number": "IQC-sewing thread;原材料检验-缝纫线",
            "control_item": "Exterior color;外观、颜色",
            "control_method": "Visual inspection, color card；目测，色卡",
            "requirement": "Surface clean without foreign bodies, the absence of any defect, such as bad, or color matching color and seal samples,表面洁净无异物、无瑕疵等不良，颜色与封样或色卡比对",
            "criticity": "Minor",
            "control_type": "Records and method control",
            "supplier_control_freq_note": "sampling plan 1；抽样方案1",
            "supplier_controller": "QC",
            "decathlon_control_freq_note": "每3个月\nEvery 3 month",
            "active": true
          },
          {
            "step_number": "IQC-sewing thread;原材料检验-缝纫线",
            "control_item": "Material材质",
            "control_method": "Visual inspection,目测",
            "requirement": "Self-test report, material certificate；            自检报告、材质证明",
            "criticity": "Major",
            "control_type": "Records and method control",
            "supplier_control_freq_note": "材质证明1次/季度",
            "supplier_controller": "QC",
            "decathlon_control_freq_note": "每3个月\nEvery 3 month",
            "active": true
          },
          {
            "step_number": "IQC-sewing thread;原材料检验-缝纫线",
            "control_item": "Pull;拉力",
            "control_method": "tensile machine；拉力计",
            "requirement": "210D/3拉力：＞38N                                  840D/3拉力：＞146N",
            "criticity": "Major",
            "control_type": "Records and method control",
            "supplier_control_freq_note": "3次/批次              1米/次",
            "supplier_controller": "QC",
            "decathlon_control_freq_note": "每3个月\nEvery 3 month",
            "active": true
          },
          {
            "step_number": "IQC-sewing thread;原材料检验-缝纫线",
            "control_item": "weight;重量",
            "control_method": "electronic balance；电子秤",
            "requirement": "210D/3重量：≥0.8g/10m                             840D/3重量：≥3g/10m",
            "criticity": "Major",
            "control_type": "Records and method control",
            "supplier_control_freq_note": "3次/批次              1米/次",
            "supplier_controller": "QC",
            "decathlon_control_freq_note": "每3个月\nEvery 3 month",
            "active": true
          },
          {
            "step_number": "IQC-sewing thread;原材料检验-缝纫线",
            "control_item": "含铅量测试",
            "control_method": "Commissioned laboratory experiments; X-ray fluorescence spectrometer；委托实验室实验；X荧光光谱仪",
            "requirement": "\"Hazardous Substance Control Requirements\" formulated by the company；                        公司制定的“有害物质控制要求”",
            "criticity": "Critical",
            "control_type": "Records and method control",
            "supplier_control_freq_note": "1.迪卡侬每年度抽样检测2次                2.新供方第一次供货时提供检测报告                                                 3、更换材质时由供方提供检测报告                                          4.必要时由供方或海硕委托检测                                           5、内部检测总铅含量报告仅做参考，每个供方每种材质每月度检测一次，1件/次",
            "supplier_controller": "QC",
            "decathlon_control_freq_note": "每6个月\nEvery 6 month",
            "active": true
          },
          {
            "step_number": "IQC-sewing thread;原材料检验-缝纫线",
            "control_item": "UV Test; UV测试",
            "control_method": "Insolation aging test chamber；日晒老化试验箱",
            "requirement": "Mat with UV test project requirements;同跳布UV测试项目要求",
            "criticity": "Major",
            "control_type": "Records and method control",
            "supplier_control_freq_note": "不更换供应商、不更换材质时，1次/年",
            "supplier_controller": "QC",
            "decathlon_control_freq_note": "每12个月\nEvery 12 month",
            "active": true
          },
          {
            "step_number": "IQC-woven belt;原材料检验-织带",
            "control_item": "external dimension;外观",
            "control_method": "Visual；目测",
            "requirement": "Surface : a Surface is clean and free of foreign matter, flawless, no damage, etc.; b is hot cut at both ends; color: black;;                                                     表面 ：a 表面洁净无异物、无瑕疵、无破损等不良；b两端热裁；颜色：黑色;",
            "criticity": "Minor",
            "control_type": "Records and method control",
            "supplier_control_freq_note": "sampling plan 1；抽样方案1",
            "supplier_controller": "QC",
            "decathlon_control_freq_note": "每3个月\nEvery 3 month",
            "active": true
          },
          {
            "step_number": "IQC-woven belt;原材料检验-织带",
            "control_item": "Material材质",
            "control_method": "Self-test report, material certificate;自检报告、材质证明",
            "requirement": "三角环带 材质：PP                                           压条     材质：PE                                                护网顶口相连 材质：涤纶",
            "criticity": "Major",
            "control_type": "Records and method control",
            "supplier_control_freq_note": "材质证明1次/季度",
            "supplier_controller": "QC",
            "decathlon_control_freq_note": "每3个月\nEvery 3 month",
            "active": true
          },
          {
            "step_number": "IQC-woven belt;原材料检验-织带",
            "control_item": "size尺寸",
            "control_method": "Caliper, tape measure卡尺、卷尺",
            "requirement": "According to the drawings, the following dimensions should be inspected: a, width; 25mm ± 0.5 b, thickness; 1.5mm ± 0.1 C, length: cut according to the requirements of the drawings                    按照图纸，需检验如下尺寸：                                   a、宽度；25mm±0.5                                           b、厚度；1.5mm±0.1   C、长度 ：按照图纸要求裁段",
            "criticity": "Major",
            "control_type": "Records and method control",
            "supplier_control_freq_note": "sampling plan 1；抽样方案1",
            "supplier_controller": "QC",
            "decathlon_control_freq_note": "每3个月\nEvery 3 month",
            "active": true
          },
          {
            "step_number": "IQC-woven belt;原材料检验-织带",
            "control_item": "weight重量",
            "control_method": "Electronic scale电子称",
            "requirement": "22g/m±2%",
            "criticity": "Major",
            "control_type": "Records and method control",
            "supplier_control_freq_note": "sampling plan 1；抽样方案1",
            "supplier_controller": "QC",
            "decathlon_control_freq_note": "每3个月\nEvery 3 month",
            "active": true
          },
          {
            "step_number": "IQC-woven belt;原材料检验-织带",
            "control_item": "Pull;拉力",
            "control_method": "tensile machine；拉力计",
            "requirement": "拉力＞7.3KN",
            "criticity": "Major",
            "control_type": "Records and method control",
            "supplier_control_freq_note": "3件/月                1米/件",
            "supplier_controller": "QC",
            "decathlon_control_freq_note": "每3个月\nEvery 3 month",
            "active": true
          },
          {
            "step_number": "IQC-woven belt;原材料检验-织带",
            "control_item": "含铅量测试",
            "control_method": "Commissioned laboratory experiments; X-ray fluorescence spectrometer;委托实验室实验；X荧光光谱仪",
            "requirement": "\"Hazardous Substance Control Requirements\" formulated by the company;                                                    公司制定的“有害物质控制要求”",
            "criticity": "Critical",
            "control_type": "Records and method control",
            "supplier_control_freq_note": "1.迪卡侬每年度抽样检测2次                2.新供方第一次供货时提供检测报告                                                 3、更换材质时由供方提供检测报告                                          4.必要时由供方或海硕委托检测                                           5、内部检测总铅含量报告仅做参考，每个供方每种材质每月度检测一次，1件/次",
            "supplier_controller": "QC",
            "decathlon_control_freq_note": "每6个月\nEvery 6 month",
            "active": true
          },
          {
            "step_number": "IQC-woven belt;原材料检验-织带",
            "control_item": "UV Test;UV测试",
            "control_method": "Insolation aging test chamber；日晒老化试验箱",
            "requirement": "Mat with UV test project requirements;                       同跳布UV测试项目要求",
            "criticity": "Major",
            "control_type": "Records and method control",
            "supplier_control_freq_note": "不更换供应商、不更换材质时，1次/年",
            "supplier_controller": "QC",
            "decathlon_control_freq_note": "每12个月\nEvery 12 month",
            "active": true
          },
          {
            "step_number": "IQC--包装材料、塑料件、五金件",
            "control_item": "external dimension;外观尺寸",
            "control_method": "Visual, vernier caliper and tape measure；目测、游标卡尺、卷尺",
            "requirement": "Conform to the requirements of the drawings;符合图纸要求",
            "criticity": "Minor",
            "control_type": "Records and method control",
            "supplier_control_freq_note": "sampling plan 1；抽样方案1",
            "supplier_controller": "QC",
            "decathlon_control_freq_note": "每3个月\nEvery 3 month",
            "active": true
          },
          {
            "step_number": "IQC--包装材料、塑料件、五金件",
            "control_item": "Size, weight, density and appearance;尺寸、重量、密度及外观",
            "control_method": "Gauge, tape, electronic scale, visual inspection. (cushion thickness measured with a caliper, take 3 points inside and outside, middle average)卡尺、卷尺、电子秤、目测。（缓冲垫厚度用卡尺测量，取内、外、中部测3点取平均值）",
            "requirement": "In line with technical drawings and un-notified tolerance management regulations                                       符合技术图纸及未注公差管理规定",
            "criticity": "Major",
            "control_type": "Records and method control",
            "supplier_control_freq_note": "sampling plan 1；抽样方案1",
            "supplier_controller": "QC",
            "decathlon_control_freq_note": "每3个月\nEvery 3 month",
            "active": true
          },
          {
            "step_number": "IQC--包装材料、塑料件、五金件",
            "control_item": "zinc coating;镀锌层",
            "control_method": "salt spray test；盐雾实验箱",
            "requirement": "Outdoor 5% 96H salt spray test without corrosion;   室外5% 96H盐雾实验无锈蚀",
            "criticity": "Major",
            "control_type": "Records and method control",
            "supplier_control_freq_note": "更换供应商、供应商更换材质，正常情况下：3件/批次",
            "supplier_controller": "QC",
            "decathlon_control_freq_note": "每3个月\nEvery 3 month",
            "active": true
          },
          {
            "step_number": "原材料检验-护栏警示IQC  DOOLS",
            "control_item": "UV resistance\nAnti-friction fastness\nLight fastness to light;                 抗UV性能\n抗摩擦色牢度\n耐光照色牢度",
            "control_method": "Third-party laboratory;第三方实验室",
            "requirement": "EN71-14\nAATCC8-2013\nAATCC16.3-2002",
            "criticity": "Major",
            "control_type": "Records and method control",
            "supplier_control_freq_note": "每6个月\nEvery 6 month",
            "supplier_controller": "第三方实验室",
            "decathlon_control_freq_note": "每6个月\nEvery 6 month",
            "active": true
          },
          {
            "step_number": "RFID",
            "control_item": "二维码是否可读",
            "control_method": "扫码枪",
            "requirement": "检测是否可读",
            "criticity": "Major",
            "control_type": "Records and method control",
            "supplier_control_freq_note": "按照抽样方案1；",
            "supplier_controller": "QC",
            "decathlon_control_freq_note": "每月\nEvery month",
            "active": true
          },
          {
            "step_number": "粉末",
            "control_item": "1、粉号；                           2、有害物质。",
            "control_method": "1、送样粉板与标准粉板比较；                   2、委托实验室测试。",
            "requirement": "1、与受控的标准色板一致；                                    2、符合公司制定的“有害物质控制要求”。",
            "criticity": "Major",
            "control_type": "Records and method control",
            "supplier_control_freq_note": "1件/粉号/批次",
            "supplier_controller": "QC",
            "decathlon_control_freq_note": "每月\nEvery month",
            "active": true
          },
          {
            "step_number": "Cover防雨罩",
            "control_item": "PE awning force;PE篷布拉断力",
            "control_method": "laboratory实验室",
            "requirement": "PE tarpaulin sampling width 50mm, breaking force ≥480N;PE篷布取样宽度50mm，拉断力≥480N",
            "criticity": "Major",
            "control_type": "Records and method control",
            "supplier_control_freq_note": "每批做3件",
            "supplier_controller": "我司实验室",
            "decathlon_control_freq_note": "每月\nEvery month",
            "active": true
          }
        ]
      },
      {
        "name": "Online control",
        "category": "Online control",
        "steps": [
          {
            "step_number": "metal  process金属制造",
            "control_item": "Cutting下料",
            "control_method": "Comply with drawings and corresponding SOPs; 遵从图纸及相应SOP",
            "requirement": "Dimensions meet the tolerance requirements of the drawings; the appearance meets the corresponding requirements in the SOP;尺寸符合图纸公差要求；外观符合SOP中相应要求",
            "criticity": null,
            "control_type": "Records and method control",
            "supplier_control_freq_note": "sampling plan 1；抽样方案1",
            "supplier_controller": "QC",
            "decathlon_control_freq_note": "每月\nEvery month",
            "active": true
          },
          {
            "step_number": "metal  process金属制造",
            "control_item": "Metal processing: 缩管/冲压",
            "control_method": "Special fixture, vernier calipers;专用检具、游标卡尺",
            "requirement": "Conform to the requirements of the drawings;符合图纸要求",
            "criticity": "Minor",
            "control_type": "Records and method control",
            "supplier_control_freq_note": "sampling plan 1；抽样方案1",
            "supplier_controller": "QC",
            "decathlon_control_freq_note": "每月\nEvery month",
            "active": true
          },
          {
            "step_number": "metal  process金属制造",
            "control_item": "camber；弧度（弯管）",
            "control_method": "Special fixture;专用检具.预装环节100%使用检具检验边框弧度，确保所有件都在圆度范围内",
            "requirement": "Conform to the requirements of the drawings;符合图纸要求",
            "criticity": "Minor",
            "control_type": "Records and method control",
            "supplier_control_freq_note": "sampling plan 1；抽样方案1",
            "supplier_controller": "QC",
            "decathlon_control_freq_note": "每月\nEvery month",
            "active": true
          },
          {
            "step_number": "metal  process金属制造",
            "control_item": "Welding parameter ；焊接参数",
            "control_method": "具体参考各产品焊接工艺卡片",
            "requirement": null,
            "criticity": "Major",
            "control_type": "Records and method control",
            "supplier_control_freq_note": "sampling plan 1；抽样方案1",
            "supplier_controller": "QC",
            "decathlon_control_freq_note": "每月\nEvery month",
            "active": true
          },
          {
            "step_number": "metal  process金属制造",
            "control_item": "weld appearance；焊缝外观",
            "control_method": "Visual；目测",
            "requirement": "Weld is flat, virtual welding, gas welding, welding slag, breakdown, etc；焊缝平整无漏焊、虚焊、气孔、焊渣、击穿等",
            "criticity": "Major",
            "control_type": "Records and method control",
            "supplier_control_freq_note": "sampling plan 1；抽样方案1",
            "supplier_controller": "QC",
            "decathlon_control_freq_note": "每月\nEvery month",
            "active": true
          },
          {
            "step_number": "metal  process金属制造",
            "control_item": "weld strength；焊缝强度",
            "control_method": "tension tester；拉力实验机",
            "requirement": "Two wall thickness of 1.5 MM parts welded together the weld tensile ≥ 18.8 KN；                            两只壁厚为1.5MM的零件焊接在一起的焊缝拉力≥18.8KN；",
            "criticity": "Critical",
            "control_type": "Records and method control",
            "supplier_control_freq_note": "3PCS/quarter;3件/季度",
            "supplier_controller": "QC",
            "decathlon_control_freq_note": "每月\nEvery month",
            "active": true
          },
          {
            "step_number": "metal  process金属制造",
            "control_item": "weld strength；焊缝强度",
            "control_method": "ruler, cutting machine；切割机，卡尺",
            "requirement": "The first one in the figure below is qualified, and the second one is acceptable if there are no air holes. Inspection method: weld penetration: cut at the center line of the welding end face, sand flat with 300# sandpaper, spot the welded part with 4% nitric acid, wipe the nitric acid with a clean rag after 3 minutes, and test the cross section with a caliper The penetration depth shall not be less than 50% of the wall thickness. (Refer to the \"Welding Process Inspection Guide\" for details)下图中第一个是合格的，第二个第三个如果没有气孔也是合格的。检验方法：焊缝熔深:在焊接端面中心线位置割开，用300#砂纸打磨平整，用4%硝酸点注焊接部位，3分钟后将硝酸用干净抹布擦去，用卡尺检验横切面的熔深,要求不得低于壁厚的50%。（具体参照《焊接工序检验指导书》）",
            "criticity": "Critical",
            "control_type": "Records and method control",
            "supplier_control_freq_note": "3PCS/Month;3件/月",
            "supplier_controller": "QC",
            "decathlon_control_freq_note": "每月\nEvery month",
            "active": true
          },
          {
            "step_number": "metal  process金属制造",
            "control_item": "weld strength；焊缝强度",
            "control_method": null,
            "requirement": null,
            "criticity": "Critical",
            "control_type": "Records and method control",
            "supplier_control_freq_note": null,
            "supplier_controller": "QC",
            "decathlon_control_freq_note": "每月\nEvery month",
            "active": true
          },
          {
            "step_number": "缝纫及印刷",
            "control_item": "缝纫下料（含跳布、护网、PAD）尺寸",
            "control_method": "卷尺",
            "requirement": "Conform to the requirements of the drawings;符合图纸要求",
            "criticity": "Major",
            "control_type": "Records and method control",
            "supplier_control_freq_note": "sampling plan 1； 抽样方案1",
            "supplier_controller": "QC",
            "decathlon_control_freq_note": "每月\nEvery month",
            "active": true
          },
          {
            "step_number": "缝纫及印刷",
            "control_item": "跳布下料样板尺寸",
            "control_method": "卷尺",
            "requirement": "Conform to the requirements of the drawings;符合图纸要求",
            "criticity": "Major",
            "control_type": "Records and method control",
            "supplier_control_freq_note": "每12月\nEvery 12 month",
            "supplier_controller": "QC",
            "decathlon_control_freq_note": "每12月\nEvery 12 month",
            "active": true
          },
          {
            "step_number": "缝纫及印刷",
            "control_item": "Mat;跳布",
            "control_method": "Visual；  目测",
            "requirement": "Surface quality, triangle ring distribution quantity, print quality and quality of sewing thread, warning label position, the assembly smoothly;表面质量、三角环分布数量、印刷质量、缝纫线质量、警示标贴位置、组装顺利，丝网印刷的检查？",
            "criticity": "Major",
            "control_type": "Records and method control",
            "supplier_control_freq_note": "sampling plan 1； 抽样方案1",
            "supplier_controller": "QC",
            "decathlon_control_freq_note": "每月\nEvery month",
            "active": true
          },
          {
            "step_number": "缝纫及印刷",
            "control_item": "丝网印刷",
            "control_method": "丝网印刷检验指导书",
            "requirement": "符合《丝网印刷检验指导书》相应规定",
            "criticity": "Major",
            "control_type": "Records and method control",
            "supplier_control_freq_note": "sampling plan 1； 抽样方案1",
            "supplier_controller": "QC",
            "decathlon_control_freq_note": "每月\nEvery month",
            "active": true
          },
          {
            "step_number": "缝纫及印刷",
            "control_item": "Net;护网",
            "control_method": "Visual；  目测",
            "requirement": "Surface quality and complete zipper open and close freely, spare parts, sewing thread, warning label position, the assembly quality well;表面质量、拉链开合自如、零部件齐全、缝纫线质量、警示标贴位置、组装顺利",
            "criticity": "Major",
            "control_type": "Records and method control",
            "supplier_control_freq_note": "sampling plan 1； 抽样方案1",
            "supplier_controller": "QC",
            "decathlon_control_freq_note": "每月\nEvery month",
            "active": true
          },
          {
            "step_number": "缝纫及印刷",
            "control_item": "PAD",
            "control_method": "Visual；  目测",
            "requirement": "Surface quality, section number correctly, the same color, no obvious color difference, sewing thread quality, printing quality, complete parts, assembly smoothly;表面质量、节数正确、颜色一致、无明显色差、缝纫线质量、印刷质量、零部件齐全、组装顺利",
            "criticity": "Major",
            "control_type": "Records and method control",
            "supplier_control_freq_note": "sampling plan 1； 抽样方案1",
            "supplier_controller": "QC",
            "decathlon_control_freq_note": "每月\nEvery month",
            "active": true
          }
        ]
      },
      {
        "name": "Mini",
        "category": "Online control",
        "steps": [
          {
            "step_number": "前处理",
            "control_item": "前处理药液的相应指标（如PH值，酸碱度等）",
            "control_method": "《前处理、喷涂工序检验指导书》",
            "requirement": "符合《前处理、喷涂工序检验指导书》相应要求",
            "criticity": "Minor",
            "control_type": "Records and method control",
            "supplier_control_freq_note": "sampling plan 1；抽样方案1",
            "supplier_controller": "QC",
            "decathlon_control_freq_note": "每月\nEvery month",
            "active": true
          },
          {
            "step_number": "喷粉",
            "control_item": "喷粉参数",
            "control_method": "粉号、颜色及厚度见图纸要求（平光粉50-100微米）",
            "requirement": "各产品技术要求及喷粉工艺卡片",
            "criticity": "Major",
            "control_type": "Records and method control",
            "supplier_control_freq_note": "sampling plan 1；抽样方案1",
            "supplier_controller": "QC",
            "decathlon_control_freq_note": "每月\nEvery month",
            "active": true
          },
          {
            "step_number": "喷粉",
            "control_item": "colour；颜色",
            "control_method": "Sign the sample;签样粉板，标准粉板的更换频率为5年",
            "requirement": "Conform to the requirements of the drawings;符合图纸要求",
            "criticity": "Minor",
            "control_type": "Records and method control",
            "supplier_control_freq_note": "sampling plan 1；抽样方案1",
            "supplier_controller": "QC",
            "decathlon_control_freq_note": "每月\nEvery month",
            "active": true
          },
          {
            "step_number": "喷粉",
            "control_item": "adhesive force；附着力",
            "control_method": "Cross-Cut Tester;   百格刀，型号QFH-A",
            "requirement": "Powder after stroke;划格后不掉粉",
            "criticity": "Major",
            "control_type": "Records and method control",
            "supplier_control_freq_note": "1件/批次",
            "supplier_controller": "QC",
            "decathlon_control_freq_note": "每月\nEvery month",
            "active": true
          },
          {
            "step_number": "喷粉",
            "control_item": "冲击实验",
            "control_method": "冲击实验机",
            "requirement": "300mm高度，每块样板连续冲击三次（每个冲击点边距大于15mm），漆膜无裂纹、皱纹及剥落等现象为合格",
            "criticity": null,
            "control_type": "Records and method control",
            "supplier_control_freq_note": "每批次冲击1块样板",
            "supplier_controller": "QC",
            "decathlon_control_freq_note": "每月\nEvery month",
            "active": true
          },
          {
            "step_number": "喷粉",
            "control_item": "thickness；厚度",
            "control_method": "thickness gauge；   测厚仪",
            "requirement": "Conform to the requirements of the drawings;符合图纸要求。50~100um",
            "criticity": "Minor",
            "control_type": "Records and method control",
            "supplier_control_freq_note": "sampling plan 1；抽样方案1",
            "supplier_controller": "QC",
            "decathlon_control_freq_note": "每月\nEvery month",
            "active": true
          },
          {
            "step_number": "喷粉",
            "control_item": "salt spray test；盐雾实验",
            "control_method": "ISO9227",
            "requirement": "实验标准 ISO 9227 5%盐溶液 室外产品试验时间400小时，室内产品试验时间168小时",
            "criticity": "Major",
            "control_type": "Records and method control",
            "supplier_control_freq_note": "更换粉号或更换粉末供应商时实验3件，正常情况下3件/季度",
            "supplier_controller": "QC",
            "decathlon_control_freq_note": "每月\nEvery month",
            "active": true
          }
        ]
      },
      {
        "name": "Assembling process",
        "category": "Final control",
        "steps": [
          {
            "step_number": "SHU标签",
            "control_item": "标签打印质量",
            "control_method": "每月10号前寄样到迪卡侬办公室确认",
            "requirement": "可以扫码成功",
            "criticity": "Major",
            "control_type": "Records and method control",
            "supplier_control_freq_note": "每次3张，每月一次",
            "supplier_controller": "QC",
            "decathlon_control_freq_note": "每月\nEvery month",
            "active": true
          },
          {
            "step_number": "Assembling process包装（开箱检查）",
            "control_item": "FCL appearance；整箱外观",
            "control_method": "《成品开箱检验管理规范》OM/GL35-016-2011",
            "requirement": "Clean oil, finished product box printing contents properly, sticker position and content, packaged with the correct number, don't keep out the barcode;洁净无油污、成品箱印刷内容正确、贴纸位置和内容正确、打包带数量正确，不遮挡条码",
            "criticity": "Minor",
            "control_type": "Records and method control",
            "supplier_control_freq_note": "sampling plan 1；抽样方案1",
            "supplier_controller": "QC",
            "decathlon_control_freq_note": "每月\nEvery month",
            "active": true
          },
          {
            "step_number": "Assembling process包装",
            "control_item": "The number & weight of items in the box； 包装箱内物品数量&重量",
            "control_method": "《成品开箱检验管理规范》OM/GL35-016-2011   《称重管理规定》OM/GL35-030-2013",
            "requirement": "Number of conform to the requirements of the drawings, without missing parts, etc;数量符合图纸要求、无漏缺件等。按照工艺SOP核对装箱内容，单台重量不要低于5kg（mini蹦床，超出需要开箱拿出一件隔板）",
            "criticity": "Major",
            "control_type": "Records and method control",
            "supplier_control_freq_note": "sampling plan 1；抽样方案1",
            "supplier_controller": "QC",
            "decathlon_control_freq_note": "每月\nEvery month",
            "active": true
          },
          {
            "step_number": "Assembling process包装",
            "control_item": "The quality of items in the box； 包装箱内物品质量",
            "control_method": "《成品开箱检验管理规范》OM/GL35-016-2011",
            "requirement": "Color correct, no sharp corners, knock against, damaged, no rust, label paste correctly, etc;颜色正确、无尖角、磕碰、破损、无锈蚀、标签粘贴正确等",
            "criticity": "Major",
            "control_type": "Records and method control",
            "supplier_control_freq_note": "sampling plan 1；抽样方案1",
            "supplier_controller": "QC",
            "decathlon_control_freq_note": "每月\nEvery month",
            "active": true
          }
        ]
      },
      {
        "name": "Sub part",
        "category": "Final control",
        "steps": [
          {
            "step_number": "FINAL CONTROL最终控制",
            "control_item": "成品检验标准",
            "control_method": "组装+用户测试",
            "requirement": "Smoothly after the assembly, the assembly dimension conform to the requirements of the drawings, jump 10 times more functional implementation;能顺利组装、组装后尺寸符合图纸要求、试跳10次以上功能正常实现",
            "criticity": "Major",
            "control_type": "Product control",
            "supplier_control_freq_note": "S-4",
            "supplier_controller": "QC",
            "decathlon_control_freq_note": "每月\nEvery month",
            "active": true
          },
          {
            "step_number": "Machine experiment整机实验",
            "control_item": "Fatigue cycle疲劳循环",
            "control_method": "Commissioned laboratory to conduct experiments according to the requirements of the experimental SOP委托实验室按实验SOP的要求进行实验",
            "requirement": "实验SOP\n（ES100/Pro900/Mini trampo)",
            "criticity": null,
            "control_type": "Product control",
            "supplier_control_freq_note": "每12个月\nEvery 12 month",
            "supplier_controller": "委托实验室",
            "decathlon_control_freq_note": "每12个月\nEvery 12 month",
            "active": true
          },
          {
            "step_number": "Cover(防雨罩）",
            "control_item": "热合拉力",
            "control_method": "委托实验室",
            "requirement": "热合拉力测试（≥400N）",
            "criticity": "Major",
            "control_type": "Records and method control",
            "supplier_control_freq_note": "每批一次，一次3件",
            "supplier_controller": "委托公司实验室",
            "decathlon_control_freq_note": "每月\nEvery month",
            "active": true
          }
        ]
      },
      {
        "name": "Lab test",
        "category": "Lab test",
        "steps": [
          {
            "step_number": "化学品检验Toxic and harmful substances test",
            "control_item": "化学品检验Toxic and harmful substances test",
            "control_method": "\"Hazardous Substance Control Requirements\" formulated by the company；公司制定的“有害物质控制要求”",
            "requirement": "The third party lab test report;                             全分析报告和第三方检测报告",
            "criticity": "Critical",
            "control_type": "LAB control",
            "supplier_control_freq_note": "每6个月\nEvery 6 month",
            "supplier_controller": "Delegate to a third party laboratory委托第三方实验室",
            "decathlon_control_freq_note": "每12个月\nEvery 12 month",
            "active": true
          }
        ]
      }
    ]
  }
}
