{
  "filename": "CP2.3_wheeltop_71533_crankset_Dylan Diao.xlsx",
  "count": 1,
  "product_family": {
    "name": "Crankset",
    "processes": [
      {
        "name": "疲劳强度测试",
        "category": "Incoming control",
        "steps": [
          {
            "step_number": "IQC进料检验",
            "control_item": "铝棒尺寸\nDimension of aluminum bar",
            "control_method": "实测与IQC报告比对+目测检验员检验方法+原材料供应商检验报告\nRandom check and compare with IQC report+Check RM quality report",
            "requirement": "尺寸符合图纸要求；检验员正确检验并熟知轮峰标准\nDimension according to the drawings; Material performance according to WTP approved standard",
            "criticity": "Major",
            "control_type": "Records and method control",
            "supplier_control_freq_note": "5pcs each batch",
            "supplier_controller": "IQC inspector",
            "decathlon_control_freq_note": "1/1M",
            "active": true
          }
        ]
      }
    ]
  }
}
