{
  "filename": "CP2.3_VP _ 72019_ Pedal_Jason XU.xlsx",
  "count": 6,
  "product_family": {
    "name": "Pedal",
    "processes": [
      {
        "name": "Metal raw material reception and storage",
        "category": "Incoming control",
        "steps": [
          {
            "control_item": "PP塑胶粒",
            "control_method": "物料人员收货，品保检验，入仓库",
            "requirement": "合格后才可入库",
            "criticity": "Minor",
            "control_type": "Records and method control",
            "supplier_control_freq_note": "每批",
            "supplier_controller": "物料&QC",
            "decathlon_control_freq_note": null,
            "active": true
          },
          {
            "control_item": "线材",
            "control_method": "物料人员收货，品保检验，入库在现场",
            "requirement": "合格后才可入库",
            "criticity": "Minor",
            "control_type": "Records and method control",
            "supplier_control_freq_note": "每批",
            "supplier_controller": "物料&QC",
            "decathlon_control_freq_note": null,
            "active": true
          }
        ]
      },
      {
        "name": "进料管控",
        "category": "Incoming control",
        "steps": [
          {
            "control_item": "强度",
            "step_number": "脚踏PP塑胶粒",
            "control_method": "脚踏冲击测试、耐磨耗测试。本体不可有断裂问题。",
            "requirement": "需符合JIS、ISO标准",
            "criticity": "Critical",
            "control_type": "LAB control",
            "supplier_control_freq_note": "4PCS/批",
            "supplier_controller": "试验室",
            "decathlon_control_freq_note": null,
            "active": true
          },
          {
            "control_item": "环保",
            "step_number": "脚踏PP塑胶粒",
            "control_method": "厂内计划测试及及厂商每年提供第三方测试报告",
            "requirement": "需符合ROHS法规标准",
            "criticity": "Critical",
            "control_type": "LAB control",
            "supplier_control_freq_note": "抽样计划",
            "supplier_controller": "试验室",
            "decathlon_control_freq_note": null,
            "active": true
          },
          {
            "control_item": "外观",
            "step_number": "线材",
            "control_method": "目视",
            "requirement": "材料不可有碰伤及生锈",
            "criticity": "Minor",
            "control_type": "Visual/cosmetic control",
            "supplier_control_freq_note": "1卷/批",
            "supplier_controller": "IQC",
            "decathlon_control_freq_note": null,
            "active": true
          },
          {
            "control_item": "尺寸",
            "step_number": "线材",
            "control_method": "供应商每批提供检测报告",
            "requirement": "尺寸符合要求",
            "criticity": "Major",
            "control_type": "Process control,",
            "supplier_control_freq_note": "1卷/批",
            "supplier_controller": "IQC",
            "decathlon_control_freq_note": null,
            "active": true
          },
          {
            "control_item": "材质",
            "step_number": "线材",
            "control_method": "厂商提供测试报告",
            "requirement": "符合10B21成份要求",
            "criticity": "Critical",
            "control_type": "Process control,",
            "supplier_control_freq_note": "厂商提供测试报告",
            "supplier_controller": "材质厂家",
            "decathlon_control_freq_note": null,
            "active": true
          }
        ]
      },
      {
        "name": "Painting process",
        "category": "Online control",
        "steps": [
          {
            "control_item": "外观",
            "step_number": "注塑成型",
            "control_method": "目视",
            "requirement": "产品不可有异色、毛边、缩水及短料异常",
            "criticity": "Major",
            "control_type": "Visual/cosmetic control",
            "supplier_control_freq_note": "每两小时/两模",
            "supplier_controller": "QC",
            "decathlon_control_freq_note": null,
            "active": true
          },
          {
            "control_item": "尺寸",
            "step_number": "注塑成型",
            "control_method": "新开模具确认尺寸",
            "requirement": "依图面规定要求",
            "criticity": "Major",
            "control_type": "Product control",
            "supplier_control_freq_note": "新模具确认/1模",
            "supplier_controller": "QC",
            "decathlon_control_freq_note": null,
            "active": true
          },
          {
            "control_item": "颜色",
            "step_number": "注塑成型",
            "control_method": "目视",
            "requirement": "依封样样品",
            "criticity": null,
            "control_type": "Process control,",
            "supplier_control_freq_note": "每批/1模",
            "supplier_controller": "生产单位&QC",
            "decathlon_control_freq_note": null,
            "active": true
          },
          {
            "control_item": "注塑条件",
            "step_number": "注塑成型",
            "control_method": "制作生产技术条件表",
            "requirement": "依生产条件表作业",
            "criticity": "Major",
            "control_type": "Process control,",
            "supplier_control_freq_note": "每批",
            "supplier_controller": "生产单位",
            "decathlon_control_freq_note": null,
            "active": true
          },
          {
            "control_item": "牙纹",
            "step_number": "轴心",
            "control_method": "环规",
            "requirement": "符合通止规要求",
            "criticity": "Major",
            "control_type": "Process control,",
            "supplier_control_freq_note": "1小时/次\n2小时巡检/次",
            "supplier_controller": "生产单位\nQC",
            "decathlon_control_freq_note": null,
            "active": true
          }
        ]
      },
      {
        "name": "Assembling process",
        "category": "Online control",
        "steps": [
          {
            "control_item": "轴心铆合松紧度",
            "step_number": "JUN-100组装",
            "control_method": "卡尺量测",
            "requirement": "铆合间隙1MM以内",
            "criticity": "Major",
            "control_type": "Process control,",
            "supplier_control_freq_note": "每PC",
            "supplier_controller": "作业者",
            "decathlon_control_freq_note": "Every 2 weeks Check 5 times the screwdriver",
            "active": true
          },
          {
            "control_item": "轴心铆合状态完好，（有无漏铆、铆合偏斜）",
            "step_number": "JUN-100组装",
            "control_method": "目视、拉动",
            "requirement": "不可有遗漏铆合及铆合偏斜",
            "criticity": "Critical",
            "control_type": "Process control,",
            "supplier_control_freq_note": "每PC",
            "supplier_controller": "作业者",
            "decathlon_control_freq_note": "Every 2 days",
            "active": true
          }
        ]
      },
      {
        "name": "Packaging process",
        "category": "Online control",
        "steps": [
          {
            "control_item": "OE收缩",
            "step_number": "JUN-100包装",
            "control_method": "目视",
            "requirement": "包装依R\\L边排放整齐进行OE收缩",
            "criticity": "Minor",
            "control_type": "Visual/cosmetic control",
            "supplier_control_freq_note": "每PC",
            "supplier_controller": "作业者",
            "decathlon_control_freq_note": null,
            "active": true
          },
          {
            "control_item": "R\\L是否有包装错误",
            "step_number": "JUN-100包装",
            "control_method": "目视",
            "requirement": "不得有同R边或同L边包装现象，包装时、及装箱时检查确认",
            "criticity": "Major",
            "control_type": "Process control,",
            "supplier_control_freq_note": "每PC",
            "supplier_controller": "作业者",
            "decathlon_control_freq_note": null,
            "active": true
          },
          {
            "control_item": "装箱",
            "step_number": "JUN-100包装",
            "control_method": "目视",
            "requirement": "依客户要求，50组/箱，需排放整齐",
            "criticity": "Minor",
            "control_type": "Visual/cosmetic control",
            "supplier_control_freq_note": "每PC",
            "supplier_controller": "作业者",
            "decathlon_control_freq_note": null,
            "active": true
          },
          {
            "control_item": "封箱",
            "step_number": "JUN-100包装",
            "control_method": "目视",
            "requirement": "依客户要求，使用专用胶带，封箱呈“工”字型",
            "criticity": "Major",
            "control_type": "Visual/cosmetic control",
            "supplier_control_freq_note": "每箱",
            "supplier_controller": "作业者",
            "decathlon_control_freq_note": null,
            "active": true
          }
        ]
      },
      {
        "name": "Sub part",
        "category": "Final control",
        "steps": [
          {
            "control_item": "成品检验",
            "step_number": "JUN-100成品检验",
            "control_method": "检查产品符合订单要求",
            "requirement": "依据成品出货检查表规定项目及标准确认",
            "criticity": "Major",
            "control_type": "Records and method control",
            "supplier_control_freq_note": "每批",
            "supplier_controller": "QC",
            "decathlon_control_freq_note": null,
            "active": true
          },
          {
            "control_item": "有害物质管控",
            "step_number": "JUN-100成品检验",
            "control_method": "内部实验室非金属类测试玩具标准，金属类测试ROHS四项，按计划测试抽检测试",
            "requirement": "测试结果需符合相关法规要求",
            "criticity": "Critical",
            "control_type": "LAB control",
            "supplier_control_freq_note": "依生产计划",
            "supplier_controller": "实验室",
            "decathlon_control_freq_note": null,
            "active": true
          },
          {
            "control_item": "有害物质管控",
            "step_number": "JUN-100成品检验",
            "control_method": "依产品类别，每年送第三方检测ROHS标准，及CPSIA的邻苯6P，制定有害物质管控表",
            "requirement": null,
            "criticity": "Critical",
            "control_type": "LAB control",
            "supplier_control_freq_note": "依生产计划",
            "supplier_controller": "实验室",
            "decathlon_control_freq_note": null,
            "active": true
          },
          {
            "control_item": "产品功性能测试",
            "step_number": "JUN-100成品检验",
            "control_method": "测试设备，依据测试计划表，随机抽检",
            "requirement": "依据JIS、ISO标准脚踏冲击测试、耐磨耗测试。本体不可有断裂问题。",
            "criticity": "Critical",
            "control_type": "LAB control",
            "supplier_control_freq_note": "依生产计划",
            "supplier_controller": "实验室",
            "decathlon_control_freq_note": null,
            "active": true
          }
        ]
      }
    ]
  }
}
