{
  "filename": "CP2.3_WINSON_72649_SK_Vicky Feng.xlsx",
  "count": 7,
  "product_family": {
    "name": "SWIMWEAR UNDERWEAR GARMENT",
    "processes": [
      {
        "name": "Raw material reception and storage",
        "category": "Incoming control",
        "steps": [
          {
            "step_number": "FABRIC WAREHOUSE\n面料仓库",
            "control_item": "FABRIC STORAGE\n面料的仓储状况",
            "control_method": "DPR_Textile_03.001_Fabric_storage",
            "requirement": "DPR requirements\nDPR 要求",
            "criticity": "Major",
            "control_type": "Visual/Manual",
            "supplier_control_freq_note": null,
            "supplier_controller": null,
            "decathlon_control_freq_note": null,
            "active": true
          },
          {
            "step_number": "FABRIC WAREHOUSE\n面料仓库",
            "control_item": "FABRIC STORAGE MANAGEMENT\n面料的仓储管理",
            "control_method": "DPR_Textile_03.004_B_Fabric_storage_management",
            "requirement": "DPR requirements\nDPR 要求",
            "criticity": "Major",
            "control_type": "Visual/Manual",
            "supplier_control_freq_note": null,
            "supplier_controller": null,
            "decathlon_control_freq_note": null,
            "active": true
          },
          {
            "step_number": "SCREEN PRINT / SUBLIMATION on CUT PIECES丝网印/热转移印裁片 （外发加工）",
            "control_item": "VISUAL CONTROL\n外观检验",
            "control_method": "DS_07 Marking Confirmity and\nCompare color confirmity with \nFG Master Sample or Approved ref sample by PE !",
            "requirement": "Same as Validate Master sample\n和产前确认样一致",
            "criticity": null,
            "control_type": "LabTest",
            "supplier_control_freq_note": null,
            "supplier_controller": null,
            "decathlon_control_freq_note": null,
            "active": true
          },
          {
            "step_number": "SCREEN PRINT / SUBLIMATION on CUT PIECES丝网印/热转移印裁片 （外发加工）",
            "control_item": "AGING\n老化测试",
            "control_method": "DS_96 Aspect control of Screen print and Heat Transfer",
            "requirement": "Follow Conception Validation Plan/ PE requirement\n和CVP或PE的要求一致",
            "criticity": null,
            "control_type": "LabTest",
            "supplier_control_freq_note": null,
            "supplier_controller": null,
            "decathlon_control_freq_note": null,
            "active": true
          },
          {
            "step_number": "SCREEN PRINT / SUBLIMATION on CUT PIECES丝网印/热转移印裁片 （外发加工）",
            "control_item": "HAND FEELING\n手感检验",
            "control_method": "Check if  print sticks or not\nand \nCompare with FG master sample",
            "requirement": "Same as Validate Master sample\n和产前确认样一致",
            "criticity": "Minor",
            "control_type": "Visual/Manual",
            "supplier_control_freq_note": null,
            "supplier_controller": null,
            "decathlon_control_freq_note": null,
            "active": true
          },
          {
            "step_number": "SCREEN PRINT / SUBLIMATION on CUT PIECES丝网印/热转移印裁片 （外发加工）",
            "control_item": "DURABILITY\n拉伸性能测试",
            "control_method": "DS_130 Manual Streching of Screen print and Heat Transfer",
            "requirement": "Follow Conception Validation Plan/ PE requirement\n和CVP或PE的要求一致",
            "criticity": null,
            "control_type": "LabTest",
            "supplier_control_freq_note": null,
            "supplier_controller": null,
            "decathlon_control_freq_note": null,
            "active": true
          },
          {
            "step_number": "SCREEN PRINT / SUBLIMATION on CUT PIECES丝网印/热转移印裁片 （外发加工）",
            "control_item": "COLOR FASTNESS  TO WASHING\n水洗色牢度测试",
            "control_method": "DS_150 Colorfastness of ligth-dark colors washed together",
            "requirement": "Follow Conception Validation Plan/ PE requirement\n和CVP或PE的要求一致",
            "criticity": null,
            "control_type": "LabTest",
            "supplier_control_freq_note": null,
            "supplier_controller": null,
            "decathlon_control_freq_note": null,
            "active": true
          },
          {
            "step_number": "SCREEN PRINT / SUBLIMATION on CUT PIECES丝网印/热转移印裁片 （外发加工）",
            "control_item": "COLOR MIGRATION\n色迁移测试",
            "control_method": "DS_031  Color migration on textile components or finished products",
            "requirement": "Follow Conception Validation Plan/ PE requirement\n和CVP或PE的要求一致",
            "criticity": null,
            "control_type": "LabTest",
            "supplier_control_freq_note": null,
            "supplier_controller": null,
            "decathlon_control_freq_note": null,
            "active": true
          },
          {
            "step_number": "SCREEN PRINT / SUBLIMATION on CUT PIECES丝网印/热转移印裁片 （外发加工）",
            "control_item": "COLOR FASTNESS  TO RUBBING\n摩擦色牢度测试",
            "control_method": "DS_003 Colourfastness to rubbing on textile component",
            "requirement": "Follow Conception Validation Plan/ PE requirement\n和CVP或PE的要求一致",
            "criticity": null,
            "control_type": "LabTest",
            "supplier_control_freq_note": null,
            "supplier_controller": null,
            "decathlon_control_freq_note": null,
            "active": true
          },
          {
            "step_number": "SCREEN PRINT / SUBLIMATION on CUT PIECES丝网印/热转移印裁片 （外发加工）",
            "control_item": "PRINTED PIECES MEASUREMENT \n印花裁片尺寸的检验",
            "control_method": "Check with API pattern template",
            "requirement": "Follow Conception Validation Plan/ PE requirement\n和CVP或PE的要求一致",
            "criticity": "Major",
            "control_type": "Visual/Manual",
            "supplier_control_freq_note": null,
            "supplier_controller": null,
            "decathlon_control_freq_note": null,
            "active": true
          },
          {
            "step_number": "THERMOBONDING ( for Subcontracted components)无缝贴合裁片\n（外发加工）",
            "control_item": "TRACTION TEST and QUALITY FOLLOW UP\nif there is assembly of 2 layers\n强力测试(如果是二层布贴合组装在一起)",
            "control_method": "DS_160 Tensile test on seam assemblies",
            "requirement": "Follow Conception Validation Plan/ PE requirement\n和CVP或PE的要求一致",
            "criticity": null,
            "control_type": "LabTest",
            "supplier_control_freq_note": null,
            "supplier_controller": null,
            "decathlon_control_freq_note": null,
            "active": true
          },
          {
            "step_number": "THERMOBONDING ( for Subcontracted components)无缝贴合裁片\n（外发加工）",
            "control_item": "TRACTION TEST and QUALITY FOLLOW UP\nif there is no assembly \n剥离测试(如果没有粘合组装)",
            "control_method": "DS_044 A/B Delamination test for multi-layers component",
            "requirement": "Follow Conception Validation Plan/ PE requirement\n和CVP或PE的要求一致",
            "criticity": null,
            "control_type": "LabTest",
            "supplier_control_freq_note": null,
            "supplier_controller": null,
            "decathlon_control_freq_note": null,
            "active": true
          },
          {
            "step_number": "THERMOBONDING ( for Subcontracted components)无缝贴合裁片\n（外发加工）",
            "control_item": "AGING\n老化测试",
            "control_method": "DS_96 Aspect control of Screen print and Heat Transfer\n5 washing + 1 tumbler + 5 washing + 1 tumbler\nWashing at temp XC ( XC : ICT requirement)",
            "requirement": "Follow Conception Validation Plan/ PE requirement\n和CVP或PE的要求一致",
            "criticity": null,
            "control_type": "LabTest",
            "supplier_control_freq_note": null,
            "supplier_controller": null,
            "decathlon_control_freq_note": null,
            "active": true
          },
          {
            "step_number": "FOAM PADDING\n海绵垫片（胸垫...）",
            "control_item": "FOAM PADDING QUALITY\n海棉垫片检验",
            "control_method": null,
            "requirement": "Same as Validate Master sample\n和产前确认样一致",
            "criticity": "Minor",
            "control_type": "Visual/Manual",
            "supplier_control_freq_note": null,
            "supplier_controller": null,
            "decathlon_control_freq_note": null,
            "active": true
          }
        ]
      },
      {
        "name": "Cutting",
        "category": "Online control",
        "steps": [
          {
            "step_number": "Spreading 拉布",
            "control_item": "SPREADING PROCESS\n拉布流程",
            "control_method": "DPR_Textile_05.007_Spreading_process",
            "requirement": "DPR requirements\nDPR 要求",
            "criticity": "Major",
            "control_type": "Process control,",
            "supplier_control_freq_note": null,
            "supplier_controller": null,
            "decathlon_control_freq_note": null,
            "active": true
          },
          {
            "step_number": "Spreading 拉布",
            "control_item": "PANEL CUTTING DIRECTION\n唛架裁片方向",
            "control_method": "DPR_Textile_06.003_Panel_cutting_direction",
            "requirement": "DPR requirements\nDPR 要求",
            "criticity": "Critical",
            "control_type": "Process control,",
            "supplier_control_freq_note": null,
            "supplier_controller": null,
            "decathlon_control_freq_note": null,
            "active": true
          },
          {
            "step_number": "Spreading 拉布",
            "control_item": "MARKER TRACING\n唛架裁片外观和边缘",
            "control_method": "DPR_Textile_06.007_Marker_tracing",
            "requirement": "DPR requirements\nDPR 要求",
            "criticity": "Minor",
            "control_type": "Process control,",
            "supplier_control_freq_note": null,
            "supplier_controller": null,
            "decathlon_control_freq_note": null,
            "active": true
          },
          {
            "step_number": "Cutting pieces 裁片",
            "control_item": "CUT PIECES \n裁片检验(泳衣/内衣)",
            "control_method": "DPR 06.021 Control of Cut Pieces",
            "requirement": "DPR requirements\nDPR 要求",
            "criticity": "Major",
            "control_type": "Process control,",
            "supplier_control_freq_note": null,
            "supplier_controller": null,
            "decathlon_control_freq_note": null,
            "active": true
          },
          {
            "step_number": "Cutting pieces 裁片",
            "control_item": "NOTCHES CONTROL\n止口的检验",
            "control_method": "DPR 06.011 Accuracy of nothces",
            "requirement": "DPR requirements\nDPR 要求",
            "criticity": "Minor",
            "control_type": "Process control,",
            "supplier_control_freq_note": null,
            "supplier_controller": null,
            "decathlon_control_freq_note": null,
            "active": true
          },
          {
            "step_number": "Cutting pieces 裁片",
            "control_item": "ACCURACY OF CUTTING\n裁片尺寸检验",
            "control_method": "DPR_Textile_06.009_Accuracy_of_cutting",
            "requirement": "DPR requirements\nDPR 要求",
            "criticity": "Major",
            "control_type": "Visual/cosmetic control",
            "supplier_control_freq_note": null,
            "supplier_controller": null,
            "decathlon_control_freq_note": null,
            "active": true
          }
        ]
      },
      {
        "name": "Assembling",
        "category": "Online control",
        "steps": [
          {
            "step_number": "SEWING\n车缝",
            "control_item": "THREAD SPECIFICATIONS\n车线的类别",
            "control_method": "Compare BOM and Production Thread specicifications",
            "requirement": "与技术资 料上面的要求一致",
            "criticity": "Minor",
            "control_type": "Product control",
            "supplier_control_freq_note": null,
            "supplier_controller": null,
            "decathlon_control_freq_note": null,
            "active": true
          },
          {
            "step_number": "SEWING\n车缝",
            "control_item": "OVERLOCK PROCESS\n拷边要求",
            "control_method": "DPR_Textile_10.107_Overlock_workmanship_adjustement",
            "requirement": "DPR requirements\nDPR 要求",
            "criticity": "Major",
            "control_type": "Process control,",
            "supplier_control_freq_note": null,
            "supplier_controller": null,
            "decathlon_control_freq_note": null,
            "active": true
          },
          {
            "step_number": "SEWING\n车缝",
            "control_item": "FLAT LOCK  OVERLAPPING \n四针六线的交叠",
            "control_method": "DPR 10.109 Flatlock workmanship",
            "requirement": "DPR requirements\nDPR 要求",
            "criticity": "Major",
            "control_type": "Process control,",
            "supplier_control_freq_note": null,
            "supplier_controller": null,
            "decathlon_control_freq_note": null,
            "active": true
          },
          {
            "step_number": "SEWING\n车缝",
            "control_item": "ELASTIC ASSEMBLY\n弹力带的车缝要求",
            "control_method": "DPR 10.121 Generalities for Elastic Assembly",
            "requirement": "DPR requirements\nDPR 要求",
            "criticity": "Major",
            "control_type": "Process control,",
            "supplier_control_freq_note": null,
            "supplier_controller": null,
            "decathlon_control_freq_note": null,
            "active": true
          },
          {
            "step_number": "SEWING\n车缝",
            "control_item": "CHECK BARTACKS\n检查套结",
            "control_method": "DCS 008 Bartack Conformity",
            "requirement": "DCS requirements\nDCS 要求",
            "criticity": "Major",
            "control_type": "Visual/cosmetic control",
            "supplier_control_freq_note": null,
            "supplier_controller": null,
            "decathlon_control_freq_note": null,
            "active": true
          },
          {
            "step_number": "SEWING\n车缝",
            "control_item": "CHECK ZIPPERS ASSEMBLIY\n检查拉链缝制",
            "control_method": "DCS 009 Zipper Assembly",
            "requirement": "DCS requirements\nDCS 要求",
            "criticity": "Major",
            "control_type": "Visual/cosmetic control",
            "supplier_control_freq_note": null,
            "supplier_controller": null,
            "decathlon_control_freq_note": null,
            "active": true
          },
          {
            "step_number": "SEWING\n车缝",
            "control_item": "CHECK SEAM ELASTICITY\n检查车缝线迹弹性",
            "control_method": "DCS 012 Seam Elasticity",
            "requirement": "DCS requirements\nDCS 要求",
            "criticity": "Major",
            "control_type": "Visual/cosmetic control",
            "supplier_control_freq_note": null,
            "supplier_controller": null,
            "decathlon_control_freq_note": null,
            "active": true
          },
          {
            "step_number": "SEWING\n车缝",
            "control_item": "STITCHING DENSITY\n车缝线迹线密度要求",
            "control_method": "DPR_Textile_10.111_Stitch_density_for_assembly_",
            "requirement": "DPR requirements\nDPR 要求",
            "criticity": "Major",
            "control_type": "Process control,",
            "supplier_control_freq_note": null,
            "supplier_controller": null,
            "decathlon_control_freq_note": null,
            "active": true
          },
          {
            "step_number": "SEWING\n车缝",
            "control_item": "ASSEMBLIES CONFORMITY AND SOLIDITY\n车缝的一致性和牢固度",
            "control_method": "DCS_10_Assemblies_conformity_and_solidity",
            "requirement": "DCS requirements\nDCS 要求",
            "criticity": "Major",
            "control_type": "Visual/cosmetic control",
            "supplier_control_freq_note": null,
            "supplier_controller": null,
            "decathlon_control_freq_note": null,
            "active": true
          },
          {
            "step_number": "SEWING\n车缝",
            "control_item": "STITCHING REGULARITY\n车缝线迹外观要求",
            "control_method": "DCS 013 Stitching Regularity",
            "requirement": "DCS requirements\nDCS 要求",
            "criticity": "Minor",
            "control_type": "Visual/cosmetic control",
            "supplier_control_freq_note": null,
            "supplier_controller": null,
            "decathlon_control_freq_note": null,
            "active": true
          },
          {
            "step_number": "SEWING\n车缝",
            "control_item": "CHECK THE SYMMETRY OF GARMENT\n对称性检查",
            "control_method": "DCS 018 Symmetry Conformity",
            "requirement": "DCS requirements\nDCS 要求",
            "criticity": "Major",
            "control_type": "Visual/cosmetic control",
            "supplier_control_freq_note": null,
            "supplier_controller": null,
            "decathlon_control_freq_note": null,
            "active": true
          },
          {
            "step_number": "FUSING\n烫衬",
            "control_item": "CHECK QUALITY OF THERMO FUSING\n检查烫衬质量",
            "control_method": "DCS 016 Quality of Thermo Fusing",
            "requirement": "DCS requirements\nDCS 要求",
            "criticity": "Major",
            "control_type": "Visual/cosmetic control",
            "supplier_control_freq_note": null,
            "supplier_controller": null,
            "decathlon_control_freq_note": null,
            "active": true
          },
          {
            "step_number": "Foam Cup / Moulding\n模杯",
            "control_item": "FOAM CUP / SPACERS QUALITY CONTROL\n海绵杯/空气夹层布的质量控制",
            "control_method": "DPR 07.225 B Control of moulded foam cups and spacers",
            "requirement": "DPR requirements\nDPR 要求",
            "criticity": "Major",
            "control_type": "Process control,",
            "supplier_control_freq_note": null,
            "supplier_controller": null,
            "decathlon_control_freq_note": null,
            "active": true
          },
          {
            "step_number": "Foam Cup / Moulding\n模杯",
            "control_item": "MOULDING CUPS \n模杯",
            "control_method": "DPR 07.204 Molding cups control",
            "requirement": "DPR requirements\nDPR 要求",
            "criticity": "Major",
            "control_type": "Process control,",
            "supplier_control_freq_note": null,
            "supplier_controller": null,
            "decathlon_control_freq_note": null,
            "active": true
          },
          {
            "step_number": "Bonding\n无缝粘合",
            "control_item": "BONDING  \n无缝粘合的管控",
            "control_method": "DPR 10.707 Bonding Quality follow up in production\nand\nDS 160 & DS 044 A/B",
            "requirement": "DPR requirements\nDPR 要求",
            "criticity": "Major",
            "control_type": "Process control,",
            "supplier_control_freq_note": null,
            "supplier_controller": null,
            "decathlon_control_freq_note": null,
            "active": true
          },
          {
            "step_number": "Bonding\n无缝粘合",
            "control_item": "BONDING PARAMETER\n无缝粘合参数",
            "control_method": "DPR Textile 10.706 Development & Validation Bonding Parameters",
            "requirement": "DPR requirements\nDPR 要求",
            "criticity": "Major",
            "control_type": "Process control,",
            "supplier_control_freq_note": null,
            "supplier_controller": null,
            "decathlon_control_freq_note": null,
            "active": true
          },
          {
            "step_number": "Bonding\n无缝粘合",
            "control_item": "BONDED SEAM QUALITY\n无缝粘合质量检查",
            "control_method": "DCS 017 Quality of Bonded Seam",
            "requirement": "DCS requirements\nDCS 要求",
            "criticity": "Major",
            "control_type": "Visual/cosmetic control",
            "supplier_control_freq_note": null,
            "supplier_controller": null,
            "decathlon_control_freq_note": null,
            "active": true
          },
          {
            "step_number": "Label\n标签",
            "control_item": "RFID & LABELS CONFORMITY\n标类检查",
            "control_method": "DCS_20_RFID_and_labels_conformityV3",
            "requirement": "DCS requirements\nDCS 要求",
            "criticity": "Major",
            "control_type": "Visual/cosmetic control",
            "supplier_control_freq_note": null,
            "supplier_controller": null,
            "decathlon_control_freq_note": null,
            "active": true
          },
          {
            "step_number": "End of Line\n线尾",
            "control_item": "SUPPLIER END OF LINE CONTROL\n车缝线尾检验",
            "control_method": "DPR_Textile_10.117_End_of_line_control",
            "requirement": "The frequencies, the control method and the records are respected. If supplier records NC, challenge the way he manage it 管控频率，方法和记录都被遵守，如果供应商记录有不良，需确认其管理方法",
            "criticity": "Major",
            "control_type": "Process control,",
            "supplier_control_freq_note": null,
            "supplier_controller": null,
            "decathlon_control_freq_note": null,
            "active": true
          },
          {
            "step_number": "End of Line\n线尾",
            "control_item": "LIGHT MACHINE FOR END LINE CONTROL\n光照设备检验车缝",
            "control_method": "DPR 10.120 light machine for seam control",
            "requirement": "DPR requirements\nDPR 要求",
            "criticity": "Minor",
            "control_type": "Process control,",
            "supplier_control_freq_note": null,
            "supplier_controller": null,
            "decathlon_control_freq_note": null,
            "active": true
          }
        ]
      },
      {
        "name": "Accessories fuctional conformity",
        "category": "Online control",
        "steps": [
          {
            "step_number": "000",
            "control_item": "FASTENERS PROCESS REQUIREMENT\n紧固辅料生产",
            "control_method": "DPR Textile 11.001 Fastness Process Requirement",
            "requirement": "DPR requirements\nDPR 要求",
            "criticity": "Major",
            "control_type": "Process control,",
            "supplier_control_freq_note": null,
            "supplier_controller": null,
            "decathlon_control_freq_note": null,
            "active": true
          },
          {
            "step_number": "000",
            "control_item": "FASTENERS CONTROL\n紧固辅料检查",
            "control_method": "DPR Textile 11.003 Fasteners Control   \nDCS 014 Conformity of Press Studs",
            "requirement": "DPR & DCS requirements\nDPR & DCS 要求",
            "criticity": "Major",
            "control_type": "Process control,",
            "supplier_control_freq_note": null,
            "supplier_controller": null,
            "decathlon_control_freq_note": null,
            "active": true
          },
          {
            "step_number": "000",
            "control_item": "CHECK DRAWSTRINGS CONFORMITY ( FOR JUNIOR )\n检查童装抽绳合规性",
            "control_method": "DCS 001 Drawstring Conformity For Junior",
            "requirement": "DCS requirements\nDCS 要求",
            "criticity": "Critical",
            "control_type": "Visual/cosmetic control",
            "supplier_control_freq_note": null,
            "supplier_controller": null,
            "decathlon_control_freq_note": null,
            "active": true
          },
          {
            "step_number": "000",
            "control_item": "CHECK ASSEMBLY OF BUCKLE\n检查卡扣",
            "control_method": "DCS 002 Buckle Conformity",
            "requirement": "DCS requirements\nDCS 要求",
            "criticity": "Major",
            "control_type": "Visual/cosmetic control",
            "supplier_control_freq_note": null,
            "supplier_controller": null,
            "decathlon_control_freq_note": null,
            "active": true
          },
          {
            "step_number": "000",
            "control_item": "CHECK ZIPPERS FUNCTIONALITY\n检查拉链功能",
            "control_method": "DCS 003 ZIP Functionning",
            "requirement": "DCS requirements\nDCS 要求",
            "criticity": "Major",
            "control_type": "Visual/cosmetic control",
            "supplier_control_freq_note": null,
            "supplier_controller": null,
            "decathlon_control_freq_note": null,
            "active": true
          },
          {
            "step_number": "000",
            "control_item": "CHECK HOOK & LOOP\n检查魔术贴",
            "control_method": "DCS 004 Hook & Loop Conformity",
            "requirement": "DCS requirements\nDCS 要求",
            "criticity": "Major",
            "control_type": "Visual/cosmetic control",
            "supplier_control_freq_note": null,
            "supplier_controller": null,
            "decathlon_control_freq_note": null,
            "active": true
          },
          {
            "step_number": "000",
            "control_item": "CHECK HURTFUL OR IRRITATING ACCESSORIES\n检查尖锐辅料",
            "control_method": "DCS 005 Hurtful Accessories",
            "requirement": "DCS requirements\nDCS 要求",
            "criticity": "Major",
            "control_type": "Visual/cosmetic control",
            "supplier_control_freq_note": null,
            "supplier_controller": null,
            "decathlon_control_freq_note": null,
            "active": true
          },
          {
            "step_number": "000",
            "control_item": "CHECK HANGING COMPONENTS\n检查悬挂部件",
            "control_method": "DCS 015 Hanging Components",
            "requirement": "DCS requirements\nDCS 要求",
            "criticity": "Major",
            "control_type": "Visual/cosmetic control",
            "supplier_control_freq_note": null,
            "supplier_controller": null,
            "decathlon_control_freq_note": null,
            "active": true
          },
          {
            "step_number": "000",
            "control_item": "VERIFY ENCODING & BARCODE READING ON RFID\nRFID可读性与信息核对",
            "control_method": "DCS 020 RFID & Lebelling Conformity",
            "requirement": "DCS requirements\nDCS 要求",
            "criticity": null,
            "control_type": "Visual/cosmetic control",
            "supplier_control_freq_note": null,
            "supplier_controller": null,
            "decathlon_control_freq_note": null,
            "active": true
          },
          {
            "step_number": "000",
            "control_item": "CHECK LABELS\n核对标类",
            "control_method": "DCS 021 General Labels Conformity",
            "requirement": "DCS requirements\nDCS 要求",
            "criticity": "Major",
            "control_type": "Visual/cosmetic control",
            "supplier_control_freq_note": null,
            "supplier_controller": null,
            "decathlon_control_freq_note": null,
            "active": true
          },
          {
            "step_number": "000",
            "control_item": "BUTTON & BUTTON HOLE CONFORMITY\n纽扣与钮眼检查",
            "control_method": "DCS 022 Button & Button Hole Conformity",
            "requirement": "DCS requirements\nDCS 要求",
            "criticity": "Major",
            "control_type": "Visual/cosmetic control",
            "supplier_control_freq_note": null,
            "supplier_controller": null,
            "decathlon_control_freq_note": null,
            "active": true
          },
          {
            "step_number": "000",
            "control_item": "UNDERWEAR & SWIMWEAR ACCESSORIES CONFORMITY\n内衣和泳衣的配件检验",
            "control_method": "DCS_29 Underwear & Swinwear accessories conformity",
            "requirement": "DCS requirements\nDCS 要求",
            "criticity": "Minor",
            "control_type": "Visual/cosmetic control",
            "supplier_control_freq_note": null,
            "supplier_controller": null,
            "decathlon_control_freq_note": null,
            "active": true
          }
        ]
      },
      {
        "name": "Marking heat transfer print embroidery",
        "category": "Online control",
        "steps": [
          {
            "step_number": "000",
            "control_item": "HEAT TRANSFER LABEL APPLICATION\n热转印生产要求",
            "control_method": "DPR Textile 09.105 HTL APPLICATION",
            "requirement": "DPR requirements\nDPR 要求",
            "criticity": "Major",
            "control_type": "Process control,",
            "supplier_control_freq_note": null,
            "supplier_controller": null,
            "decathlon_control_freq_note": null,
            "active": true
          },
          {
            "step_number": "000",
            "control_item": "HEAT TRANSFER LABEL POSITION UNDER PRESS\n热转印热压时候的位置要求",
            "control_method": "DPR_Textile_09.106_HTL_position_under_press",
            "requirement": "DPR requirements\nDPR 要求",
            "criticity": "Major",
            "control_type": "Process control,",
            "supplier_control_freq_note": null,
            "supplier_controller": null,
            "decathlon_control_freq_note": null,
            "active": true
          },
          {
            "step_number": "000",
            "control_item": "MARKING CONFORMITY\n印绣花等位置要求",
            "control_method": "DCS 007 Marking Conformity",
            "requirement": "DCS requirements\nDCS 要求",
            "criticity": "Major",
            "control_type": "Visual/cosmetic control",
            "supplier_control_freq_note": null,
            "supplier_controller": null,
            "decathlon_control_freq_note": null,
            "active": true
          },
          {
            "step_number": "000",
            "control_item": "HEAT TRANSFER / SCREEN PRINT AGING\n热转移印/丝网印的老化测试",
            "control_method": "DS_96 Aspect control of Screen print and Heat Transfer",
            "requirement": "Follow Conception Validation Plan/ PE requirement\n和CVP或PE的要求一致",
            "criticity": null,
            "control_type": "LAB control",
            "supplier_control_freq_note": null,
            "supplier_controller": null,
            "decathlon_control_freq_note": null,
            "active": true
          },
          {
            "step_number": "000",
            "control_item": "HEAT TRANSFER / SCREEN PRINT DURABILITY\n热转移/丝网印 拉伸延展性",
            "control_method": "DS_130 Manual Streching of Screen print and Heat Transfer",
            "requirement": "Follow Conception Validation Plan/ PE requirement\n和CVP或PE的要求一致",
            "criticity": null,
            "control_type": "LAB control",
            "supplier_control_freq_note": null,
            "supplier_controller": null,
            "decathlon_control_freq_note": null,
            "active": true
          }
        ]
      },
      {
        "name": "Finishing packing",
        "category": "Online control",
        "steps": [
          {
            "step_number": "000",
            "control_item": "RFID",
            "control_method": "DPR 13.003 RFID Control\nand\nDPR 14.005 RFID Control",
            "requirement": "DPR requirements\nDPR 要求",
            "criticity": "Major",
            "control_type": "Process control,",
            "supplier_control_freq_note": null,
            "supplier_controller": null,
            "decathlon_control_freq_note": null,
            "active": true
          },
          {
            "step_number": "000",
            "control_item": "IRONING AREAS\n熨烫要求",
            "control_method": "DPR Textile 12.002 Ironing Areas",
            "requirement": "DPR requirements\nDPR 要求",
            "criticity": "Major",
            "control_type": "Process control,",
            "supplier_control_freq_note": null,
            "supplier_controller": null,
            "decathlon_control_freq_note": null,
            "active": true
          },
          {
            "step_number": "000",
            "control_item": "PRODUCT PRINT PACKAGING\n印花款式的包装要求",
            "control_method": "DPR_Textile_13.006_Product_print_packaging",
            "requirement": "DPR requirements\nDPR 要求",
            "criticity": "Major",
            "control_type": "Process control,",
            "supplier_control_freq_note": null,
            "supplier_controller": null,
            "decathlon_control_freq_note": null,
            "active": true
          },
          {
            "step_number": "000",
            "control_item": "PACKING MOLD PREVENTION\n防霉变包装要求",
            "control_method": "DPR_Textile_13.007_Packing_mold_prevention",
            "requirement": "DPR requirements\nDPR 要求",
            "criticity": "Critical",
            "control_type": "Process control,",
            "supplier_control_freq_note": null,
            "supplier_controller": null,
            "decathlon_control_freq_note": null,
            "active": true
          },
          {
            "step_number": "000",
            "control_item": "FINAL CONTROL\n最终检验",
            "control_method": "DPR_Textile_14.001_Final_Control",
            "requirement": "The frequencies, the control method and the records are respected. If supplier records NC, challenge the way he manage it 管控频率，方法和记录都被遵守，如果供应商记录有不良，需确认其管理方法",
            "criticity": "Major",
            "control_type": "Process control,",
            "supplier_control_freq_note": null,
            "supplier_controller": null,
            "decathlon_control_freq_note": null,
            "active": true
          },
          {
            "step_number": "000",
            "control_item": "METAL DETECTION\n婴儿产品的检针管理",
            "control_method": "DPR Textile 14.004 Metal Detector For Baby Garment",
            "requirement": "COMPULSARY FOR BABY PRODUCTS - 100% products to be scanned",
            "criticity": "Critical",
            "control_type": "Process control,",
            "supplier_control_freq_note": null,
            "supplier_controller": null,
            "decathlon_control_freq_note": null,
            "active": true
          },
          {
            "step_number": "000",
            "control_item": "CHECK PACKAGING & SIZE LABELLING CONFORMITY\n包装与尺码信息的合规性检查",
            "control_method": "DCS 019 Size Labelling Conformity",
            "requirement": "DCS requirements\nDCS 要求",
            "criticity": "Major",
            "control_type": "Visual/cosmetic control",
            "supplier_control_freq_note": null,
            "supplier_controller": null,
            "decathlon_control_freq_note": null,
            "active": true
          },
          {
            "step_number": "000",
            "control_item": "MRP CONFORMITY\nMRP贴纸合规性检查",
            "control_method": "DCS 023 MRP Conformity",
            "requirement": "DCS requirements\nDCS 要求",
            "criticity": "Critical",
            "control_type": "Visual/cosmetic control",
            "supplier_control_freq_note": null,
            "supplier_controller": null,
            "decathlon_control_freq_note": null,
            "active": true
          },
          {
            "step_number": "000",
            "control_item": "HANGING & FOLDING CONFORMITY\n衣架挂法与折叠方式检查",
            "control_method": "DCS 030 Hanging & Folding Conformity",
            "requirement": "DCS requirements\nDCS 要求",
            "criticity": "Minor",
            "control_type": "Visual/cosmetic control",
            "supplier_control_freq_note": null,
            "supplier_controller": null,
            "decathlon_control_freq_note": null,
            "active": true
          }
        ]
      },
      {
        "name": "Final control",
        "category": "Final control",
        "steps": [
          {
            "step_number": "GTD 装箱",
            "control_item": "GTD CONTROL\n装箱检验",
            "control_method": "Compoare to General Terms of deliveries",
            "requirement": "与订单的信息及装箱要求一致",
            "criticity": "Major",
            "control_type": "Product control",
            "supplier_control_freq_note": null,
            "supplier_controller": null,
            "decathlon_control_freq_note": null,
            "active": true
          },
          {
            "step_number": "General Apperance\n一般检验",
            "control_item": "SUPPLIER FINAL CONTROL\n供应商最终检验",
            "control_method": "DPR 14.001 Final control",
            "requirement": "DPR requirements\nDPR 要求",
            "criticity": "Major",
            "control_type": "Records and method control",
            "supplier_control_freq_note": null,
            "supplier_controller": null,
            "decathlon_control_freq_note": null,
            "active": true
          },
          {
            "step_number": "General Apperance\n一般检验",
            "control_item": "HANGING & FOLDING CONFORMITY\n衣架挂法与折叠方式检查",
            "control_method": "DCS_30 Hanging & folding conformity",
            "requirement": "DCS requirements\nDCS 要求",
            "criticity": "Minor",
            "control_type": "Product control",
            "supplier_control_freq_note": null,
            "supplier_controller": null,
            "decathlon_control_freq_note": null,
            "active": true
          },
          {
            "step_number": "General Apperance\n一般检验",
            "control_item": "CHECK PACKAGING & SIZE LABELLING CONFORMITY\n包装与尺码信息的合规性检查",
            "control_method": "DCS_19 Size labelling conformity",
            "requirement": "DCS requirements\nDCS 要求",
            "criticity": "Major",
            "control_type": "Product control",
            "supplier_control_freq_note": null,
            "supplier_controller": null,
            "decathlon_control_freq_note": null,
            "active": true
          },
          {
            "step_number": "General Apperance\n一般检验",
            "control_item": "GENREAL APPERANCE\n一般外观检验",
            "control_method": "DCS_24 General appearance",
            "requirement": "DCS requirements\nDCS 要求",
            "criticity": "Minor",
            "control_type": "Product control",
            "supplier_control_freq_note": null,
            "supplier_controller": null,
            "decathlon_control_freq_note": null,
            "active": true
          },
          {
            "step_number": "General Apperance\n一般检验",
            "control_item": "FUNCTIONALITY \n功能性检验",
            "control_method": "Check different functions of the product by  wearing the product",
            "requirement": "试穿产品并对其不同的性能进行确认",
            "criticity": "Major",
            "control_type": "Product control",
            "supplier_control_freq_note": null,
            "supplier_controller": null,
            "decathlon_control_freq_note": null,
            "active": true
          },
          {
            "step_number": "General Apperance\n一般检验",
            "control_item": "BOM CONTROL\n物料表的检验",
            "control_method": "Compare to master sample and teck pach",
            "requirement": "与产能确认样和技术资料都一致",
            "criticity": "Major",
            "control_type": "Product control",
            "supplier_control_freq_note": null,
            "supplier_controller": null,
            "decathlon_control_freq_note": null,
            "active": true
          },
          {
            "step_number": "General Apperance\n一般检验",
            "control_item": "MARKING CONFIRMITY\n标记类的检验",
            "control_method": "DCS_7 Marking conformity",
            "requirement": "DCS requirements\nDCS 要求",
            "criticity": "Major",
            "control_type": "Product control",
            "supplier_control_freq_note": null,
            "supplier_controller": null,
            "decathlon_control_freq_note": null,
            "active": true
          },
          {
            "step_number": "General Apperance\n一般检验",
            "control_item": "LABELS\n标签的检验",
            "control_method": "DCS_21  General labels conformity",
            "requirement": "COMPOSITION INFORMATION ARE CRITICAL\n成份信息是高风险关键控制点",
            "criticity": "Major",
            "control_type": "Product control",
            "supplier_control_freq_note": null,
            "supplier_controller": null,
            "decathlon_control_freq_note": null,
            "active": true
          },
          {
            "step_number": "General Apperance\n一般检验",
            "control_item": "MRP LABEL for INDIA MARKET\nMPR标签和印度贴纸",
            "control_method": "DCS_23 MRP conformity",
            "requirement": "DCS requirements\nDCS 要求",
            "criticity": "Critical",
            "control_type": "Product control",
            "supplier_control_freq_note": null,
            "supplier_controller": null,
            "decathlon_control_freq_note": null,
            "active": true
          },
          {
            "step_number": "General Apperance\n一般检验",
            "control_item": "ENCODING and BARCODE READING CONTROL ON RFID\nRFID标签的检验",
            "control_method": "DCS_20 FFID Control",
            "requirement": "DCS requirements\nDCS 要求",
            "criticity": "Major",
            "control_type": "Product control",
            "supplier_control_freq_note": null,
            "supplier_controller": null,
            "decathlon_control_freq_note": null,
            "active": true
          },
          {
            "step_number": "Accessories Function Conformity 辅料功能性检验",
            "control_item": "ZIPPER FUNCTIONALITY\n拉链的功能性检验",
            "control_method": "DCS_03_Zip functionning",
            "requirement": "DCS requirements\nDCS 要求",
            "criticity": "Major",
            "control_type": "Product control",
            "supplier_control_freq_note": null,
            "supplier_controller": null,
            "decathlon_control_freq_note": null,
            "active": true
          },
          {
            "step_number": "Accessories Function Conformity 辅料功能性检验",
            "control_item": "ZIPPER ASSEMBLY \n拉链的车缝检验",
            "control_method": "DCS_09 Zip Assembly",
            "requirement": "DCS requirements\nDCS 要求",
            "criticity": "Major",
            "control_type": "Product control",
            "supplier_control_freq_note": null,
            "supplier_controller": null,
            "decathlon_control_freq_note": null,
            "active": true
          },
          {
            "step_number": "Accessories Function Conformity 辅料功能性检验",
            "control_item": "CHECK HURTFUL OR IRRITATING ACCESSORIES\n检查尖锐辅料",
            "control_method": "DCS_05_Hurtful accessories",
            "requirement": "DCS requirements\nDCS 要求",
            "criticity": "Critical",
            "control_type": "Product control",
            "supplier_control_freq_note": null,
            "supplier_controller": null,
            "decathlon_control_freq_note": null,
            "active": true
          },
          {
            "step_number": "Accessories Function Conformity 辅料功能性检验",
            "control_item": "CHECK DRAWSTRINGS CONFORMITY ( FOR BABY &JUNIOR )\n检查婴童装抽绳合规性",
            "control_method": "DCS_01_Drawstring confirmity",
            "requirement": "对于婴装和童装是高风险关键控制点",
            "criticity": "Critical",
            "control_type": "Product control",
            "supplier_control_freq_note": null,
            "supplier_controller": null,
            "decathlon_control_freq_note": null,
            "active": true
          },
          {
            "step_number": "Accessories Function Conformity 辅料功能性检验",
            "control_item": "CHECK ASSEMBLY OF BUCKLE\n检查卡扣",
            "control_method": "DCS_02_Buckles conformity",
            "requirement": "DCS requirements\nDCS 要求",
            "criticity": "Major",
            "control_type": "Product control",
            "supplier_control_freq_note": null,
            "supplier_controller": null,
            "decathlon_control_freq_note": null,
            "active": true
          },
          {
            "step_number": "Accessories Function Conformity 辅料功能性检验",
            "control_item": "BUTTON & BUTTON HOLE CONFORMITY\n纽扣与钮眼检查",
            "control_method": "DCS_22 Buttons and Button holes conformity",
            "requirement": "DCS requirements\nDCS 要求",
            "criticity": "Major",
            "control_type": "Product control",
            "supplier_control_freq_note": null,
            "supplier_controller": null,
            "decathlon_control_freq_note": null,
            "active": true
          },
          {
            "step_number": "Accessories Function Conformity 辅料功能性检验",
            "control_item": "CHECK HANGING COMPONENTS\n检查悬挂部件",
            "control_method": "DCS_15 Hanging components solidity",
            "requirement": "DCS requirements\nDCS 要求",
            "criticity": "Major",
            "control_type": "Product control",
            "supplier_control_freq_note": null,
            "supplier_controller": null,
            "decathlon_control_freq_note": null,
            "active": true
          },
          {
            "step_number": "Accessories Function Conformity 辅料功能性检验",
            "control_item": "CHECK HOOK & LOOP\n检查魔术贴",
            "control_method": "DCS_04_Hook and Loop conformity",
            "requirement": "DCS requirements\nDCS 要求",
            "criticity": "Major",
            "control_type": "Product control",
            "supplier_control_freq_note": null,
            "supplier_controller": null,
            "decathlon_control_freq_note": null,
            "active": true
          },
          {
            "step_number": "Accessories Function Conformity 辅料功能性检验",
            "control_item": "ZIG - ZAG STRENGT TEST\n人字车的强度测试",
            "control_method": "Pull strongly on the zig-zag  with hands\n用最大的力量去拉人字线车缝部位",
            "requirement": "不可以有断线,爆口",
            "criticity": "Major",
            "control_type": "Product control",
            "supplier_control_freq_note": null,
            "supplier_controller": null,
            "decathlon_control_freq_note": null,
            "active": true
          },
          {
            "step_number": "Accessories Function Conformity 辅料功能性检验",
            "control_item": "UNDERWEAR & SWIMWEAR ACCESSORIES CONFORMITY\n内衣和泳衣的配件检验",
            "control_method": "DCS_29 Underwear & Swinwear accessories conformity",
            "requirement": "DCS requirements\nDCS 要求",
            "criticity": "Minor",
            "control_type": "Product control",
            "supplier_control_freq_note": null,
            "supplier_controller": null,
            "decathlon_control_freq_note": null,
            "active": true
          },
          {
            "step_number": "Workmanship\n做工检验",
            "control_item": "BINDING STRETCH TEST\n捆条的强力测试",
            "control_method": "With tensile machine;\nPull to 250% (Elongation = +150%) the front collar binding. \nBinding seam thread must not break.",
            "requirement": "前领捆条用拉力机拉伸至250% (EX: from 10cm to 25cm).\n捆条不会爆口,断线",
            "criticity": "Major",
            "control_type": "Product control",
            "supplier_control_freq_note": null,
            "supplier_controller": null,
            "decathlon_control_freq_note": null,
            "active": true
          },
          {
            "step_number": "Workmanship\n做工检验",
            "control_item": "BINDING STRETCH TEST\n捆条的强力测试",
            "control_method": "With tensile  machine;\nThe minimum binding strength resistance must be 180N",
            "requirement": "捆条用拉力机拉伸,最小必须达到180N不爆口,不断线",
            "criticity": "Major",
            "control_type": "Product control",
            "supplier_control_freq_note": null,
            "supplier_controller": null,
            "decathlon_control_freq_note": null,
            "active": true
          },
          {
            "step_number": "Workmanship\n做工检验",
            "control_item": "GARMENT SYMMETRY \n成衣的对称性",
            "control_method": "DCS_18 symmetry conformity",
            "requirement": "DCS requirements\nDCS 要求",
            "criticity": "Major",
            "control_type": "Product control",
            "supplier_control_freq_note": null,
            "supplier_controller": null,
            "decathlon_control_freq_note": null,
            "active": true
          },
          {
            "step_number": "Workmanship\n做工检验",
            "control_item": "STITCHING REGULARITY \n车线的均匀度",
            "control_method": "DCS_13 Stitching regularity",
            "requirement": "DCS requirements\nDCS 要求",
            "criticity": "Minor",
            "control_type": "Product control",
            "supplier_control_freq_note": null,
            "supplier_controller": null,
            "decathlon_control_freq_note": null,
            "active": true
          },
          {
            "step_number": "Workmanship\n做工检验",
            "control_item": "SEAM ELASTICITY\n缝合的拉伸力要求",
            "control_method": "DCS_12 Seam elasticity",
            "requirement": "DCS requirements\nDCS 要求",
            "criticity": "Major",
            "control_type": "Product control",
            "supplier_control_freq_note": null,
            "supplier_controller": null,
            "decathlon_control_freq_note": null,
            "active": true
          },
          {
            "step_number": "Workmanship\n做工检验",
            "control_item": "SEAM CONFIRMITY\n缝合方式的检验",
            "control_method": "Compare to technical drawing in tech pack",
            "requirement": "与技术资 料上面的要求一致",
            "criticity": "Major",
            "control_type": "Product control",
            "supplier_control_freq_note": null,
            "supplier_controller": null,
            "decathlon_control_freq_note": null,
            "active": true
          },
          {
            "step_number": "Workmanship\n做工检验",
            "control_item": "ASSEMBLIES CONFORMITY AND SOLIDITY\n车缝的一致性和牢固度",
            "control_method": "DCS_10 Assemblies solidity and conformity",
            "requirement": "DCS requirements\nDCS 要求",
            "criticity": "Major",
            "control_type": "Product control",
            "supplier_control_freq_note": null,
            "supplier_controller": null,
            "decathlon_control_freq_note": null,
            "active": true
          },
          {
            "step_number": "Workmanship\n做工检验",
            "control_item": "NECKLINE MIN WIDTH CONTROL  \n领口最小宽度的检验",
            "control_method": "DCS_32 DCS 32ATextile  T-shirt Neckline stretch control",
            "requirement": "DCS requirements\nDCS 要求",
            "criticity": "Critical",
            "control_type": "Product control",
            "supplier_control_freq_note": null,
            "supplier_controller": null,
            "decathlon_control_freq_note": null,
            "active": true
          },
          {
            "step_number": "Workmanship\n做工检验",
            "control_item": "HIP MIN WIDTH CONTROL\n臀围最小宽度的检验",
            "control_method": "DCS to be created",
            "requirement": "与尺寸表要求一致",
            "criticity": "Major",
            "control_type": "Product control",
            "supplier_control_freq_note": null,
            "supplier_controller": null,
            "decathlon_control_freq_note": null,
            "active": true
          },
          {
            "step_number": "Workmanship\n做工检验",
            "control_item": "STRAPS BARTACK POSITION\n肩带套结的位置要求",
            "control_method": "DPR 10.327 Bartack position on the straps",
            "requirement": "DPR requirements\nDPR 要求",
            "criticity": "Major",
            "control_type": "Product control",
            "supplier_control_freq_note": null,
            "supplier_controller": null,
            "decathlon_control_freq_note": null,
            "active": true
          },
          {
            "step_number": "TESTING \n测试",
            "control_item": "TOXICOLOGY\n毒性测试",
            "control_method": "Toxicology Control Plan",
            "requirement": "与毒性管控计划的要求一致",
            "criticity": "Critical",
            "control_type": "Records and method control",
            "supplier_control_freq_note": null,
            "supplier_controller": null,
            "decathlon_control_freq_note": null,
            "active": true
          },
          {
            "step_number": "TESTING \n测试",
            "control_item": "DOMESTIC WASHING\n水洗外观",
            "control_method": "DS_034 Domestic washing and drying for textile testing - aspect evaluation",
            "requirement": "Follow Conception Validation Plan/ PE requirement\n和CVP或PE的要求一致",
            "criticity": null,
            "control_type": "LAB control",
            "supplier_control_freq_note": null,
            "supplier_controller": null,
            "decathlon_control_freq_note": null,
            "active": true
          },
          {
            "step_number": "TESTING \n测试",
            "control_item": "PHENOLIC YELLOWING\n酚黄变",
            "control_method": "DS_025 Phenolic yellowing\n( for white and pastel colors)",
            "requirement": "Follow Conception Validation Plan/ PE requirement\n和CVP或PE的要求一致",
            "criticity": null,
            "control_type": "LAB control",
            "supplier_control_freq_note": null,
            "supplier_controller": null,
            "decathlon_control_freq_note": null,
            "active": true
          },
          {
            "step_number": "TESTING \n测试",
            "control_item": "COLOR FASTNESS \n水洗撞色(深浅色)牢度",
            "control_method": "DS_150 Colorfastness of light-dark colors washed together",
            "requirement": "Follow Conception Validation Plan/ PE requirement\n和CVP或PE的要求一致",
            "criticity": null,
            "control_type": "LAB control",
            "supplier_control_freq_note": null,
            "supplier_controller": null,
            "decathlon_control_freq_note": null,
            "active": true
          },
          {
            "step_number": "TESTING \n测试",
            "control_item": "HEAT TRANSFER / SCREEN PRINTING AGING\n热转移/丝网印 老化",
            "control_method": "DS_96 Aspect control of Screen print and Heat Transfer",
            "requirement": "The frequencies, the control method and the records are respected. If supplier records NC, challenge the way he manage it 管控频率，方法和记录都被遵守，如果供应商记录有不良，深入询问其管理方法",
            "criticity": null,
            "control_type": "LAB control",
            "supplier_control_freq_note": null,
            "supplier_controller": null,
            "decathlon_control_freq_note": null,
            "active": true
          },
          {
            "step_number": "TESTING \n测试",
            "control_item": "HEAT TRANSFER / SCREEN PRINT DURABILITY\n热转移/丝网印 拉伸性",
            "control_method": "DS_130 Manual Streching of Screen print and Heat Transfer",
            "requirement": "Follow Conception Validation Plan/ PE requirement\n和CVP或PE的要求一致",
            "criticity": null,
            "control_type": "LAB control",
            "supplier_control_freq_note": null,
            "supplier_controller": null,
            "decathlon_control_freq_note": null,
            "active": true
          },
          {
            "step_number": "TESTING \n测试",
            "control_item": "BONDING DELAMINATION\n贴合的剥离强度",
            "control_method": "DS_044 B Delamination test for multi-layers component",
            "requirement": "Follow Conception Validation Plan/ PE requirement\n和CVP或PE的要求一致",
            "criticity": null,
            "control_type": "LAB control",
            "supplier_control_freq_note": null,
            "supplier_controller": null,
            "decathlon_control_freq_note": null,
            "active": true
          },
          {
            "step_number": "TESTING \n测试",
            "control_item": "BONDING RESISTANCE\n贴合的牢度",
            "control_method": "DS_160 Tensile test on seam assemblies",
            "requirement": "Follow Conception Validation Plan/ PE requirement\n和CVP或PE的要求一致",
            "criticity": null,
            "control_type": "LAB control",
            "supplier_control_freq_note": null,
            "supplier_controller": null,
            "decathlon_control_freq_note": null,
            "active": true
          },
          {
            "step_number": "TESTING \n测试",
            "control_item": "COLOR MIGRATION\n撞色(深浅色)色迁移",
            "control_method": "DS_031  Color migration on textile components or finished products",
            "requirement": "Follow Conception Validation Plan/ PE requirement\n和CVP或PE的要求一致",
            "criticity": null,
            "control_type": "LAB control",
            "supplier_control_freq_note": null,
            "supplier_controller": null,
            "decathlon_control_freq_note": null,
            "active": true
          },
          {
            "step_number": "TESTING \n测试",
            "control_item": "COLOR FASTNESS TO RUBBING\n摩擦色牢度",
            "control_method": "DS_003 Colourfastness to rubbing on textile component",
            "requirement": "Follow Conception Validation Plan/ PE requirement\n和CVP或PE的要求一致",
            "criticity": null,
            "control_type": "LAB control",
            "supplier_control_freq_note": null,
            "supplier_controller": null,
            "decathlon_control_freq_note": null,
            "active": true
          }
        ]
      }
    ]
  }
}
