{
  "filename": "CP2.3_GroupFu_72809_MSK 500 Msk_Robert Zhou.xlsx",
  "count": 5,
  "product_family": {
    "name": "MSK 500",
    "processes": [
      {
        "name": "Metal raw material reception and storage",
        "category": "Incoming control",
        "steps": [
          {
            "step_number": "来料检验品质",
            "control_method": "Check the supplier frequency + control method + the records 检查供应商的管控频率+管控方法+管控记录.",
            "requirement": "The frequencies, the control method and the records are respected. If supplier records NC, challenge the way he manage it 管控频率，方法和记录都被遵守，如果供应商记录有不良，盘问他的管理方法",
            "criticity": "Minor",
            "control_type": null,
            "supplier_control_freq_note": "Records and method control",
            "supplier_controller": "每周1次",
            "decathlon_control_freq_note": "组长/课长",
            "active": true
          },
          {
            "step_number": "0.0",
            "control_item": "原料",
            "control_method": "1.检查原料袋生产批号是否在有效期内.\n2.料商需提供原料物性表.",
            "requirement": "1.塑胶粒子有效期两年,矽胶有效期一年.\n2.原料厂商每批次提供物性表.",
            "criticity": "Major",
            "control_type": null,
            "supplier_control_freq_note": "Records and method control",
            "supplier_controller": "每周1次",
            "decathlon_control_freq_note": "组长/课长",
            "active": true
          },
          {
            "step_number": "1.0",
            "control_item": "束带车缝",
            "control_method": "1.将束带拉直目视检查外观.\n\n2.测量束带规格(钢尺)",
            "requirement": "1.不可有起毛,破损,跳针,脱线.\n\n2.产品总长度:S/XS#:480±15mm             M#:490±15mm    L#:550±15mm",
            "criticity": "Minor",
            "control_type": null,
            "supplier_control_freq_note": "Visual/cosmetic control",
            "supplier_controller": "每周1次",
            "decathlon_control_freq_note": "组长/课长",
            "active": true
          },
          {
            "step_number": "2.0",
            "control_item": "螺丝\n（4102-0006）",
            "control_method": "1.目视检查.产品外观.\n\n2.产品需送实验室做盐雾测试.",
            "requirement": "1.螺丝不可有氧化.螺丝的丝牙不可有毛刺、缺损、卷边不良.\n\n2.96H不可有氧化.",
            "criticity": "Minor",
            "control_type": null,
            "supplier_control_freq_note": "Visual/cosmetic control",
            "supplier_controller": "每周1次",
            "decathlon_control_freq_note": "组长/课长",
            "active": true
          },
          {
            "step_number": "3.0",
            "control_item": "说明书",
            "control_method": "1.目视检查.产品外观.",
            "requirement": "1.产品内容须与签样一致.不可有破损,脏污不良.",
            "criticity": "Minor",
            "control_type": null,
            "supplier_control_freq_note": "Visual/cosmetic control",
            "supplier_controller": "每周1次",
            "decathlon_control_freq_note": "组长/课长",
            "active": true
          }
        ]
      },
      {
        "name": "Injectio",
        "category": "Online control",
        "steps": [
          {
            "step_number": "注塑 \nInjection molding",
            "control_item": "说明书",
            "control_method": "Check the supplier frequency + control method + the records 检查供应商的管控频率+管控方法+管控记录",
            "requirement": "The frequencies, the control method and the records are respected. If supplier records NC, challenge the way he manage it 管控频率，方法和记录都被遵守，如果供应商记录有不良，盘问他的管理方法",
            "criticity": "Minor",
            "control_type": null,
            "supplier_control_freq_note": "Records and method control",
            "supplier_controller": "每周1次",
            "decathlon_control_freq_note": "组长/课长",
            "active": true
          },
          {
            "step_number": "0.0",
            "control_item": "Drying\n烘料",
            "control_method": "1.依(原料规格及射出成型条件标准表20180102)检查原料烘料温度及时间\n2.依工令单检查烘料记录.",
            "requirement": "1.实际烘料温度&时间与(原料规格及射出成型条件标准表20180102)一致\n2.烘料记录表实际用料与工令单一致",
            "criticity": "Major",
            "control_type": null,
            "supplier_control_freq_note": "Records and method control",
            "supplier_controller": "每周1次",
            "decathlon_control_freq_note": "组长/课长",
            "active": true
          },
          {
            "step_number": "1.0",
            "control_item": "拌料",
            "control_method": "1.依(材料作业标准书Z-ZS-018-A)检查拌料记录.\n2.依照料桶清洗标准要求.",
            "requirement": "1.依(材料作业标准书Z-ZS-018-A)检查拌料记录.\n2.依照料桶清洗标准要求.",
            "criticity": "Major",
            "control_type": null,
            "supplier_control_freq_note": "Process control,",
            "supplier_controller": "每周1次",
            "decathlon_control_freq_note": "组长/课长",
            "active": true
          },
          {
            "step_number": "2.0",
            "control_item": "注塑参数  \nEyeglass  injection prameter",
            "control_method": "1.检查是否有标准参数与手写参数.\n2.对比机台实际参数与标准参数.\n3..对比机台实际参数与手写参数.",
            "requirement": "1.需要有标准参数与手写参数\n2.机台实际参数需与标准参数一致（允许在公差范围内波动）\n3.机台实际参数需与手写参数一致（允许在公差范围内波动）",
            "criticity": "Major",
            "control_type": null,
            "supplier_control_freq_note": "Process control,",
            "supplier_controller": "每周1次",
            "decathlon_control_freq_note": "组长/课长",
            "active": true
          },
          {
            "step_number": "3.0",
            "control_item": "镜片注塑检验",
            "control_method": "1.目视检查.产品外观.\n2.镜片180°弯折测试",
            "requirement": "1.镜片不可有黑点,刮伤,色纹.\n2.不可破裂.",
            "criticity": "Minor",
            "control_type": null,
            "supplier_control_freq_note": "Visual/cosmetic control",
            "supplier_controller": "每周1次",
            "decathlon_control_freq_note": "组长/课长",
            "active": true
          },
          {
            "step_number": "4.0",
            "control_item": "Drying\n烘料",
            "control_method": "1.依(原料规格及射出成型条件标准表20180102)检查原料烘料温度及时间\n2.依工令单检查烘料记录.",
            "requirement": "1.实际烘料温度&时间与(原料规格及射出成型条件标准表20180102)一致\n2.烘料记录表实际用料与工令单一致",
            "criticity": "Major",
            "control_type": null,
            "supplier_control_freq_note": "Process control,",
            "supplier_controller": "每周1次",
            "decathlon_control_freq_note": "组长/课长",
            "active": true
          },
          {
            "step_number": "5.0",
            "control_item": "拌料",
            "control_method": "1.依(材料作业标准书Z-ZS-018-A)检查拌料记录.\n2.依照料桶清洗标准要求.",
            "requirement": "1.依(材料作业标准书Z-ZS-018-A)检查拌料记录.\n2.依照料桶清洗标准要求.",
            "criticity": "Major",
            "control_type": null,
            "supplier_control_freq_note": "Process control,",
            "supplier_controller": "每周1次",
            "decathlon_control_freq_note": "组长/课长",
            "active": true
          },
          {
            "step_number": "6.0",
            "control_item": "注塑参数  \nEyeglass  injection prameter",
            "control_method": "1.检查是否有标准参数与手写参数.\n2.对比机台实际参数与标准参数.\n3..对比机台实际参数与手写参数.",
            "requirement": "1.需要有标准参数与手写参数\n2.机台实际参数需与标准参数一致（允许在公差范围内波动）\n3.机台实际参数需与手写参数一致（允许在公差范围内波动）",
            "criticity": "Major",
            "control_type": null,
            "supplier_control_freq_note": "Process control,",
            "supplier_controller": "每周1次",
            "decathlon_control_freq_note": "组长/课长",
            "active": true
          },
          {
            "step_number": "7.0",
            "control_item": "日型扣注塑检验",
            "control_method": "1.目视检查.产品外观.\n2.产品须送实验室做拉力测试.",
            "requirement": "1.产品不可有变形,裂口,破损不良.\n2.断裂值大于700N.",
            "criticity": "Minor",
            "control_type": null,
            "supplier_control_freq_note": "Records and method control",
            "supplier_controller": "每周1次",
            "decathlon_control_freq_note": "组长/课长",
            "active": true
          },
          {
            "step_number": "8.0",
            "control_item": "注塑参数  \nEyeglass  injection prameter",
            "control_method": "1.检查是否有标准参数与手写参数.\n2.对比机台实际参数与标准参数.\n3..对比机台实际参数与手写参数.",
            "requirement": "1.需要有标准参数与手写参数\n2.机台实际参数需与标准参数一致（允许在公差范围内波动）\n3.机台实际参数需与手写参数一致（允许在公差范围内波动）",
            "criticity": "Major",
            "control_type": null,
            "supplier_control_freq_note": "Process control,",
            "supplier_controller": "每周1次",
            "decathlon_control_freq_note": "组长/课长",
            "active": true
          },
          {
            "step_number": "9.0",
            "control_item": "衬垫注塑检查",
            "control_method": "1.目视检查.产品外观.\n\n2..使用A型硬度计进行硬度量测.",
            "requirement": "1.產品表面不可有冷料、缺膠、拉裂、氣泡不良.\n2.周邊不可有毛边＞1㎜*10㎜.\n3.硬度测试:60±5A",
            "criticity": "Minor",
            "control_type": null,
            "supplier_control_freq_note": "Visual/cosmetic control",
            "supplier_controller": "每周1次",
            "decathlon_control_freq_note": "组长/课长",
            "active": true
          },
          {
            "step_number": "10.0",
            "control_item": "Drying\n烘料",
            "control_method": "1.依(原料规格及射出成型条件标准表20180102)检查原料烘料温度及时间\n2.依工令单检查烘料记录.",
            "requirement": "1.实际烘料温度&时间与(原料规格及射出成型条件标准表20180102)一致\n2.烘料记录表实际用料与工令单一致",
            "criticity": "Major",
            "control_type": null,
            "supplier_control_freq_note": "Process control,",
            "supplier_controller": "每周1次",
            "decathlon_control_freq_note": "组长/课长",
            "active": true
          },
          {
            "step_number": "11.0",
            "control_item": "拌料",
            "control_method": "1.依(材料作业标准书Z-ZS-018-A)检查拌料记录.\n2.依照料桶清洗标准要求.",
            "requirement": "1.依(材料作业标准书Z-ZS-018-A)检查拌料记录.\n2.依照料桶清洗标准要求.",
            "criticity": "Major",
            "control_type": null,
            "supplier_control_freq_note": "Process control,",
            "supplier_controller": "每周1次",
            "decathlon_control_freq_note": "组长/课长",
            "active": true
          },
          {
            "step_number": "12.0",
            "control_item": "注塑参数  \nEyeglass  injection prameter",
            "control_method": "1.检查是否有标准参数与手写参数.\n2.对比机台实际参数与标准参数.\n3..对比机台实际参数与手写参数.",
            "requirement": "1.需要有标准参数与手写参数\n2.机台实际参数需与标准参数一致（允许在公差范围内波动）\n3.机台实际参数需与手写参数一致（允许在公差范围内波动）",
            "criticity": "Major",
            "control_type": null,
            "supplier_control_freq_note": "Process control,",
            "supplier_controller": "每周1次",
            "decathlon_control_freq_note": "组长/课长",
            "active": true
          },
          {
            "step_number": "13.0",
            "control_item": "蛙镜上下框架",
            "control_method": "1.目视检查.\n2.使用菲林版进行杂点检查.\n3.使用卡尺,针规量测产品孔位凹槽尺寸.",
            "requirement": "1.产品不可有缺胶,缩水,气泡,变形.螺丝孔位不可有堵塞现象.\n2.杂点不可＞0.2㎜.且不可超过3个.刮伤不可＞2㎜.\n3.产品尺寸参照SIP(L#C-PG-1560-A. M#C-PG-1559-A.S# C-PG-2437-A. XS#C-PG-2936-A )",
            "criticity": "Minor",
            "control_type": null,
            "supplier_control_freq_note": "Visual/cosmetic control",
            "supplier_controller": "每周1次",
            "decathlon_control_freq_note": "组长/课长",
            "active": true
          }
        ]
      },
      {
        "name": "Assembling process",
        "category": "Online control",
        "steps": [
          {
            "step_number": "000",
            "control_item": "成品组装",
            "control_method": "Check the supplier frequency + control method + the records 检查供应商的管控频率+管控方法+管控记录",
            "requirement": "The frequencies, the control method and the records are respected. If supplier records NC, challenge the way he manage it 管控频率，方法和记录都被遵守，如果供应商记录有不良，盘问他的管理方法",
            "criticity": "Minor",
            "control_type": null,
            "supplier_control_freq_note": "Records and method control",
            "supplier_controller": "每周1次",
            "decathlon_control_freq_note": "组长/课长",
            "active": true
          },
          {
            "step_number": "1.0",
            "control_item": "装镜片+衬垫+上框架",
            "control_method": "1.目视检查镜片组装效果",
            "requirement": "1.镜片不可装反.台阶面需在内侧\n2.衬垫与镜片中心线须重合，不可有歪斜",
            "criticity": "Minor",
            "control_type": null,
            "supplier_control_freq_note": "Process control,",
            "supplier_controller": "每周1次",
            "decathlon_control_freq_note": "组长/课长",
            "active": true
          },
          {
            "step_number": "2.0",
            "control_item": "装束带+下框架",
            "control_method": "1.目视检查束带组装效果.",
            "requirement": "1.织带不可穿反,穿扭.",
            "criticity": "Minor",
            "control_type": null,
            "supplier_control_freq_note": "Process control,",
            "supplier_controller": "每周1次",
            "decathlon_control_freq_note": "组长/课长",
            "active": true
          },
          {
            "step_number": "3.0",
            "control_item": "锁螺丝",
            "control_method": "1.检查电批扭力刻度.\n2.目视检查,组装效果",
            "requirement": "1.电批刻度调至6或8的位置.\n2.上下框架须密合.不可有间隙.",
            "criticity": "Major",
            "control_type": null,
            "supplier_control_freq_note": "Process control,",
            "supplier_controller": "每周1次",
            "decathlon_control_freq_note": "组长/课长",
            "active": true
          },
          {
            "step_number": "4.0",
            "control_item": "品质管控(IPQC)",
            "control_method": "依照《MSK500单卖蛙镜C-PG-3287-A》制程检验标准书要求检验",
            "requirement": "依照《MSK500单卖蛙镜C-PG-3287-A》制程检验标准书要求检验",
            "criticity": "Minor",
            "control_type": null,
            "supplier_control_freq_note": "Visual/cosmetic control",
            "supplier_controller": "每周1次",
            "decathlon_control_freq_note": "组长/课长",
            "active": true
          },
          {
            "step_number": "5.0",
            "control_item": "包装",
            "control_method": "1.目视检查包材外观.\n2检查包装PCB数量",
            "requirement": "1.包材不可,破损.\n2.不可短装,多装.(参照SOP要求)",
            "criticity": "Minor",
            "control_type": null,
            "supplier_control_freq_note": "Process control,",
            "supplier_controller": "每周1次",
            "decathlon_control_freq_note": "组长/课长",
            "active": true
          },
          {
            "step_number": "6.0",
            "control_item": "扫描入库",
            "control_method": "使用扫描仪检查整箱数量及产品信息",
            "requirement": "1.每箱数量与PCB一致\n2.产品条码与《D-PG-3288-A》相符合",
            "criticity": "Minor",
            "control_type": null,
            "supplier_control_freq_note": "Records and method control",
            "supplier_controller": "每周1次",
            "decathlon_control_freq_note": "组长/课长",
            "active": true
          }
        ]
      },
      {
        "name": "Oqc",
        "category": "Final control",
        "steps": [
          {
            "step_number": "0.0",
            "control_item": "成品出货检验",
            "control_method": "Check the supplier frequency + control method + the records 检查供应商的管控频率+ 管控方法+管控记录",
            "requirement": "The frequencies, the control method and the records are respected. If supplier records NC, challenge the way he manage it 管控频率，方法和记录都被遵守，如果供应商记录有不良，盘问他的管理方法",
            "criticity": "Minor",
            "control_type": null,
            "supplier_control_freq_note": "Records and method control",
            "supplier_controller": "每周1次",
            "decathlon_control_freq_note": "组长/课长",
            "active": true
          },
          {
            "step_number": "1.0",
            "control_item": "成品出货检验",
            "control_method": "1.依照《MSK500单卖蛙镜C-PG-3288-A》成品检验标准书要求",
            "requirement": "1.依照《MSK500单卖蛙镜C-PG-3288-A》成品检验标准书要求",
            "criticity": "Minor",
            "control_type": null,
            "supplier_control_freq_note": "Records and method control",
            "supplier_controller": "每周1次",
            "decathlon_control_freq_note": "组长/课长",
            "active": true
          }
        ]
      },
      {
        "name": "Lab test",
        "category": "Lab test",
        "steps": [
          {
            "step_number": "0.0",
            "control_item": "实验室功能测试核查",
            "control_method": "Check the supplier frequency + control method + the records  检查供应商的管控频率+ 管控方法+管控记录",
            "requirement": "The frequencies, the control method and the records are respected. If supplier records NC, challenge the way he manage it 管控频率，方法和记录都被遵守，如果供应商记录有不良，盘问他的管理方法",
            "criticity": "Major",
            "control_type": null,
            "supplier_control_freq_note": "LAB control",
            "supplier_controller": "每周1次",
            "decathlon_control_freq_note": "组长/课长",
            "active": true
          },
          {
            "step_number": "1.0",
            "control_item": "实验室功能测试核查",
            "control_method": "1.依照实验室《MSK500单卖蛙镜C-PG-LAB-99》测试标准书要求测试",
            "requirement": "1.依照实验室《MSK500单卖蛙镜C-PG-LAB-99》测试标准书要求测试",
            "criticity": "Major",
            "control_type": null,
            "supplier_control_freq_note": "LAB control",
            "supplier_controller": "每周1次",
            "decathlon_control_freq_note": "组长/课长",
            "active": true
          }
        ]
      }
    ]
  }
}
