{
  "filename": "CP2.3_SMT 73763_ Treadmill climb_Thomas Yang.xlsx",
  "count": 4,
  "product_family": {
    "name": "treadmill climb",
    "processes": [
      {
        "name": "Incoming control",
        "category": "Incoming control",
        "steps": [
          {
            "step_number": "IN COMING CONTROL  来料管控",
            "control_item": "Key components traceability\n关键部件的追溯标",
            "control_method": "Check the supplier frequency + control method + the records 检查供应商的管控频率+ 管控方法+管控记录",
            "requirement": "The frequencies, the control method and the records are respected. If supplier records NC, challenge the way he manage it 管控频率，方法和记录都被遵守，如果供应商记录有不良，盘问他的管理方法",
            "criticity": "Minor",
            "control_type": "IQC-leader",
            "supplier_control_freq_note": "1 time/ 2 month",
            "supplier_controller": null,
            "decathlon_control_freq_note": null,
            "active": true
          },
          {
            "step_number": "IN COMING CONTROL  来料管控",
            "control_item": "Key components traceability\n关键部件的追溯标",
            "control_method": "馬達標示",
            "requirement": "4000RPM-DC180V- 7,5A - 1,5HP",
            "criticity": "Minor",
            "control_type": "IQC",
            "supplier_control_freq_note": "5pcs/ month",
            "supplier_controller": null,
            "decathlon_control_freq_note": null,
            "active": true
          },
          {
            "step_number": "IN COMING CONTROL  来料管控",
            "control_item": "Key components incoming control\n关键部件的进料检验",
            "control_method": "Check the supplier frequency + control method + the records 检查供应商的管控频率+ 管控方法+管控记录",
            "requirement": "The frequencies, the control method and the records are respected. If supplier records NC, challenge the way he manage it 管控频率，方法和记录都被遵守，如果供应商记录有不良，盘问他的管理方法",
            "criticity": "Minor",
            "control_type": "IQC-leader",
            "supplier_control_freq_note": "1 time/ 2 month",
            "supplier_controller": null,
            "decathlon_control_freq_note": null,
            "active": true
          },
          {
            "step_number": "IN COMING CONTROL  来料管控",
            "control_item": "Key components incoming control\n关键部件的进料检验",
            "control_method": "turdan motor : position of the 2 holes for sensor bracket (distance & angle) + aligment of the 2 fixation hole\n特偉馬達：光感sensor 固定孔(距離&角度)+兩孔平行度",
            "requirement": "angle = 60°  +/- 4°  compare to the 2 main fixation hole\nfixation hole aligment checking : use of a try square rest on 2 pin screwed on the 2 main hole and check alignement compare to main axis",
            "criticity": "Minor",
            "control_type": "IQC",
            "supplier_control_freq_note": "1pc/ month",
            "supplier_controller": null,
            "decathlon_control_freq_note": null,
            "active": true
          },
          {
            "step_number": "IN COMING CONTROL  来料管控",
            "control_item": "Driving motor spec\n直流马达规格",
            "control_method": "Check the supplier frequency + control method + the records 检查供应商的管控频率+ 管控方法+管控记录",
            "requirement": "The frequencies, the control method and the records are respected. If supplier records NC, challenge the way he manage it 管控频率，方法和记录都被遵守，如果供应商记录有不良，盘问他的管理方法",
            "criticity": "Minor",
            "control_type": "IQC-leader",
            "supplier_control_freq_note": "1 time/ 2 month",
            "supplier_controller": null,
            "decathlon_control_freq_note": null,
            "active": true
          },
          {
            "step_number": "IN COMING CONTROL  来料管控",
            "control_item": "Incline motor spec\n升降马达规格",
            "control_method": "Check the supplier frequency + control method + the records 检查供应商的管控频率+ 管控方法+管控记录",
            "requirement": "The frequencies, the control method and the records are respected. If supplier records NC, challenge the way he manage it 管控频率，方法和记录都被遵守，如果供应商记录有不良，盘问他的管理方法",
            "criticity": "Minor",
            "control_type": "IQC-leader",
            "supplier_control_freq_note": "1 time/ 2 month",
            "supplier_controller": null,
            "decathlon_control_freq_note": null,
            "active": true
          },
          {
            "step_number": "IN COMING CONTROL  来料管控",
            "control_item": "Incline motor spec\n升降马达规格",
            "control_method": "MCB/turdan motor/console/incline motor check\nMCB/馬達/電子錶/仰昇馬達",
            "requirement": "all test is passed according to Lihe SIP\n依立和SIP管控",
            "criticity": "Minor",
            "control_type": "IQC",
            "supplier_control_freq_note": "5pcs/ month",
            "supplier_controller": null,
            "decathlon_control_freq_note": null,
            "active": true
          },
          {
            "step_number": "IN COMING CONTROL  来料管控",
            "control_item": "Console version\n电子表的版本",
            "control_method": "Check the supplier frequency + control method + the records 检查供应商的管控频率+ 管控方法+管控记录",
            "requirement": "The frequencies, the control method and the records are respected. If supplier records NC, challenge the way he manage it 管控频率，方法和记录都被遵守，如果供应商记录有不良，盘问他的管理方法",
            "criticity": "Minor",
            "control_type": "IQC-leader",
            "supplier_control_freq_note": "1 time/ 2 month",
            "supplier_controller": null,
            "decathlon_control_freq_note": null,
            "active": true
          },
          {
            "step_number": "IN COMING CONTROL  来料管控",
            "control_item": "Console version\n电子表的版本",
            "control_method": "tracability label on motor/MCB/console/incline motor + MCB & console firmware & hardware version\n軟硬體版本",
            "requirement": "similar to master sample\nMCB firmware version = 3.3\nPCB:3.2",
            "criticity": "Minor",
            "control_type": "IQC",
            "supplier_control_freq_note": "5pcs/ month",
            "supplier_controller": null,
            "decathlon_control_freq_note": null,
            "active": true
          },
          {
            "step_number": "IN COMING CONTROL  来料管控",
            "control_item": "Console version\n电子表的版本",
            "control_method": "Check the supplier frequency + control method + the records 检查供应商的管控频率+ 管控方法+管控记录",
            "requirement": "The frequencies, the control method and the records are respected. If supplier records NC, challenge the way he manage it 管控频率，方法和记录都被遵守，如果供应商记录有不良，盘问他的管理方法",
            "criticity": "Minor",
            "control_type": "IQC-leader",
            "supplier_control_freq_note": "1 time/ 2 month",
            "supplier_controller": null,
            "decathlon_control_freq_note": null,
            "active": true
          },
          {
            "step_number": "IN COMING CONTROL  来料管控",
            "control_item": "Console version\n电子表的版本",
            "control_method": "PMMA screen on console\n電子錶觸控面板",
            "requirement": "no ungluing area after 12H at 70°C\n70°C 12小時候無脫膠",
            "criticity": null,
            "control_type": null,
            "supplier_control_freq_note": null,
            "supplier_controller": null,
            "decathlon_control_freq_note": null,
            "active": true
          },
          {
            "step_number": "IN COMING CONTROL  来料管控",
            "control_item": "MWire length control           线材长度",
            "control_method": "Check the supplier frequency + control method + the records 检查供应商的管控频率+ 管控方法+管控记录",
            "requirement": "The frequencies, the control method and the records are respected. If supplier records NC, challenge the way he manage it 管控频率，方法和记录都被遵守，如果供应商记录有不良，盘问他的管理方法",
            "criticity": "Minor",
            "control_type": "IQC-leader",
            "supplier_control_freq_note": "1 time/ 2 month",
            "supplier_controller": null,
            "decathlon_control_freq_note": null,
            "active": true
          },
          {
            "step_number": "IN COMING CONTROL  来料管控",
            "control_item": "MWire length control           线材长度",
            "control_method": "length of console cable\n上下連接線長度",
            "requirement": "3350mm +/- 50",
            "criticity": "Minor",
            "control_type": "IQC",
            "supplier_control_freq_note": "5pcs/ month",
            "supplier_controller": null,
            "decathlon_control_freq_note": null,
            "active": true
          },
          {
            "step_number": "IN COMING CONTROL  来料管控",
            "control_item": "Hardness of M8 screw ( upright tube fixation)\nM8螺丝的硬度（锁付立柱所用螺丝x6)",
            "control_method": "Check the supplier frequency + control method + the records 检查供应商的管控频率+ 管控方法+管控记录",
            "requirement": "The frequencies, the control method and the records are respected. If supplier records NC, challenge the way he manage it 管控频率，方法和记录都被遵守，如果供应商记录有不良，盘问他的管理方法",
            "criticity": "Minor",
            "control_type": "IQC-leader",
            "supplier_control_freq_note": "1 time/ 2 month",
            "supplier_controller": null,
            "decathlon_control_freq_note": null,
            "active": true
          },
          {
            "step_number": "IN COMING CONTROL  来料管控",
            "control_item": "Hardness of M8 screw ( upright tube fixation)\nM8螺丝的硬度（锁付立柱所用螺丝x6)",
            "control_method": "hardness on screw M8 for vertical HB fixation & gaz actuator jack fixation\nM8 扶手支柱螺絲 & 氣壓棒鎖附螺絲",
            "requirement": "class 8.8 mini => hardness > 22HRC (average on 3 measurement)\n8.8等級，硬度> 22HRC (測量3點平均)",
            "criticity": "Minor",
            "control_type": "IQC",
            "supplier_control_freq_note": "5pcs/ month",
            "supplier_controller": null,
            "decathlon_control_freq_note": null,
            "active": true
          },
          {
            "step_number": "IN COMING CONTROL  来料管控",
            "control_item": "Plastic date mark\n注塑件日期章",
            "control_method": "Check the supplier frequency + control method + the records 检查供应商的管控频率+ 管控方法+管控记录",
            "requirement": "The frequencies, the control method and the records are respected. If supplier records NC, challenge the way he manage it 管控频率，方法和记录都被遵守，如果供应商记录有不良，盘问他的管理方法",
            "criticity": "Minor",
            "control_type": "IQC-leader",
            "supplier_control_freq_note": "1 time/ 2 month",
            "supplier_controller": null,
            "decathlon_control_freq_note": null,
            "active": true
          }
        ]
      },
      {
        "name": "Online control",
        "category": "Online control",
        "steps": [
          {
            "step_number": "WELDING\n焊接",
            "control_item": "Welding preparation\n焊接前的准备",
            "control_method": "Check the supplier frequency + control method + the records检查供应商的管控频率+ 管控方法+管控记录",
            "requirement": "The frequencies, the control method and the records are respected. If supplier records NC, challenge the way he manage it 管控频率，方法和记录都被遵守，如果供应商记录有不良，盘问他的管理方法",
            "criticity": "Minor",
            "control_type": "PQC-leader",
            "supplier_control_freq_note": "1 time/ 2 month",
            "supplier_controller": null,
            "decathlon_control_freq_note": null,
            "active": true
          },
          {
            "step_number": "WELDING\n焊接",
            "control_item": "Welding preparation\n焊接前的准备",
            "control_method": "Frame : fixation with incline system\n主架：固定仰昇基座",
            "requirement": "580 +/-1,5 mm\n\nNB: capa done during indus",
            "criticity": "Minor",
            "control_type": "PQC",
            "supplier_control_freq_note": "5pcs/month",
            "supplier_controller": null,
            "decathlon_control_freq_note": null,
            "active": true
          },
          {
            "step_number": "WELDING\n焊接",
            "control_item": "Welding joint quality( main frame, foot frame, incline frame)\n焊接质量（主架、扬升架、贴地脚）",
            "control_method": "Check the supplier frequency + control method + the records检查供应商的管控频率+ 管控方法+管控记录",
            "requirement": "The frequencies, the control method and the records are respected. If supplier records NC, challenge the way he manage it 管控频率，方法和记录都被遵守，如果供应商记录有不良，盘问他的管理方法",
            "criticity": "Minor",
            "control_type": "PQC-leader",
            "supplier_control_freq_note": "1 time/ 2 month",
            "supplier_controller": null,
            "decathlon_control_freq_note": null,
            "active": true
          },
          {
            "step_number": "WELDING\n焊接",
            "control_item": "Welding joint quality( main frame, foot frame, incline frame)\n焊接质量（主架、扬升架、贴地脚）",
            "control_method": "incline system : frame fixation",
            "requirement": "4mm +/- 1,5mm",
            "criticity": "Minor",
            "control_type": "PQC",
            "supplier_control_freq_note": "5pcs/month",
            "supplier_controller": null,
            "decathlon_control_freq_note": null,
            "active": true
          },
          {
            "step_number": "WELDING\n焊接",
            "control_item": "Main frame( incline fixation dimension)\n主架（与扬升架的配合尺寸）",
            "control_method": "Check the supplier frequency + control method + the records检查供应商的管控频率+ 管控方法+管控记录",
            "requirement": "The frequencies, the control method and the records are respected. If supplier records NC, challenge the way he manage it 管控频率，方法和记录都被遵守，如果供应商记录有不良，盘问他的管理方法",
            "criticity": "Minor",
            "control_type": "PQC-leader",
            "supplier_control_freq_note": "1 time/ 2 month",
            "supplier_controller": null,
            "decathlon_control_freq_note": null,
            "active": true
          },
          {
            "step_number": "WELDING\n焊接",
            "control_item": "Main frame( incline fixation dimension)\n主架（与扬升架的配合尺寸）",
            "control_method": "rear wheel bracket height difference",
            "requirement": "595 +/- 1,5 mm\nNB: capa done during indus",
            "criticity": "Minor",
            "control_type": "PQC",
            "supplier_control_freq_note": "1pc/month",
            "supplier_controller": null,
            "decathlon_control_freq_note": null,
            "active": true
          },
          {
            "step_number": "WELDING\n焊接",
            "control_item": "Incline system dimension\n扬升架尺寸",
            "control_method": "Check the supplier frequency + control method + the records检查供应商的管控频率+ 管控方法+管控记录",
            "requirement": "The frequencies, the control method and the records are respected. If supplier records NC, challenge the way he manage it 管控频率，方法和记录都被遵守，如果供应商记录有不良，盘问他的管理方法",
            "criticity": "Minor",
            "control_type": "PQC-leader",
            "supplier_control_freq_note": "1 time/ 2 month",
            "supplier_controller": null,
            "decathlon_control_freq_note": null,
            "active": true
          },
          {
            "step_number": "WELDING\n焊接",
            "control_item": "Incline system dimension\n扬升架尺寸",
            "control_method": "incline motor setting before assy line (16% incline)装配前电机 倾斜设置(16%倾斜)",
            "requirement": "355 +/- 6mm\n\nNB: capa done during indus",
            "criticity": "Minor",
            "control_type": "PQC",
            "supplier_control_freq_note": "1pc/month",
            "supplier_controller": null,
            "decathlon_control_freq_note": null,
            "active": true
          },
          {
            "step_number": "WELDING\n焊接",
            "control_item": "Foot frame dimension\n贴地脚尺寸",
            "control_method": "Check the supplier frequency + control method + the records检查供应商的管控频率+ 管控方法+管控记录",
            "requirement": "The frequencies, the control method and the records are respected. If supplier records NC, challenge the way he manage it 管控频率，方法和记录都被遵守，如果供应商记录有不良，盘问他的管理方法",
            "criticity": "Minor",
            "control_type": "PQC-leader",
            "supplier_control_freq_note": "1 time/ 2 month",
            "supplier_controller": null,
            "decathlon_control_freq_note": null,
            "active": true
          },
          {
            "step_number": "WELDING\n焊接",
            "control_item": "Foot frame dimension\n贴地脚尺寸",
            "control_method": "speed sensor adjustment\n速度感應器調整",
            "requirement": "make sure that gap between wheel speed of turdan motor and speed sensor is adjusted between 1mm and 2,5mm max and wheel don't touch sensor after several turn of wheel\n確保間隙1~2.5mm內，但光盤數次後感應器也不會碰到光盤",
            "criticity": "Minor",
            "control_type": "PQC",
            "supplier_control_freq_note": "1pc/2month",
            "supplier_controller": null,
            "decathlon_control_freq_note": null,
            "active": true
          },
          {
            "step_number": "PRE-ASSEMBLY\n前置组装",
            "control_item": "Console and console panel assembly\n电子表下盖和电子表面板的组装",
            "control_method": "Check the supplier frequency + control method + the records检查供应商的管控频率+ 管控方法+管控记录",
            "requirement": "The frequencies, the control method and the records are respected. If supplier records NC, challenge the way he manage it 管控频率，方法和记录都被遵守，如果供应商记录有不良，盘问他的管理方法",
            "criticity": "Minor",
            "control_type": "PQC",
            "supplier_control_freq_note": "1 time/ 2 month",
            "supplier_controller": null,
            "decathlon_control_freq_note": null,
            "active": true
          },
          {
            "step_number": "PRE-ASSEMBLY\n前置组装",
            "control_item": "Console and console panel assembly\n电子表下盖和电子表面板的组装",
            "control_method": "通电测试",
            "requirement": "依照SOP标准进行\n2.各个按键功能是否正常",
            "criticity": "Minor",
            "control_type": "Worker",
            "supplier_control_freq_note": "1pc/month",
            "supplier_controller": null,
            "decathlon_control_freq_note": null,
            "active": true
          },
          {
            "step_number": "PRE-ASSEMBLY\n前置组装",
            "control_item": "Incline motor stroke\n升降马达的行程",
            "control_method": "Check the supplier frequency + control method + the records检查供应商的管控频率+ 管控方法+管控记录",
            "requirement": "The frequencies, the control method and the records are respected. If supplier records NC, challenge the way he manage it 管控频率，方法和记录都被遵守，如果供应商记录有不良，盘问他的管理方法",
            "criticity": "Minor",
            "control_type": "PQC",
            "supplier_control_freq_note": "1 time/ 2 month",
            "supplier_controller": null,
            "decathlon_control_freq_note": null,
            "active": true
          },
          {
            "step_number": "PRE-ASSEMBLY\n前置组装",
            "control_item": "Incline motor stroke\n升降马达的行程",
            "control_method": "目视+量测",
            "requirement": "1.低点：235MM\n2.高点：380-390MM",
            "criticity": "Minor",
            "control_type": "Worker",
            "supplier_control_freq_note": "1pc/month",
            "supplier_controller": null,
            "decathlon_control_freq_note": null,
            "active": true
          },
          {
            "step_number": "ASSEMBLY\n组装",
            "control_item": "Wire layout and connector position between MCB, driving motor, incline motor.\n控制器和驱动马达、升降马达的布线和接头位置",
            "control_method": "Check the supplier frequency + control method + the records检查供应商的管控频率+ 管控方法+管控记录",
            "requirement": "The frequencies, the control method and the records are respected. If supplier records NC, challenge the way he manage it 管控频率，方法和记录都被遵守，如果供应商记录有不良，盘问他的管理方法",
            "criticity": "Minor",
            "control_type": "PQC",
            "supplier_control_freq_note": "1 time/ 2 month",
            "supplier_controller": null,
            "decathlon_control_freq_note": null,
            "active": true
          },
          {
            "step_number": "ASSEMBLY\n组装",
            "control_item": "Wire layout and connector position between MCB, driving motor, incline motor.\n控制器和驱动马达、升降马达的布线和接头位置",
            "control_method": "相关部件组装",
            "requirement": "需符合SOP标准进行作业",
            "criticity": "Minor",
            "control_type": "Worker",
            "supplier_control_freq_note": "1pc/month",
            "supplier_controller": null,
            "decathlon_control_freq_note": null,
            "active": true
          },
          {
            "step_number": "ASSEMBLY\n组装",
            "control_item": "Add grease on running belt\n跑带加润滑油",
            "control_method": "Check the supplier frequency + control method + the records检查供应商的管控频率+ 管控方法+管控记录",
            "requirement": "The frequencies, the control method and the records are respected. If supplier records NC, challenge the way he manage it 管控频率，方法和记录都被遵守，如果供应商记录有不良，盘问他的管理方法",
            "criticity": "Minor",
            "control_type": "PQC",
            "supplier_control_freq_note": "1 time/ 2 month",
            "supplier_controller": null,
            "decathlon_control_freq_note": null,
            "active": true
          },
          {
            "step_number": "ASSEMBLY\n组装",
            "control_item": "Add grease on running belt\n跑带加润滑油",
            "control_method": "涂油机",
            "requirement": "依照SOP标准进行",
            "criticity": "Minor",
            "control_type": "Worker",
            "supplier_control_freq_note": "1pc/month",
            "supplier_controller": null,
            "decathlon_control_freq_note": null,
            "active": true
          },
          {
            "step_number": "ASSEMBLY\n组装",
            "control_item": "Tension of motor driving belt\n马达皮带的张力值",
            "control_method": "Check the supplier frequency + control method + the records检查供应商的管控频率+ 管控方法+管控记录",
            "requirement": "The frequencies, the control method and the records are respected. If supplier records NC, challenge the way he manage it 管控频率，方法和记录都被遵守，如果供应商记录有不良，盘问他的管理方法",
            "criticity": "Minor",
            "control_type": "PQC",
            "supplier_control_freq_note": "1 time/ 2 month",
            "supplier_controller": null,
            "decathlon_control_freq_note": null,
            "active": true
          },
          {
            "step_number": "ASSEMBLY\n组装",
            "control_item": "Tension of motor driving belt\n马达皮带的张力值",
            "control_method": "张力计",
            "requirement": "262+/-30",
            "criticity": "Minor",
            "control_type": "Worker",
            "supplier_control_freq_note": "1pc/month",
            "supplier_controller": null,
            "decathlon_control_freq_note": null,
            "active": true
          },
          {
            "step_number": "ASSEMBLY\n组装",
            "control_item": "Hi-pot test\n耐高压测试",
            "control_method": "Check the supplier frequency + control method + the records检查供应商的管控频率+ 管控方法+管控记录",
            "requirement": "The frequencies, the control method and the records are respected. If supplier records NC, challenge the way he manage it 管控频率，方法和记录都被遵守，如果供应商记录有不良，盘问他的管理方法",
            "criticity": "Minor",
            "control_type": "PQC",
            "supplier_control_freq_note": "1 time/ 2 month",
            "supplier_controller": null,
            "decathlon_control_freq_note": null,
            "active": true
          },
          {
            "step_number": "ASSEMBLY\n组装",
            "control_item": "Hi-pot test\n耐高压测试",
            "control_method": "五合一",
            "requirement": "依照SOP规范进行",
            "criticity": "Minor",
            "control_type": "Worker",
            "supplier_control_freq_note": "1pc/month",
            "supplier_controller": null,
            "decathlon_control_freq_note": null,
            "active": true
          },
          {
            "step_number": "ASSEMBLY\n组装",
            "control_item": "Key components traceability info scanning\n关键零件的追溯系统能正常扫描录入iPad",
            "control_method": "Check the supplier frequency + control method + the records检查供应商的管控频率+ 管控方法+管控记录",
            "requirement": "The frequencies, the control method and the records are respected. If supplier records NC, challenge the way he manage it 管控频率，方法和记录都被遵守，如果供应商记录有不良，盘问他的管理方法",
            "criticity": "Minor",
            "control_type": "PQC",
            "supplier_control_freq_note": "1 time/ 2 month",
            "supplier_controller": null,
            "decathlon_control_freq_note": null,
            "active": true
          },
          {
            "step_number": "ASSEMBLY\n组装",
            "control_item": "Key components traceability info scanning\n关键零件的追溯系统能正常扫描录入iPad",
            "control_method": "平板电脑+扫描仪",
            "requirement": "依照SOP操作步骤",
            "criticity": "Minor",
            "control_type": "Worker",
            "supplier_control_freq_note": "1pc/month",
            "supplier_controller": null,
            "decathlon_control_freq_note": null,
            "active": true
          },
          {
            "step_number": "ASSEMBLY\n组装",
            "control_item": "Package box\n包装纸箱",
            "control_method": "Check the supplier frequency + control method + the records检查供应商的管控频率+ 管控方法+管控记录",
            "requirement": "The frequencies, the control method and the records are respected. If supplier records NC, challenge the way he manage it 管控频率，方法和记录都被遵守，如果供应商记录有不良，盘问他的管理方法",
            "criticity": "Minor",
            "control_type": "PQC",
            "supplier_control_freq_note": "1 time/ 2 month",
            "supplier_controller": null,
            "decathlon_control_freq_note": null,
            "active": true
          },
          {
            "step_number": "ASSEMBLY\n组装",
            "control_item": "Package box\n包装纸箱",
            "control_method": "目视",
            "requirement": "外箱不可以有破损",
            "criticity": "Minor",
            "control_type": "Worker",
            "supplier_control_freq_note": "1pc/month",
            "supplier_controller": null,
            "decathlon_control_freq_note": null,
            "active": true
          }
        ]
      },
      {
        "name": "Sub part visual check",
        "category": "Final control",
        "steps": [
          {
            "step_number": "FQC\n最终检验",
            "control_item": "Carton box\n纸箱外观",
            "control_method": "Check the supplier frequency + control method + the records 检查供应商的管控频率+ 管控方法+管控记录",
            "requirement": "The frequencies, the control method and the records are respected. If supplier records NC, challenge the way he manage it 管控频率，方法和记录都被遵守，如果供应商记录有不良，盘问他的管理方法",
            "criticity": "Minor",
            "control_type": "QC-Leader",
            "supplier_control_freq_note": "1 time/ 2 month",
            "supplier_controller": null,
            "decathlon_control_freq_note": null,
            "active": true
          },
          {
            "step_number": "FQC\n最终检验",
            "control_item": "Carton box\n纸箱外观",
            "control_method": "包裝，",
            "requirement": "外箱电子档进行核对",
            "criticity": "Minor",
            "control_type": "FQC",
            "supplier_control_freq_note": "1pc/month",
            "supplier_controller": null,
            "decathlon_control_freq_note": null,
            "active": true
          },
          {
            "step_number": "FQC\n最终检验",
            "control_item": "Sticker on carton\n纸箱贴标",
            "control_method": "Check the supplier frequency + control method + the records 检查供应商的管控频率+ 管控方法+管控记录",
            "requirement": "The frequencies, the control method and the records are respected. If supplier records NC, challenge the way he manage it 管控频率，方法和记录都被遵守，如果供应商记录有不良，盘问他的管理方法",
            "criticity": "Minor",
            "control_type": "QC-Leader",
            "supplier_control_freq_note": "1 time/ 2 month",
            "supplier_controller": null,
            "decathlon_control_freq_note": null,
            "active": true
          },
          {
            "step_number": "FQC\n最终检验",
            "control_item": "Sticker on carton\n纸箱贴标",
            "control_method": "顏色&貼紙，",
            "requirement": "依照贴纸规范书",
            "criticity": "Minor",
            "control_type": "FQC",
            "supplier_control_freq_note": "1pc/month",
            "supplier_controller": null,
            "decathlon_control_freq_note": null,
            "active": true
          },
          {
            "step_number": "FQC\n最终检验",
            "control_item": "Traceability on key component\n机器和关键部件的追溯性",
            "control_method": "Check the supplier frequency + control method + the records 检查供应商的管控频率+ 管控方法+管控记录",
            "requirement": "The frequencies, the control method and the records are respected. If supplier records NC, challenge the way he manage it 管控频率，方法和记录都被遵守，如果供应商记录有不良，盘问他的管理方法",
            "criticity": "Minor",
            "control_type": "QC-Leader",
            "supplier_control_freq_note": "1 time/ 2 month",
            "supplier_controller": null,
            "decathlon_control_freq_note": null,
            "active": true
          },
          {
            "step_number": "FQC\n最终检验",
            "control_item": "Traceability on key component\n机器和关键部件的追溯性",
            "control_method": "assembling of product\n成品組裝",
            "requirement": "no missing parts or component. Must be able to assemble the product without extra tool \n無零件遺失，需能用工具包的零件完成組裝",
            "criticity": "Minor",
            "control_type": "FQC",
            "supplier_control_freq_note": "1pc/month",
            "supplier_controller": null,
            "decathlon_control_freq_note": null,
            "active": true
          },
          {
            "step_number": "FQC\n最终检验",
            "control_item": "Fold/unfold function\n产品收折功能",
            "control_method": "Check the supplier frequency + control method + the records 检查供应商的管控频率+ 管控方法+管控记录",
            "requirement": "The frequencies, the control method and the records are respected. If supplier records NC, challenge the way he manage it 管控频率，方法和记录都被遵守，如果供应商记录有不良，盘问他的管理方法",
            "criticity": "Minor",
            "control_type": "QC-Leader",
            "supplier_control_freq_note": "1 time/ 2 month",
            "supplier_controller": null,
            "decathlon_control_freq_note": null,
            "active": true
          },
          {
            "step_number": "FQC\n最终检验",
            "control_item": "Fold/unfold function\n产品收折功能",
            "control_method": "check incline precision\n仰昇角度",
            "requirement": "1- 0% on console => TC deck = 0° +/- 0,8°\n\n2- 20% on console => TC deck = 10,5° +/- 0,8°",
            "criticity": "Minor",
            "control_type": "FQC",
            "supplier_control_freq_note": "1pc/month",
            "supplier_controller": null,
            "decathlon_control_freq_note": null,
            "active": true
          },
          {
            "step_number": "FQC\n最终检验",
            "control_item": "Treadmill function\n跑步机的功能",
            "control_method": "Check the supplier frequency + control method + the records 检查供应商的管控频率+ 管控方法+管控记录",
            "requirement": "The frequencies, the control method and the records are respected. If supplier records NC, challenge the way he manage it 管控频率，方法和记录都被遵守，如果供应商记录有不良，盘问他的管理方法",
            "criticity": "Minor",
            "control_type": "QC-Leader",
            "supplier_control_freq_note": "1 time/ 2 month",
            "supplier_controller": null,
            "decathlon_control_freq_note": null,
            "active": true
          },
          {
            "step_number": "FQC\n最终检验",
            "control_item": "Treadmill function\n跑步机的功能",
            "control_method": "check speed precision\n速度",
            "requirement": "18 km/h on console => TC belt = 18 +/- 1 km/h",
            "criticity": "Minor",
            "control_type": "FQC",
            "supplier_control_freq_note": "1pc/month",
            "supplier_controller": null,
            "decathlon_control_freq_note": null,
            "active": true
          },
          {
            "step_number": "FQC\n最终检验",
            "control_item": "Chest belt function\n心跳带功能",
            "control_method": "Check the supplier frequency + control method + the records 检查供应商的管控频率+ 管控方法+管控记录",
            "requirement": "The frequencies, the control method and the records are respected. If supplier records NC, challenge the way he manage it 管控频率，方法和记录都被遵守，如果供应商记录有不良，盘问他的管理方法",
            "criticity": "Minor",
            "control_type": "QC-Leader",
            "supplier_control_freq_note": "1 time/ 2 month",
            "supplier_controller": null,
            "decathlon_control_freq_note": null,
            "active": true
          },
          {
            "step_number": "FQC\n最终检验",
            "control_item": "Chest belt function\n心跳带功能",
            "control_method": "胸带进行测试",
            "requirement": "离电子表距离65MM进行测试",
            "criticity": "Minor",
            "control_type": "FQC",
            "supplier_control_freq_note": "1pc/month",
            "supplier_controller": null,
            "decathlon_control_freq_note": null,
            "active": true
          },
          {
            "step_number": "FQC\n最终检验",
            "control_item": "Chest belt function\n心跳带功能",
            "control_method": "Check the supplier frequency + control method + the records 检查供应商的管控频率+ 管控方法+管控记录",
            "requirement": "The frequencies, the control method and the records are respected. If supplier records NC, challenge the way he manage it 管控频率，方法和记录都被遵守，如果供应商记录有不良，盘问他的管理方法",
            "criticity": "Minor",
            "control_type": "QC-Leader",
            "supplier_control_freq_note": "1 time/ 2 month",
            "supplier_controller": null,
            "decathlon_control_freq_note": null,
            "active": true
          },
          {
            "step_number": "FQC\n最终检验",
            "control_item": "Chest belt function\n心跳带功能",
            "control_method": "speaker and MP3 functionning\n喇叭與MP3 功能",
            "requirement": "no abnormal noise if no music + music functionning OK\n無異音 + 音樂可正常撥放",
            "criticity": null,
            "control_type": null,
            "supplier_control_freq_note": null,
            "supplier_controller": null,
            "decathlon_control_freq_note": null,
            "active": true
          },
          {
            "step_number": "FQC\n最终检验",
            "control_item": "Continuity  \n接地测试",
            "control_method": "Check the supplier frequency + control method + the records 检查供应商的管控频率+ 管控方法+管控记录",
            "requirement": "The frequencies, the control method and the records are respected. If supplier records NC, challenge the way he manage it 管控频率，方法和记录都被遵守，如果供应商记录有不良，盘问他的管理方法",
            "criticity": "Minor",
            "control_type": "QC-Leader",
            "supplier_control_freq_note": "1 time/ 2 month",
            "supplier_controller": null,
            "decathlon_control_freq_note": null,
            "active": true
          },
          {
            "step_number": "FQC\n最终检验",
            "control_item": "Continuity  \n接地测试",
            "control_method": "Earth grounding before use test (safety function) \n接地測試",
            "requirement": "check ground good connection <=> continuity test OK with digital multimeter\n測試接地是否正常",
            "criticity": "Minor",
            "control_type": "FQC",
            "supplier_control_freq_note": "1pc/month",
            "supplier_controller": null,
            "decathlon_control_freq_note": null,
            "active": true
          }
        ]
      },
      {
        "name": "Lab test",
        "category": "Lab test",
        "steps": [
          {
            "step_number": "PAINTING\n烤漆",
            "control_item": "Salt spray test\n盐雾测试",
            "control_method": "Check the supplier frequency + control method + the records 检查供应商的管控频率+ 管控方法+管控记录",
            "requirement": "The frequencies, the control method and the records are respected. If supplier records NC, challenge the way he manage it 管控频率，方法和记录都被遵守，如果供应商记录有不良，盘问他的管理方法",
            "criticity": "Minor",
            "control_type": "QC-Leader",
            "supplier_control_freq_note": "1 time/ 2 month",
            "supplier_controller": null,
            "decathlon_control_freq_note": null,
            "active": true
          },
          {
            "step_number": "PAINTING\n烤漆",
            "control_item": "Salt spray test\n盐雾测试",
            "control_method": "Follow lihe sop test\n按照立和SOP 测试",
            "requirement": "Test pass\n测试通过",
            "criticity": "Minor",
            "control_type": "FQC",
            "supplier_control_freq_note": "1pc/month",
            "supplier_controller": null,
            "decathlon_control_freq_note": null,
            "active": true
          },
          {
            "step_number": "PAINTING\n烤漆",
            "control_item": "Adhesion Cross-Cut Test\n百格测试",
            "control_method": "Check the supplier frequency + control method + the records 检查供应商的管控频率+ 管控方法+管控记录",
            "requirement": "The frequencies, the control method and the records are respected. If supplier records NC, challenge the way he manage it 管控频率，方法和记录都被遵守，如果供应商记录有不良，盘问他的管理方法",
            "criticity": "Minor",
            "control_type": "QC-Leader",
            "supplier_control_freq_note": "1 time/ 2 month",
            "supplier_controller": null,
            "decathlon_control_freq_note": null,
            "active": true
          },
          {
            "step_number": "PAINTING\n烤漆",
            "control_item": "Adhesion Cross-Cut Test\n百格测试",
            "control_method": "Follow lihe sop test\n按照立和SOP 测试",
            "requirement": "Test pass\n测试通过",
            "criticity": "Minor",
            "control_type": "FQC",
            "supplier_control_freq_note": "1pc/month",
            "supplier_controller": null,
            "decathlon_control_freq_note": null,
            "active": true
          }
        ]
      }
    ]
  }
}
