{
  "filename": "CP2.3_LONGXIANG_76300_SyntheticPU_Fay Gao.xlsx",
  "count": 4,
  "product_family": {
    "name": "Synthetic PU",
    "processes": [
      {
        "name": "Metal raw material reception and storage",
        "category": "Incoming control",
        "steps": [
          {
            "step_number": "1",
            "control_item": "BACKING(Non-woven or other fabric)",
            "control_method": "PHYSICAL CONTROL",
            "requirement": "Weight/Thickness/Tear strength/Tensile Strength/Elongation/Bursting",
            "criticity": "Major",
            "control_type": "incoming  control",
            "supplier_control_freq_note": "1 from 10 rolls",
            "supplier_controller": "IQC",
            "decathlon_control_freq_note": "1 time/ month",
            "active": true
          },
          {
            "step_number": "1",
            "control_item": "BACKING(Non-woven or other fabric)",
            "control_method": "VISUAL CONTROL",
            "requirement": "Aspect/Color",
            "criticity": "Major",
            "control_type": "incoming  control",
            "supplier_control_freq_note": "1 from 10 rolls",
            "supplier_controller": "IQC",
            "decathlon_control_freq_note": "1 time/ month",
            "active": true
          },
          {
            "step_number": "2",
            "control_item": "PU Resin",
            "control_method": "PHYSICAL CONTROL",
            "requirement": "Solid content/Viscosity/Solvent resistance",
            "criticity": "Major",
            "control_type": "incoming  control",
            "supplier_control_freq_note": "1 from 15 barrels",
            "supplier_controller": "IQC",
            "decathlon_control_freq_note": "1 time/ month",
            "active": true
          },
          {
            "step_number": "2",
            "control_item": "PU Resin",
            "control_method": "TOXI",
            "requirement": "Heavy metal content",
            "criticity": "Major",
            "control_type": "incoming  control",
            "supplier_control_freq_note": "1 from 15 barrels",
            "supplier_controller": "IQC",
            "decathlon_control_freq_note": "1 time/ month",
            "active": true
          }
        ]
      },
      {
        "name": "Wet process",
        "category": "Online control",
        "steps": [
          {
            "step_number": "1",
            "control_item": "BASE",
            "control_method": "VISUAL CHECKING",
            "requirement": "Color/Defects checking(Air bubble/Polution,)",
            "criticity": "Major",
            "control_type": "Process control",
            "supplier_control_freq_note": "Each Big Base Roll",
            "supplier_controller": "On line QC",
            "decathlon_control_freq_note": "1 time/ month",
            "active": true
          },
          {
            "step_number": "1",
            "control_item": "BASE",
            "control_method": "PHYSICAL CHECKING",
            "requirement": "Weight/Thickness/Tear strength/Tensile Strength/Elongation/Bursting/Peeling",
            "criticity": "Major",
            "control_type": "Process control",
            "supplier_control_freq_note": "Each Big Base Roll",
            "supplier_controller": "On line QC",
            "decathlon_control_freq_note": "1 time/ month",
            "active": true
          },
          {
            "step_number": "2",
            "control_item": "FINISHED COMPONENT",
            "control_method": "VISUAL CHECKING",
            "requirement": "Color checking: DECMC≤2 MI≤1 in DATA spectro.\nLight box:F11/D65",
            "criticity": "Major",
            "control_type": "Process control",
            "supplier_control_freq_note": "Every production Lot",
            "supplier_controller": "On line QC",
            "decathlon_control_freq_note": "1 time/ month",
            "active": true
          }
        ]
      },
      {
        "name": "Final control",
        "category": "Final control",
        "steps": [
          {
            "step_number": "1",
            "control_item": "VISUAL CONTROL",
            "control_method": "4 points standard:                1 point (<8cm)                             2 points( 8-15cm)                  3 points (15-23 cm)                    4 points( >23 cm or 3 defects in 1 ml)",
            "requirement": "≤ 20 points /100 ml                (Less than 100yds should be judged by 4 point system gradually)  (color/R/P connection/Holes/Polution/Width/Thickness/Damages/Scratches/Length)",
            "criticity": "Critical",
            "control_type": null,
            "supplier_control_freq_note": "Every roll",
            "supplier_controller": "On line QC",
            "decathlon_control_freq_note": "4 component order per month ramdonly",
            "active": true
          }
        ]
      },
      {
        "name": "Lab test",
        "category": "Lab test",
        "steps": [
          {
            "step_number": "PAYSICAL CHARACTERISTICS",
            "control_item": "Apply on ALL CTF/ INTERNAL\n(Re-Order)",
            "control_method": null,
            "requirement": "Signed CTF according to \ndifferent models",
            "criticity": "Major",
            "control_type": null,
            "supplier_control_freq_note": "LAB control",
            "supplier_controller": "Each prod-batch",
            "decathlon_control_freq_note": "1 time/ month\n(check INTERNAL report)",
            "active": true
          },
          {
            "step_number": "Toxi",
            "control_item": "Toxi Package",
            "control_method": null,
            "requirement": "1st production order",
            "criticity": null,
            "control_type": null,
            "supplier_control_freq_note": "LAB control",
            "supplier_controller": "Each 1st production order",
            "decathlon_control_freq_note": "Per production order",
            "active": true
          },
          {
            "step_number": "PAYSICAL CHARACTERISTICS",
            "control_item": "Apply on ALL CTF/ EXTERNAL\n(1st Prod, inspect day: +7day)",
            "control_method": null,
            "requirement": "Signed CTF according to \ndifferent models",
            "criticity": "Major",
            "control_type": null,
            "supplier_control_freq_note": "LAB control",
            "supplier_controller": "Each prod-batch",
            "decathlon_control_freq_note": "1 time/ month\n(check EXTERNAL report)",
            "active": true
          }
        ]
      }
    ]
  }
}
