{
  "filename": "CP2.3_juxing_77014_composite racket _Ivy Guo.xlsx",
  "count": 2,
  "product_family": {
    "name": "Composite Racket",
    "processes": [
      {
        "name": "Fqx",
        "category": "Final control",
        "steps": [
          {
            "step_number": "FQA",
            "control_item": "1.量测完成品重量",
            "control_method": "Check the supplier frequency + control method + the records 检查供应商的管控频率+ 管控方法+管控记录",
            "requirement": "The frequencies, the control method and the records are respected. If supplier records NC, challenge the way he manage it 管控频率，方法和记录都被遵守，如果供应商记录有不良，盘问他的管理方法",
            "criticity": "Critical",
            "control_type": null,
            "supplier_control_freq_note": null,
            "supplier_controller": null,
            "decathlon_control_freq_note": null,
            "active": true
          },
          {
            "step_number": "FQA",
            "control_item": "1.量测完成品重量",
            "control_method": "依QA出货抽检操作基准",
            "requirement": "指示书",
            "criticity": "Critical",
            "control_type": null,
            "supplier_control_freq_note": "MIL-SID-105E表特殊检验S-2  并记录",
            "supplier_controller": "刘云",
            "decathlon_control_freq_note": "1次/周",
            "active": true
          },
          {
            "step_number": "FQA",
            "control_item": "2.量测完成品平衡",
            "control_method": "Check the supplier frequency + control method + the records 检查供应商的管控频率+ 管控方法+管控记录",
            "requirement": "The frequencies, the control method and the records are respected. If supplier records NC, challenge the way he manage it 管控频率，方法和记录都被遵守，如果供应商记录有不良，盘问他的管理方法",
            "criticity": "Critical",
            "control_type": null,
            "supplier_control_freq_note": null,
            "supplier_controller": null,
            "decathlon_control_freq_note": null,
            "active": true
          },
          {
            "step_number": "FQA",
            "control_item": "2.量测完成品平衡",
            "control_method": null,
            "requirement": "指示书",
            "criticity": "Critical",
            "control_type": null,
            "supplier_control_freq_note": "MIL-SID-105E表特殊检验S-2  并记录",
            "supplier_controller": "刘云",
            "decathlon_control_freq_note": "1次/周",
            "active": true
          },
          {
            "step_number": "FQA",
            "control_item": "3.量测完成品网压",
            "control_method": "Check the supplier frequency + control method + the records 检查供应商的管控频率+ 管控方法+管控记录",
            "requirement": "The frequencies, the control method and the records are respected. If supplier records NC, challenge the way he manage it 管控频率，方法和记录都被遵守，如果供应商记录有不良，盘问他的管理方法",
            "criticity": "Critical",
            "control_type": null,
            "supplier_control_freq_note": null,
            "supplier_controller": null,
            "decathlon_control_freq_note": null,
            "active": true
          },
          {
            "step_number": "FQA",
            "control_item": "3.量测完成品网压",
            "control_method": null,
            "requirement": "指示书",
            "criticity": "Critical",
            "control_type": null,
            "supplier_control_freq_note": "MIL-SID-105E表特殊检验S-2  并记录",
            "supplier_controller": "刘云",
            "decathlon_control_freq_note": "1次/周",
            "active": true
          }
        ]
      },
      {
        "name": "实验室测试",
        "category": "Lab test",
        "steps": [
          {
            "step_number": "测量工具",
            "control_item": "日常点检",
            "control_method": "Check the supplier frequency + control method + the records 检查供应商的管控频率+ 管控方法+管控记录",
            "requirement": "The frequencies, the control method and the records are respected. If supplier records NC, challenge the way he manage it 管控频率，方法和记录都被遵守，如果供应商记录有不良，盘问他的管理方法",
            "criticity": "Critical",
            "control_type": null,
            "supplier_control_freq_note": null,
            "supplier_controller": null,
            "decathlon_control_freq_note": null,
            "active": true
          },
          {
            "step_number": "测量工具",
            "control_item": "日常点检",
            "control_method": "各使用单位日常点检确认，校验标签是否在有效期内， 工具是否OK，并记录在QC记录表上。",
            "requirement": "工具在校验范围内，无损坏",
            "criticity": "Critical",
            "control_type": null,
            "supplier_control_freq_note": "1次/天",
            "supplier_controller": null,
            "decathlon_control_freq_note": "1次/周",
            "active": true
          },
          {
            "step_number": "测量工具",
            "control_item": "有效期内",
            "control_method": "Check the supplier frequency + control method + the records 检查供应商的管控频率+ 管控方法+管控记录",
            "requirement": "The frequencies, the control method and the records are respected. If supplier records NC, challenge the way he manage it 管控频率，方法和记录都被遵守，如果供应商记录有不良，盘问他的管理方法",
            "criticity": "Critical",
            "control_type": null,
            "supplier_control_freq_note": null,
            "supplier_controller": null,
            "decathlon_control_freq_note": null,
            "active": true
          },
          {
            "step_number": "测量工具",
            "control_item": "有效期内",
            "control_method": "内校检测设备校验操作基准",
            "requirement": "所有工具均在有效范围内。现场使用工具均有有效期内的校验标签",
            "criticity": "Critical",
            "control_type": null,
            "supplier_control_freq_note": "按校验周期校验并记录",
            "supplier_controller": "郭中裕",
            "decathlon_control_freq_note": "1次/周",
            "active": true
          },
          {
            "step_number": "测量工具",
            "control_item": "有效期内",
            "control_method": "Check the supplier frequency + control method + the records 检查供应商的管控频率+ 管控方法+管控记录",
            "requirement": "The frequencies, the control method and the records are respected. If supplier records NC, challenge the way he manage it 管控频率，方法和记录都被遵守，如果供应商记录有不良，盘问他的管理方法",
            "criticity": "Critical",
            "control_type": null,
            "supplier_control_freq_note": null,
            "supplier_controller": null,
            "decathlon_control_freq_note": null,
            "active": true
          },
          {
            "step_number": "测量工具",
            "control_item": "有效期内",
            "control_method": "外校检测设备2019年校验计划表",
            "requirement": "外校报告齐全且校验OK 并贴有校验标签",
            "criticity": "Critical",
            "control_type": null,
            "supplier_control_freq_note": "1次/年",
            "supplier_controller": "郭中裕",
            "decathlon_control_freq_note": "1次/周",
            "active": true
          },
          {
            "step_number": "测量工具",
            "control_item": "有效期内",
            "control_method": "Check the supplier frequency + control method + the records 检查供应商的管控频率+ 管控方法+管控记录",
            "requirement": "The frequencies, the control method and the records are respected. If supplier records NC, challenge the way he manage it 管控频率，方法和记录都被遵守，如果供应商记录有不良，盘问他的管理方法",
            "criticity": "Critical",
            "control_type": null,
            "supplier_control_freq_note": null,
            "supplier_controller": null,
            "decathlon_control_freq_note": null,
            "active": true
          },
          {
            "step_number": "测量工具",
            "control_item": "有效期内",
            "control_method": "内校检测设备校验操作基准",
            "requirement": "所有工具均在有效范围内。现场使用工具均有有效期内的校验标签",
            "criticity": "Critical",
            "control_type": null,
            "supplier_control_freq_note": "按校验周期校验并记录",
            "supplier_controller": "郭中裕",
            "decathlon_control_freq_note": "1次/周",
            "active": true
          },
          {
            "step_number": "测量工具",
            "control_item": "有效期内",
            "control_method": "Check the supplier frequency + control method + the records 检查供应商的管控频率+ 管控方法+管控记录",
            "requirement": "The frequencies, the control method and the records are respected. If supplier records NC, challenge the way he manage it 管控频率，方法和记录都被遵守，如果供应商记录有不良，盘问他的管理方法",
            "criticity": "Critical",
            "control_type": null,
            "supplier_control_freq_note": null,
            "supplier_controller": null,
            "decathlon_control_freq_note": null,
            "active": true
          },
          {
            "step_number": "测量工具",
            "control_item": "有效期内",
            "control_method": "外校检测设备2019年校验计划表",
            "requirement": "外校报告齐全且校验OK 并贴有校验标签",
            "criticity": "Critical",
            "control_type": null,
            "supplier_control_freq_note": "1次/年",
            "supplier_controller": "郭中裕",
            "decathlon_control_freq_note": "1次/周",
            "active": true
          }
        ]
      }
    ]
  }
}
