{
  "filename": "CP2.3_NTFL_87144_1.2m curl bar_Lily ZHOU.xlsx",
  "count": 5,
  "product_family": {
    "name": "1.2m curl bar",
    "processes": [
      {
        "name": "Incoming control",
        "category": "Incoming control",
        "steps": [
          {
            "control_item": "Validate the sticker (including the sticker and the SHU label)\n标贴内容确认(包括产品贴纸和SHU标贴)",
            "control_method": "Check the supplier frequency + control method + the records 检查供应商的管控频率+ 管控方法+管控记录",
            "requirement": "The frequencies, the control method and the records are respected. If supplier records NC, challenge the way he manage it 管控频率，方法和记录都被遵守，如果供应商记录有不良，盘问他的管理方法",
            "criticity": "Major",
            "control_type": "Records and method control",
            "supplier_control_freq_note": "All the qty below respect to NTFL inpection requirement.(The picture in E&F line)",
            "supplier_controller": "刘敏",
            "decathlon_control_freq_note": "Once/month\n一月一次",
            "active": true
          },
          {
            "control_item": "Validate the sticker (including the sticker and the SHU label)\n标贴内容确认(包括产品贴纸和SHU标贴)",
            "control_method": "Compare to the master samples of the sticker, check the order number, ship date, and use the bar code scanning gun to scan the bar code 对比签样，订单号、时间的对比\n条码枪扫描",
            "requirement": "There are complete supplier code, tracebility date, product information order no. in the sticker. \nThe bar code can be scanned 标签上有供应商代码，追溯周期（周别、年份），产品信息，EAN code 与签样一致，订单号码与订购单一致条码可读",
            "criticity": "Major",
            "control_type": "Visual/cosmetic control",
            "supplier_control_freq_note": "每星期至少一次",
            "supplier_controller": "刘敏",
            "decathlon_control_freq_note": "Once/month\n一月一次",
            "active": true
          },
          {
            "control_item": "Validate the dimension of the raw steel\n原料杆子的尺寸确认",
            "control_method": "Check the supplier frequency + control method + the records 检查供应商的管控频率+ 管控方法+管控记录",
            "requirement": "The frequencies, the control method and the records are respected. If supplier records NC, challenge the way he manage it 管控频率，方法和记录都被遵守，如果供应商记录有不良，盘问他的管理方法",
            "criticity": "Critical",
            "control_type": "Records and method control",
            "supplier_control_freq_note": "每星期至少一次",
            "supplier_controller": "刘敏",
            "decathlon_control_freq_note": "Once/month\n一月一次",
            "active": true
          },
          {
            "control_item": "Validate the dimension of the raw steel\n原料杆子的尺寸确认",
            "control_method": "查看材质证明",
            "requirement": "确认钢材牌号是否符合要求",
            "criticity": null,
            "control_type": null,
            "supplier_control_freq_note": "每个月一次",
            "supplier_controller": "刘敏",
            "decathlon_control_freq_note": null,
            "active": true
          },
          {
            "control_item": "Validate the dimension of the raw steel\n原料杆子的尺寸确认",
            "control_method": "Measure the raw steel diameter and length 用游标卡尺测量来料的直径\n卷尺测量长度",
            "requirement": "Diameter: 28±0.1mm, Length:1288±2mm\n直径：28±0.1mm 长度：1288±2mm",
            "criticity": "Critical",
            "control_type": "Product control",
            "supplier_control_freq_note": "每个月至少一次",
            "supplier_controller": "刘敏",
            "decathlon_control_freq_note": "Once/month\n一月一次",
            "active": true
          },
          {
            "control_item": "来料电镀成品杆检验",
            "control_method": "Check the supplier frequency + control method + the records检查供应商的管控频率+ 管控方法+管控记录",
            "requirement": "The frequencies, the control method and the records are respected. If supplier records NC, challenge the way he manage it 管控频率，方法和记录都被遵守，如果供应商记录有不良，盘问他的管理方法",
            "criticity": "Major",
            "control_type": "Records and method control",
            "supplier_control_freq_note": "每星期至少一次",
            "supplier_controller": "刘敏",
            "decathlon_control_freq_note": "Twice/month\n一月1次",
            "active": true
          },
          {
            "control_item": "来料电镀成品杆检验",
            "control_method": "100% apperance checking,and check the dimension \n100%外观的检验",
            "requirement": "There is no peeling of the chroming layer, no lacking chroming part\n电镀表层没有漏镀，露底，镀层没有剥落，直径：28±0.1mm",
            "criticity": "Major",
            "control_type": "Product control",
            "supplier_control_freq_note": "每星期至少一次",
            "supplier_controller": "刘敏",
            "decathlon_control_freq_note": "Twice/month\n一月1次",
            "active": true
          },
          {
            "control_item": "来料电镀成品杆检验",
            "control_method": "use the caliber to check go/no go of the diameter of the bar\n用量具检测杆子两头的直径",
            "requirement": "Diameter:28±0.1mm",
            "criticity": "Critical",
            "control_type": "Product control",
            "supplier_control_freq_note": "每星期至少一次",
            "supplier_controller": "刘敏",
            "decathlon_control_freq_note": "Twice/month\n一月2次",
            "active": true
          }
        ]
      },
      {
        "name": "Machining processj",
        "category": "Online control",
        "steps": [
          {
            "control_item": "Chamfer 倒角",
            "control_method": "Check the supplier frequency + control method + the records 检查供应商的管控频率+ 管控方法+管控记录",
            "requirement": "The frequencies, the control method and the records are respected. If supplier records NC, challenge the way he manage it 管控频率，方法和记录都被遵守，如果供应商记录有不良，盘问他的管理方法",
            "criticity": "Critical",
            "control_type": "Records and method control",
            "supplier_control_freq_note": "每星期至少一次",
            "supplier_controller": "刘敏",
            "decathlon_control_freq_note": "Once/month\n一月一次",
            "active": true
          },
          {
            "control_item": "Chamfer 倒角",
            "control_method": "Check the apperance外观的检验",
            "requirement": "The surface of the chamfer is smooth\n倒角部分光滑                                      The length is 1-2mm\n倒角宽度1-2mm",
            "criticity": "Critical",
            "control_type": "Product control",
            "supplier_control_freq_note": "每星期至少一次",
            "supplier_controller": "刘敏",
            "decathlon_control_freq_note": "Once/month\n一月一次",
            "active": true
          },
          {
            "control_item": "hot shaping 热锻压",
            "control_method": "检查PQC的管控记录",
            "requirement": "The frequencies, the control method and the records are respected. If supplier records NC, challenge the way he manage it 管控频率，方法和记录都被遵守，如果供应商记录有不良，盘问他的管理方法",
            "criticity": "Critical",
            "control_type": "Records and method control",
            "supplier_control_freq_note": "每星期至少一次",
            "supplier_controller": "刘敏",
            "decathlon_control_freq_note": "Once/month\n一月一次",
            "active": true
          },
          {
            "control_item": "hot shaping 热锻压",
            "control_method": "观察PQC的检验方式",
            "requirement": "No break of the bead flange. And all dimension should match the CDCT.                            锻压部位不能开裂\n每个部分的尺寸必须与技术资料符合",
            "criticity": "Critical",
            "control_type": "Product control",
            "supplier_control_freq_note": "每星期至少一次",
            "supplier_controller": "刘敏",
            "decathlon_control_freq_note": "Once/month\n一月一次",
            "active": true
          },
          {
            "control_item": "Fine machine of the bead flange of the bar 车加工挡圈",
            "control_method": "检查PQC的管控记录",
            "requirement": "The frequencies, the control method and the records are respected. If supplier records NC, challenge the way he manage it 管控频率，方法和记录都被遵守，如果供应商记录有不良，盘问他的管理方法",
            "criticity": "Major",
            "control_type": "Records and method control",
            "supplier_control_freq_note": "每星期至少一次",
            "supplier_controller": "刘敏",
            "decathlon_control_freq_note": "Once/month\n一月一次",
            "active": true
          },
          {
            "control_item": "Fine machine of the bead flange of the bar 车加工挡圈",
            "control_method": "观察PQC的检验方式",
            "requirement": "Diameter:36±2mm\n直径：36±2mm",
            "criticity": "Major",
            "control_type": "Process control,",
            "supplier_control_freq_note": "每星期至少一次",
            "supplier_controller": "刘敏",
            "decathlon_control_freq_note": "Once/month\n一月一次",
            "active": true
          },
          {
            "control_item": "Knurl滚花",
            "control_method": "Check the supplier frequency + control method + the records 检查供应商的管控频率+ 管控方法+管控记录",
            "requirement": "The frequencies, the control method and the records are respected. If supplier records NC, challenge the way he manage it 管控频率，方法和记录都被遵守，如果供应商记录有不良，盘问他的管理方法",
            "criticity": "Major",
            "control_type": "Records and method control",
            "supplier_control_freq_note": "每星期至少一次",
            "supplier_controller": "刘敏",
            "decathlon_control_freq_note": "Once/month\n一月一次",
            "active": true
          },
          {
            "control_item": "Knurl滚花",
            "control_method": "Measure the length of the knurling part\n测量尺寸",
            "requirement": "The length should respect to the CDCT, the length is 217mm",
            "criticity": "Major",
            "control_type": "Visual/cosmetic control",
            "supplier_control_freq_note": "每星期至少一次",
            "supplier_controller": "刘敏",
            "decathlon_control_freq_note": "Once/month\n一月一次",
            "active": true
          },
          {
            "control_item": "Knurl滚花",
            "control_method": "touch the knurling part\n触摸滚花位置的尖锐程度",
            "requirement": "the touch should be respect to the MS\n触感要跟签样一致，不能太尖锐",
            "criticity": "Major",
            "control_type": null,
            "supplier_control_freq_note": "每星期至少一次",
            "supplier_controller": "刘敏",
            "decathlon_control_freq_note": null,
            "active": true
          },
          {
            "control_item": "Knurl滚花",
            "control_method": "Check the apperance of the knurling\n检查外观",
            "requirement": "The knurling is clear, and can be read. The products should respect to the MS 花纹清晰，没有花纹错乱，花纹要跟签样一致。",
            "criticity": "Major",
            "control_type": "Visual/cosmetic control",
            "supplier_control_freq_note": "每星期至少一次",
            "supplier_controller": "刘敏",
            "decathlon_control_freq_note": "Once/month\n一月一次",
            "active": true
          },
          {
            "control_item": "Bending 压弯",
            "control_method": "Check the supplier frequency + control method + the records 检查供应商的管控频率+ 管控方法+管控记录",
            "requirement": "The frequencies, the control method and the records are respected. If supplier records NC, challenge the way he manage it 管控频率，方法和记录都被遵守，如果供应商记录有不良，盘问他的管理方法",
            "criticity": "Major",
            "control_type": "Records and method control",
            "supplier_control_freq_note": "每星期至少一次",
            "supplier_controller": "刘敏",
            "decathlon_control_freq_note": "Once/month\n一月一次",
            "active": true
          },
          {
            "control_item": "Bending 压弯",
            "control_method": "Measure the dimension of the bead flange and the middle part of the bar 用卷尺测量压弯后的总长度",
            "requirement": "Length:1200±2mm\n总长度：1200±2mm",
            "criticity": "Major",
            "control_type": "Process control,",
            "supplier_control_freq_note": "每星期至少一次",
            "supplier_controller": "刘敏",
            "decathlon_control_freq_note": "Once/month\n一月一次",
            "active": true
          }
        ]
      },
      {
        "name": "Packaging process",
        "category": "Online control",
        "steps": [
          {
            "control_item": "Checking the packaging method 包装方式的确认",
            "control_method": "Check the supplier frequency + control method + the records 检查供应商的管控频率+ 管控方法+管控记录",
            "requirement": "The frequencies, the control method and the records are respected. If supplier records NC, challenge the way he manage it 管控频率，方法和记录都被遵守，如果供应商记录有不良，盘问他的管理方法",
            "criticity": "Major",
            "control_type": "Records and method control",
            "supplier_control_freq_note": "每星期至少一次",
            "supplier_controller": "刘敏",
            "decathlon_control_freq_note": "Once/month\n一月一次",
            "active": true
          },
          {
            "control_item": "Checking the packaging method 包装方式的确认",
            "control_method": "Check whether the package match the SOP查看包装方式是否符合要求",
            "requirement": "跟技术要求一致，每根杆子装一个塑料袋，2根杆子用扎带捆绑在一起",
            "criticity": "Major",
            "control_type": "Visual/cosmetic control",
            "supplier_control_freq_note": "每星期至少一次",
            "supplier_controller": "刘敏",
            "decathlon_control_freq_note": "Once/month\n一月一次",
            "active": true
          },
          {
            "control_item": "PCB & UE",
            "control_method": "Check the supplier frequency + control method + the records 检查供应商的管控频率+ 管控方法+管控记录",
            "requirement": "The frequencies, the control method and the records are respected. If supplier records NC, challenge the way he manage it 管控频率，方法和记录都被遵守，如果供应商记录有不良，盘问他的管理方法",
            "criticity": "Major",
            "control_type": "Records and method control",
            "supplier_control_freq_note": "每星期至少一次",
            "supplier_controller": "刘敏",
            "decathlon_control_freq_note": "Once/month\n一月一次",
            "active": true
          },
          {
            "control_item": "PCB & UE",
            "control_method": "Count the PCB and UE in one wooden box\n开箱清点PCB和UE的数量",
            "requirement": "PCB=100,UE=2",
            "criticity": "Major",
            "control_type": "Visual/cosmetic control",
            "supplier_control_freq_note": "每星期至少一次",
            "supplier_controller": "刘敏",
            "decathlon_control_freq_note": "Once/month\n一月一次",
            "active": true
          }
        ]
      },
      {
        "name": "Final control",
        "category": "Final control",
        "steps": [
          {
            "control_item": "final control before shipped",
            "control_method": "Check the supplier frequency + control method + the records 检查供应商的管控频率+ 管控方法+管控记录",
            "requirement": "The frequencies, the control method and the records are respected. If supplier records NC, challenge the way he manage it 管控频率，方法和记录都被遵守，如果供应商记录有不良，盘问他的管理方法",
            "criticity": "Major",
            "control_type": "Records and method control",
            "supplier_control_freq_note": "每星期至少一次",
            "supplier_controller": "刘敏",
            "decathlon_control_freq_note": "Once/month\n一月一次",
            "active": true
          },
          {
            "control_item": "final control before shipped",
            "control_method": "查看产品是否符合要求",
            "requirement": "根据终检要求检验\nDo final cotrol according to the cotrol sheet",
            "criticity": "Major",
            "control_type": "Product control",
            "supplier_control_freq_note": "每星期至少一次",
            "supplier_controller": "刘敏",
            "decathlon_control_freq_note": "Once/month\n一月一次",
            "active": true
          }
        ]
      },
      {
        "name": "Lab test",
        "category": "Lab test",
        "steps": [
          {
            "control_item": "Salt spray test\n盐雾测试",
            "control_method": "Check the supplier frequency + control method + the records 检查供应商的管控频率+ 管控方法+管控记录",
            "requirement": "The frequencies, the control method and the records are respected. If supplier records NC, challenge the way he manage it 管控频率，方法和记录都被遵守，如果供应商记录有不良，盘问他的管理方法",
            "criticity": "Major",
            "control_type": "Records and method control",
            "supplier_control_freq_note": "once/month\n每月一次",
            "supplier_controller": "刘敏",
            "decathlon_control_freq_note": "Once/ three months",
            "active": true
          },
          {
            "control_item": "Salt spray test\n盐雾测试",
            "control_method": "Do spraty test by themselves by each batch\n每批次做在工厂自己做盐雾测试",
            "requirement": null,
            "criticity": "Major",
            "control_type": "LAB control",
            "supplier_control_freq_note": "once/month\n每月一次",
            "supplier_controller": "刘敏",
            "decathlon_control_freq_note": "Once/month",
            "active": true
          },
          {
            "control_item": "Salt spray test\n盐雾测试",
            "control_method": "To do spray test in KBTC\n在昆山KBTC测试公司做盐雾测试",
            "requirement": "DS053-K002 Neutral salt spray test (ISO 9227)",
            "criticity": "Major",
            "control_type": "LAB control",
            "supplier_control_freq_note": "once/month\n每月一次",
            "supplier_controller": "刘敏",
            "decathlon_control_freq_note": "Once/ three months",
            "active": true
          },
          {
            "control_item": "Toxi test\n毒性测试",
            "control_method": "Check the supplier frequency + control method + the records 检查供应商的管控频率+ 管控方法+管控记录",
            "requirement": "The frequencies, the control method and the records are respected. If supplier records NC, challenge the way he manage it 管控频率，方法和记录都被遵守，如果供应商记录有不良，盘问他的管理方法",
            "criticity": "Critical",
            "control_type": "LAB control",
            "supplier_control_freq_note": "Once/year",
            "supplier_controller": "刘敏",
            "decathlon_control_freq_note": "Once/year",
            "active": true
          },
          {
            "control_item": "Toxi test\n毒性测试",
            "control_method": "Auto control of toxi test",
            "requirement": "Respect to the toxi test requirement",
            "criticity": "Critical",
            "control_type": "LAB control",
            "supplier_control_freq_note": "Once/year",
            "supplier_controller": "刘敏",
            "decathlon_control_freq_note": "Once/year",
            "active": true
          },
          {
            "control_item": "Go/No go tool calibration \n通止规的校验",
            "control_method": "Check the supplier frequency + control method + the records 检查供应商的管控频率+ 管控方法+管控记录",
            "requirement": "The frequencies, the control method and the records are respected. If supplier records NC, challenge the way he manage it 管控频率，方法和记录都被遵守，如果供应商记录有不良，盘问他的管理方法",
            "criticity": "Critical",
            "control_type": "Records and method control",
            "supplier_control_freq_note": null,
            "supplier_controller": null,
            "decathlon_control_freq_note": "once/half year",
            "active": true
          },
          {
            "control_item": "Go/No go tool calibration \n通止规的校验",
            "control_method": "校验",
            "requirement": "每半年送外校验一次",
            "criticity": "Critical",
            "control_type": null,
            "supplier_control_freq_note": "once/half year",
            "supplier_controller": "刘敏",
            "decathlon_control_freq_note": null,
            "active": true
          }
        ]
      }
    ]
  }
}
