{
  "filename": "CP2.3_IMBERT MNIF_9266_DANCING SHOES (demie-pointe Dance and Gym)_Hajer Ben Khalifa .xlsx",
  "count": 13,
  "product_family": {
    "name": "1 2 POINTE DANCE GYM",
    "processes": [
      {
        "name": "Metal raw material reception and storage",
        "category": "Incoming control",
        "steps": [
          {
            "step_number": "1",
            "control_item": "Incoming control of leather",
            "control_method": "Se reférer au classeur de conformité",
            "requirement": "Vérifier la référence par rapport à la BOM CDC\nContrôler épaisseur Cuir avec un Pige \nContrôler Nuance  visuel\nContrôler la quantité quantitatif\nContrôler l'aspect (veines / trous / griffes  etc..) : visuel",
            "criticity": "Critical",
            "control_type": null,
            "supplier_control_freq_note": "Every incoming",
            "supplier_controller": "magasinier (Storkeeper)",
            "decathlon_control_freq_note": "1 / month",
            "active": true
          },
          {
            "step_number": "2",
            "control_item": "Incoming control of woven",
            "control_method": "Se reférer au classeur de conformité",
            "requirement": "Vérifier la référence par rapport à la BOM CDC\nContrôler l'aspect par rapport à la référence \nContrôler Nuance  visuel\nContrôler la laize\nContrôler la quantité\ncontrôler le grammage (voir méthode dans le classeur)",
            "criticity": "Critical",
            "control_type": null,
            "supplier_control_freq_note": "Every incoming",
            "supplier_controller": "magasinier (Storkeeper)",
            "decathlon_control_freq_note": "1 / month",
            "active": true
          },
          {
            "step_number": "3",
            "control_item": "Incoming Control of cutting tools and lasts",
            "control_method": "DPR101B / DPR102B / DPR206/1 / DPR206/2 : outils de coupe (procèdure existe en prod aussi) \n\nPour contrôler les formes : utiliser les gabarits de contrôle fournis par le frs des formes (hauteur arrière / hauteur avant) et contrôler visuellement (référence / défauts)",
            "requirement": "Outils en bon état \nformes conformes",
            "criticity": "Critical",
            "control_type": null,
            "supplier_control_freq_note": "Every incoming",
            "supplier_controller": "magasinier (Storkeeper)",
            "decathlon_control_freq_note": "1 / month",
            "active": true
          },
          {
            "step_number": "4",
            "control_item": "Control of accessories",
            "control_method": "Se reférer au classeur de conformité",
            "requirement": "Vérifier la référence par rapport à la BOM CDC\nContrôler l'aspect par rapport à la référence \nContrôler Nuance  visuel\nContrôler la quantité quantitatif",
            "criticity": "Critical",
            "control_type": null,
            "supplier_control_freq_note": "Every incoming",
            "supplier_controller": "magasinier (Storkeeper)",
            "decathlon_control_freq_note": "1 / month",
            "active": true
          }
        ]
      },
      {
        "name": "Cutting and stitching process",
        "category": "Online control",
        "steps": [
          {
            "step_number": "1",
            "control_item": "Pressure guttage",
            "control_method": "Fiche suivi paramètres machine",
            "requirement": "As defined and validated during indus",
            "criticity": "Major",
            "control_type": null,
            "supplier_control_freq_note": "Daily",
            "supplier_controller": "Mechanical agent",
            "decathlon_control_freq_note": "2/ month",
            "active": true
          },
          {
            "step_number": "1",
            "control_item": "temperature guttage",
            "control_method": "Fiche suivi paramètres machine",
            "requirement": "As defined and validated during indus",
            "criticity": "Major",
            "control_type": null,
            "supplier_control_freq_note": "Daily",
            "supplier_controller": "Mechanical agent",
            "decathlon_control_freq_note": "2/ month",
            "active": true
          },
          {
            "step_number": "1",
            "control_item": "Time guttage",
            "control_method": "Fiche suivi paramètres machine",
            "requirement": "As defined and validated during indus",
            "criticity": "Major",
            "control_type": null,
            "supplier_control_freq_note": "Daily",
            "supplier_controller": "Mechanical agent",
            "decathlon_control_freq_note": "2/ month",
            "active": true
          },
          {
            "step_number": "1C",
            "control_item": "Coupe cuirs",
            "control_method": "DPR123",
            "requirement": "Respecter le sens de coupe / couper en pairs",
            "criticity": "Critical",
            "control_type": null,
            "supplier_control_freq_note": "Daily",
            "supplier_controller": "Cutting Operator",
            "decathlon_control_freq_note": "1 / Week",
            "active": true
          },
          {
            "step_number": "2C",
            "control_item": "Emporte pièces",
            "control_method": "DPR 101B",
            "requirement": "Les emportes pièces sont en bonne état et bien stockés",
            "criticity": "Critical",
            "control_type": null,
            "supplier_control_freq_note": "Daily",
            "supplier_controller": "Cutting Responsible",
            "decathlon_control_freq_note": "1 / Week",
            "active": true
          },
          {
            "step_number": "3C",
            "control_item": "Entretien Bio",
            "control_method": "DPR 102 B (avec modification ne pas tourner la bio)",
            "requirement": "Pour obtenir une utilisation maximale de planche à",
            "criticity": "Critical",
            "control_type": null,
            "supplier_control_freq_note": "Daily",
            "supplier_controller": "Operator",
            "decathlon_control_freq_note": "1 / Week",
            "active": true
          },
          {
            "step_number": "4C",
            "control_item": "coupe sangle/lacet/biais",
            "control_method": "DPR114",
            "requirement": "Coupe à chaud // pas de filament",
            "criticity": "Major",
            "control_type": null,
            "supplier_control_freq_note": "Daily",
            "supplier_controller": "Cutting Operator",
            "decathlon_control_freq_note": "1 / Week",
            "active": true
          },
          {
            "step_number": "5C",
            "control_item": "Suivi des formes",
            "control_method": "DPR 206/1 B et 206/2 B",
            "requirement": "Inventaire existant // Maintenance et nettoyage",
            "criticity": "Major",
            "control_type": null,
            "supplier_control_freq_note": "Daily",
            "supplier_controller": "Cutting Responsible",
            "decathlon_control_freq_note": "1 / Week",
            "active": true
          },
          {
            "step_number": "1S",
            "control_item": "Couture Sangle /Elastique",
            "control_method": "DPR114",
            "requirement": "Prise à 10 mm minimum",
            "criticity": "Major",
            "control_type": null,
            "supplier_control_freq_note": "Daily",
            "supplier_controller": "Stitching Operator + Stitching supervisor",
            "decathlon_control_freq_note": "Every Week",
            "active": true
          },
          {
            "step_number": "2S",
            "control_item": "Gestion aiguilles cassés",
            "control_method": "DPR 117",
            "requirement": "Policy must be in place",
            "criticity": null,
            "control_type": null,
            "supplier_control_freq_note": "Daily",
            "supplier_controller": "Stitching supervisor",
            "decathlon_control_freq_note": "Every Week",
            "active": true
          },
          {
            "step_number": "3S",
            "control_item": "Gestion aiguilles cassés",
            "control_method": "DPR 117",
            "requirement": "All broken needle must be returned to line supervisor for replacement",
            "criticity": "Critical",
            "control_type": null,
            "supplier_control_freq_note": "Daily",
            "supplier_controller": "Stitching Operator",
            "decathlon_control_freq_note": "Every Week",
            "active": true
          },
          {
            "step_number": "4S",
            "control_item": "Gestion aiguilles cassés",
            "control_method": "DPR 117",
            "requirement": "Record must be kept",
            "criticity": "Critical",
            "control_type": null,
            "supplier_control_freq_note": "Daily",
            "supplier_controller": "Stitching supervisor",
            "decathlon_control_freq_note": "Every Week",
            "active": true
          },
          {
            "step_number": "5S",
            "control_item": "Gestion aiguilles cassés",
            "control_method": "DPR 117",
            "requirement": "Investigation must be made as to cause of break if consistently same the machine or operator",
            "criticity": "Critical",
            "control_type": null,
            "supplier_control_freq_note": "Daily",
            "supplier_controller": "Stitching supervisor",
            "decathlon_control_freq_note": "Every Week",
            "active": true
          },
          {
            "step_number": "6S",
            "control_item": "Tension de fil",
            "control_method": "DPR 108",
            "requirement": "Pas de dépassement de fil",
            "criticity": "Major",
            "control_type": null,
            "supplier_control_freq_note": "Daily",
            "supplier_controller": "Stitching Operator + Stitching supervisor",
            "decathlon_control_freq_note": "Every Week",
            "active": true
          },
          {
            "step_number": "7S",
            "control_item": "Nbr de points",
            "control_method": "DPR 109",
            "requirement": "For adults:\nn=8-10 stitches/inch(2,5cm)\n- For children:\nn=8-10 stitches/inch(2,5cm)\n- For baby:\nn=10-12 stitches/inch(2,5cm)",
            "criticity": "Major",
            "control_type": null,
            "supplier_control_freq_note": "Daily",
            "supplier_controller": "Stitching Operator + Stitching supervisor",
            "decathlon_control_freq_note": "Every Week",
            "active": true
          },
          {
            "step_number": "8S",
            "control_item": "Piquage",
            "control_method": "DPR 111 // 112 et 113",
            "requirement": "respecter les infos DPR",
            "criticity": "Major",
            "control_type": null,
            "supplier_control_freq_note": "Daily",
            "supplier_controller": "Stitching Operator + Stitching supervisor",
            "decathlon_control_freq_note": "Every Week",
            "active": true
          },
          {
            "step_number": "9S",
            "control_item": "Prises de coutures",
            "control_method": "DCR 301/302 et 303",
            "requirement": "Selon assemblage",
            "criticity": "Critical",
            "control_type": null,
            "supplier_control_freq_note": "Daily",
            "supplier_controller": "Stitching Operator + Stitching supervisor",
            "decathlon_control_freq_note": "Every Week",
            "active": true
          }
        ]
      },
      {
        "name": "Assembly process",
        "category": "Online control",
        "steps": [
          {
            "step_number": "1",
            "control_item": "Utilisation du scotch double face  au lieu de  la colle",
            "control_method": "DPR 942 A",
            "requirement": "As defined and validated during indus",
            "criticity": "Major",
            "control_type": null,
            "supplier_control_freq_note": "lancement modèle",
            "supplier_controller": "assembly supervisor",
            "decathlon_control_freq_note": "lancement modèle",
            "active": true
          },
          {
            "step_number": "2",
            "control_item": "Positionnement de la tige et la Première de Montage",
            "control_method": "DPR 943A / 944 A",
            "requirement": "Méthode de montage",
            "criticity": "Major",
            "control_type": null,
            "supplier_control_freq_note": "Daily",
            "supplier_controller": "assembly operator + assembly supervisor",
            "decathlon_control_freq_note": "Every Week",
            "active": true
          },
          {
            "step_number": "3",
            "control_item": "Plissage",
            "control_method": "DPR 945 A",
            "requirement": "Nombre de pli entre 11 et 13 plis",
            "criticity": "Major",
            "control_type": null,
            "supplier_control_freq_note": "Daily",
            "supplier_controller": "assembly operator + assembly supervisor",
            "decathlon_control_freq_note": "Every Week",
            "active": true
          },
          {
            "step_number": "4",
            "control_item": "Méthode de rabotage",
            "control_method": "DPR964 A",
            "requirement": "Zone de rabotage : 10 mm au besoin",
            "criticity": "Major",
            "control_type": null,
            "supplier_control_freq_note": "Daily",
            "supplier_controller": "assembly operator + assembly supervisor",
            "decathlon_control_freq_note": "Every Week",
            "active": true
          },
          {
            "step_number": "5",
            "control_item": "positionnement semelle",
            "control_method": "DPR 947A",
            "requirement": "semelle bien positionnée avec un gabarit qui doit être identifié par modèle et par taille",
            "criticity": "Major",
            "control_type": null,
            "supplier_control_freq_note": "Daily",
            "supplier_controller": "assembly operator + assembly supervisor",
            "decathlon_control_freq_note": "Every Week",
            "active": true
          },
          {
            "step_number": "6",
            "control_item": "pressure of pressing",
            "control_method": "Fiche suivi paramètres machine & DPR 948 A",
            "requirement": "As defined and validated during indus",
            "criticity": "Major",
            "control_type": null,
            "supplier_control_freq_note": "Daily",
            "supplier_controller": "assembly operator + assembly supervisor",
            "decathlon_control_freq_note": "Every Week",
            "active": true
          },
          {
            "step_number": "7",
            "control_item": "temperature of pressing",
            "control_method": "Fiche suivi paramètres machine & DPR 948 A",
            "requirement": "As defined and validated during indus",
            "criticity": "Major",
            "control_type": null,
            "supplier_control_freq_note": "Daily",
            "supplier_controller": "assembly operator + assembly supervisor",
            "decathlon_control_freq_note": "Every Week",
            "active": true
          },
          {
            "step_number": "8",
            "control_item": "Time of pressing",
            "control_method": "Fiche suivi paramètres machine & DPR 948 A",
            "requirement": "As defined and validated during indus",
            "criticity": "Major",
            "control_type": null,
            "supplier_control_freq_note": "Daily",
            "supplier_controller": "assembly operator + assembly supervisor",
            "decathlon_control_freq_note": "Every Week",
            "active": true
          },
          {
            "step_number": "9",
            "control_item": "piqure semelle",
            "control_method": "DPR949 A",
            "requirement": "nbr de points / inch = 4-6 points\nla piqure doit être faite 4mm du bord  (+-1mm tol)",
            "criticity": "Major",
            "control_type": null,
            "supplier_control_freq_note": "Daily",
            "supplier_controller": "assembly operator + assembly supervisor",
            "decathlon_control_freq_note": "Every Week",
            "active": true
          }
        ]
      },
      {
        "name": "Sub part general",
        "category": "Final control",
        "steps": [
          {
            "step_number": "1",
            "control_item": "comfort",
            "control_method": "Refer to inspection sheet : Comfort",
            "requirement": "No wrinkles in lining (with insock in place) => MAJOR \nNo bumps in lining (with insock in place) => MAJOR\nNo toe puff broken or creased=> MAJOR\nNo Counter broken or creased=> MAJOR\nNo staples => CRITICAL\nNo wrinkle of the insock inside the shoe => MAJOR\nNo gap between insock and shoe => MAJOR",
            "criticity": "Critical",
            "control_type": null,
            "supplier_control_freq_note": "weekly ( depends on number of order )",
            "supplier_controller": "AQL operator",
            "decathlon_control_freq_note": "Every Week",
            "active": true
          },
          {
            "step_number": "2",
            "control_item": "upper apperance",
            "control_method": "Refer to inspection sheet : Upper appearance",
            "requirement": null,
            "criticity": "Major",
            "control_type": null,
            "supplier_control_freq_note": "weekly ( depends on number of order )",
            "supplier_controller": "AQL operator",
            "decathlon_control_freq_note": "Every Week",
            "active": true
          },
          {
            "step_number": "3",
            "control_item": "Cleanliness",
            "control_method": "Visual Control",
            "requirement": "No glue, no stain, no tracing lines, no over cementing, no marking, no bleeding defect …\nIf dirt < 2mm  => MINOR DEFECT\nIf dirt > 2mm => MAJOR DEFECT                                                  \nFor identical type of marks : 1 DEFECT\nFor different types of marks : 1 DEFECT PER TYPE",
            "criticity": "Minor",
            "control_type": null,
            "supplier_control_freq_note": "weekly ( depends on number of order )",
            "supplier_controller": "AQL operator",
            "decathlon_control_freq_note": "Every Week",
            "active": true
          },
          {
            "step_number": "4",
            "control_item": "Symmetry of shoe",
            "control_method": "Refer to inspection sheet : Symmetry",
            "requirement": null,
            "criticity": "Major",
            "control_type": null,
            "supplier_control_freq_note": "weekly ( depends on number of order )",
            "supplier_controller": "AQL operator",
            "decathlon_control_freq_note": "Every Week",
            "active": true
          },
          {
            "step_number": "5",
            "control_item": "Axis of shoe",
            "control_method": "Refer to inspection sheet : Shoe axis",
            "requirement": null,
            "criticity": "Major",
            "control_type": null,
            "supplier_control_freq_note": "weekly ( depends on number of order )",
            "supplier_controller": "AQL operator",
            "decathlon_control_freq_note": "Every Week",
            "active": true
          },
          {
            "step_number": "6",
            "control_item": "Check insock sticking",
            "control_method": null,
            "requirement": "Lift the rear side of the insock\nInsock not stuck at back part (see technical sheet)",
            "criticity": "Minor",
            "control_type": null,
            "supplier_control_freq_note": "weekly ( depends on number of order )",
            "supplier_controller": "AQL operator",
            "decathlon_control_freq_note": "Every Week",
            "active": true
          },
          {
            "step_number": "7",
            "control_item": "Traçeability conformity",
            "control_method": null,
            "requirement": "Conform to the technical sheet & master sample\nTraceability is present & readable on each shoe.\nDAYMONTHYEAR PRODLINE requested  DD/MM/YY N",
            "criticity": "Minor",
            "control_type": null,
            "supplier_control_freq_note": "weekly ( depends on number of order )",
            "supplier_controller": "AQL operator",
            "decathlon_control_freq_note": "Every Week",
            "active": true
          },
          {
            "step_number": "8",
            "control_item": "Outsole flatness & stability",
            "control_method": "Refer to inspection sheet : Outsole flatness & stability",
            "requirement": null,
            "criticity": "Minor",
            "control_type": null,
            "supplier_control_freq_note": "weekly ( depends on number of order )",
            "supplier_controller": "AQL operator",
            "decathlon_control_freq_note": "Every Week",
            "active": true
          },
          {
            "step_number": "9",
            "control_item": "Care label conformity",
            "control_method": null,
            "requirement": "Check all information with the technical sheet The care label size printing must correspond to the size of the outsole.\nRead the bar code with bar code reader and compare it to technical sheet",
            "criticity": "Critical",
            "control_type": null,
            "supplier_control_freq_note": "weekly ( depends on number of order )",
            "supplier_controller": "AQL operator",
            "decathlon_control_freq_note": "Every Week",
            "active": true
          },
          {
            "step_number": "10",
            "control_item": "logo tracea",
            "control_method": "Tracea logo and CNUF code must be present on the care label and/or on the shoe",
            "requirement": null,
            "criticity": "Major",
            "control_type": null,
            "supplier_control_freq_note": "weekly ( depends on number of order )",
            "supplier_controller": "AQL operator",
            "decathlon_control_freq_note": "Every Week",
            "active": true
          }
        ]
      },
      {
        "name": "Sub part accessories functional conformity",
        "category": "Final control",
        "steps": [
          {
            "step_number": "1",
            "control_item": "Print resistance & 3D decoration pieces quality",
            "control_method": null,
            "requirement": "Scratch with nail or with a neutral adhesive tape\nNo print deterioration",
            "criticity": "Major",
            "control_type": null,
            "supplier_control_freq_note": "weekly ( depends on number of order )",
            "supplier_controller": "AQL operator",
            "decathlon_control_freq_note": "Every Week",
            "active": true
          },
          {
            "step_number": "2",
            "control_item": "Strength level of labels",
            "control_method": null,
            "requirement": "Refer to inspection sheet : Resistance of labels",
            "criticity": "Major",
            "control_type": null,
            "supplier_control_freq_note": "weekly ( depends on number of order )",
            "supplier_controller": "AQL operator",
            "decathlon_control_freq_note": "Every Week",
            "active": true
          }
        ]
      },
      {
        "name": "Sub part workmanship",
        "category": "Final control",
        "steps": [
          {
            "step_number": "1",
            "control_item": "Upper stitching quality",
            "control_method": null,
            "requirement": "Join stitches (when thread is broken, stitching should start from start) => MAJOR\nStop points : not finished and/or bad appearance => MAJOR\nPoor stitching tension => MAJOR\nUncut threads => MINOR \nNot constant and/or badly positionned from the edge=> MINOR\nRequirements (if no spec in technical sheet) : \n8/10 stitches per inch (1inch=2.5cm) for adult/child sizes\n10/12 stitches per inch for baby sizes.\nFrom the edge minimum 1,5mm to 2mm. \nFor parallel seams minimum 2/2,5mm between the two.",
            "criticity": "Major",
            "control_type": null,
            "supplier_control_freq_note": "weekly ( depends on number of order )",
            "supplier_controller": "AQL operator",
            "decathlon_control_freq_note": "Every Week",
            "active": true
          }
        ]
      },
      {
        "name": "Sub part packaging",
        "category": "Final control",
        "steps": [
          {
            "step_number": "1",
            "control_item": "Visual aspect of packaging",
            "control_method": "Refer to inspection sheet : Packaging conformity",
            "requirement": null,
            "criticity": "Major",
            "control_type": null,
            "supplier_control_freq_note": "weekly ( depends on number of order )",
            "supplier_controller": "AQL operator",
            "decathlon_control_freq_note": "Every Week",
            "active": true
          }
        ]
      },
      {
        "name": "Sub part general",
        "category": "Final control",
        "steps": [
          {
            "step_number": "1",
            "control_item": "RFID Conformity",
            "control_method": "Refer to inspection sheet : RFID control",
            "requirement": null,
            "criticity": "Critical",
            "control_type": null,
            "supplier_control_freq_note": "weekly ( depends on number of order )",
            "supplier_controller": "AQL operator",
            "decathlon_control_freq_note": "Every Week",
            "active": true
          }
        ]
      },
      {
        "name": "Sub part accessories functional conformity",
        "category": "Final control",
        "steps": [
          {
            "step_number": "1",
            "control_item": "End of elastics",
            "control_method": "Se reférer au CDC",
            "requirement": "Refer to measure in master sample & technical sheet",
            "criticity": "Major",
            "control_type": null,
            "supplier_control_freq_note": "weekly ( depends on number of order )",
            "supplier_controller": "AQL operator",
            "decathlon_control_freq_note": "Every Week",
            "active": true
          },
          {
            "step_number": "2",
            "control_item": "Length of elastics",
            "control_method": "Se reférer au CDC",
            "requirement": "Heat cutting (refer to DPR)",
            "criticity": "Major",
            "control_type": null,
            "supplier_control_freq_note": "weekly ( depends on number of order )",
            "supplier_controller": "AQL operator",
            "decathlon_control_freq_note": "Every Week",
            "active": true
          }
        ]
      },
      {
        "name": "Sub part packaging",
        "category": "Final control",
        "steps": [
          {
            "step_number": "1",
            "control_item": "Respect of packaging",
            "control_method": null,
            "requirement": "Compare what is described with what you have in the boxes (The content of the packaging fully matches with the information on PCB and UE)",
            "criticity": "Minor",
            "control_type": null,
            "supplier_control_freq_note": "weekly ( depends on number of order )",
            "supplier_controller": "AQL operator",
            "decathlon_control_freq_note": "Every Week",
            "active": true
          }
        ]
      },
      {
        "name": "Other specific dcr dpr",
        "category": "Final control",
        "steps": [
          {
            "step_number": "1",
            "control_item": "sewing of elastics (prise couture des élastiques)",
            "control_method": "visuel",
            "requirement": "DCR405A",
            "criticity": "Critical",
            "control_type": null,
            "supplier_control_freq_note": "weekly ( depends on number of order )",
            "supplier_controller": "AQL operator",
            "decathlon_control_freq_note": "Every Week",
            "active": true
          },
          {
            "step_number": "2",
            "control_item": "coupe élastique à chaud",
            "control_method": "visuel",
            "requirement": "DPR114B",
            "criticity": "Critical",
            "control_type": null,
            "supplier_control_freq_note": "weekly ( depends on number of order )",
            "supplier_controller": "AQL operator",
            "decathlon_control_freq_note": "Every Week",
            "active": true
          },
          {
            "step_number": "3",
            "control_item": "Tension des élastique de bordage",
            "control_method": "visuel",
            "requirement": "comparer au MS et à la fiche de reglage sur chaîne",
            "criticity": "Critical",
            "control_type": null,
            "supplier_control_freq_note": "weekly ( depends on number of order )",
            "supplier_controller": "AQL operator",
            "decathlon_control_freq_note": "Every Week",
            "active": true
          },
          {
            "step_number": "4",
            "control_item": "placement fin de biais",
            "control_method": "visuel",
            "requirement": "DPR105B",
            "criticity": "Critical",
            "control_type": null,
            "supplier_control_freq_note": "weekly ( depends on number of order )",
            "supplier_controller": "AQL operator",
            "decathlon_control_freq_note": "Every Week",
            "active": true
          },
          {
            "step_number": "5",
            "control_item": "Montage semelles et première de propreté : pas de traces de colle",
            "control_method": "visuel/manuel",
            "requirement": "pas de traces de colle sur le produit\nOn ne sent pas la colle en touchant le produit",
            "criticity": "Critical",
            "control_type": null,
            "supplier_control_freq_note": "weekly ( depends on number of order )",
            "supplier_controller": "AQL operator",
            "decathlon_control_freq_note": "Every Week",
            "active": true
          },
          {
            "step_number": "6",
            "control_item": "Confort et visuel : point d'arrêt sous la PP : pas de fils à coudre qui dépasse après le point d'arrêt sous les PP (inconfort)",
            "control_method": "visuel/manuel",
            "requirement": "voir défautech",
            "criticity": "Critical",
            "control_type": null,
            "supplier_control_freq_note": "weekly ( depends on number of order )",
            "supplier_controller": "AQL operator",
            "decathlon_control_freq_note": "Every Week",
            "active": true
          },
          {
            "step_number": "7",
            "control_item": "Symétrie PM et PP et semelles",
            "control_method": "visuel",
            "requirement": "les semelles / PP et PM doivent être bien centrés et symétriques",
            "criticity": "Critical",
            "control_type": null,
            "supplier_control_freq_note": "weekly ( depends on number of order )",
            "supplier_controller": "AQL operator",
            "decathlon_control_freq_note": "Every Week",
            "active": true
          },
          {
            "step_number": "8",
            "control_item": "Prise couture",
            "control_method": "respecter la DCR302A avec exception pour la baguette arrière DP woven prise à 5 mm",
            "requirement": "DCR302A",
            "criticity": "Critical",
            "control_type": null,
            "supplier_control_freq_note": "weekly ( depends on number of order )",
            "supplier_controller": "AQL operator",
            "decathlon_control_freq_note": "Every Week",
            "active": true
          },
          {
            "step_number": "9",
            "control_item": "Planéité des semelles",
            "control_method": "visuel/manuel",
            "requirement": "les semelles doivent être plates \n==> Passage presse hydrolique\n==> rajotuer épaisseurs de mousse",
            "criticity": "Critical",
            "control_type": null,
            "supplier_control_freq_note": "weekly ( depends on number of order )",
            "supplier_controller": "AQL operator",
            "decathlon_control_freq_note": "Every Week",
            "active": true
          },
          {
            "step_number": "10",
            "control_item": "Contrôle sur forme",
            "control_method": "visuel( à l'aide de traçage sur forme)+ tableau de mesure de CDC",
            "requirement": "pas de plissures \nle produit épouse bien la forme et respecte le tableau de mesures",
            "criticity": "Critical",
            "control_type": null,
            "supplier_control_freq_note": "weekly ( depends on number of order )",
            "supplier_controller": "AQL operator",
            "decathlon_control_freq_note": "Every Week",
            "active": true
          },
          {
            "step_number": "11",
            "control_item": "contrôle montage DP",
            "control_method": "visuel",
            "requirement": "les empiècements doivent être symètriques à 2 mm +/-",
            "criticity": "Critical",
            "control_type": null,
            "supplier_control_freq_note": "weekly ( depends on number of order )",
            "supplier_controller": "AQL operator",
            "decathlon_control_freq_note": "Every Week",
            "active": true
          },
          {
            "step_number": "12",
            "control_item": "DP Bi semelle cuir : le point d'arrêt ne doit pas être mis sur la partie en Lycra",
            "control_method": "visuel/manuel",
            "requirement": "DCR Spécifique sur le CDC",
            "criticity": "Critical",
            "control_type": null,
            "supplier_control_freq_note": "weekly ( depends on number of order )",
            "supplier_controller": "AQL operator",
            "decathlon_control_freq_note": "Every Week",
            "active": true
          },
          {
            "step_number": "13",
            "control_item": "Contrôler les DCR spécifiques",
            "control_method": "se baser sur le document DCR spécifique",
            "requirement": "Si DCR spécifique au modèle",
            "criticity": "Critical",
            "control_type": null,
            "supplier_control_freq_note": "weekly ( depends on number of order )",
            "supplier_controller": "AQL operator",
            "decathlon_control_freq_note": "Every Week",
            "active": true
          }
        ]
      },
      {
        "name": "Sub part general",
        "category": "Final control",
        "steps": [
          {
            "step_number": "1",
            "control_item": "Comfort",
            "control_method": null,
            "requirement": "Wearing test (1 pair), make some flexion with the shoes, check confort (No hurting wrinkles, hurting points) and shoes appearance",
            "criticity": "Major",
            "control_type": null,
            "supplier_control_freq_note": "weekly ( depends on number of order )",
            "supplier_controller": "AQL operator",
            "decathlon_control_freq_note": "Every Week",
            "active": true
          }
        ]
      },
      {
        "name": "Sub part",
        "category": "Lab test",
        "steps": [
          {
            "step_number": "1",
            "control_item": "All tests in PVC (traction, PH , abrasion, déchirure, frottement)",
            "control_method": "voir PVC test labo",
            "requirement": "voir PVC test labo",
            "criticity": "Critical",
            "control_type": null,
            "supplier_control_freq_note": "weekly ( depends on number of order )",
            "supplier_controller": "AQL operator",
            "decathlon_control_freq_note": "Every Week",
            "active": true
          },
          {
            "step_number": "2",
            "control_item": "tests couleurs (phenolic yellowing , colour fastness)",
            "control_method": "voir PVC test labo",
            "requirement": "voir PVC test labo",
            "criticity": "Critical",
            "control_type": null,
            "supplier_control_freq_note": "weekly ( depends on number of order )",
            "supplier_controller": "AQL operator",
            "decathlon_control_freq_note": "Every Week",
            "active": true
          },
          {
            "step_number": "3",
            "control_item": "tests toxico",
            "control_method": "voir MTSR toxico",
            "requirement": "voir MTSR toxico",
            "criticity": "Critical",
            "control_type": null,
            "supplier_control_freq_note": "weekly ( depends on number of order )",
            "supplier_controller": "AQL operator",
            "decathlon_control_freq_note": "Every Week",
            "active": true
          },
          {
            "step_number": "4",
            "control_item": "tests labo en prod",
            "control_method": "selon la fréquence",
            "requirement": "principalement DS348 Upper and Sole pour tous les modèles",
            "criticity": "Critical",
            "control_type": null,
            "supplier_control_freq_note": "weekly ( depends on number of order )",
            "supplier_controller": "AQL operator",
            "decathlon_control_freq_note": "Every Week",
            "active": true
          }
        ]
      }
    ]
  }
}
